{
  "XMLName": {
    "Space": "http://oval.mitre.org/XMLSchema/oval-definitions-5",
    "Local": "definition"
  },
  "ID": "oval:com.redhat.rhsa:def:20151207",
  "Class": "patch",
  "Title": "RHSA-2015:1207: firefox security update (Critical)",
  "Affecteds": [
    {
      "XMLName": {
        "Space": "http://oval.mitre.org/XMLSchema/oval-definitions-5",
        "Local": "affected"
      },
      "Family": "unix",
      "Platforms": [
        "Red Hat Enterprise Linux 7"
      ]
    }
  ],
  "References": [
    {
      "XMLName": {
        "Space": "http://oval.mitre.org/XMLSchema/oval-definitions-5",
        "Local": "reference"
      },
      "Source": "RHSA",
      "RefID": "RHSA-2015:1207",
      "RefURL": "https://access.redhat.com/errata/RHSA-2015:1207"
    },
    {
      "XMLName": {
        "Space": "http://oval.mitre.org/XMLSchema/oval-definitions-5",
        "Local": "reference"
      },
      "Source": "CVE",
      "RefID": "CVE-2015-2722",
      "RefURL": "https://access.redhat.com/security/cve/CVE-2015-2722"
    },
    {
      "XMLName": {
        "Space": "http://oval.mitre.org/XMLSchema/oval-definitions-5",
        "Local": "reference"
      },
      "Source": "CVE",
      "RefID": "CVE-2015-2724",
      "RefURL": "https://access.redhat.com/security/cve/CVE-2015-2724"
    },
    {
      "XMLName": {
        "Space": "http://oval.mitre.org/XMLSchema/oval-definitions-5",
        "Local": "reference"
      },
      "Source": "CVE",
      "RefID": "CVE-2015-2725",
      "RefURL": "https://access.redhat.com/security/cve/CVE-2015-2725"
    },
    {
      "XMLName": {
        "Space": "http://oval.mitre.org/XMLSchema/oval-definitions-5",
        "Local": "reference"
      },
      "Source": "CVE",
      "RefID": "CVE-2015-2727",
      "RefURL": "https://access.redhat.com/security/cve/CVE-2015-2727"
    },
    {
      "XMLName": {
        "Space": "http://oval.mitre.org/XMLSchema/oval-definitions-5",
        "Local": "reference"
      },
      "Source": "CVE",
      "RefID": "CVE-2015-2728",
      "RefURL": "https://access.redhat.com/security/cve/CVE-2015-2728"
    },
    {
      "XMLName": {
        "Space": "http://oval.mitre.org/XMLSchema/oval-definitions-5",
        "Local": "reference"
      },
      "Source": "CVE",
      "RefID": "CVE-2015-2729",
      "RefURL": "https://access.redhat.com/security/cve/CVE-2015-2729"
    },
    {
      "XMLName": {
        "Space": "http://oval.mitre.org/XMLSchema/oval-definitions-5",
        "Local": "reference"
      },
      "Source": "CVE",
      "RefID": "CVE-2015-2731",
      "RefURL": "https://access.redhat.com/security/cve/CVE-2015-2731"
    },
    {
      "XMLName": {
        "Space": "http://oval.mitre.org/XMLSchema/oval-definitions-5",
        "Local": "reference"
      },
      "Source": "CVE",
      "RefID": "CVE-2015-2733",
      "RefURL": "https://access.redhat.com/security/cve/CVE-2015-2733"
    },
    {
      "XMLName": {
        "Space": "http://oval.mitre.org/XMLSchema/oval-definitions-5",
        "Local": "reference"
      },
      "Source": "CVE",
      "RefID": "CVE-2015-2734",
      "RefURL": "https://access.redhat.com/security/cve/CVE-2015-2734"
    },
    {
      "XMLName": {
        "Space": "http://oval.mitre.org/XMLSchema/oval-definitions-5",
        "Local": "reference"
      },
      "Source": "CVE",
      "RefID": "CVE-2015-2735",
      "RefURL": "https://access.redhat.com/security/cve/CVE-2015-2735"
    },
    {
      "XMLName": {
        "Space": "http://oval.mitre.org/XMLSchema/oval-definitions-5",
        "Local": "reference"
      },
      "Source": "CVE",
      "RefID": "CVE-2015-2736",
      "RefURL": "https://access.redhat.com/security/cve/CVE-2015-2736"
    },
    {
      "XMLName": {
        "Space": "http://oval.mitre.org/XMLSchema/oval-definitions-5",
        "Local": "reference"
      },
      "Source": "CVE",
      "RefID": "CVE-2015-2737",
      "RefURL": "https://access.redhat.com/security/cve/CVE-2015-2737"
    },
    {
      "XMLName": {
        "Space": "http://oval.mitre.org/XMLSchema/oval-definitions-5",
        "Local": "reference"
      },
      "Source": "CVE",
      "RefID": "CVE-2015-2738",
      "RefURL": "https://access.redhat.com/security/cve/CVE-2015-2738"
    },
    {
      "XMLName": {
        "Space": "http://oval.mitre.org/XMLSchema/oval-definitions-5",
        "Local": "reference"
      },
      "Source": "CVE",
      "RefID": "CVE-2015-2739",
      "RefURL": "https://access.redhat.com/security/cve/CVE-2015-2739"
    },
    {
      "XMLName": {
        "Space": "http://oval.mitre.org/XMLSchema/oval-definitions-5",
        "Local": "reference"
      },
      "Source": "CVE",
      "RefID": "CVE-2015-2740",
      "RefURL": "https://access.redhat.com/security/cve/CVE-2015-2740"
    },
    {
      "XMLName": {
        "Space": "http://oval.mitre.org/XMLSchema/oval-definitions-5",
        "Local": "reference"
      },
      "Source": "CVE",
      "RefID": "CVE-2015-2741",
      "RefURL": "https://access.redhat.com/security/cve/CVE-2015-2741"
    },
    {
      "XMLName": {
        "Space": "http://oval.mitre.org/XMLSchema/oval-definitions-5",
        "Local": "reference"
      },
      "Source": "CVE",
      "RefID": "CVE-2015-2743",
      "RefURL": "https://access.redhat.com/security/cve/CVE-2015-2743"
    }
  ],
  "Description": "Mozilla Firefox is an open source web browser. XULRunner provides the XUL\nRuntime environment for Mozilla Firefox.\n\nSeveral flaws were found in the processing of malformed web content. A web\npage containing malicious content could cause Firefox to crash or,\npotentially, execute arbitrary code with the privileges of the user running\nFirefox. (CVE-2015-2724, CVE-2015-2725, CVE-2015-2722, CVE-2015-2727,\nCVE-2015-2728, CVE-2015-2729, CVE-2015-2731, CVE-2015-2733, CVE-2015-2734,\nCVE-2015-2735, CVE-2015-2736, CVE-2015-2737, CVE-2015-2738, CVE-2015-2739,\nCVE-2015-2740)\n\nIt was found that Firefox skipped key-pinning checks when handling an error\nthat could be overridden by the user (for example an expired certificate\nerror). This flaw allowed a user to override a pinned certificate, which is\nan action the user should not be able to perform. (CVE-2015-2741)\n\nA flaw was discovered in Mozilla's PDF.js PDF file viewer. When combined\nwith another vulnerability, it could allow execution of arbitrary code with\nthe privileges of the user running Firefox. (CVE-2015-2743)\n\nRed Hat would like to thank the Mozilla project for reporting these issues.\nUpstream acknowledges Bob Clary, Christian Holler, Bobby Holley, Andrew\nMcCreight, Terrence Cole, Steve Fink, Mats Palmgren, Wes Kocher, Andreas\nPehrson, Jann Horn, Paul Bandha, Holger Fuhrmannek, Herre, Looben Yan,\nRonald Crane, and Jonas Jenwald as the original reporters of these issues.\n\nAll Firefox users should upgrade to these updated packages, which contain\nFirefox version 38.1 ESR, which corrects these issues. After installing the\nupdate, Firefox must be restarted for the changes to take effect.",
  "Advisory": {
    "XMLName": {
      "Space": "http://oval.mitre.org/XMLSchema/oval-definitions-5",
      "Local": "advisory"
    },
    "Severity": "Critical",
    "Cves": [
      {
        "XMLName": {
          "Space": "http://oval.mitre.org/XMLSchema/oval-definitions-5",
          "Local": "cve"
        },
        "CveID": "CVE-2015-2722",
        "Cvss2": "6.8/AV:N/AC:M/Au:N/C:P/I:P/A:P",
        "Cvss3": "",
        "Cwe": "CWE-416",
        "Impact": "",
        "Href": "https://access.redhat.com/security/cve/CVE-2015-2722",
        "Public": "20150702"
      },
      {
        "XMLName": {
          "Space": "http://oval.mitre.org/XMLSchema/oval-definitions-5",
          "Local": "cve"
        },
        "CveID": "CVE-2015-2724",
        "Cvss2": "6.8/AV:N/AC:M/Au:N/C:P/I:P/A:P",
        "Cvss3": "",
        "Cwe": "",
        "Impact": "",
        "Href": "https://access.redhat.com/security/cve/CVE-2015-2724",
        "Public": "20150702"
      },
      {
        "XMLName": {
          "Space": "http://oval.mitre.org/XMLSchema/oval-definitions-5",
          "Local": "cve"
        },
        "CveID": "CVE-2015-2725",
        "Cvss2": "6.8/AV:N/AC:M/Au:N/C:P/I:P/A:P",
        "Cvss3": "",
        "Cwe": "",
        "Impact": "",
        "Href": "https://access.redhat.com/security/cve/CVE-2015-2725",
        "Public": "20150702"
      },
      {
        "XMLName": {
          "Space": "http://oval.mitre.org/XMLSchema/oval-definitions-5",
          "Local": "cve"
        },
        "CveID": "CVE-2015-2727",
        "Cvss2": "5.1/AV:N/AC:H/Au:N/C:P/I:P/A:P",
        "Cvss3": "",
        "Cwe": "",
        "Impact": "moderate",
        "Href": "https://access.redhat.com/security/cve/CVE-2015-2727",
        "Public": "20150702"
      },
      {
        "XMLName": {
          "Space": "http://oval.mitre.org/XMLSchema/oval-definitions-5",
          "Local": "cve"
        },
        "CveID": "CVE-2015-2728",
        "Cvss2": "5.1/AV:N/AC:H/Au:N/C:P/I:P/A:P",
        "Cvss3": "",
        "Cwe": "CWE-843",
        "Impact": "moderate",
        "Href": "https://access.redhat.com/security/cve/CVE-2015-2728",
        "Public": "20150702"
      },
      {
        "XMLName": {
          "Space": "http://oval.mitre.org/XMLSchema/oval-definitions-5",
          "Local": "cve"
        },
        "CveID": "CVE-2015-2729",
        "Cvss2": "5.1/AV:N/AC:H/Au:N/C:P/I:P/A:P",
        "Cvss3": "",
        "Cwe": "CWE-125",
        "Impact": "moderate",
        "Href": "https://access.redhat.com/security/cve/CVE-2015-2729",
        "Public": "20150702"
      },
      {
        "XMLName": {
          "Space": "http://oval.mitre.org/XMLSchema/oval-definitions-5",
          "Local": "cve"
        },
        "CveID": "CVE-2015-2731",
        "Cvss2": "6.8/AV:N/AC:M/Au:N/C:P/I:P/A:P",
        "Cvss3": "",
        "Cwe": "CWE-416",
        "Impact": "",
        "Href": "https://access.redhat.com/security/cve/CVE-2015-2731",
        "Public": "20150702"
      },
      {
        "XMLName": {
          "Space": "http://oval.mitre.org/XMLSchema/oval-definitions-5",
          "Local": "cve"
        },
        "CveID": "CVE-2015-2733",
        "Cvss2": "6.8/AV:N/AC:M/Au:N/C:P/I:P/A:P",
        "Cvss3": "",
        "Cwe": "CWE-416",
        "Impact": "",
        "Href": "https://access.redhat.com/security/cve/CVE-2015-2733",
        "Public": "20150702"
      },
      {
        "XMLName": {
          "Space": "http://oval.mitre.org/XMLSchema/oval-definitions-5",
          "Local": "cve"
        },
        "CveID": "CVE-2015-2734",
        "Cvss2": "6.8/AV:N/AC:M/Au:N/C:P/I:P/A:P",
        "Cvss3": "",
        "Cwe": "",
        "Impact": "",
        "Href": "https://access.redhat.com/security/cve/CVE-2015-2734",
        "Public": "20150702"
      },
      {
        "XMLName": {
          "Space": "http://oval.mitre.org/XMLSchema/oval-definitions-5",
          "Local": "cve"
        },
        "CveID": "CVE-2015-2735",
        "Cvss2": "6.8/AV:N/AC:M/Au:N/C:P/I:P/A:P",
        "Cvss3": "",
        "Cwe": "",
        "Impact": "",
        "Href": "https://access.redhat.com/security/cve/CVE-2015-2735",
        "Public": "20150702"
      },
      {
        "XMLName": {
          "Space": "http://oval.mitre.org/XMLSchema/oval-definitions-5",
          "Local": "cve"
        },
        "CveID": "CVE-2015-2736",
        "Cvss2": "6.8/AV:N/AC:M/Au:N/C:P/I:P/A:P",
        "Cvss3": "",
        "Cwe": "",
        "Impact": "",
        "Href": "https://access.redhat.com/security/cve/CVE-2015-2736",
        "Public": "20150702"
      },
      {
        "XMLName": {
          "Space": "http://oval.mitre.org/XMLSchema/oval-definitions-5",
          "Local": "cve"
        },
        "CveID": "CVE-2015-2737",
        "Cvss2": "6.8/AV:N/AC:M/Au:N/C:P/I:P/A:P",
        "Cvss3": "",
        "Cwe": "",
        "Impact": "",
        "Href": "https://access.redhat.com/security/cve/CVE-2015-2737",
        "Public": "20150702"
      },
      {
        "XMLName": {
          "Space": "http://oval.mitre.org/XMLSchema/oval-definitions-5",
          "Local": "cve"
        },
        "CveID": "CVE-2015-2738",
        "Cvss2": "6.8/AV:N/AC:M/Au:N/C:P/I:P/A:P",
        "Cvss3": "",
        "Cwe": "",
        "Impact": "",
        "Href": "https://access.redhat.com/security/cve/CVE-2015-2738",
        "Public": "20150702"
      },
      {
        "XMLName": {
          "Space": "http://oval.mitre.org/XMLSchema/oval-definitions-5",
          "Local": "cve"
        },
        "CveID": "CVE-2015-2739",
        "Cvss2": "6.8/AV:N/AC:M/Au:N/C:P/I:P/A:P",
        "Cvss3": "",
        "Cwe": "",
        "Impact": "",
        "Href": "https://access.redhat.com/security/cve/CVE-2015-2739",
        "Public": "20150702"
      },
      {
        "XMLName": {
          "Space": "http://oval.mitre.org/XMLSchema/oval-definitions-5",
          "Local": "cve"
        },
        "CveID": "CVE-2015-2740",
        "Cvss2": "6.8/AV:N/AC:M/Au:N/C:P/I:P/A:P",
        "Cvss3": "",
        "Cwe": "",
        "Impact": "",
        "Href": "https://access.redhat.com/security/cve/CVE-2015-2740",
        "Public": "20150702"
      },
      {
        "XMLName": {
          "Space": "http://oval.mitre.org/XMLSchema/oval-definitions-5",
          "Local": "cve"
        },
        "CveID": "CVE-2015-2741",
        "Cvss2": "4.3/AV:N/AC:M/Au:N/C:P/I:N/A:N",
        "Cvss3": "",
        "Cwe": "",
        "Impact": "moderate",
        "Href": "https://access.redhat.com/security/cve/CVE-2015-2741",
        "Public": "20150702"
      },
      {
        "XMLName": {
          "Space": "http://oval.mitre.org/XMLSchema/oval-definitions-5",
          "Local": "cve"
        },
        "CveID": "CVE-2015-2743",
        "Cvss2": "5.1/AV:N/AC:H/Au:N/C:P/I:P/A:P",
        "Cvss3": "",
        "Cwe": "CWE-250",
        "Impact": "moderate",
        "Href": "https://access.redhat.com/security/cve/CVE-2015-2743",
        "Public": "20150702"
      }
    ],
    "Bugzillas": [
      {
        "XMLName": {
          "Space": "http://oval.mitre.org/XMLSchema/oval-definitions-5",
          "Local": "bugzilla"
        },
        "ID": "1236947",
        "URL": "https://bugzilla.redhat.com/1236947",
        "Title": "CVE-2015-2724 CVE-2015-2725 Mozilla: Miscellaneous memory safety hazards (rv:31.8 / rv:38.1) (MFSA 2015-59)"
      },
      {
        "XMLName": {
          "Space": "http://oval.mitre.org/XMLSchema/oval-definitions-5",
          "Local": "bugzilla"
        },
        "ID": "1236950",
        "URL": "https://bugzilla.redhat.com/1236950",
        "Title": "CVE-2015-2727 Mozilla: Local files or privileged URLs in pages can be opened into new tabs (MFSA 2015-60)"
      },
      {
        "XMLName": {
          "Space": "http://oval.mitre.org/XMLSchema/oval-definitions-5",
          "Local": "bugzilla"
        },
        "ID": "1236951",
        "URL": "https://bugzilla.redhat.com/1236951",
        "Title": "CVE-2015-2728 Mozilla: Type confusion in Indexed Database Manager (MFSA 2015-61)"
      },
      {
        "XMLName": {
          "Space": "http://oval.mitre.org/XMLSchema/oval-definitions-5",
          "Local": "bugzilla"
        },
        "ID": "1236952",
        "URL": "https://bugzilla.redhat.com/1236952",
        "Title": "CVE-2015-2729 Mozilla: Out-of-bound read while computing an oscillator rendering range in Web Audio (MFSA 2015-62)"
      },
      {
        "XMLName": {
          "Space": "http://oval.mitre.org/XMLSchema/oval-definitions-5",
          "Local": "bugzilla"
        },
        "ID": "1236953",
        "URL": "https://bugzilla.redhat.com/1236953",
        "Title": "CVE-2015-2731 Mozilla: Use-after-free in Content Policy due to microtask execution error (MFSA 2015-63)"
      },
      {
        "XMLName": {
          "Space": "http://oval.mitre.org/XMLSchema/oval-definitions-5",
          "Local": "bugzilla"
        },
        "ID": "1236955",
        "URL": "https://bugzilla.redhat.com/1236955",
        "Title": "CVE-2015-2722 CVE-2015-2733 Mozilla: Use-after-free in workers while using XMLHttpRequest (MFSA 2015-65)"
      },
      {
        "XMLName": {
          "Space": "http://oval.mitre.org/XMLSchema/oval-definitions-5",
          "Local": "bugzilla"
        },
        "ID": "1236956",
        "URL": "https://bugzilla.redhat.com/1236956",
        "Title": "CVE-2015-2734 CVE-2015-2735 CVE-2015-2736 CVE-2015-2737 CVE-2015-2738 CVE-2015-2739 CVE-2015-2740 Mozilla: Vulnerabilities found through code inspection (MFSA 2015-66)"
      },
      {
        "XMLName": {
          "Space": "http://oval.mitre.org/XMLSchema/oval-definitions-5",
          "Local": "bugzilla"
        },
        "ID": "1236963",
        "URL": "https://bugzilla.redhat.com/1236963",
        "Title": "CVE-2015-2741 Mozilla: Key pinning is ignored when overridable errors are encountered (MFSA 2015-67)"
      },
      {
        "XMLName": {
          "Space": "http://oval.mitre.org/XMLSchema/oval-definitions-5",
          "Local": "bugzilla"
        },
        "ID": "1236964",
        "URL": "https://bugzilla.redhat.com/1236964",
        "Title": "CVE-2015-2743 Mozilla: Privilege escalation through internal workers (MFSA 2015-69)"
      }
    ],
    "AffectedCPEList": [
      "cpe:/o:redhat:enterprise_linux:7",
      "cpe:/o:redhat:enterprise_linux:7::client",
      "cpe:/o:redhat:enterprise_linux:7::server",
      "cpe:/o:redhat:enterprise_linux:7::workstation"
    ],
    "Issued": {
      "Date": "2015-07-03"
    },
    "Updated": {
      "Date": "2015-07-03"
    }
  },
  "Criteria": {
    "XMLName": {
      "Space": "http://oval.mitre.org/XMLSchema/oval-definitions-5",
      "Local": "criteria"
    },
    "Operator": "OR",
    "Criterias": [
      {
        "XMLName": {
          "Space": "http://oval.mitre.org/XMLSchema/oval-definitions-5",
          "Local": "criteria"
        },
        "Operator": "AND",
        "Criterias": null,
        "Criterions": [
          {
            "XMLName": {
              "Space": "http://oval.mitre.org/XMLSchema/oval-definitions-5",
              "Local": "criterion"
            },
            "Negate": false,
            "TestRef": "oval:com.redhat.rhba:tst:20150364027",
            "Comment": "Red Hat Enterprise Linux 7 is installed"
          },
          {
            "XMLName": {
              "Space": "http://oval.mitre.org/XMLSchema/oval-definitions-5",
              "Local": "criterion"
            },
            "Negate": false,
            "TestRef": "oval:com.redhat.rhsa:tst:20151207001",
            "Comment": "firefox is earlier than 0:38.1.0-1.el7_1"
          },
          {
            "XMLName": {
              "Space": "http://oval.mitre.org/XMLSchema/oval-definitions-5",
              "Local": "criterion"
            },
            "Negate": false,
            "TestRef": "oval:com.redhat.rhsa:tst:20140741002",
            "Comment": "firefox is signed with Red Hat redhatrelease2 key"
          }
        ]
      }
    ],
    "Criterions": [
      {
        "XMLName": {
          "Space": "http://oval.mitre.org/XMLSchema/oval-definitions-5",
          "Local": "criterion"
        },
        "Negate": false,
        "TestRef": "oval:com.redhat.rhba:tst:20150364028",
        "Comment": "Red Hat Enterprise Linux must be installed"
      }
    ]
  }
}