{
  "Title": "Security update for ark",
  "Tracking": {
    "ID": "openSUSE-SU-2020:1310-2",
    "Status": "Final",
    "Version": "1",
    "InitialReleaseDate": "2020-09-01T04:22:38Z",
    "CurrentReleaseDate": "2020-09-01T04:22:38Z",
    "RevisionHistory": [
      {
        "Number": "1",
        "Date": "2020-09-01T04:22:38Z",
        "Description": "current"
      }
    ]
  },
  "Notes": [
    {
      "Text": "Security update for ark",
      "Title": "Topic",
      "Type": "Summary"
    },
    {
      "Text": "This update for ark fixes the following issues:\n\n- CVE-2020-24654: maliciously crafted TAR archive can install files outside the extraction directory (boo#1175857)\t  \n",
      "Title": "Details",
      "Type": "General"
    },
    {
      "Text": "The CVRF data is provided by SUSE under the Creative Commons License 4.0 with Attribution for Non-Commercial usage (CC-BY-NC-4.0).",
      "Title": "Terms of Use",
      "Type": "Legal Disclaimer"
    }
  ],
  "ProductTree": {
    "Relationships": [
      {
        "ProductReference": "ark-20.04.2-lp152.2.6.1",
        "RelatesToProductReference": "openSUSE Leap 15.1",
        "RelationType": "Default Component Of"
      },
      {
        "ProductReference": "ark-lang-20.04.2-lp152.2.6.1",
        "RelatesToProductReference": "openSUSE Leap 15.1",
        "RelationType": "Default Component Of"
      },
      {
        "ProductReference": "libkerfuffle18-18.12.3-lp151.2.7.1",
        "RelatesToProductReference": "openSUSE Leap 15.1",
        "RelationType": "Default Component Of"
      },
      {
        "ProductReference": "libkerfuffle20-20.04.2-lp152.2.6.1",
        "RelatesToProductReference": "openSUSE Leap 15.1",
        "RelationType": "Default Component Of"
      },
      {
        "ProductReference": "ark-20.04.2-lp152.2.6.1",
        "RelatesToProductReference": "openSUSE Leap 15.2",
        "RelationType": "Default Component Of"
      },
      {
        "ProductReference": "ark-lang-20.04.2-lp152.2.6.1",
        "RelatesToProductReference": "openSUSE Leap 15.2",
        "RelationType": "Default Component Of"
      },
      {
        "ProductReference": "libkerfuffle18-18.12.3-lp151.2.7.1",
        "RelatesToProductReference": "openSUSE Leap 15.2",
        "RelationType": "Default Component Of"
      },
      {
        "ProductReference": "libkerfuffle20-20.04.2-lp152.2.6.1",
        "RelatesToProductReference": "openSUSE Leap 15.2",
        "RelationType": "Default Component Of"
      }
    ]
  },
  "References": [
    {
      "URL": "http://lists.opensuse.org/opensuse-security-announce/2020-09/msg00046.html",
      "Description": "E-Mail link for openSUSE-SU-2020:1310-2"
    },
    {
      "URL": "https://www.suse.com/support/security/rating/",
      "Description": "SUSE Security Ratings"
    }
  ],
  "Vulnerabilities": [
    {
      "CVE": "CVE-2020-24654",
      "Description": "In KDE Ark before 20.08.1, a crafted TAR archive with symlinks can install files outside the extraction directory, as demonstrated by a write operation to a user's home directory.",
      "Threats": [
        {
          "Type": "Impact",
          "Severity": "moderate"
        }
      ],
      "References": [
        {
          "URL": "https://www.suse.com/security/cve/CVE-2020-24654.html",
          "Description": "CVE-2020-24654"
        }
      ],
      "ProductStatuses": [
        {
          "Type": "Fixed",
          "ProductID": [
            "openSUSE Leap 15.1:ark-20.04.2-lp152.2.6.1",
            "openSUSE Leap 15.1:ark-lang-20.04.2-lp152.2.6.1",
            "openSUSE Leap 15.1:libkerfuffle18-18.12.3-lp151.2.7.1",
            "openSUSE Leap 15.1:libkerfuffle20-20.04.2-lp152.2.6.1",
            "openSUSE Leap 15.2:ark-20.04.2-lp152.2.6.1",
            "openSUSE Leap 15.2:ark-lang-20.04.2-lp152.2.6.1",
            "openSUSE Leap 15.2:libkerfuffle18-18.12.3-lp151.2.7.1",
            "openSUSE Leap 15.2:libkerfuffle20-20.04.2-lp152.2.6.1"
          ]
        }
      ],
      "CVSSScoreSets": {}
    }
  ]
}