{
  "Title": "Security update for curl",
  "Tracking": {
    "ID": "openSUSE-SU-2020:1494-1",
    "Status": "Final",
    "Version": "1",
    "InitialReleaseDate": "2020-09-21T10:30:47Z",
    "CurrentReleaseDate": "2020-09-21T10:30:47Z",
    "RevisionHistory": [
      {
        "Number": "1",
        "Date": "2020-09-21T10:30:47Z",
        "Description": "current"
      }
    ]
  },
  "Notes": [
    {
      "Text": "Security update for curl",
      "Title": "Topic",
      "Type": "Summary"
    },
    {
      "Text": "This update for curl fixes the following issues:\n\n- An application that performs multiple requests with libcurl's\n  multi API and sets the 'CURLOPT_CONNECT_ONLY' option, might in\n  rare circumstances experience that when subsequently using the\n  setup connect-only transfer, libcurl will pick and use the wrong\n  connection and instead pick another one the application has\n  created since then. [bsc#1175109, CVE-2020-8231]\n\nThis update was imported from the SUSE:SLE-15-SP2:Update update project.",
      "Title": "Details",
      "Type": "General"
    },
    {
      "Text": "The CVRF data is provided by SUSE under the Creative Commons License 4.0 with Attribution for Non-Commercial usage (CC-BY-NC-4.0).",
      "Title": "Terms of Use",
      "Type": "Legal Disclaimer"
    }
  ],
  "ProductTree": {
    "Relationships": [
      {
        "ProductReference": "curl-7.66.0-lp152.3.9.1",
        "RelatesToProductReference": "openSUSE Leap 15.2",
        "RelationType": "Default Component Of"
      },
      {
        "ProductReference": "curl-mini-7.66.0-lp152.3.9.1",
        "RelatesToProductReference": "openSUSE Leap 15.2",
        "RelationType": "Default Component Of"
      },
      {
        "ProductReference": "libcurl-devel-7.66.0-lp152.3.9.1",
        "RelatesToProductReference": "openSUSE Leap 15.2",
        "RelationType": "Default Component Of"
      },
      {
        "ProductReference": "libcurl-devel-32bit-7.66.0-lp152.3.9.1",
        "RelatesToProductReference": "openSUSE Leap 15.2",
        "RelationType": "Default Component Of"
      },
      {
        "ProductReference": "libcurl-mini-devel-7.66.0-lp152.3.9.1",
        "RelatesToProductReference": "openSUSE Leap 15.2",
        "RelationType": "Default Component Of"
      },
      {
        "ProductReference": "libcurl4-7.66.0-lp152.3.9.1",
        "RelatesToProductReference": "openSUSE Leap 15.2",
        "RelationType": "Default Component Of"
      },
      {
        "ProductReference": "libcurl4-32bit-7.66.0-lp152.3.9.1",
        "RelatesToProductReference": "openSUSE Leap 15.2",
        "RelationType": "Default Component Of"
      },
      {
        "ProductReference": "libcurl4-mini-7.66.0-lp152.3.9.1",
        "RelatesToProductReference": "openSUSE Leap 15.2",
        "RelationType": "Default Component Of"
      }
    ]
  },
  "References": [
    {
      "URL": "http://lists.opensuse.org/opensuse-security-announce/2020-09/msg00069.html",
      "Description": "E-Mail link for openSUSE-SU-2020:1494-1"
    },
    {
      "URL": "https://www.suse.com/support/security/rating/",
      "Description": "SUSE Security Ratings"
    }
  ],
  "Vulnerabilities": [
    {
      "CVE": "CVE-2020-8231",
      "Description": "** RESERVED ** This candidate has been reserved by an organization or individual that will use it when announcing a new security problem. When the candidate has been publicized, the details for this candidate will be provided.",
      "Threats": [
        {
          "Type": "Impact",
          "Severity": "moderate"
        }
      ],
      "References": [
        {
          "URL": "https://www.suse.com/security/cve/CVE-2020-8231.html",
          "Description": "CVE-2020-8231"
        },
        {
          "URL": "https://bugzilla.suse.com/1175109",
          "Description": "SUSE Bug 1175109"
        },
        {
          "URL": "https://bugzilla.suse.com/1179399",
          "Description": "SUSE Bug 1179399"
        }
      ],
      "ProductStatuses": [
        {
          "Type": "Fixed",
          "ProductID": [
            "openSUSE Leap 15.2:curl-7.66.0-lp152.3.9.1",
            "openSUSE Leap 15.2:curl-mini-7.66.0-lp152.3.9.1",
            "openSUSE Leap 15.2:libcurl-devel-32bit-7.66.0-lp152.3.9.1",
            "openSUSE Leap 15.2:libcurl-devel-7.66.0-lp152.3.9.1",
            "openSUSE Leap 15.2:libcurl-mini-devel-7.66.0-lp152.3.9.1",
            "openSUSE Leap 15.2:libcurl4-32bit-7.66.0-lp152.3.9.1",
            "openSUSE Leap 15.2:libcurl4-7.66.0-lp152.3.9.1",
            "openSUSE Leap 15.2:libcurl4-mini-7.66.0-lp152.3.9.1"
          ]
        }
      ],
      "CVSSScoreSets": {}
    }
  ]
}