{
  "Title": "Security update for vlc",
  "Tracking": {
    "ID": "openSUSE-SU-2020:0545-1",
    "Status": "Final",
    "Version": "1",
    "InitialReleaseDate": "2020-04-23T08:12:41Z",
    "CurrentReleaseDate": "2020-04-23T08:12:41Z",
    "RevisionHistory": [
      {
        "Number": "1",
        "Date": "2020-04-23T08:12:41Z",
        "Description": "current"
      }
    ]
  },
  "Notes": [
    {
      "Text": "Security update for vlc",
      "Title": "Topic",
      "Type": "Summary"
    },
    {
      "Text": "This update for vlc fixes the following issues:\n\nvlc was updated to version 3.0.9.2:\n\n+ Misc: Properly bump the version in configure.ac.\n\nChanges from version 3.0.9.1:\n\n+ Misc: Fix VLSub returning 401 for earch request.\n\nChanges from version 3.0.9:\n\n+ Core: Work around busy looping when playing an invalid item\n  through VLM.\n+ Access:\n  * Multiple dvdread and dvdnav crashs fixes\n  * Fixed DVD glitches on clip change\n  * Fixed dvdread commands/data sequence inversion in some cases causing\n    unwanted glitches\n  * Better handling of authored as corrupted DVD\n  * Added libsmb2 support for SMB2/3 shares\n+ Demux:\n  * Fix TTML entities not passed to decoder\n  * Fixed some WebVTT styling tags being not applied\n  * Misc raw H264/HEVC frame rate fixes\n  * Fix adaptive regression on TS format change (mostly HLS)\n  * Fixed MP4 regression with twos/sowt PCM audio\n  * Fixed some MP4 raw quicktime and ms-PCM audio\n  * Fixed MP4 interlacing handling\n  * Multiple adaptive stack (DASH/HLS/Smooth) fixes\n  * Enabled Live seeking for HLS\n  * Fixed seeking in some cases for HLS\n  * Improved Live playback for Smooth and DASH\n  * Fixed adaptive unwanted end of stream in some cases\n  * Faster adaptive start and new buffering control options\n+ Packetizers:\n  * Fixes H264/HEVC incomplete draining in some cases\n  * packetizer_helper: Fix potential trailing junk on last packet\n  * Added missing drain in packetizers that was causing missing\n    last frame or audio\n  * Improved check to prevent fLAC synchronization drops\n+ Decoder:\n  * avcodec: revector video decoder to fix incomplete drain\n  * spudec: implemented palette updates, fixing missing subtitles\n    on some DVD\n  * Fixed WebVTT CSS styling not being applied on Windows/macOS\n  * Fixed Hebrew teletext pages support in zvbi\n  * Fixed Dav1d aborting decoding on corrupted picture\n  * Extract and display of all CEA708 subtitles\n  * Update libfaad to 2.9.1\n  * Add DXVA support for VP9 Profile 2 (10 bits)\n  * Mediacodec aspect ratio with Amazon devices\n+ Audio output:\n  * Added support for iOS audiounit audio above 48KHz\n  * Added support for amem audio up to 384KHz\n+ Video output:\n  * Fix for opengl glitches in some drivers\n  * Fix GMA950 opengl support on macOS\n  * YUV to RGB StretchRect fixes with NVIDIA drivers\n  * Use libpacebo new tone mapping desaturation algorithm\n+ Text renderer:\n  * Fix crashes on macOS with SSA/ASS subtitles containing emoji\n  * Fixed unwanted growing background in Freetype rendering and Y padding\n+ Mux: Fixed some YUV mappings\n+ Service Discovery: Update libmicrodns to 0.1.2.\n+ Misc:\n  * Update YouTube, SoundCloud and Vocaroo scripts: this restores\n    playback of YouTube URLs.\n  * Add missing .wpl \u0026 .zpl file associations on Windows\n  * Improved chromecast audio quality\n\nUpdate to version 3.0.8 'vetinari':\n\n+ Fix stuttering for low framerate videos\n+ Improve adaptive streaming\n+ Improve audio output for external audio devices on macOS/iOS\n+ Fix hardware acceleration with Direct3D11 for some AMD drivers\n+ Fix WebVTT subtitles rendering\n+ Vetinari is a major release changing a lot in the media engine of VLC.\n  It is one of the largest release we've ever done.\n  Notably, it:\n   - activates hardware decoding on all platforms, of H.264 \u0026 H.265, 8 \u0026 10bits,\n     allowing 4K60 or even 8K decoding with little CPU consumption,\n   - merges all the code from the mobile ports into the same codebase with\n     common numbering and releases,\n   - supports 360 video and 3D audio, and prepares for VR content,\n   - supports direct HDR and HDR tone-mapping,\n   - updates the audio passthrough for HD Audio codecs,\n   - allows browsing of local network drives like SMB, FTP, SFTP, NFS...\n   - stores the passwords securely,\n   - brings a new subtitle rendering engine, supporting ComplexTextLayout\n     and font fallback to support multiple languages and fonts,\n   - supports ChromeCast with the new renderer framework,\n   - adds support for numerous new formats and codecs, including WebVTT,\n     AV1, TTML, HQX, 708, Cineform, and many more,\n   - improves Bluray support with Java menus, aka BD-J,\n   - updates the macOS interface with major cleaning and improvements,\n   - support HiDPI UI on Windows, with the switch to Qt5,\n   - prepares the experimental support for Wayland on Linux, and\n     switches to OpenGL by default on Linux.\n+ Security fixes included:\n  * Fix a buffer overflow in the MKV demuxer (CVE-2019-14970)\n  * Fix a read buffer overflow in the avcodec decoder (CVE-2019-13962)\n  * Fix a read buffer overflow in the FAAD decoder\n  * Fix a read buffer overflow in the OGG demuxer (CVE-2019-14437, CVE-2019-14438)\n  * Fix a read buffer overflow in the ASF demuxer (CVE-2019-14776)\n  * Fix a use after free in the MKV demuxer (CVE-2019-14777, CVE-2019-14778)\n  * Fix a use after free in the ASF demuxer (CVE-2019-14533)\n  * Fix a couple of integer underflows in the MP4 demuxer (CVE-2019-13602)\n  * Fix a null dereference in the dvdnav demuxer\n  * Fix a null dereference in the ASF demuxer (CVE-2019-14534)\n  * Fix a null dereference in the AVI demuxer\n  * Fix a division by zero in the CAF demuxer (CVE-2019-14498)\n  * Fix a division by zero in the ASF demuxer (CVE-2019-14535)\n- Disbale mod-plug for the time being: libmodplug 0.8.9 is not yet available.\n\n- Disable SDL_image (SDL 1.2) based codec. It is only a wrapper around some\n  image loading libraries (libpng, libjpeg, ...) which are either wrapped\n  by vlc itself (libpng_plugin.so) or via libavcodec (libavcodec_plugin.so).\n",
      "Title": "Details",
      "Type": "General"
    },
    {
      "Text": "The CVRF data is provided by SUSE under the Creative Commons License 4.0 with Attribution for Non-Commercial usage (CC-BY-NC-4.0).",
      "Title": "Terms of Use",
      "Type": "Legal Disclaimer"
    }
  ],
  "ProductTree": {
    "Relationships": [
      {
        "ProductReference": "libvlc5-3.0.9.2-lp151.6.6.1",
        "RelatesToProductReference": "openSUSE Leap 15.1",
        "RelationType": "Default Component Of"
      },
      {
        "ProductReference": "libvlccore9-3.0.9.2-lp151.6.6.1",
        "RelatesToProductReference": "openSUSE Leap 15.1",
        "RelationType": "Default Component Of"
      },
      {
        "ProductReference": "vlc-3.0.9.2-lp151.6.6.1",
        "RelatesToProductReference": "openSUSE Leap 15.1",
        "RelationType": "Default Component Of"
      },
      {
        "ProductReference": "vlc-codec-gstreamer-3.0.9.2-lp151.6.6.1",
        "RelatesToProductReference": "openSUSE Leap 15.1",
        "RelationType": "Default Component Of"
      },
      {
        "ProductReference": "vlc-devel-3.0.9.2-lp151.6.6.1",
        "RelatesToProductReference": "openSUSE Leap 15.1",
        "RelationType": "Default Component Of"
      },
      {
        "ProductReference": "vlc-jack-3.0.9.2-lp151.6.6.1",
        "RelatesToProductReference": "openSUSE Leap 15.1",
        "RelationType": "Default Component Of"
      },
      {
        "ProductReference": "vlc-lang-3.0.9.2-lp151.6.6.1",
        "RelatesToProductReference": "openSUSE Leap 15.1",
        "RelationType": "Default Component Of"
      },
      {
        "ProductReference": "vlc-noX-3.0.9.2-lp151.6.6.1",
        "RelatesToProductReference": "openSUSE Leap 15.1",
        "RelationType": "Default Component Of"
      },
      {
        "ProductReference": "vlc-opencv-3.0.9.2-lp151.6.6.1",
        "RelatesToProductReference": "openSUSE Leap 15.1",
        "RelationType": "Default Component Of"
      },
      {
        "ProductReference": "vlc-qt-3.0.9.2-lp151.6.6.1",
        "RelatesToProductReference": "openSUSE Leap 15.1",
        "RelationType": "Default Component Of"
      },
      {
        "ProductReference": "vlc-vdpau-3.0.9.2-lp151.6.6.1",
        "RelatesToProductReference": "openSUSE Leap 15.1",
        "RelationType": "Default Component Of"
      }
    ]
  },
  "References": [
    {
      "URL": "http://lists.opensuse.org/opensuse-security-announce/2020-04/msg00036.html",
      "Description": "E-Mail link for openSUSE-SU-2020:0545-1"
    },
    {
      "URL": "https://www.suse.com/support/security/rating/",
      "Description": "SUSE Security Ratings"
    }
  ],
  "Vulnerabilities": [
    {
      "CVE": "CVE-2019-13602",
      "Description": "An Integer Underflow in MP4_EIA608_Convert() in modules/demux/mp4/mp4.c in VideoLAN VLC media player through 3.0.7.1 allows remote attackers to cause a denial of service (heap-based buffer overflow and crash) or possibly have unspecified other impact via a crafted .mp4 file.",
      "Threats": [
        {
          "Type": "Impact",
          "Severity": "moderate"
        }
      ],
      "References": [
        {
          "URL": "https://www.suse.com/security/cve/CVE-2019-13602.html",
          "Description": "CVE-2019-13602"
        },
        {
          "URL": "https://bugzilla.suse.com/1141522",
          "Description": "SUSE Bug 1141522"
        }
      ],
      "ProductStatuses": [
        {
          "Type": "Fixed",
          "ProductID": [
            "openSUSE Leap 15.1:libvlc5-3.0.9.2-lp151.6.6.1",
            "openSUSE Leap 15.1:libvlccore9-3.0.9.2-lp151.6.6.1",
            "openSUSE Leap 15.1:vlc-3.0.9.2-lp151.6.6.1",
            "openSUSE Leap 15.1:vlc-codec-gstreamer-3.0.9.2-lp151.6.6.1",
            "openSUSE Leap 15.1:vlc-devel-3.0.9.2-lp151.6.6.1",
            "openSUSE Leap 15.1:vlc-jack-3.0.9.2-lp151.6.6.1",
            "openSUSE Leap 15.1:vlc-lang-3.0.9.2-lp151.6.6.1",
            "openSUSE Leap 15.1:vlc-noX-3.0.9.2-lp151.6.6.1",
            "openSUSE Leap 15.1:vlc-opencv-3.0.9.2-lp151.6.6.1",
            "openSUSE Leap 15.1:vlc-qt-3.0.9.2-lp151.6.6.1",
            "openSUSE Leap 15.1:vlc-vdpau-3.0.9.2-lp151.6.6.1"
          ]
        }
      ],
      "CVSSScoreSets": {}
    },
    {
      "CVE": "CVE-2019-13962",
      "Description": "lavc_CopyPicture in modules/codec/avcodec/video.c in VideoLAN VLC media player through 3.0.7 has a heap-based buffer over-read because it does not properly validate the width and height.",
      "Threats": [
        {
          "Type": "Impact",
          "Severity": "moderate"
        }
      ],
      "References": [
        {
          "URL": "https://www.suse.com/security/cve/CVE-2019-13962.html",
          "Description": "CVE-2019-13962"
        },
        {
          "URL": "https://bugzilla.suse.com/1142161",
          "Description": "SUSE Bug 1142161"
        }
      ],
      "ProductStatuses": [
        {
          "Type": "Fixed",
          "ProductID": [
            "openSUSE Leap 15.1:libvlc5-3.0.9.2-lp151.6.6.1",
            "openSUSE Leap 15.1:libvlccore9-3.0.9.2-lp151.6.6.1",
            "openSUSE Leap 15.1:vlc-3.0.9.2-lp151.6.6.1",
            "openSUSE Leap 15.1:vlc-codec-gstreamer-3.0.9.2-lp151.6.6.1",
            "openSUSE Leap 15.1:vlc-devel-3.0.9.2-lp151.6.6.1",
            "openSUSE Leap 15.1:vlc-jack-3.0.9.2-lp151.6.6.1",
            "openSUSE Leap 15.1:vlc-lang-3.0.9.2-lp151.6.6.1",
            "openSUSE Leap 15.1:vlc-noX-3.0.9.2-lp151.6.6.1",
            "openSUSE Leap 15.1:vlc-opencv-3.0.9.2-lp151.6.6.1",
            "openSUSE Leap 15.1:vlc-qt-3.0.9.2-lp151.6.6.1",
            "openSUSE Leap 15.1:vlc-vdpau-3.0.9.2-lp151.6.6.1"
          ]
        }
      ],
      "CVSSScoreSets": {}
    },
    {
      "CVE": "CVE-2019-14437",
      "Description": "The xiph_SplitHeaders function in modules/demux/xiph.h in VideoLAN VLC media player 3.0.7.1 does not check array bounds properly. As a result, a heap-based buffer over-read can be triggered via a crafted .ogg file.",
      "Threats": [
        {
          "Type": "Impact",
          "Severity": "moderate"
        }
      ],
      "References": [
        {
          "URL": "https://www.suse.com/security/cve/CVE-2019-14437.html",
          "Description": "CVE-2019-14437"
        },
        {
          "URL": "https://bugzilla.suse.com/1146428",
          "Description": "SUSE Bug 1146428"
        }
      ],
      "ProductStatuses": [
        {
          "Type": "Fixed",
          "ProductID": [
            "openSUSE Leap 15.1:libvlc5-3.0.9.2-lp151.6.6.1",
            "openSUSE Leap 15.1:libvlccore9-3.0.9.2-lp151.6.6.1",
            "openSUSE Leap 15.1:vlc-3.0.9.2-lp151.6.6.1",
            "openSUSE Leap 15.1:vlc-codec-gstreamer-3.0.9.2-lp151.6.6.1",
            "openSUSE Leap 15.1:vlc-devel-3.0.9.2-lp151.6.6.1",
            "openSUSE Leap 15.1:vlc-jack-3.0.9.2-lp151.6.6.1",
            "openSUSE Leap 15.1:vlc-lang-3.0.9.2-lp151.6.6.1",
            "openSUSE Leap 15.1:vlc-noX-3.0.9.2-lp151.6.6.1",
            "openSUSE Leap 15.1:vlc-opencv-3.0.9.2-lp151.6.6.1",
            "openSUSE Leap 15.1:vlc-qt-3.0.9.2-lp151.6.6.1",
            "openSUSE Leap 15.1:vlc-vdpau-3.0.9.2-lp151.6.6.1"
          ]
        }
      ],
      "CVSSScoreSets": {}
    },
    {
      "CVE": "CVE-2019-14438",
      "Description": "A heap-based buffer over-read in xiph_PackHeaders() in modules/demux/xiph.h in VideoLAN VLC media player 3.0.7.1 allows remote attackers to trigger a heap-based buffer over-read via a crafted .ogg file.",
      "Threats": [
        {
          "Type": "Impact",
          "Severity": "moderate"
        }
      ],
      "References": [
        {
          "URL": "https://www.suse.com/security/cve/CVE-2019-14438.html",
          "Description": "CVE-2019-14438"
        },
        {
          "URL": "https://bugzilla.suse.com/1146428",
          "Description": "SUSE Bug 1146428"
        }
      ],
      "ProductStatuses": [
        {
          "Type": "Fixed",
          "ProductID": [
            "openSUSE Leap 15.1:libvlc5-3.0.9.2-lp151.6.6.1",
            "openSUSE Leap 15.1:libvlccore9-3.0.9.2-lp151.6.6.1",
            "openSUSE Leap 15.1:vlc-3.0.9.2-lp151.6.6.1",
            "openSUSE Leap 15.1:vlc-codec-gstreamer-3.0.9.2-lp151.6.6.1",
            "openSUSE Leap 15.1:vlc-devel-3.0.9.2-lp151.6.6.1",
            "openSUSE Leap 15.1:vlc-jack-3.0.9.2-lp151.6.6.1",
            "openSUSE Leap 15.1:vlc-lang-3.0.9.2-lp151.6.6.1",
            "openSUSE Leap 15.1:vlc-noX-3.0.9.2-lp151.6.6.1",
            "openSUSE Leap 15.1:vlc-opencv-3.0.9.2-lp151.6.6.1",
            "openSUSE Leap 15.1:vlc-qt-3.0.9.2-lp151.6.6.1",
            "openSUSE Leap 15.1:vlc-vdpau-3.0.9.2-lp151.6.6.1"
          ]
        }
      ],
      "CVSSScoreSets": {}
    },
    {
      "CVE": "CVE-2019-14498",
      "Description": "A divide-by-zero error exists in the Control function of demux/caf.c in VideoLAN VLC media player 3.0.7.1. As a result, an FPE can be triggered via a crafted CAF file.",
      "Threats": [
        {
          "Type": "Impact",
          "Severity": "moderate"
        }
      ],
      "References": [
        {
          "URL": "https://www.suse.com/security/cve/CVE-2019-14498.html",
          "Description": "CVE-2019-14498"
        },
        {
          "URL": "https://bugzilla.suse.com/1146428",
          "Description": "SUSE Bug 1146428"
        }
      ],
      "ProductStatuses": [
        {
          "Type": "Fixed",
          "ProductID": [
            "openSUSE Leap 15.1:libvlc5-3.0.9.2-lp151.6.6.1",
            "openSUSE Leap 15.1:libvlccore9-3.0.9.2-lp151.6.6.1",
            "openSUSE Leap 15.1:vlc-3.0.9.2-lp151.6.6.1",
            "openSUSE Leap 15.1:vlc-codec-gstreamer-3.0.9.2-lp151.6.6.1",
            "openSUSE Leap 15.1:vlc-devel-3.0.9.2-lp151.6.6.1",
            "openSUSE Leap 15.1:vlc-jack-3.0.9.2-lp151.6.6.1",
            "openSUSE Leap 15.1:vlc-lang-3.0.9.2-lp151.6.6.1",
            "openSUSE Leap 15.1:vlc-noX-3.0.9.2-lp151.6.6.1",
            "openSUSE Leap 15.1:vlc-opencv-3.0.9.2-lp151.6.6.1",
            "openSUSE Leap 15.1:vlc-qt-3.0.9.2-lp151.6.6.1",
            "openSUSE Leap 15.1:vlc-vdpau-3.0.9.2-lp151.6.6.1"
          ]
        }
      ],
      "CVSSScoreSets": {}
    },
    {
      "CVE": "CVE-2019-14533",
      "Description": "The Control function of demux/asf/asf.c in VideoLAN VLC media player 3.0.7.1 has a use-after-free.",
      "Threats": [
        {
          "Type": "Impact",
          "Severity": "moderate"
        }
      ],
      "References": [
        {
          "URL": "https://www.suse.com/security/cve/CVE-2019-14533.html",
          "Description": "CVE-2019-14533"
        },
        {
          "URL": "https://bugzilla.suse.com/1146428",
          "Description": "SUSE Bug 1146428"
        }
      ],
      "ProductStatuses": [
        {
          "Type": "Fixed",
          "ProductID": [
            "openSUSE Leap 15.1:libvlc5-3.0.9.2-lp151.6.6.1",
            "openSUSE Leap 15.1:libvlccore9-3.0.9.2-lp151.6.6.1",
            "openSUSE Leap 15.1:vlc-3.0.9.2-lp151.6.6.1",
            "openSUSE Leap 15.1:vlc-codec-gstreamer-3.0.9.2-lp151.6.6.1",
            "openSUSE Leap 15.1:vlc-devel-3.0.9.2-lp151.6.6.1",
            "openSUSE Leap 15.1:vlc-jack-3.0.9.2-lp151.6.6.1",
            "openSUSE Leap 15.1:vlc-lang-3.0.9.2-lp151.6.6.1",
            "openSUSE Leap 15.1:vlc-noX-3.0.9.2-lp151.6.6.1",
            "openSUSE Leap 15.1:vlc-opencv-3.0.9.2-lp151.6.6.1",
            "openSUSE Leap 15.1:vlc-qt-3.0.9.2-lp151.6.6.1",
            "openSUSE Leap 15.1:vlc-vdpau-3.0.9.2-lp151.6.6.1"
          ]
        }
      ],
      "CVSSScoreSets": {}
    },
    {
      "CVE": "CVE-2019-14534",
      "Description": "In VideoLAN VLC media player 3.0.7.1, there is a NULL pointer dereference at the function SeekPercent of demux/asf/asf.c that will lead to a denial of service attack.",
      "Threats": [
        {
          "Type": "Impact",
          "Severity": "moderate"
        }
      ],
      "References": [
        {
          "URL": "https://www.suse.com/security/cve/CVE-2019-14534.html",
          "Description": "CVE-2019-14534"
        },
        {
          "URL": "https://bugzilla.suse.com/1146428",
          "Description": "SUSE Bug 1146428"
        }
      ],
      "ProductStatuses": [
        {
          "Type": "Fixed",
          "ProductID": [
            "openSUSE Leap 15.1:libvlc5-3.0.9.2-lp151.6.6.1",
            "openSUSE Leap 15.1:libvlccore9-3.0.9.2-lp151.6.6.1",
            "openSUSE Leap 15.1:vlc-3.0.9.2-lp151.6.6.1",
            "openSUSE Leap 15.1:vlc-codec-gstreamer-3.0.9.2-lp151.6.6.1",
            "openSUSE Leap 15.1:vlc-devel-3.0.9.2-lp151.6.6.1",
            "openSUSE Leap 15.1:vlc-jack-3.0.9.2-lp151.6.6.1",
            "openSUSE Leap 15.1:vlc-lang-3.0.9.2-lp151.6.6.1",
            "openSUSE Leap 15.1:vlc-noX-3.0.9.2-lp151.6.6.1",
            "openSUSE Leap 15.1:vlc-opencv-3.0.9.2-lp151.6.6.1",
            "openSUSE Leap 15.1:vlc-qt-3.0.9.2-lp151.6.6.1",
            "openSUSE Leap 15.1:vlc-vdpau-3.0.9.2-lp151.6.6.1"
          ]
        }
      ],
      "CVSSScoreSets": {}
    },
    {
      "CVE": "CVE-2019-14535",
      "Description": "A divide-by-zero error exists in the SeekIndex function of demux/asf/asf.c in VideoLAN VLC media player 3.0.7.1. As a result, an FPE can be triggered via a crafted WMV file.",
      "Threats": [
        {
          "Type": "Impact",
          "Severity": "moderate"
        }
      ],
      "References": [
        {
          "URL": "https://www.suse.com/security/cve/CVE-2019-14535.html",
          "Description": "CVE-2019-14535"
        },
        {
          "URL": "https://bugzilla.suse.com/1146428",
          "Description": "SUSE Bug 1146428"
        }
      ],
      "ProductStatuses": [
        {
          "Type": "Fixed",
          "ProductID": [
            "openSUSE Leap 15.1:libvlc5-3.0.9.2-lp151.6.6.1",
            "openSUSE Leap 15.1:libvlccore9-3.0.9.2-lp151.6.6.1",
            "openSUSE Leap 15.1:vlc-3.0.9.2-lp151.6.6.1",
            "openSUSE Leap 15.1:vlc-codec-gstreamer-3.0.9.2-lp151.6.6.1",
            "openSUSE Leap 15.1:vlc-devel-3.0.9.2-lp151.6.6.1",
            "openSUSE Leap 15.1:vlc-jack-3.0.9.2-lp151.6.6.1",
            "openSUSE Leap 15.1:vlc-lang-3.0.9.2-lp151.6.6.1",
            "openSUSE Leap 15.1:vlc-noX-3.0.9.2-lp151.6.6.1",
            "openSUSE Leap 15.1:vlc-opencv-3.0.9.2-lp151.6.6.1",
            "openSUSE Leap 15.1:vlc-qt-3.0.9.2-lp151.6.6.1",
            "openSUSE Leap 15.1:vlc-vdpau-3.0.9.2-lp151.6.6.1"
          ]
        }
      ],
      "CVSSScoreSets": {}
    },
    {
      "CVE": "CVE-2019-14776",
      "Description": "A heap-based buffer over-read exists in DemuxInit() in demux/asf/asf.c in VideoLAN VLC media player 3.0.7.1 via a crafted .mkv file.",
      "Threats": [
        {
          "Type": "Impact",
          "Severity": "moderate"
        }
      ],
      "References": [
        {
          "URL": "https://www.suse.com/security/cve/CVE-2019-14776.html",
          "Description": "CVE-2019-14776"
        },
        {
          "URL": "https://bugzilla.suse.com/1146428",
          "Description": "SUSE Bug 1146428"
        }
      ],
      "ProductStatuses": [
        {
          "Type": "Fixed",
          "ProductID": [
            "openSUSE Leap 15.1:libvlc5-3.0.9.2-lp151.6.6.1",
            "openSUSE Leap 15.1:libvlccore9-3.0.9.2-lp151.6.6.1",
            "openSUSE Leap 15.1:vlc-3.0.9.2-lp151.6.6.1",
            "openSUSE Leap 15.1:vlc-codec-gstreamer-3.0.9.2-lp151.6.6.1",
            "openSUSE Leap 15.1:vlc-devel-3.0.9.2-lp151.6.6.1",
            "openSUSE Leap 15.1:vlc-jack-3.0.9.2-lp151.6.6.1",
            "openSUSE Leap 15.1:vlc-lang-3.0.9.2-lp151.6.6.1",
            "openSUSE Leap 15.1:vlc-noX-3.0.9.2-lp151.6.6.1",
            "openSUSE Leap 15.1:vlc-opencv-3.0.9.2-lp151.6.6.1",
            "openSUSE Leap 15.1:vlc-qt-3.0.9.2-lp151.6.6.1",
            "openSUSE Leap 15.1:vlc-vdpau-3.0.9.2-lp151.6.6.1"
          ]
        }
      ],
      "CVSSScoreSets": {}
    },
    {
      "CVE": "CVE-2019-14777",
      "Description": "The Control function of demux/mkv/mkv.cpp in VideoLAN VLC media player 3.0.7.1 has a use-after-free.",
      "Threats": [
        {
          "Type": "Impact",
          "Severity": "moderate"
        }
      ],
      "References": [
        {
          "URL": "https://www.suse.com/security/cve/CVE-2019-14777.html",
          "Description": "CVE-2019-14777"
        },
        {
          "URL": "https://bugzilla.suse.com/1146428",
          "Description": "SUSE Bug 1146428"
        }
      ],
      "ProductStatuses": [
        {
          "Type": "Fixed",
          "ProductID": [
            "openSUSE Leap 15.1:libvlc5-3.0.9.2-lp151.6.6.1",
            "openSUSE Leap 15.1:libvlccore9-3.0.9.2-lp151.6.6.1",
            "openSUSE Leap 15.1:vlc-3.0.9.2-lp151.6.6.1",
            "openSUSE Leap 15.1:vlc-codec-gstreamer-3.0.9.2-lp151.6.6.1",
            "openSUSE Leap 15.1:vlc-devel-3.0.9.2-lp151.6.6.1",
            "openSUSE Leap 15.1:vlc-jack-3.0.9.2-lp151.6.6.1",
            "openSUSE Leap 15.1:vlc-lang-3.0.9.2-lp151.6.6.1",
            "openSUSE Leap 15.1:vlc-noX-3.0.9.2-lp151.6.6.1",
            "openSUSE Leap 15.1:vlc-opencv-3.0.9.2-lp151.6.6.1",
            "openSUSE Leap 15.1:vlc-qt-3.0.9.2-lp151.6.6.1",
            "openSUSE Leap 15.1:vlc-vdpau-3.0.9.2-lp151.6.6.1"
          ]
        }
      ],
      "CVSSScoreSets": {}
    },
    {
      "CVE": "CVE-2019-14778",
      "Description": "The mkv::virtual_segment_c::seek method of demux/mkv/virtual_segment.cpp in VideoLAN VLC media player 3.0.7.1 has a use-after-free.",
      "Threats": [
        {
          "Type": "Impact",
          "Severity": "moderate"
        }
      ],
      "References": [
        {
          "URL": "https://www.suse.com/security/cve/CVE-2019-14778.html",
          "Description": "CVE-2019-14778"
        },
        {
          "URL": "https://bugzilla.suse.com/1146428",
          "Description": "SUSE Bug 1146428"
        }
      ],
      "ProductStatuses": [
        {
          "Type": "Fixed",
          "ProductID": [
            "openSUSE Leap 15.1:libvlc5-3.0.9.2-lp151.6.6.1",
            "openSUSE Leap 15.1:libvlccore9-3.0.9.2-lp151.6.6.1",
            "openSUSE Leap 15.1:vlc-3.0.9.2-lp151.6.6.1",
            "openSUSE Leap 15.1:vlc-codec-gstreamer-3.0.9.2-lp151.6.6.1",
            "openSUSE Leap 15.1:vlc-devel-3.0.9.2-lp151.6.6.1",
            "openSUSE Leap 15.1:vlc-jack-3.0.9.2-lp151.6.6.1",
            "openSUSE Leap 15.1:vlc-lang-3.0.9.2-lp151.6.6.1",
            "openSUSE Leap 15.1:vlc-noX-3.0.9.2-lp151.6.6.1",
            "openSUSE Leap 15.1:vlc-opencv-3.0.9.2-lp151.6.6.1",
            "openSUSE Leap 15.1:vlc-qt-3.0.9.2-lp151.6.6.1",
            "openSUSE Leap 15.1:vlc-vdpau-3.0.9.2-lp151.6.6.1"
          ]
        }
      ],
      "CVSSScoreSets": {}
    },
    {
      "CVE": "CVE-2019-14970",
      "Description": "A vulnerability in mkv::event_thread_t in VideoLAN VLC media player 3.0.7.1 allows remote attackers to trigger a heap-based buffer overflow via a crafted .mkv file.",
      "Threats": [
        {
          "Type": "Impact",
          "Severity": "moderate"
        }
      ],
      "References": [
        {
          "URL": "https://www.suse.com/security/cve/CVE-2019-14970.html",
          "Description": "CVE-2019-14970"
        }
      ],
      "ProductStatuses": [
        {
          "Type": "Fixed",
          "ProductID": [
            "openSUSE Leap 15.1:libvlc5-3.0.9.2-lp151.6.6.1",
            "openSUSE Leap 15.1:libvlccore9-3.0.9.2-lp151.6.6.1",
            "openSUSE Leap 15.1:vlc-3.0.9.2-lp151.6.6.1",
            "openSUSE Leap 15.1:vlc-codec-gstreamer-3.0.9.2-lp151.6.6.1",
            "openSUSE Leap 15.1:vlc-devel-3.0.9.2-lp151.6.6.1",
            "openSUSE Leap 15.1:vlc-jack-3.0.9.2-lp151.6.6.1",
            "openSUSE Leap 15.1:vlc-lang-3.0.9.2-lp151.6.6.1",
            "openSUSE Leap 15.1:vlc-noX-3.0.9.2-lp151.6.6.1",
            "openSUSE Leap 15.1:vlc-opencv-3.0.9.2-lp151.6.6.1",
            "openSUSE Leap 15.1:vlc-qt-3.0.9.2-lp151.6.6.1",
            "openSUSE Leap 15.1:vlc-vdpau-3.0.9.2-lp151.6.6.1"
          ]
        }
      ],
      "CVSSScoreSets": {}
    }
  ]
}