{
  "Severity": "LOW",
  "UpdatedAt": "2020-11-23T19:40:35Z",
  "Package": {
    "Ecosystem": "COMPOSER",
    "Name": "october/backend"
  },
  "Advisory": {
    "DatabaseId": 3193,
    "Id": "MDE2OlNlY3VyaXR5QWR2aXNvcnlHSFNBLXJmamMteHJtZi01dnZ3",
    "GhsaId": "GHSA-rfjc-xrmf-5vvw",
    "References": [
      {
        "Url": "https://github.com/octobercms/october/security/advisories/GHSA-rfjc-xrmf-5vvw"
      },
      {
        "Url": "https://nvd.nist.gov/vuln/detail/CVE-2020-15248"
      },
      {
        "Url": "https://github.com/advisories/GHSA-rfjc-xrmf-5vvw"
      }
    ],
    "Identifiers": [
      {
        "Type": "GHSA",
        "Value": "GHSA-rfjc-xrmf-5vvw"
      },
      {
        "Type": "CVE",
        "Value": "CVE-2020-15248"
      }
    ],
    "Description": "### Impact\nBackend users with the default \"Publisher\" system role have access to create \u0026 manage users where they can choose which role the new user has. This means that a user with \"Publisher\" access has the ability to escalate their access to \"Developer\" access. \n\n### Patches\nIssue has been patched in Build 470 (v1.0.470) \u0026 v1.1.1.\n\n### Workarounds\nApply https://github.com/octobercms/october/commit/78a37298a4ed4602b383522344a31e311402d829 to your installation manually if unable to upgrade to Build 470 or v1.1.1.\n\n### References\nReported by [Hoan Hoang](https://github.com/hoanhp)\n\n### For more information\nIf you have any questions or comments about this advisory:\n* Email us at [octobercms@luketowers.ca](mailto:octobercms@luketowers.ca) \u0026 [hello@octobercms.com](mailto:hello@octobercms.com)\n\n### Threat assessment:\n\u003cimg width=\"1098\" alt=\"Screen Shot 2020-10-10 at 1 37 25 PM\" src=\"https://user-images.githubusercontent.com/7253840/95663611-e6326c80-0afd-11eb-8a1e-8b767a7202fb.png\"\u003e",
    "Origin": "UNSPECIFIED",
    "PublishedAt": "2020-11-23T19:47:27Z",
    "Severity": "LOW",
    "Summary": "Privilege escalation by backend users assigned to the default \"Publisher\" system role",
    "UpdatedAt": "2020-11-24T16:40:36Z",
    "WithdrawnAt": ""
  },
  "Versions": [
    {
      "FirstPatchedVersion": {
        "Identifier": "1.0.470"
      },
      "VulnerableVersionRange": "\u003e= 1.0.319, \u003c 1.0.470"
    }
  ]
}