{
  "alpine": "2020-12-17T12:04:09.263240163Z",
  "amazon": "2020-12-15T00:10:38.547933848Z",
  "cwe": "2020-12-15T00:11:55.633177352Z",
  "debian": "2020-12-17T12:06:17.693256445Z",
  "debian-oval": "2020-12-17T12:06:32.779372644Z",
  "ghsa": "2020-12-15T00:11:12.293080517Z",
  "nvd": "2020-12-17T12:01:54.219135645Z",
  "oracle-oval": "2020-12-15T00:10:42.962302748Z",
  "photon": "2020-12-15T00:11:03.490645429Z",
  "redhat": "2020-12-15T01:11:42.715457393Z",
  "redhat-oval": "2020-12-15T00:10:49.948090881Z",
  "suse-cvrf": "2020-12-15T00:11:58.103794914Z",
  "ubuntu": "2020-12-15T00:08:20.814040577Z"
}