{
  "XMLName": {
    "Space": "http://oval.mitre.org/XMLSchema/oval-definitions-5",
    "Local": "definition"
  },
  "ID": "oval:com.redhat.rhsa:def:20203922",
  "Class": "patch",
  "Title": "RHSA-2020:3922: libsndfile security update (Low)",
  "Affecteds": [
    {
      "XMLName": {
        "Space": "http://oval.mitre.org/XMLSchema/oval-definitions-5",
        "Local": "affected"
      },
      "Family": "unix",
      "Platforms": [
        "Red Hat Enterprise Linux 7"
      ]
    }
  ],
  "References": [
    {
      "XMLName": {
        "Space": "http://oval.mitre.org/XMLSchema/oval-definitions-5",
        "Local": "reference"
      },
      "Source": "RHSA",
      "RefID": "RHSA-2020:3922",
      "RefURL": "https://access.redhat.com/errata/RHSA-2020:3922"
    },
    {
      "XMLName": {
        "Space": "http://oval.mitre.org/XMLSchema/oval-definitions-5",
        "Local": "reference"
      },
      "Source": "CVE",
      "RefID": "CVE-2018-19662",
      "RefURL": "https://access.redhat.com/security/cve/CVE-2018-19662"
    }
  ],
  "Description": "libsndfile is a C library for reading and writing files containing sampled sound, such as AIFF, AU, or WAV. \n\nSecurity Fix(es):\n\n* libsndfile: buffer over-read in the function i2alaw_array in alaw.c (CVE-2018-19662)\n\nFor more details about the security issue(s), including the impact, a CVSS score, acknowledgments, and other related information, refer to the CVE page(s) listed in the References section.\n\nAdditional Changes:\n\nFor detailed information on changes in this release, see the Red Hat Enterprise Linux 7.9 Release Notes linked from the References section.",
  "Advisory": {
    "XMLName": {
      "Space": "http://oval.mitre.org/XMLSchema/oval-definitions-5",
      "Local": "advisory"
    },
    "Severity": "Low",
    "Cves": [
      {
        "XMLName": {
          "Space": "http://oval.mitre.org/XMLSchema/oval-definitions-5",
          "Local": "cve"
        },
        "CveID": "CVE-2018-19662",
        "Cvss2": "",
        "Cvss3": "3.3/CVSS:3.0/AV:L/AC:L/PR:N/UI:R/S:U/C:N/I:N/A:L",
        "Cwe": "CWE-190 CWE-125",
        "Impact": "",
        "Href": "https://access.redhat.com/security/cve/CVE-2018-19662",
        "Public": "20181127"
      }
    ],
    "Bugzillas": [
      {
        "XMLName": {
          "Space": "http://oval.mitre.org/XMLSchema/oval-definitions-5",
          "Local": "bugzilla"
        },
        "ID": "1659631",
        "URL": "https://bugzilla.redhat.com/1659631",
        "Title": "CVE-2018-19662 libsndfile: buffer over-read in the function i2alaw_array in alaw.c"
      }
    ],
    "AffectedCPEList": [
      "cpe:/o:redhat:enterprise_linux:7",
      "cpe:/o:redhat:enterprise_linux:7::client",
      "cpe:/o:redhat:enterprise_linux:7::computenode",
      "cpe:/o:redhat:enterprise_linux:7::server",
      "cpe:/o:redhat:enterprise_linux:7::workstation"
    ],
    "Issued": {
      "Date": "2020-09-29"
    },
    "Updated": {
      "Date": "2020-09-29"
    }
  },
  "Criteria": {
    "XMLName": {
      "Space": "http://oval.mitre.org/XMLSchema/oval-definitions-5",
      "Local": "criteria"
    },
    "Operator": "OR",
    "Criterias": [
      {
        "XMLName": {
          "Space": "http://oval.mitre.org/XMLSchema/oval-definitions-5",
          "Local": "criteria"
        },
        "Operator": "AND",
        "Criterias": [
          {
            "XMLName": {
              "Space": "http://oval.mitre.org/XMLSchema/oval-definitions-5",
              "Local": "criteria"
            },
            "Operator": "OR",
            "Criterias": [
              {
                "XMLName": {
                  "Space": "http://oval.mitre.org/XMLSchema/oval-definitions-5",
                  "Local": "criteria"
                },
                "Operator": "AND",
                "Criterias": null,
                "Criterions": [
                  {
                    "XMLName": {
                      "Space": "http://oval.mitre.org/XMLSchema/oval-definitions-5",
                      "Local": "criterion"
                    },
                    "Negate": false,
                    "TestRef": "oval:com.redhat.rhsa:tst:20203922001",
                    "Comment": "libsndfile is earlier than 0:1.0.25-12.el7"
                  },
                  {
                    "XMLName": {
                      "Space": "http://oval.mitre.org/XMLSchema/oval-definitions-5",
                      "Local": "criterion"
                    },
                    "Negate": false,
                    "TestRef": "oval:com.redhat.rhsa:tst:20201185002",
                    "Comment": "libsndfile is signed with Red Hat redhatrelease2 key"
                  }
                ]
              },
              {
                "XMLName": {
                  "Space": "http://oval.mitre.org/XMLSchema/oval-definitions-5",
                  "Local": "criteria"
                },
                "Operator": "AND",
                "Criterias": null,
                "Criterions": [
                  {
                    "XMLName": {
                      "Space": "http://oval.mitre.org/XMLSchema/oval-definitions-5",
                      "Local": "criterion"
                    },
                    "Negate": false,
                    "TestRef": "oval:com.redhat.rhsa:tst:20203922003",
                    "Comment": "libsndfile-devel is earlier than 0:1.0.25-12.el7"
                  },
                  {
                    "XMLName": {
                      "Space": "http://oval.mitre.org/XMLSchema/oval-definitions-5",
                      "Local": "criterion"
                    },
                    "Negate": false,
                    "TestRef": "oval:com.redhat.rhsa:tst:20201185004",
                    "Comment": "libsndfile-devel is signed with Red Hat redhatrelease2 key"
                  }
                ]
              },
              {
                "XMLName": {
                  "Space": "http://oval.mitre.org/XMLSchema/oval-definitions-5",
                  "Local": "criteria"
                },
                "Operator": "AND",
                "Criterias": null,
                "Criterions": [
                  {
                    "XMLName": {
                      "Space": "http://oval.mitre.org/XMLSchema/oval-definitions-5",
                      "Local": "criterion"
                    },
                    "Negate": false,
                    "TestRef": "oval:com.redhat.rhsa:tst:20203922005",
                    "Comment": "libsndfile-utils is earlier than 0:1.0.25-12.el7"
                  },
                  {
                    "XMLName": {
                      "Space": "http://oval.mitre.org/XMLSchema/oval-definitions-5",
                      "Local": "criterion"
                    },
                    "Negate": false,
                    "TestRef": "oval:com.redhat.rhsa:tst:20201185006",
                    "Comment": "libsndfile-utils is signed with Red Hat redhatrelease2 key"
                  }
                ]
              }
            ],
            "Criterions": null
          }
        ],
        "Criterions": [
          {
            "XMLName": {
              "Space": "http://oval.mitre.org/XMLSchema/oval-definitions-5",
              "Local": "criterion"
            },
            "Negate": false,
            "TestRef": "oval:com.redhat.rhba:tst:20150364027",
            "Comment": "Red Hat Enterprise Linux 7 is installed"
          }
        ]
      }
    ],
    "Criterions": [
      {
        "XMLName": {
          "Space": "http://oval.mitre.org/XMLSchema/oval-definitions-5",
          "Local": "criterion"
        },
        "Negate": false,
        "TestRef": "oval:com.redhat.rhba:tst:20150364028",
        "Comment": "Red Hat Enterprise Linux must be installed"
      }
    ]
  }
}