{
  "XMLName": {
    "Space": "http://oval.mitre.org/XMLSchema/oval-definitions-5",
    "Local": "definition"
  },
  "ID": "oval:com.redhat.rhsa:def:20201070",
  "Class": "patch",
  "Title": "RHSA-2020:1070: kernel-rt security and bug fix update (Moderate)",
  "Affecteds": [
    {
      "XMLName": {
        "Space": "http://oval.mitre.org/XMLSchema/oval-definitions-5",
        "Local": "affected"
      },
      "Family": "unix",
      "Platforms": [
        "Red Hat Enterprise Linux 7"
      ]
    }
  ],
  "References": [
    {
      "XMLName": {
        "Space": "http://oval.mitre.org/XMLSchema/oval-definitions-5",
        "Local": "reference"
      },
      "Source": "RHSA",
      "RefID": "RHSA-2020:1070",
      "RefURL": "https://access.redhat.com/errata/RHSA-2020:1070"
    },
    {
      "XMLName": {
        "Space": "http://oval.mitre.org/XMLSchema/oval-definitions-5",
        "Local": "reference"
      },
      "Source": "CVE",
      "RefID": "CVE-2015-9289",
      "RefURL": "https://access.redhat.com/security/cve/CVE-2015-9289"
    },
    {
      "XMLName": {
        "Space": "http://oval.mitre.org/XMLSchema/oval-definitions-5",
        "Local": "reference"
      },
      "Source": "CVE",
      "RefID": "CVE-2017-17807",
      "RefURL": "https://access.redhat.com/security/cve/CVE-2017-17807"
    },
    {
      "XMLName": {
        "Space": "http://oval.mitre.org/XMLSchema/oval-definitions-5",
        "Local": "reference"
      },
      "Source": "CVE",
      "RefID": "CVE-2018-19985",
      "RefURL": "https://access.redhat.com/security/cve/CVE-2018-19985"
    },
    {
      "XMLName": {
        "Space": "http://oval.mitre.org/XMLSchema/oval-definitions-5",
        "Local": "reference"
      },
      "Source": "CVE",
      "RefID": "CVE-2018-20169",
      "RefURL": "https://access.redhat.com/security/cve/CVE-2018-20169"
    },
    {
      "XMLName": {
        "Space": "http://oval.mitre.org/XMLSchema/oval-definitions-5",
        "Local": "reference"
      },
      "Source": "CVE",
      "RefID": "CVE-2018-7191",
      "RefURL": "https://access.redhat.com/security/cve/CVE-2018-7191"
    },
    {
      "XMLName": {
        "Space": "http://oval.mitre.org/XMLSchema/oval-definitions-5",
        "Local": "reference"
      },
      "Source": "CVE",
      "RefID": "CVE-2019-10207",
      "RefURL": "https://access.redhat.com/security/cve/CVE-2019-10207"
    },
    {
      "XMLName": {
        "Space": "http://oval.mitre.org/XMLSchema/oval-definitions-5",
        "Local": "reference"
      },
      "Source": "CVE",
      "RefID": "CVE-2019-10638",
      "RefURL": "https://access.redhat.com/security/cve/CVE-2019-10638"
    },
    {
      "XMLName": {
        "Space": "http://oval.mitre.org/XMLSchema/oval-definitions-5",
        "Local": "reference"
      },
      "Source": "CVE",
      "RefID": "CVE-2019-10639",
      "RefURL": "https://access.redhat.com/security/cve/CVE-2019-10639"
    },
    {
      "XMLName": {
        "Space": "http://oval.mitre.org/XMLSchema/oval-definitions-5",
        "Local": "reference"
      },
      "Source": "CVE",
      "RefID": "CVE-2019-11190",
      "RefURL": "https://access.redhat.com/security/cve/CVE-2019-11190"
    },
    {
      "XMLName": {
        "Space": "http://oval.mitre.org/XMLSchema/oval-definitions-5",
        "Local": "reference"
      },
      "Source": "CVE",
      "RefID": "CVE-2019-11884",
      "RefURL": "https://access.redhat.com/security/cve/CVE-2019-11884"
    },
    {
      "XMLName": {
        "Space": "http://oval.mitre.org/XMLSchema/oval-definitions-5",
        "Local": "reference"
      },
      "Source": "CVE",
      "RefID": "CVE-2019-12382",
      "RefURL": "https://access.redhat.com/security/cve/CVE-2019-12382"
    },
    {
      "XMLName": {
        "Space": "http://oval.mitre.org/XMLSchema/oval-definitions-5",
        "Local": "reference"
      },
      "Source": "CVE",
      "RefID": "CVE-2019-13233",
      "RefURL": "https://access.redhat.com/security/cve/CVE-2019-13233"
    },
    {
      "XMLName": {
        "Space": "http://oval.mitre.org/XMLSchema/oval-definitions-5",
        "Local": "reference"
      },
      "Source": "CVE",
      "RefID": "CVE-2019-14283",
      "RefURL": "https://access.redhat.com/security/cve/CVE-2019-14283"
    },
    {
      "XMLName": {
        "Space": "http://oval.mitre.org/XMLSchema/oval-definitions-5",
        "Local": "reference"
      },
      "Source": "CVE",
      "RefID": "CVE-2019-14815",
      "RefURL": "https://access.redhat.com/security/cve/CVE-2019-14815"
    },
    {
      "XMLName": {
        "Space": "http://oval.mitre.org/XMLSchema/oval-definitions-5",
        "Local": "reference"
      },
      "Source": "CVE",
      "RefID": "CVE-2019-15221",
      "RefURL": "https://access.redhat.com/security/cve/CVE-2019-15221"
    },
    {
      "XMLName": {
        "Space": "http://oval.mitre.org/XMLSchema/oval-definitions-5",
        "Local": "reference"
      },
      "Source": "CVE",
      "RefID": "CVE-2019-15916",
      "RefURL": "https://access.redhat.com/security/cve/CVE-2019-15916"
    },
    {
      "XMLName": {
        "Space": "http://oval.mitre.org/XMLSchema/oval-definitions-5",
        "Local": "reference"
      },
      "Source": "CVE",
      "RefID": "CVE-2019-16746",
      "RefURL": "https://access.redhat.com/security/cve/CVE-2019-16746"
    },
    {
      "XMLName": {
        "Space": "http://oval.mitre.org/XMLSchema/oval-definitions-5",
        "Local": "reference"
      },
      "Source": "CVE",
      "RefID": "CVE-2019-3901",
      "RefURL": "https://access.redhat.com/security/cve/CVE-2019-3901"
    },
    {
      "XMLName": {
        "Space": "http://oval.mitre.org/XMLSchema/oval-definitions-5",
        "Local": "reference"
      },
      "Source": "CVE",
      "RefID": "CVE-2019-9503",
      "RefURL": "https://access.redhat.com/security/cve/CVE-2019-9503"
    }
  ],
  "Description": "The kernel-rt packages provide the Real Time Linux Kernel, which enables fine-tuning for systems with extremely high determinism requirements.\n\nSecurity Fix(es):\n\n* kernel: out of bound read in DVB connexant driver. (CVE-2015-9289)\n\n* kernel: Missing permissions check for request_key() destination allows local attackers to add keys to keyring without Write permission (CVE-2017-17807)\n\n* kernel: denial of service via ioctl call in network tun handling (CVE-2018-7191)\n\n* kernel: usb: missing size check in the __usb_get_extra_descriptor() leading to DoS (CVE-2018-20169)\n\n* kernel: perf_event_open() and execve() race in setuid programs allows a data leak (CVE-2019-3901)\n\n* kernel: brcmfmac frame validation bypass (CVE-2019-9503)\n\n* kernel: null-pointer dereference in hci_uart_set_flow_control (CVE-2019-10207)\n\n* kernel: sensitive information disclosure from kernel stack memory via HIDPCONNADD command (CVE-2019-11884)\n\n* kernel: unchecked kstrdup of fwstr in drm_load_edid_firmware leads to denial of service (CVE-2019-12382)\n\n* kernel: use-after-free in arch/x86/lib/insn-eval.c (CVE-2019-13233)\n\n* kernel: integer overflow and OOB read in drivers/block/floppy.c (CVE-2019-14283)\n\n* kernel: memory leak in register_queue_kobjects() in net/core/net-sysfs.c leads to denial of service (CVE-2019-15916)\n\n* kernel: buffer-overflow hardening in WiFi beacon validation code. (CVE-2019-16746)\n\n* kernel: oob memory read in hso_probe in drivers/net/usb/hso.c (CVE-2018-19985)\n\n* Kernel: net: weak IP ID generation leads to remote device tracking (CVE-2019-10638)\n\n* Kernel: net: using kernel space address bits to derive IP ID may potentially break KASLR (CVE-2019-10639)\n\n* kernel: ASLR bypass for setuid binaries due to late install_exec_creds() (CVE-2019-11190)\n\nFor more details about the security issue(s), including the impact, a CVSS score, acknowledgments, and other related information, refer to the CVE page(s) listed in the References section.\n\nAdditional Changes:\n\nFor detailed information on changes in this release, see the Red Hat Enterprise Linux 7.8 Release Notes linked from the References section.",
  "Advisory": {
    "XMLName": {
      "Space": "http://oval.mitre.org/XMLSchema/oval-definitions-5",
      "Local": "advisory"
    },
    "Severity": "Moderate",
    "Cves": [
      {
        "XMLName": {
          "Space": "http://oval.mitre.org/XMLSchema/oval-definitions-5",
          "Local": "cve"
        },
        "CveID": "CVE-2015-9289",
        "Cvss2": "",
        "Cvss3": "3.3/CVSS:3.0/AV:L/AC:L/PR:L/UI:N/S:U/C:L/I:N/A:N",
        "Cwe": "CWE-120",
        "Impact": "",
        "Href": "https://access.redhat.com/security/cve/CVE-2015-9289",
        "Public": "20190727"
      },
      {
        "XMLName": {
          "Space": "http://oval.mitre.org/XMLSchema/oval-definitions-5",
          "Local": "cve"
        },
        "CveID": "CVE-2017-17807",
        "Cvss2": "",
        "Cvss3": "3.3/CVSS:3.0/AV:L/AC:L/PR:L/UI:N/S:U/C:N/I:L/A:N",
        "Cwe": "CWE-862",
        "Impact": "",
        "Href": "https://access.redhat.com/security/cve/CVE-2017-17807",
        "Public": "20171208"
      },
      {
        "XMLName": {
          "Space": "http://oval.mitre.org/XMLSchema/oval-definitions-5",
          "Local": "cve"
        },
        "CveID": "CVE-2018-19985",
        "Cvss2": "",
        "Cvss3": "4.6/CVSS:3.0/AV:P/AC:L/PR:N/UI:N/S:U/C:N/I:N/A:H",
        "Cwe": "CWE-125",
        "Impact": "low",
        "Href": "https://access.redhat.com/security/cve/CVE-2018-19985",
        "Public": "20181212"
      },
      {
        "XMLName": {
          "Space": "http://oval.mitre.org/XMLSchema/oval-definitions-5",
          "Local": "cve"
        },
        "CveID": "CVE-2018-20169",
        "Cvss2": "",
        "Cvss3": "6.4/CVSS:3.0/AV:P/AC:H/PR:N/UI:N/S:U/C:H/I:H/A:H",
        "Cwe": "CWE-787",
        "Impact": "",
        "Href": "https://access.redhat.com/security/cve/CVE-2018-20169",
        "Public": "20181205"
      },
      {
        "XMLName": {
          "Space": "http://oval.mitre.org/XMLSchema/oval-definitions-5",
          "Local": "cve"
        },
        "CveID": "CVE-2018-7191",
        "Cvss2": "",
        "Cvss3": "6.2/CVSS:3.0/AV:L/AC:L/PR:N/UI:N/S:U/C:N/I:N/A:H",
        "Cwe": "CWE-400 CWE-476",
        "Impact": "",
        "Href": "https://access.redhat.com/security/cve/CVE-2018-7191",
        "Public": "20180117"
      },
      {
        "XMLName": {
          "Space": "http://oval.mitre.org/XMLSchema/oval-definitions-5",
          "Local": "cve"
        },
        "CveID": "CVE-2019-10207",
        "Cvss2": "",
        "Cvss3": "4.7/CVSS:3.0/AV:L/AC:H/PR:L/UI:N/S:U/C:N/I:N/A:H",
        "Cwe": "CWE-476",
        "Impact": "",
        "Href": "https://access.redhat.com/security/cve/CVE-2019-10207",
        "Public": "20190729:1300"
      },
      {
        "XMLName": {
          "Space": "http://oval.mitre.org/XMLSchema/oval-definitions-5",
          "Local": "cve"
        },
        "CveID": "CVE-2019-10638",
        "Cvss2": "",
        "Cvss3": "3.7/CVSS:3.0/AV:N/AC:H/PR:N/UI:N/S:U/C:L/I:N/A:N",
        "Cwe": "CWE-331 CWE-200",
        "Impact": "low",
        "Href": "https://access.redhat.com/security/cve/CVE-2019-10638",
        "Public": "20190715"
      },
      {
        "XMLName": {
          "Space": "http://oval.mitre.org/XMLSchema/oval-definitions-5",
          "Local": "cve"
        },
        "CveID": "CVE-2019-10639",
        "Cvss2": "",
        "Cvss3": "3.7/CVSS:3.0/AV:N/AC:H/PR:N/UI:N/S:U/C:L/I:N/A:N",
        "Cwe": "CWE-200",
        "Impact": "low",
        "Href": "https://access.redhat.com/security/cve/CVE-2019-10639",
        "Public": "20190715"
      },
      {
        "XMLName": {
          "Space": "http://oval.mitre.org/XMLSchema/oval-definitions-5",
          "Local": "cve"
        },
        "CveID": "CVE-2019-11190",
        "Cvss2": "",
        "Cvss3": "3.3/CVSS:3.0/AV:L/AC:L/PR:L/UI:N/S:U/C:L/I:N/A:N",
        "Cwe": "CWE-250",
        "Impact": "low",
        "Href": "https://access.redhat.com/security/cve/CVE-2019-11190",
        "Public": "20190403"
      },
      {
        "XMLName": {
          "Space": "http://oval.mitre.org/XMLSchema/oval-definitions-5",
          "Local": "cve"
        },
        "CveID": "CVE-2019-11884",
        "Cvss2": "",
        "Cvss3": "6.8/CVSS:3.0/AV:A/AC:L/PR:L/UI:N/S:U/C:H/I:L/A:L",
        "Cwe": "CWE-200",
        "Impact": "",
        "Href": "https://access.redhat.com/security/cve/CVE-2019-11884",
        "Public": "20190510"
      },
      {
        "XMLName": {
          "Space": "http://oval.mitre.org/XMLSchema/oval-definitions-5",
          "Local": "cve"
        },
        "CveID": "CVE-2019-12382",
        "Cvss2": "",
        "Cvss3": "5.5/CVSS:3.0/AV:L/AC:L/PR:L/UI:N/S:U/C:N/I:N/A:H",
        "Cwe": "CWE-253 CWE-476",
        "Impact": "",
        "Href": "https://access.redhat.com/security/cve/CVE-2019-12382",
        "Public": "20190524"
      },
      {
        "XMLName": {
          "Space": "http://oval.mitre.org/XMLSchema/oval-definitions-5",
          "Local": "cve"
        },
        "CveID": "CVE-2019-13233",
        "Cvss2": "",
        "Cvss3": "5.1/CVSS:3.0/AV:L/AC:L/PR:N/UI:N/S:U/C:L/I:L/A:N",
        "Cwe": "CWE-416",
        "Impact": "",
        "Href": "https://access.redhat.com/security/cve/CVE-2019-13233",
        "Public": "20190704"
      },
      {
        "XMLName": {
          "Space": "http://oval.mitre.org/XMLSchema/oval-definitions-5",
          "Local": "cve"
        },
        "CveID": "CVE-2019-14283",
        "Cvss2": "",
        "Cvss3": "5.6/CVSS:3.0/AV:L/AC:L/PR:L/UI:R/S:U/C:L/I:N/A:H",
        "Cwe": "CWE-190 CWE-125",
        "Impact": "",
        "Href": "https://access.redhat.com/security/cve/CVE-2019-14283",
        "Public": "20190726"
      },
      {
        "XMLName": {
          "Space": "http://oval.mitre.org/XMLSchema/oval-definitions-5",
          "Local": "cve"
        },
        "CveID": "CVE-2019-14815",
        "Cvss2": "",
        "Cvss3": "7.8/CVSS:3.0/AV:L/AC:L/PR:L/UI:N/S:U/C:H/I:H/A:H",
        "Cwe": "CWE-122",
        "Impact": "",
        "Href": "https://access.redhat.com/security/cve/CVE-2019-14815",
        "Public": "20190828:1000"
      },
      {
        "XMLName": {
          "Space": "http://oval.mitre.org/XMLSchema/oval-definitions-5",
          "Local": "cve"
        },
        "CveID": "CVE-2019-15221",
        "Cvss2": "",
        "Cvss3": "4.6/CVSS:3.0/AV:P/AC:L/PR:N/UI:N/S:U/C:N/I:N/A:H",
        "Cwe": "CWE-119",
        "Impact": "low",
        "Href": "https://access.redhat.com/security/cve/CVE-2019-15221",
        "Public": "20190802"
      },
      {
        "XMLName": {
          "Space": "http://oval.mitre.org/XMLSchema/oval-definitions-5",
          "Local": "cve"
        },
        "CveID": "CVE-2019-15916",
        "Cvss2": "",
        "Cvss3": "5.5/CVSS:3.0/AV:L/AC:L/PR:L/UI:N/S:U/C:N/I:N/A:H",
        "Cwe": "CWE-400",
        "Impact": "",
        "Href": "https://access.redhat.com/security/cve/CVE-2019-15916",
        "Public": "20190904"
      },
      {
        "XMLName": {
          "Space": "http://oval.mitre.org/XMLSchema/oval-definitions-5",
          "Local": "cve"
        },
        "CveID": "CVE-2019-16746",
        "Cvss2": "",
        "Cvss3": "8.4/CVSS:3.1/AV:L/AC:L/PR:N/UI:N/S:U/C:H/I:H/A:H",
        "Cwe": "CWE-120",
        "Impact": "",
        "Href": "https://access.redhat.com/security/cve/CVE-2019-16746",
        "Public": "20190911"
      },
      {
        "XMLName": {
          "Space": "http://oval.mitre.org/XMLSchema/oval-definitions-5",
          "Local": "cve"
        },
        "CveID": "CVE-2019-3901",
        "Cvss2": "",
        "Cvss3": "5.6/CVSS:3.0/AV:L/AC:H/PR:L/UI:N/S:C/C:H/I:N/A:N",
        "Cwe": "CWE-667",
        "Impact": "",
        "Href": "https://access.redhat.com/security/cve/CVE-2019-3901",
        "Public": "20160425"
      },
      {
        "XMLName": {
          "Space": "http://oval.mitre.org/XMLSchema/oval-definitions-5",
          "Local": "cve"
        },
        "CveID": "CVE-2019-9503",
        "Cvss2": "",
        "Cvss3": "5.9/CVSS:3.0/AV:A/AC:H/PR:N/UI:N/S:U/C:N/I:L/A:H",
        "Cwe": "CWE-20",
        "Impact": "",
        "Href": "https://access.redhat.com/security/cve/CVE-2019-9503",
        "Public": "20190219"
      }
    ],
    "Bugzillas": [
      {
        "XMLName": {
          "Space": "http://oval.mitre.org/XMLSchema/oval-definitions-5",
          "Local": "bugzilla"
        },
        "ID": "1528335",
        "URL": "https://bugzilla.redhat.com/1528335",
        "Title": "CVE-2017-17807 kernel: Missing permissions check for request_key() destination allows local attackers to add keys to keyring without Write permission"
      },
      {
        "XMLName": {
          "Space": "http://oval.mitre.org/XMLSchema/oval-definitions-5",
          "Local": "bugzilla"
        },
        "ID": "1550584",
        "URL": "https://bugzilla.redhat.com/1550584",
        "Title": "spurious ktimersoftd wake ups increases latency (rhel-rt 7)"
      },
      {
        "XMLName": {
          "Space": "http://oval.mitre.org/XMLSchema/oval-definitions-5",
          "Local": "bugzilla"
        },
        "ID": "1660385",
        "URL": "https://bugzilla.redhat.com/1660385",
        "Title": "CVE-2018-20169 kernel: usb: missing size check in the __usb_get_extra_descriptor() leading to DoS"
      },
      {
        "XMLName": {
          "Space": "http://oval.mitre.org/XMLSchema/oval-definitions-5",
          "Local": "bugzilla"
        },
        "ID": "1666106",
        "URL": "https://bugzilla.redhat.com/1666106",
        "Title": "CVE-2018-19985 kernel: oob memory read in hso_probe in drivers/net/usb/hso.c"
      },
      {
        "XMLName": {
          "Space": "http://oval.mitre.org/XMLSchema/oval-definitions-5",
          "Local": "bugzilla"
        },
        "ID": "1690543",
        "URL": "https://bugzilla.redhat.com/1690543",
        "Title": "8 vCPU guest need max latency \u003c 20 us with stress"
      },
      {
        "XMLName": {
          "Space": "http://oval.mitre.org/XMLSchema/oval-definitions-5",
          "Local": "bugzilla"
        },
        "ID": "1696087",
        "URL": "https://bugzilla.redhat.com/1696087",
        "Title": "BUG: scheduling while atomic in zswap"
      },
      {
        "XMLName": {
          "Space": "http://oval.mitre.org/XMLSchema/oval-definitions-5",
          "Local": "bugzilla"
        },
        "ID": "1699438",
        "URL": "https://bugzilla.redhat.com/1699438",
        "Title": "add_timer_on on remote CPUs not firing"
      },
      {
        "XMLName": {
          "Space": "http://oval.mitre.org/XMLSchema/oval-definitions-5",
          "Local": "bugzilla"
        },
        "ID": "1699856",
        "URL": "https://bugzilla.redhat.com/1699856",
        "Title": "CVE-2019-11190 kernel: ASLR bypass for setuid binaries due to late install_exec_creds()"
      },
      {
        "XMLName": {
          "Space": "http://oval.mitre.org/XMLSchema/oval-definitions-5",
          "Local": "bugzilla"
        },
        "ID": "1701245",
        "URL": "https://bugzilla.redhat.com/1701245",
        "Title": "CVE-2019-3901 kernel: perf_event_open() and execve() race in setuid programs allows a data leak"
      },
      {
        "XMLName": {
          "Space": "http://oval.mitre.org/XMLSchema/oval-definitions-5",
          "Local": "bugzilla"
        },
        "ID": "1701842",
        "URL": "https://bugzilla.redhat.com/1701842",
        "Title": "CVE-2019-9503 kernel: brcmfmac frame validation bypass"
      },
      {
        "XMLName": {
          "Space": "http://oval.mitre.org/XMLSchema/oval-definitions-5",
          "Local": "bugzilla"
        },
        "ID": "1708718",
        "URL": "https://bugzilla.redhat.com/1708718",
        "Title": "RT: update kernel-rt source tree to match RHEL 7.8 tree"
      },
      {
        "XMLName": {
          "Space": "http://oval.mitre.org/XMLSchema/oval-definitions-5",
          "Local": "bugzilla"
        },
        "ID": "1709837",
        "URL": "https://bugzilla.redhat.com/1709837",
        "Title": "CVE-2019-11884 kernel: sensitive information disclosure from kernel stack memory via HIDPCONNADD command"
      },
      {
        "XMLName": {
          "Space": "http://oval.mitre.org/XMLSchema/oval-definitions-5",
          "Local": "bugzilla"
        },
        "ID": "1715554",
        "URL": "https://bugzilla.redhat.com/1715554",
        "Title": "CVE-2019-12382 kernel: unchecked kstrdup of fwstr in drm_load_edid_firmware leads to denial of service"
      },
      {
        "XMLName": {
          "Space": "http://oval.mitre.org/XMLSchema/oval-definitions-5",
          "Local": "bugzilla"
        },
        "ID": "1716328",
        "URL": "https://bugzilla.redhat.com/1716328",
        "Title": "CVE-2018-7191 kernel: denial of service via ioctl call in network tun handling"
      },
      {
        "XMLName": {
          "Space": "http://oval.mitre.org/XMLSchema/oval-definitions-5",
          "Local": "bugzilla"
        },
        "ID": "1727756",
        "URL": "https://bugzilla.redhat.com/1727756",
        "Title": "CVE-2019-13233 kernel: use-after-free in arch/x86/lib/insn-eval.c"
      },
      {
        "XMLName": {
          "Space": "http://oval.mitre.org/XMLSchema/oval-definitions-5",
          "Local": "bugzilla"
        },
        "ID": "1729931",
        "URL": "https://bugzilla.redhat.com/1729931",
        "Title": "CVE-2019-10638 Kernel: net: weak IP ID generation leads to remote device tracking"
      },
      {
        "XMLName": {
          "Space": "http://oval.mitre.org/XMLSchema/oval-definitions-5",
          "Local": "bugzilla"
        },
        "ID": "1729933",
        "URL": "https://bugzilla.redhat.com/1729933",
        "Title": "CVE-2019-10639 Kernel: net: using kernel space address bits to derive IP ID may potentially break KASLR"
      },
      {
        "XMLName": {
          "Space": "http://oval.mitre.org/XMLSchema/oval-definitions-5",
          "Local": "bugzilla"
        },
        "ID": "1733874",
        "URL": "https://bugzilla.redhat.com/1733874",
        "Title": "CVE-2019-10207 kernel: null-pointer dereference in hci_uart_set_flow_control"
      },
      {
        "XMLName": {
          "Space": "http://oval.mitre.org/XMLSchema/oval-definitions-5",
          "Local": "bugzilla"
        },
        "ID": "1734243",
        "URL": "https://bugzilla.redhat.com/1734243",
        "Title": "CVE-2019-14283 kernel: integer overflow and OOB read in drivers/block/floppy.c"
      },
      {
        "XMLName": {
          "Space": "http://oval.mitre.org/XMLSchema/oval-definitions-5",
          "Local": "bugzilla"
        },
        "ID": "1735655",
        "URL": "https://bugzilla.redhat.com/1735655",
        "Title": "CVE-2015-9289 kernel: out of bound read in DVB connexant driver."
      },
      {
        "XMLName": {
          "Space": "http://oval.mitre.org/XMLSchema/oval-definitions-5",
          "Local": "bugzilla"
        },
        "ID": "1741775",
        "URL": "https://bugzilla.redhat.com/1741775",
        "Title": "crypto_rfc4543_encrypt: BUG: sleeping function called from invalid context at kernel/rtmutex.c:883"
      },
      {
        "XMLName": {
          "Space": "http://oval.mitre.org/XMLSchema/oval-definitions-5",
          "Local": "bugzilla"
        },
        "ID": "1750813",
        "URL": "https://bugzilla.redhat.com/1750813",
        "Title": "CVE-2019-15916 kernel: memory leak in register_queue_kobjects() in net/core/net-sysfs.c leads to denial of service"
      },
      {
        "XMLName": {
          "Space": "http://oval.mitre.org/XMLSchema/oval-definitions-5",
          "Local": "bugzilla"
        },
        "ID": "1751083",
        "URL": "https://bugzilla.redhat.com/1751083",
        "Title": "kernel:unregister_netdevice: waiting for veth0_client to become free. Usage count = 1"
      },
      {
        "XMLName": {
          "Space": "http://oval.mitre.org/XMLSchema/oval-definitions-5",
          "Local": "bugzilla"
        },
        "ID": "1760306",
        "URL": "https://bugzilla.redhat.com/1760306",
        "Title": "CVE-2019-16746 kernel: buffer-overflow hardening in WiFi beacon validation code."
      },
      {
        "XMLName": {
          "Space": "http://oval.mitre.org/XMLSchema/oval-definitions-5",
          "Local": "bugzilla"
        },
        "ID": "1772894",
        "URL": "https://bugzilla.redhat.com/1772894",
        "Title": "kvm nx_huge_pages_recovery_ratio=0 is needed to meet KVM-RT low latency requirement"
      }
    ],
    "AffectedCPEList": [
      "cpe:/a:redhat:rhel_extras_rt:7",
      "cpe:/a:redhat:rhel_extras_rt:7"
    ],
    "Issued": {
      "Date": "2020-03-31"
    },
    "Updated": {
      "Date": "2020-03-31"
    }
  },
  "Criteria": {
    "XMLName": {
      "Space": "http://oval.mitre.org/XMLSchema/oval-definitions-5",
      "Local": "criteria"
    },
    "Operator": "OR",
    "Criterias": [
      {
        "XMLName": {
          "Space": "http://oval.mitre.org/XMLSchema/oval-definitions-5",
          "Local": "criteria"
        },
        "Operator": "AND",
        "Criterias": [
          {
            "XMLName": {
              "Space": "http://oval.mitre.org/XMLSchema/oval-definitions-5",
              "Local": "criteria"
            },
            "Operator": "OR",
            "Criterias": null,
            "Criterions": [
              {
                "XMLName": {
                  "Space": "http://oval.mitre.org/XMLSchema/oval-definitions-5",
                  "Local": "criterion"
                },
                "Negate": false,
                "TestRef": "oval:com.redhat.rhsa:tst:20201016033",
                "Comment": "kernel-rt earlier than 0:3.10.0-1127.rt56.1093.el7 is currently running"
              },
              {
                "XMLName": {
                  "Space": "http://oval.mitre.org/XMLSchema/oval-definitions-5",
                  "Local": "criterion"
                },
                "Negate": false,
                "TestRef": "oval:com.redhat.rhsa:tst:20201070022",
                "Comment": "kernel-rt earlier than 0:3.10.0-1127.rt56.1093.el7 is set to boot up on next boot"
              }
            ]
          },
          {
            "XMLName": {
              "Space": "http://oval.mitre.org/XMLSchema/oval-definitions-5",
              "Local": "criteria"
            },
            "Operator": "OR",
            "Criterias": [
              {
                "XMLName": {
                  "Space": "http://oval.mitre.org/XMLSchema/oval-definitions-5",
                  "Local": "criteria"
                },
                "Operator": "AND",
                "Criterias": null,
                "Criterions": [
                  {
                    "XMLName": {
                      "Space": "http://oval.mitre.org/XMLSchema/oval-definitions-5",
                      "Local": "criterion"
                    },
                    "Negate": false,
                    "TestRef": "oval:com.redhat.rhsa:tst:20201070001",
                    "Comment": "kernel-rt is earlier than 0:3.10.0-1127.rt56.1093.el7"
                  },
                  {
                    "XMLName": {
                      "Space": "http://oval.mitre.org/XMLSchema/oval-definitions-5",
                      "Local": "criterion"
                    },
                    "Negate": false,
                    "TestRef": "oval:com.redhat.rhsa:tst:20150727002",
                    "Comment": "kernel-rt is signed with Red Hat redhatrelease2 key"
                  }
                ]
              },
              {
                "XMLName": {
                  "Space": "http://oval.mitre.org/XMLSchema/oval-definitions-5",
                  "Local": "criteria"
                },
                "Operator": "AND",
                "Criterias": null,
                "Criterions": [
                  {
                    "XMLName": {
                      "Space": "http://oval.mitre.org/XMLSchema/oval-definitions-5",
                      "Local": "criterion"
                    },
                    "Negate": false,
                    "TestRef": "oval:com.redhat.rhsa:tst:20201070003",
                    "Comment": "kernel-rt-debug is earlier than 0:3.10.0-1127.rt56.1093.el7"
                  },
                  {
                    "XMLName": {
                      "Space": "http://oval.mitre.org/XMLSchema/oval-definitions-5",
                      "Local": "criterion"
                    },
                    "Negate": false,
                    "TestRef": "oval:com.redhat.rhsa:tst:20150727004",
                    "Comment": "kernel-rt-debug is signed with Red Hat redhatrelease2 key"
                  }
                ]
              },
              {
                "XMLName": {
                  "Space": "http://oval.mitre.org/XMLSchema/oval-definitions-5",
                  "Local": "criteria"
                },
                "Operator": "AND",
                "Criterias": null,
                "Criterions": [
                  {
                    "XMLName": {
                      "Space": "http://oval.mitre.org/XMLSchema/oval-definitions-5",
                      "Local": "criterion"
                    },
                    "Negate": false,
                    "TestRef": "oval:com.redhat.rhsa:tst:20201070005",
                    "Comment": "kernel-rt-debug-devel is earlier than 0:3.10.0-1127.rt56.1093.el7"
                  },
                  {
                    "XMLName": {
                      "Space": "http://oval.mitre.org/XMLSchema/oval-definitions-5",
                      "Local": "criterion"
                    },
                    "Negate": false,
                    "TestRef": "oval:com.redhat.rhsa:tst:20150727006",
                    "Comment": "kernel-rt-debug-devel is signed with Red Hat redhatrelease2 key"
                  }
                ]
              },
              {
                "XMLName": {
                  "Space": "http://oval.mitre.org/XMLSchema/oval-definitions-5",
                  "Local": "criteria"
                },
                "Operator": "AND",
                "Criterias": null,
                "Criterions": [
                  {
                    "XMLName": {
                      "Space": "http://oval.mitre.org/XMLSchema/oval-definitions-5",
                      "Local": "criterion"
                    },
                    "Negate": false,
                    "TestRef": "oval:com.redhat.rhsa:tst:20201070007",
                    "Comment": "kernel-rt-debug-kvm is earlier than 0:3.10.0-1127.rt56.1093.el7"
                  },
                  {
                    "XMLName": {
                      "Space": "http://oval.mitre.org/XMLSchema/oval-definitions-5",
                      "Local": "criterion"
                    },
                    "Negate": false,
                    "TestRef": "oval:com.redhat.rhsa:tst:20160212008",
                    "Comment": "kernel-rt-debug-kvm is signed with Red Hat redhatrelease2 key"
                  }
                ]
              },
              {
                "XMLName": {
                  "Space": "http://oval.mitre.org/XMLSchema/oval-definitions-5",
                  "Local": "criteria"
                },
                "Operator": "AND",
                "Criterias": null,
                "Criterions": [
                  {
                    "XMLName": {
                      "Space": "http://oval.mitre.org/XMLSchema/oval-definitions-5",
                      "Local": "criterion"
                    },
                    "Negate": false,
                    "TestRef": "oval:com.redhat.rhsa:tst:20201070009",
                    "Comment": "kernel-rt-devel is earlier than 0:3.10.0-1127.rt56.1093.el7"
                  },
                  {
                    "XMLName": {
                      "Space": "http://oval.mitre.org/XMLSchema/oval-definitions-5",
                      "Local": "criterion"
                    },
                    "Negate": false,
                    "TestRef": "oval:com.redhat.rhsa:tst:20150727008",
                    "Comment": "kernel-rt-devel is signed with Red Hat redhatrelease2 key"
                  }
                ]
              },
              {
                "XMLName": {
                  "Space": "http://oval.mitre.org/XMLSchema/oval-definitions-5",
                  "Local": "criteria"
                },
                "Operator": "AND",
                "Criterias": null,
                "Criterions": [
                  {
                    "XMLName": {
                      "Space": "http://oval.mitre.org/XMLSchema/oval-definitions-5",
                      "Local": "criterion"
                    },
                    "Negate": false,
                    "TestRef": "oval:com.redhat.rhsa:tst:20201070011",
                    "Comment": "kernel-rt-doc is earlier than 0:3.10.0-1127.rt56.1093.el7"
                  },
                  {
                    "XMLName": {
                      "Space": "http://oval.mitre.org/XMLSchema/oval-definitions-5",
                      "Local": "criterion"
                    },
                    "Negate": false,
                    "TestRef": "oval:com.redhat.rhsa:tst:20150727010",
                    "Comment": "kernel-rt-doc is signed with Red Hat redhatrelease2 key"
                  }
                ]
              },
              {
                "XMLName": {
                  "Space": "http://oval.mitre.org/XMLSchema/oval-definitions-5",
                  "Local": "criteria"
                },
                "Operator": "AND",
                "Criterias": null,
                "Criterions": [
                  {
                    "XMLName": {
                      "Space": "http://oval.mitre.org/XMLSchema/oval-definitions-5",
                      "Local": "criterion"
                    },
                    "Negate": false,
                    "TestRef": "oval:com.redhat.rhsa:tst:20201070013",
                    "Comment": "kernel-rt-kvm is earlier than 0:3.10.0-1127.rt56.1093.el7"
                  },
                  {
                    "XMLName": {
                      "Space": "http://oval.mitre.org/XMLSchema/oval-definitions-5",
                      "Local": "criterion"
                    },
                    "Negate": false,
                    "TestRef": "oval:com.redhat.rhsa:tst:20160212014",
                    "Comment": "kernel-rt-kvm is signed with Red Hat redhatrelease2 key"
                  }
                ]
              },
              {
                "XMLName": {
                  "Space": "http://oval.mitre.org/XMLSchema/oval-definitions-5",
                  "Local": "criteria"
                },
                "Operator": "AND",
                "Criterias": null,
                "Criterions": [
                  {
                    "XMLName": {
                      "Space": "http://oval.mitre.org/XMLSchema/oval-definitions-5",
                      "Local": "criterion"
                    },
                    "Negate": false,
                    "TestRef": "oval:com.redhat.rhsa:tst:20201070015",
                    "Comment": "kernel-rt-trace is earlier than 0:3.10.0-1127.rt56.1093.el7"
                  },
                  {
                    "XMLName": {
                      "Space": "http://oval.mitre.org/XMLSchema/oval-definitions-5",
                      "Local": "criterion"
                    },
                    "Negate": false,
                    "TestRef": "oval:com.redhat.rhsa:tst:20150727012",
                    "Comment": "kernel-rt-trace is signed with Red Hat redhatrelease2 key"
                  }
                ]
              },
              {
                "XMLName": {
                  "Space": "http://oval.mitre.org/XMLSchema/oval-definitions-5",
                  "Local": "criteria"
                },
                "Operator": "AND",
                "Criterias": null,
                "Criterions": [
                  {
                    "XMLName": {
                      "Space": "http://oval.mitre.org/XMLSchema/oval-definitions-5",
                      "Local": "criterion"
                    },
                    "Negate": false,
                    "TestRef": "oval:com.redhat.rhsa:tst:20201070017",
                    "Comment": "kernel-rt-trace-devel is earlier than 0:3.10.0-1127.rt56.1093.el7"
                  },
                  {
                    "XMLName": {
                      "Space": "http://oval.mitre.org/XMLSchema/oval-definitions-5",
                      "Local": "criterion"
                    },
                    "Negate": false,
                    "TestRef": "oval:com.redhat.rhsa:tst:20150727014",
                    "Comment": "kernel-rt-trace-devel is signed with Red Hat redhatrelease2 key"
                  }
                ]
              },
              {
                "XMLName": {
                  "Space": "http://oval.mitre.org/XMLSchema/oval-definitions-5",
                  "Local": "criteria"
                },
                "Operator": "AND",
                "Criterias": null,
                "Criterions": [
                  {
                    "XMLName": {
                      "Space": "http://oval.mitre.org/XMLSchema/oval-definitions-5",
                      "Local": "criterion"
                    },
                    "Negate": false,
                    "TestRef": "oval:com.redhat.rhsa:tst:20201070019",
                    "Comment": "kernel-rt-trace-kvm is earlier than 0:3.10.0-1127.rt56.1093.el7"
                  },
                  {
                    "XMLName": {
                      "Space": "http://oval.mitre.org/XMLSchema/oval-definitions-5",
                      "Local": "criterion"
                    },
                    "Negate": false,
                    "TestRef": "oval:com.redhat.rhsa:tst:20160212020",
                    "Comment": "kernel-rt-trace-kvm is signed with Red Hat redhatrelease2 key"
                  }
                ]
              }
            ],
            "Criterions": null
          }
        ],
        "Criterions": [
          {
            "XMLName": {
              "Space": "http://oval.mitre.org/XMLSchema/oval-definitions-5",
              "Local": "criterion"
            },
            "Negate": false,
            "TestRef": "oval:com.redhat.rhba:tst:20150364027",
            "Comment": "Red Hat Enterprise Linux 7 is installed"
          }
        ]
      }
    ],
    "Criterions": [
      {
        "XMLName": {
          "Space": "http://oval.mitre.org/XMLSchema/oval-definitions-5",
          "Local": "criterion"
        },
        "Negate": false,
        "TestRef": "oval:com.redhat.rhba:tst:20150364028",
        "Comment": "Red Hat Enterprise Linux must be installed"
      }
    ]
  }
}