{
  "XMLName": {
    "Space": "http://oval.mitre.org/XMLSchema/oval-definitions-5",
    "Local": "definition"
  },
  "ID": "oval:com.redhat.rhsa:def:20203631",
  "Class": "patch",
  "Title": "RHSA-2020:3631: thunderbird security update (Important)",
  "Affecteds": [
    {
      "XMLName": {
        "Space": "http://oval.mitre.org/XMLSchema/oval-definitions-5",
        "Local": "affected"
      },
      "Family": "unix",
      "Platforms": [
        "Red Hat Enterprise Linux 7"
      ]
    }
  ],
  "References": [
    {
      "XMLName": {
        "Space": "http://oval.mitre.org/XMLSchema/oval-definitions-5",
        "Local": "reference"
      },
      "Source": "RHSA",
      "RefID": "RHSA-2020:3631",
      "RefURL": "https://access.redhat.com/errata/RHSA-2020:3631"
    },
    {
      "XMLName": {
        "Space": "http://oval.mitre.org/XMLSchema/oval-definitions-5",
        "Local": "reference"
      },
      "Source": "CVE",
      "RefID": "CVE-2020-15664",
      "RefURL": "https://access.redhat.com/security/cve/CVE-2020-15664"
    },
    {
      "XMLName": {
        "Space": "http://oval.mitre.org/XMLSchema/oval-definitions-5",
        "Local": "reference"
      },
      "Source": "CVE",
      "RefID": "CVE-2020-15669",
      "RefURL": "https://access.redhat.com/security/cve/CVE-2020-15669"
    }
  ],
  "Description": "Mozilla Thunderbird is a standalone mail and newsgroup client.\n\nThis update upgrades Thunderbird to version 68.12.0.\n\nSecurity Fix(es):\n\n* Mozilla: Attacker-induced prompt for extension installation (CVE-2020-15664)\n\n* Mozilla: Use-After-Free when aborting an operation (CVE-2020-15669)\n\nFor more details about the security issue(s), including the impact, a CVSS score, acknowledgments, and other related information, refer to the CVE page(s) listed in the References section.",
  "Advisory": {
    "XMLName": {
      "Space": "http://oval.mitre.org/XMLSchema/oval-definitions-5",
      "Local": "advisory"
    },
    "Severity": "Important",
    "Cves": [
      {
        "XMLName": {
          "Space": "http://oval.mitre.org/XMLSchema/oval-definitions-5",
          "Local": "cve"
        },
        "CveID": "CVE-2020-15664",
        "Cvss2": "",
        "Cvss3": "7.5/CVSS:3.0/AV:N/AC:H/PR:N/UI:R/S:U/C:H/I:H/A:H",
        "Cwe": "CWE-648",
        "Impact": "",
        "Href": "https://access.redhat.com/security/cve/CVE-2020-15664",
        "Public": "20200825"
      },
      {
        "XMLName": {
          "Space": "http://oval.mitre.org/XMLSchema/oval-definitions-5",
          "Local": "cve"
        },
        "CveID": "CVE-2020-15669",
        "Cvss2": "",
        "Cvss3": "8.8/CVSS:3.1/AV:N/AC:L/PR:N/UI:R/S:U/C:H/I:H/A:H",
        "Cwe": "CWE-416",
        "Impact": "",
        "Href": "https://access.redhat.com/security/cve/CVE-2020-15669",
        "Public": "20200825"
      }
    ],
    "Bugzillas": [
      {
        "XMLName": {
          "Space": "http://oval.mitre.org/XMLSchema/oval-definitions-5",
          "Local": "bugzilla"
        },
        "ID": "1872531",
        "URL": "https://bugzilla.redhat.com/1872531",
        "Title": "CVE-2020-15664 Mozilla: Attacker-induced prompt for extension installation"
      },
      {
        "XMLName": {
          "Space": "http://oval.mitre.org/XMLSchema/oval-definitions-5",
          "Local": "bugzilla"
        },
        "ID": "1872532",
        "URL": "https://bugzilla.redhat.com/1872532",
        "Title": "CVE-2020-15669 Mozilla: Use-After-Free when aborting an operation"
      }
    ],
    "AffectedCPEList": [
      "cpe:/o:redhat:enterprise_linux:7",
      "cpe:/o:redhat:enterprise_linux:7::client",
      "cpe:/o:redhat:enterprise_linux:7::server",
      "cpe:/o:redhat:enterprise_linux:7::workstation"
    ],
    "Issued": {
      "Date": "2020-09-07"
    },
    "Updated": {
      "Date": "2020-09-07"
    }
  },
  "Criteria": {
    "XMLName": {
      "Space": "http://oval.mitre.org/XMLSchema/oval-definitions-5",
      "Local": "criteria"
    },
    "Operator": "OR",
    "Criterias": [
      {
        "XMLName": {
          "Space": "http://oval.mitre.org/XMLSchema/oval-definitions-5",
          "Local": "criteria"
        },
        "Operator": "AND",
        "Criterias": null,
        "Criterions": [
          {
            "XMLName": {
              "Space": "http://oval.mitre.org/XMLSchema/oval-definitions-5",
              "Local": "criterion"
            },
            "Negate": false,
            "TestRef": "oval:com.redhat.rhba:tst:20150364027",
            "Comment": "Red Hat Enterprise Linux 7 is installed"
          },
          {
            "XMLName": {
              "Space": "http://oval.mitre.org/XMLSchema/oval-definitions-5",
              "Local": "criterion"
            },
            "Negate": false,
            "TestRef": "oval:com.redhat.rhsa:tst:20203631001",
            "Comment": "thunderbird is earlier than 0:68.12.0-1.el7_8"
          },
          {
            "XMLName": {
              "Space": "http://oval.mitre.org/XMLSchema/oval-definitions-5",
              "Local": "criterion"
            },
            "Negate": false,
            "TestRef": "oval:com.redhat.rhsa:tst:20150642002",
            "Comment": "thunderbird is signed with Red Hat redhatrelease2 key"
          }
        ]
      }
    ],
    "Criterions": [
      {
        "XMLName": {
          "Space": "http://oval.mitre.org/XMLSchema/oval-definitions-5",
          "Local": "criterion"
        },
        "Negate": false,
        "TestRef": "oval:com.redhat.rhba:tst:20150364028",
        "Comment": "Red Hat Enterprise Linux must be installed"
      }
    ]
  }
}