{
  "XMLName": {
    "Space": "http://oval.mitre.org/XMLSchema/oval-definitions-5",
    "Local": "definition"
  },
  "ID": "oval:com.redhat.rhsa:def:20203878",
  "Class": "patch",
  "Title": "RHSA-2020:3878: dnsmasq security and bug fix update (Low)",
  "Affecteds": [
    {
      "XMLName": {
        "Space": "http://oval.mitre.org/XMLSchema/oval-definitions-5",
        "Local": "affected"
      },
      "Family": "unix",
      "Platforms": [
        "Red Hat Enterprise Linux 7"
      ]
    }
  ],
  "References": [
    {
      "XMLName": {
        "Space": "http://oval.mitre.org/XMLSchema/oval-definitions-5",
        "Local": "reference"
      },
      "Source": "RHSA",
      "RefID": "RHSA-2020:3878",
      "RefURL": "https://access.redhat.com/errata/RHSA-2020:3878"
    },
    {
      "XMLName": {
        "Space": "http://oval.mitre.org/XMLSchema/oval-definitions-5",
        "Local": "reference"
      },
      "Source": "CVE",
      "RefID": "CVE-2019-14834",
      "RefURL": "https://access.redhat.com/security/cve/CVE-2019-14834"
    }
  ],
  "Description": "The dnsmasq packages contain Dnsmasq, a lightweight DNS (Domain Name Server) forwarder and DHCP (Dynamic Host Configuration Protocol) server.\n\nSecurity Fix(es):\n\n* dnsmasq: memory leak in the create_helper() function in /src/helper.c (CVE-2019-14834)\n\nFor more details about the security issue(s), including the impact, a CVSS score, acknowledgments, and other related information, refer to the CVE page(s) listed in the References section.\n\nAdditional Changes:\n\nFor detailed information on changes in this release, see the Red Hat Enterprise Linux 7.9 Release Notes linked from the References section.",
  "Advisory": {
    "XMLName": {
      "Space": "http://oval.mitre.org/XMLSchema/oval-definitions-5",
      "Local": "advisory"
    },
    "Severity": "Low",
    "Cves": [
      {
        "XMLName": {
          "Space": "http://oval.mitre.org/XMLSchema/oval-definitions-5",
          "Local": "cve"
        },
        "CveID": "CVE-2019-14834",
        "Cvss2": "",
        "Cvss3": "3.7/CVSS:3.0/AV:N/AC:H/PR:N/UI:N/S:U/C:N/I:N/A:L",
        "Cwe": "CWE-770",
        "Impact": "",
        "Href": "https://access.redhat.com/security/cve/CVE-2019-14834",
        "Public": "20191023"
      }
    ],
    "Bugzillas": [
      {
        "XMLName": {
          "Space": "http://oval.mitre.org/XMLSchema/oval-definitions-5",
          "Local": "bugzilla"
        },
        "ID": "1752569",
        "URL": "https://bugzilla.redhat.com/1752569",
        "Title": "[RHEL-7] Change dhcp_release to use default address when no IP subnet matches"
      },
      {
        "XMLName": {
          "Space": "http://oval.mitre.org/XMLSchema/oval-definitions-5",
          "Local": "bugzilla"
        },
        "ID": "1755610",
        "URL": "https://bugzilla.redhat.com/1755610",
        "Title": "dnsmasq not returning REFUSED to DNS queries without the recursion bit set"
      },
      {
        "XMLName": {
          "Space": "http://oval.mitre.org/XMLSchema/oval-definitions-5",
          "Local": "bugzilla"
        },
        "ID": "1757247",
        "URL": "https://bugzilla.redhat.com/1757247",
        "Title": "DHCPv6 relay-fwd requests are ignored by dnsmasq"
      },
      {
        "XMLName": {
          "Space": "http://oval.mitre.org/XMLSchema/oval-definitions-5",
          "Local": "bugzilla"
        },
        "ID": "1764425",
        "URL": "https://bugzilla.redhat.com/1764425",
        "Title": "CVE-2019-14834 dnsmasq: memory leak in the create_helper() function in /src/helper.c"
      },
      {
        "XMLName": {
          "Space": "http://oval.mitre.org/XMLSchema/oval-definitions-5",
          "Local": "bugzilla"
        },
        "ID": "1815080",
        "URL": "https://bugzilla.redhat.com/1815080",
        "Title": "Stop treating SERVFAIL as a successful response from upstream servers"
      }
    ],
    "AffectedCPEList": [
      "cpe:/o:redhat:enterprise_linux:7",
      "cpe:/o:redhat:enterprise_linux:7::client",
      "cpe:/o:redhat:enterprise_linux:7::computenode",
      "cpe:/o:redhat:enterprise_linux:7::server",
      "cpe:/o:redhat:enterprise_linux:7::workstation"
    ],
    "Issued": {
      "Date": "2020-09-29"
    },
    "Updated": {
      "Date": "2020-09-29"
    }
  },
  "Criteria": {
    "XMLName": {
      "Space": "http://oval.mitre.org/XMLSchema/oval-definitions-5",
      "Local": "criteria"
    },
    "Operator": "OR",
    "Criterias": [
      {
        "XMLName": {
          "Space": "http://oval.mitre.org/XMLSchema/oval-definitions-5",
          "Local": "criteria"
        },
        "Operator": "AND",
        "Criterias": [
          {
            "XMLName": {
              "Space": "http://oval.mitre.org/XMLSchema/oval-definitions-5",
              "Local": "criteria"
            },
            "Operator": "OR",
            "Criterias": [
              {
                "XMLName": {
                  "Space": "http://oval.mitre.org/XMLSchema/oval-definitions-5",
                  "Local": "criteria"
                },
                "Operator": "AND",
                "Criterias": null,
                "Criterions": [
                  {
                    "XMLName": {
                      "Space": "http://oval.mitre.org/XMLSchema/oval-definitions-5",
                      "Local": "criterion"
                    },
                    "Negate": false,
                    "TestRef": "oval:com.redhat.rhsa:tst:20203878001",
                    "Comment": "dnsmasq is earlier than 0:2.76-16.el7"
                  },
                  {
                    "XMLName": {
                      "Space": "http://oval.mitre.org/XMLSchema/oval-definitions-5",
                      "Local": "criterion"
                    },
                    "Negate": false,
                    "TestRef": "oval:com.redhat.rhba:tst:20172117002",
                    "Comment": "dnsmasq is signed with Red Hat redhatrelease2 key"
                  }
                ]
              },
              {
                "XMLName": {
                  "Space": "http://oval.mitre.org/XMLSchema/oval-definitions-5",
                  "Local": "criteria"
                },
                "Operator": "AND",
                "Criterias": null,
                "Criterions": [
                  {
                    "XMLName": {
                      "Space": "http://oval.mitre.org/XMLSchema/oval-definitions-5",
                      "Local": "criterion"
                    },
                    "Negate": false,
                    "TestRef": "oval:com.redhat.rhsa:tst:20203878003",
                    "Comment": "dnsmasq-utils is earlier than 0:2.76-16.el7"
                  },
                  {
                    "XMLName": {
                      "Space": "http://oval.mitre.org/XMLSchema/oval-definitions-5",
                      "Local": "criterion"
                    },
                    "Negate": false,
                    "TestRef": "oval:com.redhat.rhba:tst:20172117004",
                    "Comment": "dnsmasq-utils is signed with Red Hat redhatrelease2 key"
                  }
                ]
              }
            ],
            "Criterions": null
          }
        ],
        "Criterions": [
          {
            "XMLName": {
              "Space": "http://oval.mitre.org/XMLSchema/oval-definitions-5",
              "Local": "criterion"
            },
            "Negate": false,
            "TestRef": "oval:com.redhat.rhba:tst:20150364027",
            "Comment": "Red Hat Enterprise Linux 7 is installed"
          }
        ]
      }
    ],
    "Criterions": [
      {
        "XMLName": {
          "Space": "http://oval.mitre.org/XMLSchema/oval-definitions-5",
          "Local": "criterion"
        },
        "Negate": false,
        "TestRef": "oval:com.redhat.rhba:tst:20150364028",
        "Comment": "Red Hat Enterprise Linux must be installed"
      }
    ]
  }
}