{
  "XMLName": {
    "Space": "http://oval.mitre.org/XMLSchema/oval-definitions-5",
    "Local": "definition"
  },
  "ID": "oval:com.redhat.rhsa:def:20202432",
  "Class": "patch",
  "Title": "RHSA-2020:2432: microcode_ctl security, bug fix and enhancement update (Moderate)",
  "Affecteds": [
    {
      "XMLName": {
        "Space": "http://oval.mitre.org/XMLSchema/oval-definitions-5",
        "Local": "affected"
      },
      "Family": "unix",
      "Platforms": [
        "Red Hat Enterprise Linux 7"
      ]
    }
  ],
  "References": [
    {
      "XMLName": {
        "Space": "http://oval.mitre.org/XMLSchema/oval-definitions-5",
        "Local": "reference"
      },
      "Source": "RHSA",
      "RefID": "RHSA-2020:2432",
      "RefURL": "https://access.redhat.com/errata/RHSA-2020:2432"
    },
    {
      "XMLName": {
        "Space": "http://oval.mitre.org/XMLSchema/oval-definitions-5",
        "Local": "reference"
      },
      "Source": "CVE",
      "RefID": "CVE-2020-0543",
      "RefURL": "https://access.redhat.com/security/cve/CVE-2020-0543"
    },
    {
      "XMLName": {
        "Space": "http://oval.mitre.org/XMLSchema/oval-definitions-5",
        "Local": "reference"
      },
      "Source": "CVE",
      "RefID": "CVE-2020-0548",
      "RefURL": "https://access.redhat.com/security/cve/CVE-2020-0548"
    },
    {
      "XMLName": {
        "Space": "http://oval.mitre.org/XMLSchema/oval-definitions-5",
        "Local": "reference"
      },
      "Source": "CVE",
      "RefID": "CVE-2020-0549",
      "RefURL": "https://access.redhat.com/security/cve/CVE-2020-0549"
    }
  ],
  "Description": "Security Fix(es):\n\n* hw: Special Register Buffer Data Sampling (SRBDS) (CVE-2020-0543)\n\n* hw: L1D Cache Eviction Sampling (CVE-2020-0549)\n\n* hw: Vector Register Data Sampling (CVE-2020-0548)\n\nFor more details about the security issue(s), including the impact, a CVSS score, acknowledgments, and other related information, refer to the CVE page(s) listed in the References section.\n\nBug Fix(es):\n\n* Update Intel CPU microcode to microcode-20200602 release, addresses:\n  - Update of 06-2d-06/0x6d (SNB-E/EN/EP C1/M0) microcode from revision 0x61f\n    up to 0x621;\n  - Update of 06-2d-07/0x6d (SNB-E/EN/EP C2/M1) microcode from revision 0x718\n    up to 0x71a;\n  - Update of 06-3c-03/0x32 (HSW C0) microcode from revision 0x27 up to 0x28;\n  - Update of 06-3d-04/0xc0 (BDW-U/Y E0/F0) microcode from revision 0x2e\n    up to 0x2f;\n  - Update of 06-45-01/0x72 (HSW-U C0/D0) microcode from revision 0x25\n    up to 0x26;\n  - Update of 06-46-01/0x32 (HSW-H C0) microcode from revision 0x1b up to 0x1c;\n  - Update of 06-47-01/0x22 (BDW-H/Xeon E3 E0/G0) microcode from revision 0x21\n    up to 0x22;\n  - Update of 06-4e-03/0xc0 (SKL-U/Y D0) microcode from revision 0xd6\n    up to 0xdc;\n  - Update of 06-55-03/0x97 (SKX-SP B1) microcode from revision 0x1000151\n    up to 0x1000157;\n  - Update of 06-55-04/0xb7 (SKX-SP H0/M0/U0, SKX-D M1) microcode\n    (in intel-06-55-04/intel-ucode/06-55-04) from revision 0x2000065\n    up to 0x2006906;\n  - Update of 06-55-06/0xbf (CLX-SP B0) microcode from revision 0x400002c\n    up to 0x4002f01;\n  - Update of 06-55-07/0xbf (CLX-SP B1) microcode from revision 0x500002c\n    up to 0x5002f01;\n  - Update of 06-5e-03/0x36 (SKL-H/S R0/N0) microcode from revision 0xd6\n    up to 0xdc;\n  - Update of 06-7e-05/0x80 (ICL-U/Y D1) microcode from revision 0x46\n    up to 0x78;\n  - Update of 06-8e-09/0x10 (AML-Y22 H0) microcode from revision 0xca\n    up to 0xd6;\n  - Update of 06-8e-09/0xc0 (KBL-U/Y H0) microcode from revision 0xca\n    up to 0xd6;\n  - Update of 06-8e-0a/0xc0 (CFL-U43e D0) microcode from revision 0xca\n    up to 0xd6;\n  - Update of 06-8e-0b/0xd0 (WHL-U W0) microcode from revision 0xca\n    up to 0xd6;\n  - Update of 06-8e-0c/0x94 (AML-Y42 V0, CML-Y42 V0, WHL-U V0) microcode\n    from revision 0xca up to 0xd6;\n  - Update of 06-9e-09/0x2a (KBL-G/H/S/X/Xeon E3 B0) microcode from revision\n    0xca up to 0xd6;\n  - Update of 06-9e-0a/0x22 (CFL-H/S/Xeon E3 U0) microcode from revision 0xca\n    up to 0xd6;\n  - Update of 06-9e-0b/0x02 (CFL-S B0) microcode from revision 0xca up to 0xd6;\n  - Update of 06-9e-0c/0x22 (CFL-H/S P0) microcode from revision 0xca\n    up to 0xd6;\n  - Update of 06-9e-0d/0x22 (CFL-H R0) microcode from revision 0xca up to 0xd6.\n- Change the URL in the intel-microcode2ucode.8 to point to the GitHub\n  repository since the microcode download section at Intel Download Center\n  does not exist anymore.\n\n* Narrow down SKL-SP/W/X blacklist to exclude Server/FPGA/Fabric segment\n  models.\n\n* Re-generate initramfs not only for the currently running kernel,\n  but for several recently installed kernels as well.\n\n* Avoid find being SIGPIPE'd on early \"grep -q\" exit in the dracut script.\n\n* Update stale posttrans dependency, add triggers for proper handling\n  of the debug kernel flavour along with kernel-rt.",
  "Advisory": {
    "XMLName": {
      "Space": "http://oval.mitre.org/XMLSchema/oval-definitions-5",
      "Local": "advisory"
    },
    "Severity": "Moderate",
    "Cves": [
      {
        "XMLName": {
          "Space": "http://oval.mitre.org/XMLSchema/oval-definitions-5",
          "Local": "cve"
        },
        "CveID": "CVE-2020-0543",
        "Cvss2": "",
        "Cvss3": "6.5/CVSS:3.1/AV:L/AC:L/PR:L/UI:N/S:C/C:H/I:N/A:N",
        "Cwe": "",
        "Impact": "",
        "Href": "https://access.redhat.com/security/cve/CVE-2020-0543",
        "Public": "20200609:1700"
      },
      {
        "XMLName": {
          "Space": "http://oval.mitre.org/XMLSchema/oval-definitions-5",
          "Local": "cve"
        },
        "CveID": "CVE-2020-0548",
        "Cvss2": "",
        "Cvss3": "2.8/CVSS:3.0/AV:L/AC:H/PR:L/UI:N/S:C/C:L/I:N/A:N",
        "Cwe": "CWE-203 CWE-200",
        "Impact": "low",
        "Href": "https://access.redhat.com/security/cve/CVE-2020-0548",
        "Public": "20200127:1300"
      },
      {
        "XMLName": {
          "Space": "http://oval.mitre.org/XMLSchema/oval-definitions-5",
          "Local": "cve"
        },
        "CveID": "CVE-2020-0549",
        "Cvss2": "",
        "Cvss3": "6.5/CVSS:3.0/AV:L/AC:L/PR:L/UI:N/S:C/C:H/I:N/A:N",
        "Cwe": "CWE-203 CWE-200",
        "Impact": "",
        "Href": "https://access.redhat.com/security/cve/CVE-2020-0549",
        "Public": "20200127:1300"
      }
    ],
    "Bugzillas": [
      {
        "XMLName": {
          "Space": "http://oval.mitre.org/XMLSchema/oval-definitions-5",
          "Local": "bugzilla"
        },
        "ID": "1788786",
        "URL": "https://bugzilla.redhat.com/1788786",
        "Title": "CVE-2020-0548 hw: Vector Register Data Sampling"
      },
      {
        "XMLName": {
          "Space": "http://oval.mitre.org/XMLSchema/oval-definitions-5",
          "Local": "bugzilla"
        },
        "ID": "1788788",
        "URL": "https://bugzilla.redhat.com/1788788",
        "Title": "CVE-2020-0549 hw: L1D Cache Eviction Sampling"
      },
      {
        "XMLName": {
          "Space": "http://oval.mitre.org/XMLSchema/oval-definitions-5",
          "Local": "bugzilla"
        },
        "ID": "1827165",
        "URL": "https://bugzilla.redhat.com/1827165",
        "Title": "CVE-2020-0543 hw: Special Register Buffer Data Sampling (SRBDS)"
      }
    ],
    "AffectedCPEList": [
      "cpe:/o:redhat:enterprise_linux:7",
      "cpe:/o:redhat:enterprise_linux:7::client",
      "cpe:/o:redhat:enterprise_linux:7::computenode",
      "cpe:/o:redhat:enterprise_linux:7::server",
      "cpe:/o:redhat:enterprise_linux:7::workstation"
    ],
    "Issued": {
      "Date": "2020-06-10"
    },
    "Updated": {
      "Date": "2020-06-10"
    }
  },
  "Criteria": {
    "XMLName": {
      "Space": "http://oval.mitre.org/XMLSchema/oval-definitions-5",
      "Local": "criteria"
    },
    "Operator": "OR",
    "Criterias": [
      {
        "XMLName": {
          "Space": "http://oval.mitre.org/XMLSchema/oval-definitions-5",
          "Local": "criteria"
        },
        "Operator": "AND",
        "Criterias": null,
        "Criterions": [
          {
            "XMLName": {
              "Space": "http://oval.mitre.org/XMLSchema/oval-definitions-5",
              "Local": "criterion"
            },
            "Negate": false,
            "TestRef": "oval:com.redhat.rhba:tst:20150364027",
            "Comment": "Red Hat Enterprise Linux 7 is installed"
          },
          {
            "XMLName": {
              "Space": "http://oval.mitre.org/XMLSchema/oval-definitions-5",
              "Local": "criterion"
            },
            "Negate": false,
            "TestRef": "oval:com.redhat.rhsa:tst:20202432001",
            "Comment": "microcode_ctl is earlier than 2:2.1-61.6.el7_8"
          },
          {
            "XMLName": {
              "Space": "http://oval.mitre.org/XMLSchema/oval-definitions-5",
              "Local": "criterion"
            },
            "Negate": false,
            "TestRef": "oval:com.redhat.rhea:tst:20193846002",
            "Comment": "microcode_ctl is signed with Red Hat redhatrelease2 key"
          }
        ]
      }
    ],
    "Criterions": [
      {
        "XMLName": {
          "Space": "http://oval.mitre.org/XMLSchema/oval-definitions-5",
          "Local": "criterion"
        },
        "Negate": false,
        "TestRef": "oval:com.redhat.rhba:tst:20150364028",
        "Comment": "Red Hat Enterprise Linux must be installed"
      }
    ]
  }
}