{
  "XMLName": {
    "Space": "http://oval.mitre.org/XMLSchema/oval-definitions-5",
    "Local": "definition"
  },
  "ID": "oval:com.redhat.rhsa:def:20205083",
  "Class": "patch",
  "Title": "RHSA-2020:5083: microcode_ctl security, bug fix, and enhancement update (Moderate)",
  "Affecteds": [
    {
      "XMLName": {
        "Space": "http://oval.mitre.org/XMLSchema/oval-definitions-5",
        "Local": "affected"
      },
      "Family": "unix",
      "Platforms": [
        "Red Hat Enterprise Linux 7"
      ]
    }
  ],
  "References": [
    {
      "XMLName": {
        "Space": "http://oval.mitre.org/XMLSchema/oval-definitions-5",
        "Local": "reference"
      },
      "Source": "RHSA",
      "RefID": "RHSA-2020:5083",
      "RefURL": "https://access.redhat.com/errata/RHSA-2020:5083"
    },
    {
      "XMLName": {
        "Space": "http://oval.mitre.org/XMLSchema/oval-definitions-5",
        "Local": "reference"
      },
      "Source": "CVE",
      "RefID": "CVE-2020-8695",
      "RefURL": "https://access.redhat.com/security/cve/CVE-2020-8695"
    },
    {
      "XMLName": {
        "Space": "http://oval.mitre.org/XMLSchema/oval-definitions-5",
        "Local": "reference"
      },
      "Source": "CVE",
      "RefID": "CVE-2020-8696",
      "RefURL": "https://access.redhat.com/security/cve/CVE-2020-8696"
    },
    {
      "XMLName": {
        "Space": "http://oval.mitre.org/XMLSchema/oval-definitions-5",
        "Local": "reference"
      },
      "Source": "CVE",
      "RefID": "CVE-2020-8698",
      "RefURL": "https://access.redhat.com/security/cve/CVE-2020-8698"
    }
  ],
  "Description": "Security Fix(es):\n\n* hw: Information disclosure issue in Intel SGX via RAPL interface (CVE-2020-8695)\n\n* hw: Vector Register Leakage-Active (CVE-2020-8696)\n\n* hw: Fast forward store predictor (CVE-2020-8698)\n\nFor more details about the security issue(s), including the impact, a CVSS\nscore, acknowledgments, and other related information, refer to the CVE page(s)\nlisted in the References section.\n\nBug Fix(es) and Enhancement(s):\n\n* Update Intel CPU microcode to microcode-20201027 release, addresses:\n  - Addition of 06-55-0b/0xbf (CPX-SP A1) microcode at revision 0x700001e;\n  - Addition of 06-8c-01/0x80 (TGL-UP3/UP4 B1) microcode at revision 0x68;\n  - Addition of 06-a5-02/0x20 (CML-H R1) microcode at revision 0xe0;\n  - Addition of 06-a5-03/0x22 (CML-S 6+2 G1) microcode at revision 0xe0;\n  - Addition of 06-a5-05/0x22 (CML-S 10+2 Q0) microcode at revision 0xe0;\n  - Addition of 06-a6-01/0x80 (CML-U 6+2 v2 K0) microcode at revision\n    0xe0;\n  - Update of 06-4e-03/0xc0 (SKL-U/U 2+3e/Y D0/K1) microcode (in\n    intel-06-4e-03/intel-ucode/06-4e-03) from revision 0xdc up to 0xe2;\n  - Update of 06-55-04/0xb7 (SKX-D/SP/W/X H0/M0/M1/U0) microcode (in\n    intel-06-55-04/intel-ucode/06-55-04) from revision 0x2006906 up\n    to 0x2006a08;\n  - Update of 06-5e-03/0x36 (SKL-H/S/Xeon E3 N0/R0/S0) microcode (in\n    intel-06-5e-03/intel-ucode/06-5e-03) from revision 0xdc up to 0xe2;\n  - Update of 06-8e-09/0x10 (AML-Y 2+2 H0) microcode (in\n    intel-06-8e-9e-0x-dell/intel-ucode/06-8e-09) from revision 0xd6 up\n    to 0xde;\n  - Update of 06-8e-09/0xc0 (KBL-U/U 2+3e/Y H0/J1) microcode (in\n    intel-06-8e-9e-0x-dell/intel-ucode/06-8e-09) from revision 0xd6 up\n    to 0xde;\n  - Update of 06-8e-0a/0xc0 (CFL-U 4+3e D0, KBL-R Y0) microcode (in\n    intel-06-8e-9e-0x-dell/intel-ucode/06-8e-0a) from revision 0xd6 up\n    to 0xe0;\n  - Update of 06-8e-0b/0xd0 (WHL-U W0) microcode (in\n    intel-06-8e-9e-0x-dell/intel-ucode/06-8e-0b) from revision 0xd6 up\n    to 0xde;\n  - Update of 06-8e-0c/0x94 (AML-Y 4+2 V0, CML-U 4+2 V0, WHL-U V0)\n    microcode (in intel-06-8e-9e-0x-dell/intel-ucode/06-8e-0c) from\n    revision 0xd6 up to 0xde;\n  - Update of 06-9e-09/0x2a (KBL-G/H/S/X/Xeon E3 B0) microcode (in\n    intel-06-8e-9e-0x-dell/intel-ucode/06-9e-09) from revision 0xd6 up\n    to 0xde;\n  - Update of 06-9e-0a/0x22 (CFL-H/S/Xeon E U0) microcode (in\n    intel-06-8e-9e-0x-dell/intel-ucode/06-9e-0a) from revision 0xd6 up\n    to 0xde;\n  - Update of 06-9e-0b/0x02 (CFL-E/H/S B0) microcode (in\n    intel-06-8e-9e-0x-dell/intel-ucode/06-9e-0b) from revision 0xd6 up\n    to 0xde;\n  - Update of 06-9e-0c/0x22 (CFL-H/S/Xeon E P0) microcode (in\n    intel-06-8e-9e-0x-dell/intel-ucode/06-9e-0c) from revision 0xd6 up\n    to 0xde;\n  - Update of 06-9e-0d/0x22 (CFL-H/S/Xeon E R0) microcode (in\n    intel-06-8e-9e-0x-dell/intel-ucode/06-9e-0d) from revision 0xd6 up\n    to 0xde;\n  - Update of 06-3f-02/0x6f (HSX-E/EN/EP/EP 4S C0/C1/M1/R2) microcode\n    from revision 0x43 up to 0x44;\n  - Update of 06-55-03/0x97 (SKX-SP B1) microcode from revision 0x1000157\n    up to 0x1000159;\n  - Update of 06-55-06/0xbf (CLX-SP B0) microcode from revision 0x4002f01\n    up to 0x4003003;\n  - Update of 06-55-07/0xbf (CLX-SP/W/X B1/L1) microcode from revision\n    0x5002f01 up to 0x5003003;\n  - Update of 06-5c-09/0x03 (APL D0) microcode from revision 0x38 up\n    to 0x40;\n  - Update of 06-5c-0a/0x03 (APL B1/F1) microcode from revision 0x16 up\n    to 0x1e;\n  - Update of 06-7a-08/0x01 (GLK-R R0) microcode from revision 0x16 up\n    to 0x18;\n  - Update of 06-7e-05/0x80 (ICL-U/Y D1) microcode from revision 0x78\n    up to 0xa0;\n  - Update of 06-a6-00/0x80 (CML-U 6+2 A0) microcode from revision 0xca\n    up to 0xe0.\n\n* Add README file to the documentation directory.\n\n* Add publicly-sourced codenames list to supply to gen_provides.sh; update the latter to handle the somewhat different format.\n\n* Add SUMMARY.intel-ucode file containing metadata information from the microcode file headers.",
  "Advisory": {
    "XMLName": {
      "Space": "http://oval.mitre.org/XMLSchema/oval-definitions-5",
      "Local": "advisory"
    },
    "Severity": "Moderate",
    "Cves": [
      {
        "XMLName": {
          "Space": "http://oval.mitre.org/XMLSchema/oval-definitions-5",
          "Local": "cve"
        },
        "CveID": "CVE-2020-8695",
        "Cvss2": "",
        "Cvss3": "5.1/CVSS:3.1/AV:L/AC:H/PR:N/UI:N/S:U/C:H/I:N/A:N",
        "Cwe": "CWE-200",
        "Impact": "",
        "Href": "https://access.redhat.com/security/cve/CVE-2020-8695",
        "Public": "20201110"
      },
      {
        "XMLName": {
          "Space": "http://oval.mitre.org/XMLSchema/oval-definitions-5",
          "Local": "cve"
        },
        "CveID": "CVE-2020-8696",
        "Cvss2": "",
        "Cvss3": "2.8/CVSS:3.1/AV:L/AC:H/PR:L/UI:N/S:C/C:L/I:N/A:N",
        "Cwe": "CWE-212",
        "Impact": "",
        "Href": "https://access.redhat.com/security/cve/CVE-2020-8696",
        "Public": "20201110:1355"
      },
      {
        "XMLName": {
          "Space": "http://oval.mitre.org/XMLSchema/oval-definitions-5",
          "Local": "cve"
        },
        "CveID": "CVE-2020-8698",
        "Cvss2": "",
        "Cvss3": "5.5/CVSS:3.1/AV:L/AC:L/PR:L/UI:N/S:U/C:H/I:N/A:N",
        "Cwe": "CWE-212",
        "Impact": "",
        "Href": "https://access.redhat.com/security/cve/CVE-2020-8698",
        "Public": "20201110:1355"
      }
    ],
    "Bugzillas": [
      {
        "XMLName": {
          "Space": "http://oval.mitre.org/XMLSchema/oval-definitions-5",
          "Local": "bugzilla"
        },
        "ID": "1828583",
        "URL": "https://bugzilla.redhat.com/1828583",
        "Title": "CVE-2020-8695 hw: Information disclosure issue in Intel SGX via RAPL interface"
      },
      {
        "XMLName": {
          "Space": "http://oval.mitre.org/XMLSchema/oval-definitions-5",
          "Local": "bugzilla"
        },
        "ID": "1890355",
        "URL": "https://bugzilla.redhat.com/1890355",
        "Title": "CVE-2020-8696 hw: Vector Register Leakage-Active"
      },
      {
        "XMLName": {
          "Space": "http://oval.mitre.org/XMLSchema/oval-definitions-5",
          "Local": "bugzilla"
        },
        "ID": "1890356",
        "URL": "https://bugzilla.redhat.com/1890356",
        "Title": "CVE-2020-8698 hw: Fast forward store predictor"
      }
    ],
    "AffectedCPEList": [
      "cpe:/o:redhat:enterprise_linux:7",
      "cpe:/o:redhat:enterprise_linux:7::client",
      "cpe:/o:redhat:enterprise_linux:7::computenode",
      "cpe:/o:redhat:enterprise_linux:7::server",
      "cpe:/o:redhat:enterprise_linux:7::workstation"
    ],
    "Issued": {
      "Date": "2020-11-11"
    },
    "Updated": {
      "Date": "2020-11-11"
    }
  },
  "Criteria": {
    "XMLName": {
      "Space": "http://oval.mitre.org/XMLSchema/oval-definitions-5",
      "Local": "criteria"
    },
    "Operator": "OR",
    "Criterias": [
      {
        "XMLName": {
          "Space": "http://oval.mitre.org/XMLSchema/oval-definitions-5",
          "Local": "criteria"
        },
        "Operator": "AND",
        "Criterias": null,
        "Criterions": [
          {
            "XMLName": {
              "Space": "http://oval.mitre.org/XMLSchema/oval-definitions-5",
              "Local": "criterion"
            },
            "Negate": false,
            "TestRef": "oval:com.redhat.rhba:tst:20150364027",
            "Comment": "Red Hat Enterprise Linux 7 is installed"
          },
          {
            "XMLName": {
              "Space": "http://oval.mitre.org/XMLSchema/oval-definitions-5",
              "Local": "criterion"
            },
            "Negate": false,
            "TestRef": "oval:com.redhat.rhsa:tst:20205083001",
            "Comment": "microcode_ctl is earlier than 2:2.1-73.2.el7_9"
          },
          {
            "XMLName": {
              "Space": "http://oval.mitre.org/XMLSchema/oval-definitions-5",
              "Local": "criterion"
            },
            "Negate": false,
            "TestRef": "oval:com.redhat.rhea:tst:20193846002",
            "Comment": "microcode_ctl is signed with Red Hat redhatrelease2 key"
          }
        ]
      }
    ],
    "Criterions": [
      {
        "XMLName": {
          "Space": "http://oval.mitre.org/XMLSchema/oval-definitions-5",
          "Local": "criterion"
        },
        "Negate": false,
        "TestRef": "oval:com.redhat.rhba:tst:20150364028",
        "Comment": "Red Hat Enterprise Linux must be installed"
      }
    ]
  }
}