{
  "Title": "Security update for slurm",
  "Tracking": {
    "ID": "SUSE-SU-2020:3506-1",
    "Status": "Final",
    "Version": "1",
    "InitialReleaseDate": "2020-11-24T16:16:36Z",
    "CurrentReleaseDate": "2020-11-24T16:16:36Z",
    "RevisionHistory": [
      {
        "Number": "1",
        "Date": "2020-11-24T16:16:36Z",
        "Description": "current"
      }
    ]
  },
  "Notes": [
    {
      "Text": "Security update for slurm",
      "Title": "Topic",
      "Type": "Summary"
    },
    {
      "Text": "This update for slurm fixes the following issues:\n\n- Updated to 20.02.6:\n  * CVE-2020-27745: PMIx - fix potential buffer overflows from use of unpackmem() (bsc#1178890).\n  * CVE-2020-27746: X11 forwarding - fix potential leak of the magic cookie when \n    sent as an argument to the xauth command (bsc#1178891).\n  * Added support for openPMIx (bsc#1173805).\n",
      "Title": "Details",
      "Type": "General"
    },
    {
      "Text": "The CVRF data is provided by SUSE under the Creative Commons License 4.0 with Attribution for Non-Commercial usage (CC-BY-NC-4.0).",
      "Title": "Terms of Use",
      "Type": "Legal Disclaimer"
    }
  ],
  "ProductTree": {
    "Relationships": [
      {
        "ProductReference": "libnss_slurm2-20.02.6-3.3.4",
        "RelatesToProductReference": "SUSE Linux Enterprise Module for High Performance Computing 15 SP2",
        "RelationType": "Default Component Of"
      },
      {
        "ProductReference": "libpmi0-20.02.6-3.3.4",
        "RelatesToProductReference": "SUSE Linux Enterprise Module for High Performance Computing 15 SP2",
        "RelationType": "Default Component Of"
      },
      {
        "ProductReference": "libslurm35-20.02.6-3.3.4",
        "RelatesToProductReference": "SUSE Linux Enterprise Module for High Performance Computing 15 SP2",
        "RelationType": "Default Component Of"
      },
      {
        "ProductReference": "perl-slurm-20.02.6-3.3.4",
        "RelatesToProductReference": "SUSE Linux Enterprise Module for High Performance Computing 15 SP2",
        "RelationType": "Default Component Of"
      },
      {
        "ProductReference": "slurm-20.02.6-3.3.4",
        "RelatesToProductReference": "SUSE Linux Enterprise Module for High Performance Computing 15 SP2",
        "RelationType": "Default Component Of"
      },
      {
        "ProductReference": "slurm-auth-none-20.02.6-3.3.4",
        "RelatesToProductReference": "SUSE Linux Enterprise Module for High Performance Computing 15 SP2",
        "RelationType": "Default Component Of"
      },
      {
        "ProductReference": "slurm-config-20.02.6-3.3.4",
        "RelatesToProductReference": "SUSE Linux Enterprise Module for High Performance Computing 15 SP2",
        "RelationType": "Default Component Of"
      },
      {
        "ProductReference": "slurm-config-man-20.02.6-3.3.4",
        "RelatesToProductReference": "SUSE Linux Enterprise Module for High Performance Computing 15 SP2",
        "RelationType": "Default Component Of"
      },
      {
        "ProductReference": "slurm-devel-20.02.6-3.3.4",
        "RelatesToProductReference": "SUSE Linux Enterprise Module for High Performance Computing 15 SP2",
        "RelationType": "Default Component Of"
      },
      {
        "ProductReference": "slurm-doc-20.02.6-3.3.4",
        "RelatesToProductReference": "SUSE Linux Enterprise Module for High Performance Computing 15 SP2",
        "RelationType": "Default Component Of"
      },
      {
        "ProductReference": "slurm-lua-20.02.6-3.3.4",
        "RelatesToProductReference": "SUSE Linux Enterprise Module for High Performance Computing 15 SP2",
        "RelationType": "Default Component Of"
      },
      {
        "ProductReference": "slurm-munge-20.02.6-3.3.4",
        "RelatesToProductReference": "SUSE Linux Enterprise Module for High Performance Computing 15 SP2",
        "RelationType": "Default Component Of"
      },
      {
        "ProductReference": "slurm-node-20.02.6-3.3.4",
        "RelatesToProductReference": "SUSE Linux Enterprise Module for High Performance Computing 15 SP2",
        "RelationType": "Default Component Of"
      },
      {
        "ProductReference": "slurm-pam_slurm-20.02.6-3.3.4",
        "RelatesToProductReference": "SUSE Linux Enterprise Module for High Performance Computing 15 SP2",
        "RelationType": "Default Component Of"
      },
      {
        "ProductReference": "slurm-plugins-20.02.6-3.3.4",
        "RelatesToProductReference": "SUSE Linux Enterprise Module for High Performance Computing 15 SP2",
        "RelationType": "Default Component Of"
      },
      {
        "ProductReference": "slurm-slurmdbd-20.02.6-3.3.4",
        "RelatesToProductReference": "SUSE Linux Enterprise Module for High Performance Computing 15 SP2",
        "RelationType": "Default Component Of"
      },
      {
        "ProductReference": "slurm-sql-20.02.6-3.3.4",
        "RelatesToProductReference": "SUSE Linux Enterprise Module for High Performance Computing 15 SP2",
        "RelationType": "Default Component Of"
      },
      {
        "ProductReference": "slurm-sview-20.02.6-3.3.4",
        "RelatesToProductReference": "SUSE Linux Enterprise Module for High Performance Computing 15 SP2",
        "RelationType": "Default Component Of"
      },
      {
        "ProductReference": "slurm-torque-20.02.6-3.3.4",
        "RelatesToProductReference": "SUSE Linux Enterprise Module for High Performance Computing 15 SP2",
        "RelationType": "Default Component Of"
      },
      {
        "ProductReference": "slurm-webdoc-20.02.6-3.3.4",
        "RelatesToProductReference": "SUSE Linux Enterprise Module for High Performance Computing 15 SP2",
        "RelationType": "Default Component Of"
      }
    ]
  },
  "References": [
    {
      "URL": "https://www.suse.com/support/update/announcement/2020/suse-su-20203506-1/",
      "Description": "Link for SUSE-SU-2020:3506-1"
    },
    {
      "URL": "http://lists.suse.com/pipermail/sle-security-updates/2020-November/007850.html",
      "Description": "E-Mail link for SUSE-SU-2020:3506-1"
    },
    {
      "URL": "https://www.suse.com/support/security/rating/",
      "Description": "SUSE Security Ratings"
    }
  ],
  "Vulnerabilities": [
    {
      "CVE": "CVE-2020-27745",
      "Description": "Slurm before 19.05.8 and 20.x before 20.02.6 has an RPC Buffer Overflow in the PMIx MPI plugin.",
      "Threats": [
        {
          "Type": "Impact",
          "Severity": "moderate"
        }
      ],
      "References": [
        {
          "URL": "https://www.suse.com/security/cve/CVE-2020-27745.html",
          "Description": "CVE-2020-27745"
        },
        {
          "URL": "https://bugzilla.suse.com/1178890",
          "Description": "SUSE Bug 1178890"
        }
      ],
      "ProductStatuses": [
        {
          "Type": "Fixed",
          "ProductID": [
            "SUSE Linux Enterprise Module for High Performance Computing 15 SP2:libnss_slurm2-20.02.6-3.3.4",
            "SUSE Linux Enterprise Module for High Performance Computing 15 SP2:libpmi0-20.02.6-3.3.4",
            "SUSE Linux Enterprise Module for High Performance Computing 15 SP2:libslurm35-20.02.6-3.3.4",
            "SUSE Linux Enterprise Module for High Performance Computing 15 SP2:perl-slurm-20.02.6-3.3.4",
            "SUSE Linux Enterprise Module for High Performance Computing 15 SP2:slurm-20.02.6-3.3.4",
            "SUSE Linux Enterprise Module for High Performance Computing 15 SP2:slurm-auth-none-20.02.6-3.3.4",
            "SUSE Linux Enterprise Module for High Performance Computing 15 SP2:slurm-config-20.02.6-3.3.4",
            "SUSE Linux Enterprise Module for High Performance Computing 15 SP2:slurm-config-man-20.02.6-3.3.4",
            "SUSE Linux Enterprise Module for High Performance Computing 15 SP2:slurm-devel-20.02.6-3.3.4",
            "SUSE Linux Enterprise Module for High Performance Computing 15 SP2:slurm-doc-20.02.6-3.3.4",
            "SUSE Linux Enterprise Module for High Performance Computing 15 SP2:slurm-lua-20.02.6-3.3.4",
            "SUSE Linux Enterprise Module for High Performance Computing 15 SP2:slurm-munge-20.02.6-3.3.4",
            "SUSE Linux Enterprise Module for High Performance Computing 15 SP2:slurm-node-20.02.6-3.3.4",
            "SUSE Linux Enterprise Module for High Performance Computing 15 SP2:slurm-pam_slurm-20.02.6-3.3.4",
            "SUSE Linux Enterprise Module for High Performance Computing 15 SP2:slurm-plugins-20.02.6-3.3.4",
            "SUSE Linux Enterprise Module for High Performance Computing 15 SP2:slurm-slurmdbd-20.02.6-3.3.4",
            "SUSE Linux Enterprise Module for High Performance Computing 15 SP2:slurm-sql-20.02.6-3.3.4",
            "SUSE Linux Enterprise Module for High Performance Computing 15 SP2:slurm-sview-20.02.6-3.3.4",
            "SUSE Linux Enterprise Module for High Performance Computing 15 SP2:slurm-torque-20.02.6-3.3.4",
            "SUSE Linux Enterprise Module for High Performance Computing 15 SP2:slurm-webdoc-20.02.6-3.3.4"
          ]
        }
      ],
      "CVSSScoreSets": {}
    },
    {
      "CVE": "CVE-2020-27746",
      "Description": "Slurm before 19.05.8 and 20.x before 20.02.6 exposes Sensitive Information to an Unauthorized Actor because xauth for X11 magic cookies is affected by a race condition in a read operation on the /proc filesystem.",
      "Threats": [
        {
          "Type": "Impact",
          "Severity": "moderate"
        }
      ],
      "References": [
        {
          "URL": "https://www.suse.com/security/cve/CVE-2020-27746.html",
          "Description": "CVE-2020-27746"
        },
        {
          "URL": "https://bugzilla.suse.com/1178891",
          "Description": "SUSE Bug 1178891"
        }
      ],
      "ProductStatuses": [
        {
          "Type": "Fixed",
          "ProductID": [
            "SUSE Linux Enterprise Module for High Performance Computing 15 SP2:libnss_slurm2-20.02.6-3.3.4",
            "SUSE Linux Enterprise Module for High Performance Computing 15 SP2:libpmi0-20.02.6-3.3.4",
            "SUSE Linux Enterprise Module for High Performance Computing 15 SP2:libslurm35-20.02.6-3.3.4",
            "SUSE Linux Enterprise Module for High Performance Computing 15 SP2:perl-slurm-20.02.6-3.3.4",
            "SUSE Linux Enterprise Module for High Performance Computing 15 SP2:slurm-20.02.6-3.3.4",
            "SUSE Linux Enterprise Module for High Performance Computing 15 SP2:slurm-auth-none-20.02.6-3.3.4",
            "SUSE Linux Enterprise Module for High Performance Computing 15 SP2:slurm-config-20.02.6-3.3.4",
            "SUSE Linux Enterprise Module for High Performance Computing 15 SP2:slurm-config-man-20.02.6-3.3.4",
            "SUSE Linux Enterprise Module for High Performance Computing 15 SP2:slurm-devel-20.02.6-3.3.4",
            "SUSE Linux Enterprise Module for High Performance Computing 15 SP2:slurm-doc-20.02.6-3.3.4",
            "SUSE Linux Enterprise Module for High Performance Computing 15 SP2:slurm-lua-20.02.6-3.3.4",
            "SUSE Linux Enterprise Module for High Performance Computing 15 SP2:slurm-munge-20.02.6-3.3.4",
            "SUSE Linux Enterprise Module for High Performance Computing 15 SP2:slurm-node-20.02.6-3.3.4",
            "SUSE Linux Enterprise Module for High Performance Computing 15 SP2:slurm-pam_slurm-20.02.6-3.3.4",
            "SUSE Linux Enterprise Module for High Performance Computing 15 SP2:slurm-plugins-20.02.6-3.3.4",
            "SUSE Linux Enterprise Module for High Performance Computing 15 SP2:slurm-slurmdbd-20.02.6-3.3.4",
            "SUSE Linux Enterprise Module for High Performance Computing 15 SP2:slurm-sql-20.02.6-3.3.4",
            "SUSE Linux Enterprise Module for High Performance Computing 15 SP2:slurm-sview-20.02.6-3.3.4",
            "SUSE Linux Enterprise Module for High Performance Computing 15 SP2:slurm-torque-20.02.6-3.3.4",
            "SUSE Linux Enterprise Module for High Performance Computing 15 SP2:slurm-webdoc-20.02.6-3.3.4"
          ]
        }
      ],
      "CVSSScoreSets": {}
    }
  ]
}