{
  "Title": "Security update for clamav",
  "Tracking": {
    "ID": "SUSE-SU-2020:3729-1",
    "Status": "Final",
    "Version": "1",
    "InitialReleaseDate": "2020-12-09T13:44:53Z",
    "CurrentReleaseDate": "2020-12-09T13:44:53Z",
    "RevisionHistory": [
      {
        "Number": "1",
        "Date": "2020-12-09T13:44:53Z",
        "Description": "current"
      }
    ]
  },
  "Notes": [
    {
      "Text": "Security update for clamav",
      "Title": "Topic",
      "Type": "Summary"
    },
    {
      "Text": "This update for clamav fixes the following issues:\n\nclamav was updated to 0.103.0 to implement jsc#ECO-3010 and bsc#1118459.\n\n* clamd can now reload the signature database without blocking\n  scanning. This multi-threaded database reload improvement was made\n  possible thanks to a community effort.\n  - Non-blocking database reloads are now the default behavior. Some\n    systems that are more constrained on RAM may need to disable\n    non-blocking reloads as it will temporarily consume two times as\n    much memory. We added a new clamd config option\n    ConcurrentDatabaseReload, which may be set to no.\n* Fix clamav-milter.service (requires clamd.service to run)\n* Fix freshclam crash in FIPS mode. (bsc#1119353)\n\nUpdate to version 0.102.4:\n\nAccumulated security fixes:\n\n* CVE-2020-3350: Fix a vulnerability wherein a malicious user could\n  replace a scan target's directory with a symlink to another path\n  to trick clamscan, clamdscan, or clamonacc into removing or moving\n  a different file (eg. a critical system file). The issue would\n  affect users that use the --move or --remove options for clamscan,\n  clamdscan, and clamonacc. (bsc#1174255)\n* CVE-2020-3327: Fix a vulnerability in the ARJ archive parsing\n  module in ClamAV 0.102.3 that could cause a Denial-of-Service\n  (DoS) condition. Improper bounds checking results in an\n  out-of-bounds read which could cause a crash. The previous fix for\n  this CVE in 0.102.3 was incomplete. This fix correctly resolves\n  the issue.\n* CVE-2020-3481: Fix a vulnerability in the EGG archive module in\n  ClamAV 0.102.0 - 0.102.3 could cause a Denial-of-Service (DoS)\n  condition. Improper error handling may result in a crash due to a\n  NULL pointer dereference. This vulnerability is mitigated for\n  those using the official ClamAV signature databases because the\n  file type signatures in daily.cvd will not enable the EGG archive\n  parser in versions affected by the vulnerability. (bsc#1174250)\n* CVE-2020-3341: Fix a vulnerability in the PDF parsing module in\n  ClamAV 0.101 - 0.102.2 that could cause a Denial-of-Service (DoS)\n  condition. Improper size checking of a buffer used to initialize AES\n  decryption routines results in an out-of-bounds read which may cause\n  a crash. (bsc#1171981)\n* CVE-2020-3123: A denial-of-service (DoS) condition may occur when\n  using the optional credit card data-loss-prevention (DLP) feature.\n  Improper bounds checking of an unsigned variable resulted in an\n  out-of-bounds read, which causes a crash.\n* CVE-2019-15961: A Denial-of-Service (DoS) vulnerability may\n  occur when scanning a specially crafted email file as a result\n  of excessively long scan times. The issue is resolved by\n  implementing several maximums in parsing MIME messages and by\n  optimizing use of memory allocation. (bsc#1157763).\n* CVE-2019-12900: An out of bounds write in the NSIS bzip2\n  (bsc#1149458)\n* CVE-2019-12625: Introduce a configurable time limit to mitigate\n  zip bomb vulnerability completely. Default is 2 minutes,\n  configurable useing the clamscan --max-scantime and for clamd\n  using the MaxScanTime config option (bsc#1144504)\n\n- Increase the startup timeout of clamd to 5 minutes\n  to cater for the grown virus database as a workaround until\n  clamd has learned to talk to systemd to extend the timeout as\n  long as needed. (bsc#1151839)\n",
      "Title": "Details",
      "Type": "General"
    },
    {
      "Text": "The CVRF data is provided by SUSE under the Creative Commons License 4.0 with Attribution for Non-Commercial usage (CC-BY-NC-4.0).",
      "Title": "Terms of Use",
      "Type": "Legal Disclaimer"
    }
  ],
  "ProductTree": {
    "Relationships": [
      {
        "ProductReference": "clamav-0.103.0-3.3.1",
        "RelatesToProductReference": "SUSE Linux Enterprise Server 12 SP5",
        "RelationType": "Default Component Of"
      },
      {
        "ProductReference": "clamav-0.103.0-3.3.1",
        "RelatesToProductReference": "SUSE Linux Enterprise Server for SAP Applications 12 SP5",
        "RelationType": "Default Component Of"
      }
    ]
  },
  "References": [
    {
      "URL": "https://www.suse.com/support/update/announcement/2020/suse-su-20203729-1/",
      "Description": "Link for SUSE-SU-2020:3729-1"
    },
    {
      "URL": "http://lists.suse.com/pipermail/sle-security-updates/2020-December/007946.html",
      "Description": "E-Mail link for SUSE-SU-2020:3729-1"
    },
    {
      "URL": "https://www.suse.com/support/security/rating/",
      "Description": "SUSE Security Ratings"
    }
  ],
  "Vulnerabilities": [
    {
      "CVE": "CVE-2019-12625",
      "Description": "ClamAV versions prior to 0.101.3 are susceptible to a zip bomb vulnerability where an unauthenticated attacker can cause a denial of service condition by sending crafted messages to an affected system.",
      "Threats": [
        {
          "Type": "Impact",
          "Severity": "important"
        }
      ],
      "References": [
        {
          "URL": "https://www.suse.com/security/cve/CVE-2019-12625.html",
          "Description": "CVE-2019-12625"
        },
        {
          "URL": "https://bugzilla.suse.com/1144504",
          "Description": "SUSE Bug 1144504"
        }
      ],
      "ProductStatuses": [
        {
          "Type": "Fixed",
          "ProductID": [
            "SUSE Linux Enterprise Server 12 SP5:clamav-0.103.0-3.3.1",
            "SUSE Linux Enterprise Server for SAP Applications 12 SP5:clamav-0.103.0-3.3.1"
          ]
        }
      ],
      "CVSSScoreSets": {}
    },
    {
      "CVE": "CVE-2019-12900",
      "Description": "BZ2_decompress in decompress.c in bzip2 through 1.0.6 has an out-of-bounds write when there are many selectors.",
      "Threats": [
        {
          "Type": "Impact",
          "Severity": "important"
        }
      ],
      "References": [
        {
          "URL": "https://www.suse.com/security/cve/CVE-2019-12900.html",
          "Description": "CVE-2019-12900"
        },
        {
          "URL": "https://bugzilla.suse.com/1139083",
          "Description": "SUSE Bug 1139083"
        },
        {
          "URL": "https://bugzilla.suse.com/1149458",
          "Description": "SUSE Bug 1149458"
        }
      ],
      "ProductStatuses": [
        {
          "Type": "Fixed",
          "ProductID": [
            "SUSE Linux Enterprise Server 12 SP5:clamav-0.103.0-3.3.1",
            "SUSE Linux Enterprise Server for SAP Applications 12 SP5:clamav-0.103.0-3.3.1"
          ]
        }
      ],
      "CVSSScoreSets": {}
    },
    {
      "CVE": "CVE-2019-15961",
      "Description": "A vulnerability in the email parsing module Clam AntiVirus (ClamAV) Software versions 0.102.0, 0.101.4 and prior could allow an unauthenticated, remote attacker to cause a denial of service condition on an affected device. The vulnerability is due to inefficient MIME parsing routines that result in extremely long scan times of specially formatted email files. An attacker could exploit this vulnerability by sending a crafted email file to an affected device. An exploit could allow the attacker to cause the ClamAV scanning process to scan the crafted email file indefinitely, resulting in a denial of service condition.",
      "Threats": [
        {
          "Type": "Impact",
          "Severity": "important"
        }
      ],
      "References": [
        {
          "URL": "https://www.suse.com/security/cve/CVE-2019-15961.html",
          "Description": "CVE-2019-15961"
        },
        {
          "URL": "https://bugzilla.suse.com/1157763",
          "Description": "SUSE Bug 1157763"
        }
      ],
      "ProductStatuses": [
        {
          "Type": "Fixed",
          "ProductID": [
            "SUSE Linux Enterprise Server 12 SP5:clamav-0.103.0-3.3.1",
            "SUSE Linux Enterprise Server for SAP Applications 12 SP5:clamav-0.103.0-3.3.1"
          ]
        }
      ],
      "CVSSScoreSets": {}
    },
    {
      "CVE": "CVE-2020-3123",
      "Description": "A vulnerability in the Data-Loss-Prevention (DLP) module in Clam AntiVirus (ClamAV) Software versions 0.102.1 and 0.102.0 could allow an unauthenticated, remote attacker to cause a denial of service condition on an affected device. The vulnerability is due to an out-of-bounds read affecting users that have enabled the optional DLP feature. An attacker could exploit this vulnerability by sending a crafted email file to an affected device. An exploit could allow the attacker to cause the ClamAV scanning process crash, resulting in a denial of service condition.",
      "Threats": [
        {
          "Type": "Impact",
          "Severity": "important"
        }
      ],
      "References": [
        {
          "URL": "https://www.suse.com/security/cve/CVE-2020-3123.html",
          "Description": "CVE-2020-3123"
        },
        {
          "URL": "https://bugzilla.suse.com/1162921",
          "Description": "SUSE Bug 1162921"
        }
      ],
      "ProductStatuses": [
        {
          "Type": "Fixed",
          "ProductID": [
            "SUSE Linux Enterprise Server 12 SP5:clamav-0.103.0-3.3.1",
            "SUSE Linux Enterprise Server for SAP Applications 12 SP5:clamav-0.103.0-3.3.1"
          ]
        }
      ],
      "CVSSScoreSets": {}
    },
    {
      "CVE": "CVE-2020-3327",
      "Description": "A vulnerability in the ARJ archive parsing module in Clam AntiVirus (ClamAV) Software versions 0.102.2 could allow an unauthenticated, remote attacker to cause a denial of service condition on an affected device. The vulnerability is due to a heap buffer overflow read. An attacker could exploit this vulnerability by sending a crafted ARJ file to an affected device. An exploit could allow the attacker to cause the ClamAV scanning process crash, resulting in a denial of service condition.",
      "Threats": [
        {
          "Type": "Impact",
          "Severity": "important"
        }
      ],
      "References": [
        {
          "URL": "https://www.suse.com/security/cve/CVE-2020-3327.html",
          "Description": "CVE-2020-3327"
        },
        {
          "URL": "https://bugzilla.suse.com/1171980",
          "Description": "SUSE Bug 1171980"
        },
        {
          "URL": "https://bugzilla.suse.com/1174250",
          "Description": "SUSE Bug 1174250"
        }
      ],
      "ProductStatuses": [
        {
          "Type": "Fixed",
          "ProductID": [
            "SUSE Linux Enterprise Server 12 SP5:clamav-0.103.0-3.3.1",
            "SUSE Linux Enterprise Server for SAP Applications 12 SP5:clamav-0.103.0-3.3.1"
          ]
        }
      ],
      "CVSSScoreSets": {}
    },
    {
      "CVE": "CVE-2020-3341",
      "Description": "A vulnerability in the PDF archive parsing module in Clam AntiVirus (ClamAV) Software versions 0.101 - 0.102.2 could allow an unauthenticated, remote attacker to cause a denial of service condition on an affected device. The vulnerability is due to a stack buffer overflow read. An attacker could exploit this vulnerability by sending a crafted PDF file to an affected device. An exploit could allow the attacker to cause the ClamAV scanning process crash, resulting in a denial of service condition.",
      "Threats": [
        {
          "Type": "Impact",
          "Severity": "important"
        }
      ],
      "References": [
        {
          "URL": "https://www.suse.com/security/cve/CVE-2020-3341.html",
          "Description": "CVE-2020-3341"
        },
        {
          "URL": "https://bugzilla.suse.com/1171981",
          "Description": "SUSE Bug 1171981"
        }
      ],
      "ProductStatuses": [
        {
          "Type": "Fixed",
          "ProductID": [
            "SUSE Linux Enterprise Server 12 SP5:clamav-0.103.0-3.3.1",
            "SUSE Linux Enterprise Server for SAP Applications 12 SP5:clamav-0.103.0-3.3.1"
          ]
        }
      ],
      "CVSSScoreSets": {}
    },
    {
      "CVE": "CVE-2020-3350",
      "Description": "A vulnerability in the endpoint software of Cisco AMP for Endpoints and Clam AntiVirus could allow an authenticated, local attacker to cause the running software to delete arbitrary files on the system. The vulnerability is due to a race condition that could occur when scanning malicious files. An attacker with local shell access could exploit this vulnerability by executing a script that could trigger the race condition. A successful exploit could allow the attacker to delete arbitrary files on the system that the attacker would not normally have privileges to delete, producing system instability or causing the endpoint software to stop working.",
      "Threats": [
        {
          "Type": "Impact",
          "Severity": "important"
        }
      ],
      "References": [
        {
          "URL": "https://www.suse.com/security/cve/CVE-2020-3350.html",
          "Description": "CVE-2020-3350"
        },
        {
          "URL": "https://bugzilla.suse.com/1174250",
          "Description": "SUSE Bug 1174250"
        },
        {
          "URL": "https://bugzilla.suse.com/1174255",
          "Description": "SUSE Bug 1174255"
        }
      ],
      "ProductStatuses": [
        {
          "Type": "Fixed",
          "ProductID": [
            "SUSE Linux Enterprise Server 12 SP5:clamav-0.103.0-3.3.1",
            "SUSE Linux Enterprise Server for SAP Applications 12 SP5:clamav-0.103.0-3.3.1"
          ]
        }
      ],
      "CVSSScoreSets": {}
    },
    {
      "CVE": "CVE-2020-3481",
      "Description": "A vulnerability in the EGG archive parsing module in Clam AntiVirus (ClamAV) Software versions 0.102.0 - 0.102.3 could allow an unauthenticated, remote attacker to cause a denial of service condition on an affected device. The vulnerability is due to a null pointer dereference. An attacker could exploit this vulnerability by sending a crafted EGG file to an affected device. An exploit could allow the attacker to cause the ClamAV scanning process crash, resulting in a denial of service condition.",
      "Threats": [
        {
          "Type": "Impact",
          "Severity": "important"
        }
      ],
      "References": [
        {
          "URL": "https://www.suse.com/security/cve/CVE-2020-3481.html",
          "Description": "CVE-2020-3481"
        },
        {
          "URL": "https://bugzilla.suse.com/1174250",
          "Description": "SUSE Bug 1174250"
        }
      ],
      "ProductStatuses": [
        {
          "Type": "Fixed",
          "ProductID": [
            "SUSE Linux Enterprise Server 12 SP5:clamav-0.103.0-3.3.1",
            "SUSE Linux Enterprise Server for SAP Applications 12 SP5:clamav-0.103.0-3.3.1"
          ]
        }
      ],
      "CVSSScoreSets": {}
    }
  ]
}