{
  "Title": "Security update for libsolv",
  "Tracking": {
    "ID": "SUSE-SU-2020:2660-1",
    "Status": "Final",
    "Version": "1",
    "InitialReleaseDate": "2020-09-16T14:15:43Z",
    "CurrentReleaseDate": "2020-09-16T14:15:43Z",
    "RevisionHistory": [
      {
        "Number": "1",
        "Date": "2020-09-16T14:15:43Z",
        "Description": "current"
      }
    ]
  },
  "Notes": [
    {
      "Text": "Security update for libsolv",
      "Title": "Topic",
      "Type": "Summary"
    },
    {
      "Text": "This update for libsolv fixes the following issues:\n\nThis is a reissue of an existing libsolv update that also included libsolv-devel for LTSS products.\n\nlibsolv was updated to version 0.6.36 fixes the following issues:\n\nSecurity issues fixed:\n\n- CVE-2018-20532: Fixed a NULL pointer dereference in testcase_read() (bsc#1120629).\n- CVE-2018-20533: Fixed a NULL pointer dereference in testcase_str2dep_complex() (bsc#1120630).\n- CVE-2018-20534: Fixed a NULL pointer dereference in pool_whatprovides() (bsc#1120631).\n\nNon-security issues fixed:\n\n- Made cleandeps jobs on patterns work (bsc#1137977).\n- Fixed an issue multiversion packages that obsolete their own name (bsc#1127155).\n- Keep consistent package name if there are multiple alternatives (bsc#1131823).\n\n",
      "Title": "Details",
      "Type": "General"
    },
    {
      "Text": "The CVRF data is provided by SUSE under the Creative Commons License 4.0 with Attribution for Non-Commercial usage (CC-BY-NC-4.0).",
      "Title": "Terms of Use",
      "Type": "Legal Disclaimer"
    }
  ],
  "ProductTree": {
    "Relationships": [
      {
        "ProductReference": "libsolv-tools-0.6.36-2.30.1",
        "RelatesToProductReference": "Container suse/sles12sp4:latest",
        "RelationType": "Default Component Of"
      },
      {
        "ProductReference": "libsolv-tools-0.6.36-2.30.1",
        "RelatesToProductReference": "Container suse/sles12sp5:latest",
        "RelationType": "Default Component Of"
      },
      {
        "ProductReference": "libsolv-0.6.36-2.30.1",
        "RelatesToProductReference": "HPE Helion Openstack 8",
        "RelationType": "Default Component Of"
      },
      {
        "ProductReference": "libsolv-devel-0.6.36-2.30.1",
        "RelatesToProductReference": "HPE Helion Openstack 8",
        "RelationType": "Default Component Of"
      },
      {
        "ProductReference": "libsolv-tools-0.6.36-2.30.1",
        "RelatesToProductReference": "HPE Helion Openstack 8",
        "RelationType": "Default Component Of"
      },
      {
        "ProductReference": "perl-solv-0.6.36-2.30.1",
        "RelatesToProductReference": "HPE Helion Openstack 8",
        "RelationType": "Default Component Of"
      },
      {
        "ProductReference": "python-solv-0.6.36-2.30.1",
        "RelatesToProductReference": "HPE Helion Openstack 8",
        "RelationType": "Default Component Of"
      },
      {
        "ProductReference": "libsolv-0.6.36-2.30.1",
        "RelatesToProductReference": "SUSE OpenStack Cloud 8",
        "RelationType": "Default Component Of"
      },
      {
        "ProductReference": "libsolv-devel-0.6.36-2.30.1",
        "RelatesToProductReference": "SUSE OpenStack Cloud 8",
        "RelationType": "Default Component Of"
      },
      {
        "ProductReference": "libsolv-tools-0.6.36-2.30.1",
        "RelatesToProductReference": "SUSE OpenStack Cloud 8",
        "RelationType": "Default Component Of"
      },
      {
        "ProductReference": "perl-solv-0.6.36-2.30.1",
        "RelatesToProductReference": "SUSE OpenStack Cloud 8",
        "RelationType": "Default Component Of"
      },
      {
        "ProductReference": "python-solv-0.6.36-2.30.1",
        "RelatesToProductReference": "SUSE OpenStack Cloud 8",
        "RelationType": "Default Component Of"
      },
      {
        "ProductReference": "libsolv-0.6.36-2.30.1",
        "RelatesToProductReference": "SUSE OpenStack Cloud 9",
        "RelationType": "Default Component Of"
      },
      {
        "ProductReference": "libsolv-devel-0.6.36-2.30.1",
        "RelatesToProductReference": "SUSE OpenStack Cloud 9",
        "RelationType": "Default Component Of"
      },
      {
        "ProductReference": "libsolv-tools-0.6.36-2.30.1",
        "RelatesToProductReference": "SUSE OpenStack Cloud 9",
        "RelationType": "Default Component Of"
      },
      {
        "ProductReference": "perl-solv-0.6.36-2.30.1",
        "RelatesToProductReference": "SUSE OpenStack Cloud 9",
        "RelationType": "Default Component Of"
      },
      {
        "ProductReference": "python-solv-0.6.36-2.30.1",
        "RelatesToProductReference": "SUSE OpenStack Cloud 9",
        "RelationType": "Default Component Of"
      },
      {
        "ProductReference": "libsolv-0.6.36-2.30.1",
        "RelatesToProductReference": "SUSE OpenStack Cloud Crowbar 8",
        "RelationType": "Default Component Of"
      },
      {
        "ProductReference": "libsolv-devel-0.6.36-2.30.1",
        "RelatesToProductReference": "SUSE OpenStack Cloud Crowbar 8",
        "RelationType": "Default Component Of"
      },
      {
        "ProductReference": "libsolv-tools-0.6.36-2.30.1",
        "RelatesToProductReference": "SUSE OpenStack Cloud Crowbar 8",
        "RelationType": "Default Component Of"
      },
      {
        "ProductReference": "perl-solv-0.6.36-2.30.1",
        "RelatesToProductReference": "SUSE OpenStack Cloud Crowbar 8",
        "RelationType": "Default Component Of"
      },
      {
        "ProductReference": "python-solv-0.6.36-2.30.1",
        "RelatesToProductReference": "SUSE OpenStack Cloud Crowbar 8",
        "RelationType": "Default Component Of"
      },
      {
        "ProductReference": "libsolv-0.6.36-2.30.1",
        "RelatesToProductReference": "SUSE OpenStack Cloud Crowbar 9",
        "RelationType": "Default Component Of"
      },
      {
        "ProductReference": "libsolv-devel-0.6.36-2.30.1",
        "RelatesToProductReference": "SUSE OpenStack Cloud Crowbar 9",
        "RelationType": "Default Component Of"
      },
      {
        "ProductReference": "libsolv-tools-0.6.36-2.30.1",
        "RelatesToProductReference": "SUSE OpenStack Cloud Crowbar 9",
        "RelationType": "Default Component Of"
      },
      {
        "ProductReference": "perl-solv-0.6.36-2.30.1",
        "RelatesToProductReference": "SUSE OpenStack Cloud Crowbar 9",
        "RelationType": "Default Component Of"
      },
      {
        "ProductReference": "python-solv-0.6.36-2.30.1",
        "RelatesToProductReference": "SUSE OpenStack Cloud Crowbar 9",
        "RelationType": "Default Component Of"
      },
      {
        "ProductReference": "libsolv-0.6.36-2.30.1",
        "RelatesToProductReference": "SUSE Linux Enterprise Server for SAP Applications 12 SP3",
        "RelationType": "Default Component Of"
      },
      {
        "ProductReference": "libsolv-devel-0.6.36-2.30.1",
        "RelatesToProductReference": "SUSE Linux Enterprise Server for SAP Applications 12 SP3",
        "RelationType": "Default Component Of"
      },
      {
        "ProductReference": "libsolv-tools-0.6.36-2.30.1",
        "RelatesToProductReference": "SUSE Linux Enterprise Server for SAP Applications 12 SP3",
        "RelationType": "Default Component Of"
      },
      {
        "ProductReference": "perl-solv-0.6.36-2.30.1",
        "RelatesToProductReference": "SUSE Linux Enterprise Server for SAP Applications 12 SP3",
        "RelationType": "Default Component Of"
      },
      {
        "ProductReference": "python-solv-0.6.36-2.30.1",
        "RelatesToProductReference": "SUSE Linux Enterprise Server for SAP Applications 12 SP3",
        "RelationType": "Default Component Of"
      },
      {
        "ProductReference": "libsolv-0.6.36-2.30.1",
        "RelatesToProductReference": "SUSE Linux Enterprise Server for SAP Applications 12 SP4",
        "RelationType": "Default Component Of"
      },
      {
        "ProductReference": "libsolv-devel-0.6.36-2.30.1",
        "RelatesToProductReference": "SUSE Linux Enterprise Server for SAP Applications 12 SP4",
        "RelationType": "Default Component Of"
      },
      {
        "ProductReference": "libsolv-tools-0.6.36-2.30.1",
        "RelatesToProductReference": "SUSE Linux Enterprise Server for SAP Applications 12 SP4",
        "RelationType": "Default Component Of"
      },
      {
        "ProductReference": "perl-solv-0.6.36-2.30.1",
        "RelatesToProductReference": "SUSE Linux Enterprise Server for SAP Applications 12 SP4",
        "RelationType": "Default Component Of"
      },
      {
        "ProductReference": "python-solv-0.6.36-2.30.1",
        "RelatesToProductReference": "SUSE Linux Enterprise Server for SAP Applications 12 SP4",
        "RelationType": "Default Component Of"
      },
      {
        "ProductReference": "libsolv-0.6.36-2.30.1",
        "RelatesToProductReference": "SUSE Linux Enterprise Software Development Kit 12 SP5",
        "RelationType": "Default Component Of"
      },
      {
        "ProductReference": "libsolv-devel-0.6.36-2.30.1",
        "RelatesToProductReference": "SUSE Linux Enterprise Software Development Kit 12 SP5",
        "RelationType": "Default Component Of"
      },
      {
        "ProductReference": "perl-solv-0.6.36-2.30.1",
        "RelatesToProductReference": "SUSE Linux Enterprise Software Development Kit 12 SP5",
        "RelationType": "Default Component Of"
      },
      {
        "ProductReference": "libsolv-0.6.36-2.30.1",
        "RelatesToProductReference": "SUSE Linux Enterprise Server 12 SP3-LTSS",
        "RelationType": "Default Component Of"
      },
      {
        "ProductReference": "libsolv-devel-0.6.36-2.30.1",
        "RelatesToProductReference": "SUSE Linux Enterprise Server 12 SP3-LTSS",
        "RelationType": "Default Component Of"
      },
      {
        "ProductReference": "libsolv-tools-0.6.36-2.30.1",
        "RelatesToProductReference": "SUSE Linux Enterprise Server 12 SP3-LTSS",
        "RelationType": "Default Component Of"
      },
      {
        "ProductReference": "perl-solv-0.6.36-2.30.1",
        "RelatesToProductReference": "SUSE Linux Enterprise Server 12 SP3-LTSS",
        "RelationType": "Default Component Of"
      },
      {
        "ProductReference": "python-solv-0.6.36-2.30.1",
        "RelatesToProductReference": "SUSE Linux Enterprise Server 12 SP3-LTSS",
        "RelationType": "Default Component Of"
      },
      {
        "ProductReference": "libsolv-0.6.36-2.30.1",
        "RelatesToProductReference": "SUSE Linux Enterprise Server for SAP Applications 12 SP3-LTSS",
        "RelationType": "Default Component Of"
      },
      {
        "ProductReference": "libsolv-devel-0.6.36-2.30.1",
        "RelatesToProductReference": "SUSE Linux Enterprise Server for SAP Applications 12 SP3-LTSS",
        "RelationType": "Default Component Of"
      },
      {
        "ProductReference": "libsolv-tools-0.6.36-2.30.1",
        "RelatesToProductReference": "SUSE Linux Enterprise Server for SAP Applications 12 SP3-LTSS",
        "RelationType": "Default Component Of"
      },
      {
        "ProductReference": "perl-solv-0.6.36-2.30.1",
        "RelatesToProductReference": "SUSE Linux Enterprise Server for SAP Applications 12 SP3-LTSS",
        "RelationType": "Default Component Of"
      },
      {
        "ProductReference": "python-solv-0.6.36-2.30.1",
        "RelatesToProductReference": "SUSE Linux Enterprise Server for SAP Applications 12 SP3-LTSS",
        "RelationType": "Default Component Of"
      },
      {
        "ProductReference": "libsolv-0.6.36-2.30.1",
        "RelatesToProductReference": "SUSE Linux Enterprise Server 12 SP3-BCL",
        "RelationType": "Default Component Of"
      },
      {
        "ProductReference": "libsolv-devel-0.6.36-2.30.1",
        "RelatesToProductReference": "SUSE Linux Enterprise Server 12 SP3-BCL",
        "RelationType": "Default Component Of"
      },
      {
        "ProductReference": "libsolv-tools-0.6.36-2.30.1",
        "RelatesToProductReference": "SUSE Linux Enterprise Server 12 SP3-BCL",
        "RelationType": "Default Component Of"
      },
      {
        "ProductReference": "perl-solv-0.6.36-2.30.1",
        "RelatesToProductReference": "SUSE Linux Enterprise Server 12 SP3-BCL",
        "RelationType": "Default Component Of"
      },
      {
        "ProductReference": "python-solv-0.6.36-2.30.1",
        "RelatesToProductReference": "SUSE Linux Enterprise Server 12 SP3-BCL",
        "RelationType": "Default Component Of"
      },
      {
        "ProductReference": "libsolv-0.6.36-2.30.1",
        "RelatesToProductReference": "SUSE Linux Enterprise Server for SAP Applications 12 SP3-BCL",
        "RelationType": "Default Component Of"
      },
      {
        "ProductReference": "libsolv-devel-0.6.36-2.30.1",
        "RelatesToProductReference": "SUSE Linux Enterprise Server for SAP Applications 12 SP3-BCL",
        "RelationType": "Default Component Of"
      },
      {
        "ProductReference": "libsolv-tools-0.6.36-2.30.1",
        "RelatesToProductReference": "SUSE Linux Enterprise Server for SAP Applications 12 SP3-BCL",
        "RelationType": "Default Component Of"
      },
      {
        "ProductReference": "perl-solv-0.6.36-2.30.1",
        "RelatesToProductReference": "SUSE Linux Enterprise Server for SAP Applications 12 SP3-BCL",
        "RelationType": "Default Component Of"
      },
      {
        "ProductReference": "python-solv-0.6.36-2.30.1",
        "RelatesToProductReference": "SUSE Linux Enterprise Server for SAP Applications 12 SP3-BCL",
        "RelationType": "Default Component Of"
      },
      {
        "ProductReference": "libsolv-0.6.36-2.30.1",
        "RelatesToProductReference": "SUSE Linux Enterprise Server 12 SP4-LTSS",
        "RelationType": "Default Component Of"
      },
      {
        "ProductReference": "libsolv-devel-0.6.36-2.30.1",
        "RelatesToProductReference": "SUSE Linux Enterprise Server 12 SP4-LTSS",
        "RelationType": "Default Component Of"
      },
      {
        "ProductReference": "libsolv-tools-0.6.36-2.30.1",
        "RelatesToProductReference": "SUSE Linux Enterprise Server 12 SP4-LTSS",
        "RelationType": "Default Component Of"
      },
      {
        "ProductReference": "perl-solv-0.6.36-2.30.1",
        "RelatesToProductReference": "SUSE Linux Enterprise Server 12 SP4-LTSS",
        "RelationType": "Default Component Of"
      },
      {
        "ProductReference": "python-solv-0.6.36-2.30.1",
        "RelatesToProductReference": "SUSE Linux Enterprise Server 12 SP4-LTSS",
        "RelationType": "Default Component Of"
      },
      {
        "ProductReference": "libsolv-0.6.36-2.30.1",
        "RelatesToProductReference": "SUSE Linux Enterprise Server for SAP Applications 12 SP4-LTSS",
        "RelationType": "Default Component Of"
      },
      {
        "ProductReference": "libsolv-devel-0.6.36-2.30.1",
        "RelatesToProductReference": "SUSE Linux Enterprise Server for SAP Applications 12 SP4-LTSS",
        "RelationType": "Default Component Of"
      },
      {
        "ProductReference": "libsolv-tools-0.6.36-2.30.1",
        "RelatesToProductReference": "SUSE Linux Enterprise Server for SAP Applications 12 SP4-LTSS",
        "RelationType": "Default Component Of"
      },
      {
        "ProductReference": "perl-solv-0.6.36-2.30.1",
        "RelatesToProductReference": "SUSE Linux Enterprise Server for SAP Applications 12 SP4-LTSS",
        "RelationType": "Default Component Of"
      },
      {
        "ProductReference": "python-solv-0.6.36-2.30.1",
        "RelatesToProductReference": "SUSE Linux Enterprise Server for SAP Applications 12 SP4-LTSS",
        "RelationType": "Default Component Of"
      },
      {
        "ProductReference": "libsolv-0.6.36-2.30.1",
        "RelatesToProductReference": "SUSE Linux Enterprise Server 12 SP5",
        "RelationType": "Default Component Of"
      },
      {
        "ProductReference": "libsolv-devel-0.6.36-2.30.1",
        "RelatesToProductReference": "SUSE Linux Enterprise Server 12 SP5",
        "RelationType": "Default Component Of"
      },
      {
        "ProductReference": "libsolv-tools-0.6.36-2.30.1",
        "RelatesToProductReference": "SUSE Linux Enterprise Server 12 SP5",
        "RelationType": "Default Component Of"
      },
      {
        "ProductReference": "perl-solv-0.6.36-2.30.1",
        "RelatesToProductReference": "SUSE Linux Enterprise Server 12 SP5",
        "RelationType": "Default Component Of"
      },
      {
        "ProductReference": "python-solv-0.6.36-2.30.1",
        "RelatesToProductReference": "SUSE Linux Enterprise Server 12 SP5",
        "RelationType": "Default Component Of"
      },
      {
        "ProductReference": "libsolv-0.6.36-2.30.1",
        "RelatesToProductReference": "SUSE Linux Enterprise Server for SAP Applications 12 SP5",
        "RelationType": "Default Component Of"
      },
      {
        "ProductReference": "libsolv-devel-0.6.36-2.30.1",
        "RelatesToProductReference": "SUSE Linux Enterprise Server for SAP Applications 12 SP5",
        "RelationType": "Default Component Of"
      },
      {
        "ProductReference": "libsolv-tools-0.6.36-2.30.1",
        "RelatesToProductReference": "SUSE Linux Enterprise Server for SAP Applications 12 SP5",
        "RelationType": "Default Component Of"
      },
      {
        "ProductReference": "perl-solv-0.6.36-2.30.1",
        "RelatesToProductReference": "SUSE Linux Enterprise Server for SAP Applications 12 SP5",
        "RelationType": "Default Component Of"
      },
      {
        "ProductReference": "python-solv-0.6.36-2.30.1",
        "RelatesToProductReference": "SUSE Linux Enterprise Server for SAP Applications 12 SP5",
        "RelationType": "Default Component Of"
      },
      {
        "ProductReference": "libsolv-0.6.36-2.30.1",
        "RelatesToProductReference": "SUSE Enterprise Storage 5",
        "RelationType": "Default Component Of"
      },
      {
        "ProductReference": "libsolv-devel-0.6.36-2.30.1",
        "RelatesToProductReference": "SUSE Enterprise Storage 5",
        "RelationType": "Default Component Of"
      },
      {
        "ProductReference": "libsolv-tools-0.6.36-2.30.1",
        "RelatesToProductReference": "SUSE Enterprise Storage 5",
        "RelationType": "Default Component Of"
      },
      {
        "ProductReference": "perl-solv-0.6.36-2.30.1",
        "RelatesToProductReference": "SUSE Enterprise Storage 5",
        "RelationType": "Default Component Of"
      },
      {
        "ProductReference": "python-solv-0.6.36-2.30.1",
        "RelatesToProductReference": "SUSE Enterprise Storage 5",
        "RelationType": "Default Component Of"
      }
    ]
  },
  "References": [
    {
      "URL": "https://www.suse.com/support/update/announcement/2020/suse-su-20202660-1/",
      "Description": "Link for SUSE-SU-2020:2660-1"
    },
    {
      "URL": "http://lists.suse.com/pipermail/sle-security-updates/2020-September/007438.html",
      "Description": "E-Mail link for SUSE-SU-2020:2660-1"
    },
    {
      "URL": "https://www.suse.com/support/security/rating/",
      "Description": "SUSE Security Ratings"
    }
  ],
  "Vulnerabilities": [
    {
      "CVE": "CVE-2018-20532",
      "Description": "There is a NULL pointer dereference at ext/testcase.c (function testcase_read) in libsolvext.a in libsolv through 0.7.2 that will cause a denial of service.",
      "Threats": [
        {
          "Type": "Impact",
          "Severity": "moderate"
        }
      ],
      "References": [
        {
          "URL": "https://www.suse.com/security/cve/CVE-2018-20532.html",
          "Description": "CVE-2018-20532"
        },
        {
          "URL": "https://bugzilla.suse.com/1120629",
          "Description": "SUSE Bug 1120629"
        }
      ],
      "ProductStatuses": [
        {
          "Type": "Fixed",
          "ProductID": [
            "Container suse/sles12sp4:latest:libsolv-tools-0.6.36-2.30.1",
            "Container suse/sles12sp5:latest:libsolv-tools-0.6.36-2.30.1",
            "HPE Helion Openstack 8:libsolv-0.6.36-2.30.1",
            "HPE Helion Openstack 8:libsolv-devel-0.6.36-2.30.1",
            "HPE Helion Openstack 8:libsolv-tools-0.6.36-2.30.1",
            "HPE Helion Openstack 8:perl-solv-0.6.36-2.30.1",
            "HPE Helion Openstack 8:python-solv-0.6.36-2.30.1",
            "SUSE Enterprise Storage 5:libsolv-0.6.36-2.30.1",
            "SUSE Enterprise Storage 5:libsolv-devel-0.6.36-2.30.1",
            "SUSE Enterprise Storage 5:libsolv-tools-0.6.36-2.30.1",
            "SUSE Enterprise Storage 5:perl-solv-0.6.36-2.30.1",
            "SUSE Enterprise Storage 5:python-solv-0.6.36-2.30.1",
            "SUSE Linux Enterprise Server 12 SP3-BCL:libsolv-0.6.36-2.30.1",
            "SUSE Linux Enterprise Server 12 SP3-BCL:libsolv-devel-0.6.36-2.30.1",
            "SUSE Linux Enterprise Server 12 SP3-BCL:libsolv-tools-0.6.36-2.30.1",
            "SUSE Linux Enterprise Server 12 SP3-BCL:perl-solv-0.6.36-2.30.1",
            "SUSE Linux Enterprise Server 12 SP3-BCL:python-solv-0.6.36-2.30.1",
            "SUSE Linux Enterprise Server 12 SP3-LTSS:libsolv-0.6.36-2.30.1",
            "SUSE Linux Enterprise Server 12 SP3-LTSS:libsolv-devel-0.6.36-2.30.1",
            "SUSE Linux Enterprise Server 12 SP3-LTSS:libsolv-tools-0.6.36-2.30.1",
            "SUSE Linux Enterprise Server 12 SP3-LTSS:perl-solv-0.6.36-2.30.1",
            "SUSE Linux Enterprise Server 12 SP3-LTSS:python-solv-0.6.36-2.30.1",
            "SUSE Linux Enterprise Server 12 SP4-LTSS:libsolv-0.6.36-2.30.1",
            "SUSE Linux Enterprise Server 12 SP4-LTSS:libsolv-devel-0.6.36-2.30.1",
            "SUSE Linux Enterprise Server 12 SP4-LTSS:libsolv-tools-0.6.36-2.30.1",
            "SUSE Linux Enterprise Server 12 SP4-LTSS:perl-solv-0.6.36-2.30.1",
            "SUSE Linux Enterprise Server 12 SP4-LTSS:python-solv-0.6.36-2.30.1",
            "SUSE Linux Enterprise Server 12 SP5:libsolv-0.6.36-2.30.1",
            "SUSE Linux Enterprise Server 12 SP5:libsolv-devel-0.6.36-2.30.1",
            "SUSE Linux Enterprise Server 12 SP5:libsolv-tools-0.6.36-2.30.1",
            "SUSE Linux Enterprise Server 12 SP5:perl-solv-0.6.36-2.30.1",
            "SUSE Linux Enterprise Server 12 SP5:python-solv-0.6.36-2.30.1",
            "SUSE Linux Enterprise Server for SAP Applications 12 SP3-BCL:libsolv-0.6.36-2.30.1",
            "SUSE Linux Enterprise Server for SAP Applications 12 SP3-BCL:libsolv-devel-0.6.36-2.30.1",
            "SUSE Linux Enterprise Server for SAP Applications 12 SP3-BCL:libsolv-tools-0.6.36-2.30.1",
            "SUSE Linux Enterprise Server for SAP Applications 12 SP3-BCL:perl-solv-0.6.36-2.30.1",
            "SUSE Linux Enterprise Server for SAP Applications 12 SP3-BCL:python-solv-0.6.36-2.30.1",
            "SUSE Linux Enterprise Server for SAP Applications 12 SP3-LTSS:libsolv-0.6.36-2.30.1",
            "SUSE Linux Enterprise Server for SAP Applications 12 SP3-LTSS:libsolv-devel-0.6.36-2.30.1",
            "SUSE Linux Enterprise Server for SAP Applications 12 SP3-LTSS:libsolv-tools-0.6.36-2.30.1",
            "SUSE Linux Enterprise Server for SAP Applications 12 SP3-LTSS:perl-solv-0.6.36-2.30.1",
            "SUSE Linux Enterprise Server for SAP Applications 12 SP3-LTSS:python-solv-0.6.36-2.30.1",
            "SUSE Linux Enterprise Server for SAP Applications 12 SP3:libsolv-0.6.36-2.30.1",
            "SUSE Linux Enterprise Server for SAP Applications 12 SP3:libsolv-devel-0.6.36-2.30.1",
            "SUSE Linux Enterprise Server for SAP Applications 12 SP3:libsolv-tools-0.6.36-2.30.1",
            "SUSE Linux Enterprise Server for SAP Applications 12 SP3:perl-solv-0.6.36-2.30.1",
            "SUSE Linux Enterprise Server for SAP Applications 12 SP3:python-solv-0.6.36-2.30.1",
            "SUSE Linux Enterprise Server for SAP Applications 12 SP4-LTSS:libsolv-0.6.36-2.30.1",
            "SUSE Linux Enterprise Server for SAP Applications 12 SP4-LTSS:libsolv-devel-0.6.36-2.30.1",
            "SUSE Linux Enterprise Server for SAP Applications 12 SP4-LTSS:libsolv-tools-0.6.36-2.30.1",
            "SUSE Linux Enterprise Server for SAP Applications 12 SP4-LTSS:perl-solv-0.6.36-2.30.1",
            "SUSE Linux Enterprise Server for SAP Applications 12 SP4-LTSS:python-solv-0.6.36-2.30.1",
            "SUSE Linux Enterprise Server for SAP Applications 12 SP4:libsolv-0.6.36-2.30.1",
            "SUSE Linux Enterprise Server for SAP Applications 12 SP4:libsolv-devel-0.6.36-2.30.1",
            "SUSE Linux Enterprise Server for SAP Applications 12 SP4:libsolv-tools-0.6.36-2.30.1",
            "SUSE Linux Enterprise Server for SAP Applications 12 SP4:perl-solv-0.6.36-2.30.1",
            "SUSE Linux Enterprise Server for SAP Applications 12 SP4:python-solv-0.6.36-2.30.1",
            "SUSE Linux Enterprise Server for SAP Applications 12 SP5:libsolv-0.6.36-2.30.1",
            "SUSE Linux Enterprise Server for SAP Applications 12 SP5:libsolv-devel-0.6.36-2.30.1",
            "SUSE Linux Enterprise Server for SAP Applications 12 SP5:libsolv-tools-0.6.36-2.30.1",
            "SUSE Linux Enterprise Server for SAP Applications 12 SP5:perl-solv-0.6.36-2.30.1",
            "SUSE Linux Enterprise Server for SAP Applications 12 SP5:python-solv-0.6.36-2.30.1",
            "SUSE Linux Enterprise Software Development Kit 12 SP5:libsolv-0.6.36-2.30.1",
            "SUSE Linux Enterprise Software Development Kit 12 SP5:libsolv-devel-0.6.36-2.30.1",
            "SUSE Linux Enterprise Software Development Kit 12 SP5:perl-solv-0.6.36-2.30.1",
            "SUSE OpenStack Cloud 8:libsolv-0.6.36-2.30.1",
            "SUSE OpenStack Cloud 8:libsolv-devel-0.6.36-2.30.1",
            "SUSE OpenStack Cloud 8:libsolv-tools-0.6.36-2.30.1",
            "SUSE OpenStack Cloud 8:perl-solv-0.6.36-2.30.1",
            "SUSE OpenStack Cloud 8:python-solv-0.6.36-2.30.1",
            "SUSE OpenStack Cloud 9:libsolv-0.6.36-2.30.1",
            "SUSE OpenStack Cloud 9:libsolv-devel-0.6.36-2.30.1",
            "SUSE OpenStack Cloud 9:libsolv-tools-0.6.36-2.30.1",
            "SUSE OpenStack Cloud 9:perl-solv-0.6.36-2.30.1",
            "SUSE OpenStack Cloud 9:python-solv-0.6.36-2.30.1",
            "SUSE OpenStack Cloud Crowbar 8:libsolv-0.6.36-2.30.1",
            "SUSE OpenStack Cloud Crowbar 8:libsolv-devel-0.6.36-2.30.1",
            "SUSE OpenStack Cloud Crowbar 8:libsolv-tools-0.6.36-2.30.1",
            "SUSE OpenStack Cloud Crowbar 8:perl-solv-0.6.36-2.30.1",
            "SUSE OpenStack Cloud Crowbar 8:python-solv-0.6.36-2.30.1",
            "SUSE OpenStack Cloud Crowbar 9:libsolv-0.6.36-2.30.1",
            "SUSE OpenStack Cloud Crowbar 9:libsolv-devel-0.6.36-2.30.1",
            "SUSE OpenStack Cloud Crowbar 9:libsolv-tools-0.6.36-2.30.1",
            "SUSE OpenStack Cloud Crowbar 9:perl-solv-0.6.36-2.30.1",
            "SUSE OpenStack Cloud Crowbar 9:python-solv-0.6.36-2.30.1"
          ]
        }
      ],
      "CVSSScoreSets": {}
    },
    {
      "CVE": "CVE-2018-20533",
      "Description": "There is a NULL pointer dereference at ext/testcase.c (function testcase_str2dep_complex) in libsolvext.a in libsolv through 0.7.2 that will cause a denial of service.",
      "Threats": [
        {
          "Type": "Impact",
          "Severity": "moderate"
        }
      ],
      "References": [
        {
          "URL": "https://www.suse.com/security/cve/CVE-2018-20533.html",
          "Description": "CVE-2018-20533"
        },
        {
          "URL": "https://bugzilla.suse.com/1120630",
          "Description": "SUSE Bug 1120630"
        }
      ],
      "ProductStatuses": [
        {
          "Type": "Fixed",
          "ProductID": [
            "Container suse/sles12sp4:latest:libsolv-tools-0.6.36-2.30.1",
            "Container suse/sles12sp5:latest:libsolv-tools-0.6.36-2.30.1",
            "HPE Helion Openstack 8:libsolv-0.6.36-2.30.1",
            "HPE Helion Openstack 8:libsolv-devel-0.6.36-2.30.1",
            "HPE Helion Openstack 8:libsolv-tools-0.6.36-2.30.1",
            "HPE Helion Openstack 8:perl-solv-0.6.36-2.30.1",
            "HPE Helion Openstack 8:python-solv-0.6.36-2.30.1",
            "SUSE Enterprise Storage 5:libsolv-0.6.36-2.30.1",
            "SUSE Enterprise Storage 5:libsolv-devel-0.6.36-2.30.1",
            "SUSE Enterprise Storage 5:libsolv-tools-0.6.36-2.30.1",
            "SUSE Enterprise Storage 5:perl-solv-0.6.36-2.30.1",
            "SUSE Enterprise Storage 5:python-solv-0.6.36-2.30.1",
            "SUSE Linux Enterprise Server 12 SP3-BCL:libsolv-0.6.36-2.30.1",
            "SUSE Linux Enterprise Server 12 SP3-BCL:libsolv-devel-0.6.36-2.30.1",
            "SUSE Linux Enterprise Server 12 SP3-BCL:libsolv-tools-0.6.36-2.30.1",
            "SUSE Linux Enterprise Server 12 SP3-BCL:perl-solv-0.6.36-2.30.1",
            "SUSE Linux Enterprise Server 12 SP3-BCL:python-solv-0.6.36-2.30.1",
            "SUSE Linux Enterprise Server 12 SP3-LTSS:libsolv-0.6.36-2.30.1",
            "SUSE Linux Enterprise Server 12 SP3-LTSS:libsolv-devel-0.6.36-2.30.1",
            "SUSE Linux Enterprise Server 12 SP3-LTSS:libsolv-tools-0.6.36-2.30.1",
            "SUSE Linux Enterprise Server 12 SP3-LTSS:perl-solv-0.6.36-2.30.1",
            "SUSE Linux Enterprise Server 12 SP3-LTSS:python-solv-0.6.36-2.30.1",
            "SUSE Linux Enterprise Server 12 SP4-LTSS:libsolv-0.6.36-2.30.1",
            "SUSE Linux Enterprise Server 12 SP4-LTSS:libsolv-devel-0.6.36-2.30.1",
            "SUSE Linux Enterprise Server 12 SP4-LTSS:libsolv-tools-0.6.36-2.30.1",
            "SUSE Linux Enterprise Server 12 SP4-LTSS:perl-solv-0.6.36-2.30.1",
            "SUSE Linux Enterprise Server 12 SP4-LTSS:python-solv-0.6.36-2.30.1",
            "SUSE Linux Enterprise Server 12 SP5:libsolv-0.6.36-2.30.1",
            "SUSE Linux Enterprise Server 12 SP5:libsolv-devel-0.6.36-2.30.1",
            "SUSE Linux Enterprise Server 12 SP5:libsolv-tools-0.6.36-2.30.1",
            "SUSE Linux Enterprise Server 12 SP5:perl-solv-0.6.36-2.30.1",
            "SUSE Linux Enterprise Server 12 SP5:python-solv-0.6.36-2.30.1",
            "SUSE Linux Enterprise Server for SAP Applications 12 SP3-BCL:libsolv-0.6.36-2.30.1",
            "SUSE Linux Enterprise Server for SAP Applications 12 SP3-BCL:libsolv-devel-0.6.36-2.30.1",
            "SUSE Linux Enterprise Server for SAP Applications 12 SP3-BCL:libsolv-tools-0.6.36-2.30.1",
            "SUSE Linux Enterprise Server for SAP Applications 12 SP3-BCL:perl-solv-0.6.36-2.30.1",
            "SUSE Linux Enterprise Server for SAP Applications 12 SP3-BCL:python-solv-0.6.36-2.30.1",
            "SUSE Linux Enterprise Server for SAP Applications 12 SP3-LTSS:libsolv-0.6.36-2.30.1",
            "SUSE Linux Enterprise Server for SAP Applications 12 SP3-LTSS:libsolv-devel-0.6.36-2.30.1",
            "SUSE Linux Enterprise Server for SAP Applications 12 SP3-LTSS:libsolv-tools-0.6.36-2.30.1",
            "SUSE Linux Enterprise Server for SAP Applications 12 SP3-LTSS:perl-solv-0.6.36-2.30.1",
            "SUSE Linux Enterprise Server for SAP Applications 12 SP3-LTSS:python-solv-0.6.36-2.30.1",
            "SUSE Linux Enterprise Server for SAP Applications 12 SP3:libsolv-0.6.36-2.30.1",
            "SUSE Linux Enterprise Server for SAP Applications 12 SP3:libsolv-devel-0.6.36-2.30.1",
            "SUSE Linux Enterprise Server for SAP Applications 12 SP3:libsolv-tools-0.6.36-2.30.1",
            "SUSE Linux Enterprise Server for SAP Applications 12 SP3:perl-solv-0.6.36-2.30.1",
            "SUSE Linux Enterprise Server for SAP Applications 12 SP3:python-solv-0.6.36-2.30.1",
            "SUSE Linux Enterprise Server for SAP Applications 12 SP4-LTSS:libsolv-0.6.36-2.30.1",
            "SUSE Linux Enterprise Server for SAP Applications 12 SP4-LTSS:libsolv-devel-0.6.36-2.30.1",
            "SUSE Linux Enterprise Server for SAP Applications 12 SP4-LTSS:libsolv-tools-0.6.36-2.30.1",
            "SUSE Linux Enterprise Server for SAP Applications 12 SP4-LTSS:perl-solv-0.6.36-2.30.1",
            "SUSE Linux Enterprise Server for SAP Applications 12 SP4-LTSS:python-solv-0.6.36-2.30.1",
            "SUSE Linux Enterprise Server for SAP Applications 12 SP4:libsolv-0.6.36-2.30.1",
            "SUSE Linux Enterprise Server for SAP Applications 12 SP4:libsolv-devel-0.6.36-2.30.1",
            "SUSE Linux Enterprise Server for SAP Applications 12 SP4:libsolv-tools-0.6.36-2.30.1",
            "SUSE Linux Enterprise Server for SAP Applications 12 SP4:perl-solv-0.6.36-2.30.1",
            "SUSE Linux Enterprise Server for SAP Applications 12 SP4:python-solv-0.6.36-2.30.1",
            "SUSE Linux Enterprise Server for SAP Applications 12 SP5:libsolv-0.6.36-2.30.1",
            "SUSE Linux Enterprise Server for SAP Applications 12 SP5:libsolv-devel-0.6.36-2.30.1",
            "SUSE Linux Enterprise Server for SAP Applications 12 SP5:libsolv-tools-0.6.36-2.30.1",
            "SUSE Linux Enterprise Server for SAP Applications 12 SP5:perl-solv-0.6.36-2.30.1",
            "SUSE Linux Enterprise Server for SAP Applications 12 SP5:python-solv-0.6.36-2.30.1",
            "SUSE Linux Enterprise Software Development Kit 12 SP5:libsolv-0.6.36-2.30.1",
            "SUSE Linux Enterprise Software Development Kit 12 SP5:libsolv-devel-0.6.36-2.30.1",
            "SUSE Linux Enterprise Software Development Kit 12 SP5:perl-solv-0.6.36-2.30.1",
            "SUSE OpenStack Cloud 8:libsolv-0.6.36-2.30.1",
            "SUSE OpenStack Cloud 8:libsolv-devel-0.6.36-2.30.1",
            "SUSE OpenStack Cloud 8:libsolv-tools-0.6.36-2.30.1",
            "SUSE OpenStack Cloud 8:perl-solv-0.6.36-2.30.1",
            "SUSE OpenStack Cloud 8:python-solv-0.6.36-2.30.1",
            "SUSE OpenStack Cloud 9:libsolv-0.6.36-2.30.1",
            "SUSE OpenStack Cloud 9:libsolv-devel-0.6.36-2.30.1",
            "SUSE OpenStack Cloud 9:libsolv-tools-0.6.36-2.30.1",
            "SUSE OpenStack Cloud 9:perl-solv-0.6.36-2.30.1",
            "SUSE OpenStack Cloud 9:python-solv-0.6.36-2.30.1",
            "SUSE OpenStack Cloud Crowbar 8:libsolv-0.6.36-2.30.1",
            "SUSE OpenStack Cloud Crowbar 8:libsolv-devel-0.6.36-2.30.1",
            "SUSE OpenStack Cloud Crowbar 8:libsolv-tools-0.6.36-2.30.1",
            "SUSE OpenStack Cloud Crowbar 8:perl-solv-0.6.36-2.30.1",
            "SUSE OpenStack Cloud Crowbar 8:python-solv-0.6.36-2.30.1",
            "SUSE OpenStack Cloud Crowbar 9:libsolv-0.6.36-2.30.1",
            "SUSE OpenStack Cloud Crowbar 9:libsolv-devel-0.6.36-2.30.1",
            "SUSE OpenStack Cloud Crowbar 9:libsolv-tools-0.6.36-2.30.1",
            "SUSE OpenStack Cloud Crowbar 9:perl-solv-0.6.36-2.30.1",
            "SUSE OpenStack Cloud Crowbar 9:python-solv-0.6.36-2.30.1"
          ]
        }
      ],
      "CVSSScoreSets": {}
    },
    {
      "CVE": "CVE-2018-20534",
      "Description": "** DISPUTED ** There is an illegal address access at ext/testcase.c in libsolv.a in libsolv through 0.7.2 that will cause a denial of service. NOTE: third parties dispute this issue stating that the issue affects the test suite and not the underlying library. It cannot be exploited in any real-world application.",
      "Threats": [
        {
          "Type": "Impact",
          "Severity": "moderate"
        }
      ],
      "References": [
        {
          "URL": "https://www.suse.com/security/cve/CVE-2018-20534.html",
          "Description": "CVE-2018-20534"
        },
        {
          "URL": "https://bugzilla.suse.com/1120631",
          "Description": "SUSE Bug 1120631"
        }
      ],
      "ProductStatuses": [
        {
          "Type": "Fixed",
          "ProductID": [
            "Container suse/sles12sp4:latest:libsolv-tools-0.6.36-2.30.1",
            "Container suse/sles12sp5:latest:libsolv-tools-0.6.36-2.30.1",
            "HPE Helion Openstack 8:libsolv-0.6.36-2.30.1",
            "HPE Helion Openstack 8:libsolv-devel-0.6.36-2.30.1",
            "HPE Helion Openstack 8:libsolv-tools-0.6.36-2.30.1",
            "HPE Helion Openstack 8:perl-solv-0.6.36-2.30.1",
            "HPE Helion Openstack 8:python-solv-0.6.36-2.30.1",
            "SUSE Enterprise Storage 5:libsolv-0.6.36-2.30.1",
            "SUSE Enterprise Storage 5:libsolv-devel-0.6.36-2.30.1",
            "SUSE Enterprise Storage 5:libsolv-tools-0.6.36-2.30.1",
            "SUSE Enterprise Storage 5:perl-solv-0.6.36-2.30.1",
            "SUSE Enterprise Storage 5:python-solv-0.6.36-2.30.1",
            "SUSE Linux Enterprise Server 12 SP3-BCL:libsolv-0.6.36-2.30.1",
            "SUSE Linux Enterprise Server 12 SP3-BCL:libsolv-devel-0.6.36-2.30.1",
            "SUSE Linux Enterprise Server 12 SP3-BCL:libsolv-tools-0.6.36-2.30.1",
            "SUSE Linux Enterprise Server 12 SP3-BCL:perl-solv-0.6.36-2.30.1",
            "SUSE Linux Enterprise Server 12 SP3-BCL:python-solv-0.6.36-2.30.1",
            "SUSE Linux Enterprise Server 12 SP3-LTSS:libsolv-0.6.36-2.30.1",
            "SUSE Linux Enterprise Server 12 SP3-LTSS:libsolv-devel-0.6.36-2.30.1",
            "SUSE Linux Enterprise Server 12 SP3-LTSS:libsolv-tools-0.6.36-2.30.1",
            "SUSE Linux Enterprise Server 12 SP3-LTSS:perl-solv-0.6.36-2.30.1",
            "SUSE Linux Enterprise Server 12 SP3-LTSS:python-solv-0.6.36-2.30.1",
            "SUSE Linux Enterprise Server 12 SP4-LTSS:libsolv-0.6.36-2.30.1",
            "SUSE Linux Enterprise Server 12 SP4-LTSS:libsolv-devel-0.6.36-2.30.1",
            "SUSE Linux Enterprise Server 12 SP4-LTSS:libsolv-tools-0.6.36-2.30.1",
            "SUSE Linux Enterprise Server 12 SP4-LTSS:perl-solv-0.6.36-2.30.1",
            "SUSE Linux Enterprise Server 12 SP4-LTSS:python-solv-0.6.36-2.30.1",
            "SUSE Linux Enterprise Server 12 SP5:libsolv-0.6.36-2.30.1",
            "SUSE Linux Enterprise Server 12 SP5:libsolv-devel-0.6.36-2.30.1",
            "SUSE Linux Enterprise Server 12 SP5:libsolv-tools-0.6.36-2.30.1",
            "SUSE Linux Enterprise Server 12 SP5:perl-solv-0.6.36-2.30.1",
            "SUSE Linux Enterprise Server 12 SP5:python-solv-0.6.36-2.30.1",
            "SUSE Linux Enterprise Server for SAP Applications 12 SP3-BCL:libsolv-0.6.36-2.30.1",
            "SUSE Linux Enterprise Server for SAP Applications 12 SP3-BCL:libsolv-devel-0.6.36-2.30.1",
            "SUSE Linux Enterprise Server for SAP Applications 12 SP3-BCL:libsolv-tools-0.6.36-2.30.1",
            "SUSE Linux Enterprise Server for SAP Applications 12 SP3-BCL:perl-solv-0.6.36-2.30.1",
            "SUSE Linux Enterprise Server for SAP Applications 12 SP3-BCL:python-solv-0.6.36-2.30.1",
            "SUSE Linux Enterprise Server for SAP Applications 12 SP3-LTSS:libsolv-0.6.36-2.30.1",
            "SUSE Linux Enterprise Server for SAP Applications 12 SP3-LTSS:libsolv-devel-0.6.36-2.30.1",
            "SUSE Linux Enterprise Server for SAP Applications 12 SP3-LTSS:libsolv-tools-0.6.36-2.30.1",
            "SUSE Linux Enterprise Server for SAP Applications 12 SP3-LTSS:perl-solv-0.6.36-2.30.1",
            "SUSE Linux Enterprise Server for SAP Applications 12 SP3-LTSS:python-solv-0.6.36-2.30.1",
            "SUSE Linux Enterprise Server for SAP Applications 12 SP3:libsolv-0.6.36-2.30.1",
            "SUSE Linux Enterprise Server for SAP Applications 12 SP3:libsolv-devel-0.6.36-2.30.1",
            "SUSE Linux Enterprise Server for SAP Applications 12 SP3:libsolv-tools-0.6.36-2.30.1",
            "SUSE Linux Enterprise Server for SAP Applications 12 SP3:perl-solv-0.6.36-2.30.1",
            "SUSE Linux Enterprise Server for SAP Applications 12 SP3:python-solv-0.6.36-2.30.1",
            "SUSE Linux Enterprise Server for SAP Applications 12 SP4-LTSS:libsolv-0.6.36-2.30.1",
            "SUSE Linux Enterprise Server for SAP Applications 12 SP4-LTSS:libsolv-devel-0.6.36-2.30.1",
            "SUSE Linux Enterprise Server for SAP Applications 12 SP4-LTSS:libsolv-tools-0.6.36-2.30.1",
            "SUSE Linux Enterprise Server for SAP Applications 12 SP4-LTSS:perl-solv-0.6.36-2.30.1",
            "SUSE Linux Enterprise Server for SAP Applications 12 SP4-LTSS:python-solv-0.6.36-2.30.1",
            "SUSE Linux Enterprise Server for SAP Applications 12 SP4:libsolv-0.6.36-2.30.1",
            "SUSE Linux Enterprise Server for SAP Applications 12 SP4:libsolv-devel-0.6.36-2.30.1",
            "SUSE Linux Enterprise Server for SAP Applications 12 SP4:libsolv-tools-0.6.36-2.30.1",
            "SUSE Linux Enterprise Server for SAP Applications 12 SP4:perl-solv-0.6.36-2.30.1",
            "SUSE Linux Enterprise Server for SAP Applications 12 SP4:python-solv-0.6.36-2.30.1",
            "SUSE Linux Enterprise Server for SAP Applications 12 SP5:libsolv-0.6.36-2.30.1",
            "SUSE Linux Enterprise Server for SAP Applications 12 SP5:libsolv-devel-0.6.36-2.30.1",
            "SUSE Linux Enterprise Server for SAP Applications 12 SP5:libsolv-tools-0.6.36-2.30.1",
            "SUSE Linux Enterprise Server for SAP Applications 12 SP5:perl-solv-0.6.36-2.30.1",
            "SUSE Linux Enterprise Server for SAP Applications 12 SP5:python-solv-0.6.36-2.30.1",
            "SUSE Linux Enterprise Software Development Kit 12 SP5:libsolv-0.6.36-2.30.1",
            "SUSE Linux Enterprise Software Development Kit 12 SP5:libsolv-devel-0.6.36-2.30.1",
            "SUSE Linux Enterprise Software Development Kit 12 SP5:perl-solv-0.6.36-2.30.1",
            "SUSE OpenStack Cloud 8:libsolv-0.6.36-2.30.1",
            "SUSE OpenStack Cloud 8:libsolv-devel-0.6.36-2.30.1",
            "SUSE OpenStack Cloud 8:libsolv-tools-0.6.36-2.30.1",
            "SUSE OpenStack Cloud 8:perl-solv-0.6.36-2.30.1",
            "SUSE OpenStack Cloud 8:python-solv-0.6.36-2.30.1",
            "SUSE OpenStack Cloud 9:libsolv-0.6.36-2.30.1",
            "SUSE OpenStack Cloud 9:libsolv-devel-0.6.36-2.30.1",
            "SUSE OpenStack Cloud 9:libsolv-tools-0.6.36-2.30.1",
            "SUSE OpenStack Cloud 9:perl-solv-0.6.36-2.30.1",
            "SUSE OpenStack Cloud 9:python-solv-0.6.36-2.30.1",
            "SUSE OpenStack Cloud Crowbar 8:libsolv-0.6.36-2.30.1",
            "SUSE OpenStack Cloud Crowbar 8:libsolv-devel-0.6.36-2.30.1",
            "SUSE OpenStack Cloud Crowbar 8:libsolv-tools-0.6.36-2.30.1",
            "SUSE OpenStack Cloud Crowbar 8:perl-solv-0.6.36-2.30.1",
            "SUSE OpenStack Cloud Crowbar 8:python-solv-0.6.36-2.30.1",
            "SUSE OpenStack Cloud Crowbar 9:libsolv-0.6.36-2.30.1",
            "SUSE OpenStack Cloud Crowbar 9:libsolv-devel-0.6.36-2.30.1",
            "SUSE OpenStack Cloud Crowbar 9:libsolv-tools-0.6.36-2.30.1",
            "SUSE OpenStack Cloud Crowbar 9:perl-solv-0.6.36-2.30.1",
            "SUSE OpenStack Cloud Crowbar 9:python-solv-0.6.36-2.30.1"
          ]
        }
      ],
      "CVSSScoreSets": {}
    }
  ]
}