{
  "Title": "Security update for curl",
  "Tracking": {
    "ID": "SUSE-SU-2020:1734-1",
    "Status": "Final",
    "Version": "1",
    "InitialReleaseDate": "2020-06-24T07:43:55Z",
    "CurrentReleaseDate": "2020-06-24T07:43:55Z",
    "RevisionHistory": [
      {
        "Number": "1",
        "Date": "2020-06-24T07:43:55Z",
        "Description": "current"
      }
    ]
  },
  "Notes": [
    {
      "Text": "Security update for curl",
      "Title": "Topic",
      "Type": "Summary"
    },
    {
      "Text": "This update for curl fixes the following issues:\n\t  \n- CVE-2020-8177: Fixed an issue where curl could have been tricked by a malicious \n  server to overwrite a local file when using the -J option (bsc#1173027).\n",
      "Title": "Details",
      "Type": "General"
    },
    {
      "Text": "The CVRF data is provided by SUSE under the Creative Commons License 4.0 with Attribution for Non-Commercial usage (CC-BY-NC-4.0).",
      "Title": "Terms of Use",
      "Type": "Legal Disclaimer"
    }
  ],
  "ProductTree": {
    "Relationships": [
      {
        "ProductReference": "libcurl4-7.60.0-11.3.2",
        "RelatesToProductReference": "Container suse/sles12sp5:latest",
        "RelationType": "Default Component Of"
      },
      {
        "ProductReference": "curl-7.60.0-11.3.2",
        "RelatesToProductReference": "SUSE Linux Enterprise Software Development Kit 12 SP5",
        "RelationType": "Default Component Of"
      },
      {
        "ProductReference": "libcurl-devel-7.60.0-11.3.2",
        "RelatesToProductReference": "SUSE Linux Enterprise Software Development Kit 12 SP5",
        "RelationType": "Default Component Of"
      },
      {
        "ProductReference": "curl-7.60.0-11.3.2",
        "RelatesToProductReference": "SUSE Linux Enterprise Server 12 SP5",
        "RelationType": "Default Component Of"
      },
      {
        "ProductReference": "libcurl4-7.60.0-11.3.2",
        "RelatesToProductReference": "SUSE Linux Enterprise Server 12 SP5",
        "RelationType": "Default Component Of"
      },
      {
        "ProductReference": "libcurl4-32bit-7.60.0-11.3.2",
        "RelatesToProductReference": "SUSE Linux Enterprise Server 12 SP5",
        "RelationType": "Default Component Of"
      },
      {
        "ProductReference": "curl-7.60.0-11.3.2",
        "RelatesToProductReference": "SUSE Linux Enterprise Server for SAP Applications 12 SP5",
        "RelationType": "Default Component Of"
      },
      {
        "ProductReference": "libcurl4-7.60.0-11.3.2",
        "RelatesToProductReference": "SUSE Linux Enterprise Server for SAP Applications 12 SP5",
        "RelationType": "Default Component Of"
      },
      {
        "ProductReference": "libcurl4-32bit-7.60.0-11.3.2",
        "RelatesToProductReference": "SUSE Linux Enterprise Server for SAP Applications 12 SP5",
        "RelationType": "Default Component Of"
      }
    ]
  },
  "References": [
    {
      "URL": "https://www.suse.com/support/update/announcement/2020/suse-su-20201734-1/",
      "Description": "Link for SUSE-SU-2020:1734-1"
    },
    {
      "URL": "http://lists.suse.com/pipermail/sle-security-updates/2020-June/007020.html",
      "Description": "E-Mail link for SUSE-SU-2020:1734-1"
    },
    {
      "URL": "https://www.suse.com/support/security/rating/",
      "Description": "SUSE Security Ratings"
    }
  ],
  "Vulnerabilities": [
    {
      "CVE": "CVE-2020-8177",
      "Description": "** RESERVED ** This candidate has been reserved by an organization or individual that will use it when announcing a new security problem. When the candidate has been publicized, the details for this candidate will be provided.",
      "Threats": [
        {
          "Type": "Impact",
          "Severity": "important"
        }
      ],
      "References": [
        {
          "URL": "https://www.suse.com/security/cve/CVE-2020-8177.html",
          "Description": "CVE-2020-8177"
        },
        {
          "URL": "https://bugzilla.suse.com/1173027",
          "Description": "SUSE Bug 1173027"
        }
      ],
      "ProductStatuses": [
        {
          "Type": "Fixed",
          "ProductID": [
            "Container suse/sles12sp5:latest:libcurl4-7.60.0-11.3.2",
            "SUSE Linux Enterprise Server 12 SP5:curl-7.60.0-11.3.2",
            "SUSE Linux Enterprise Server 12 SP5:libcurl4-32bit-7.60.0-11.3.2",
            "SUSE Linux Enterprise Server 12 SP5:libcurl4-7.60.0-11.3.2",
            "SUSE Linux Enterprise Server for SAP Applications 12 SP5:curl-7.60.0-11.3.2",
            "SUSE Linux Enterprise Server for SAP Applications 12 SP5:libcurl4-32bit-7.60.0-11.3.2",
            "SUSE Linux Enterprise Server for SAP Applications 12 SP5:libcurl4-7.60.0-11.3.2",
            "SUSE Linux Enterprise Software Development Kit 12 SP5:curl-7.60.0-11.3.2",
            "SUSE Linux Enterprise Software Development Kit 12 SP5:libcurl-devel-7.60.0-11.3.2"
          ]
        }
      ],
      "CVSSScoreSets": {}
    }
  ]
}