{
  "Title": "Security update for gd",
  "Tracking": {
    "ID": "SUSE-SU-2020:0623-1",
    "Status": "Final",
    "Version": "1",
    "InitialReleaseDate": "2020-03-09T15:17:26Z",
    "CurrentReleaseDate": "2020-03-09T15:17:26Z",
    "RevisionHistory": [
      {
        "Number": "1",
        "Date": "2020-03-09T15:17:26Z",
        "Description": "current"
      }
    ]
  },
  "Notes": [
    {
      "Text": "Security update for gd",
      "Title": "Topic",
      "Type": "Summary"
    },
    {
      "Text": "This update for gd fixes the following issues:\n\n- CVE-2017-7890: Fixed a buffer over-read into uninitialized memory (bsc#1050241).\n- CVE-2018-14553: Fixed a null pointer dereference in gdImageClone() (bsc#1165471).\n- CVE-2019-11038: Fixed a information disclosure in gdImageCreateFromXbm() (bsc#1140120).\n",
      "Title": "Details",
      "Type": "General"
    },
    {
      "Text": "The CVRF data is provided by SUSE under the Creative Commons License 4.0 with Attribution for Non-Commercial usage (CC-BY-NC-4.0).",
      "Title": "Terms of Use",
      "Type": "Legal Disclaimer"
    }
  ],
  "ProductTree": {
    "Relationships": [
      {
        "ProductReference": "gd-2.1.0-24.17.1",
        "RelatesToProductReference": "SUSE Linux Enterprise Desktop 12 SP4",
        "RelationType": "Default Component Of"
      },
      {
        "ProductReference": "gd-32bit-2.1.0-24.17.1",
        "RelatesToProductReference": "SUSE Linux Enterprise Desktop 12 SP4",
        "RelationType": "Default Component Of"
      },
      {
        "ProductReference": "gd-2.1.0-24.17.1",
        "RelatesToProductReference": "SUSE Linux Enterprise Software Development Kit 12 SP4",
        "RelationType": "Default Component Of"
      },
      {
        "ProductReference": "gd-devel-2.1.0-24.17.1",
        "RelatesToProductReference": "SUSE Linux Enterprise Software Development Kit 12 SP4",
        "RelationType": "Default Component Of"
      },
      {
        "ProductReference": "gd-2.1.0-24.17.1",
        "RelatesToProductReference": "SUSE Linux Enterprise Software Development Kit 12 SP5",
        "RelationType": "Default Component Of"
      },
      {
        "ProductReference": "gd-devel-2.1.0-24.17.1",
        "RelatesToProductReference": "SUSE Linux Enterprise Software Development Kit 12 SP5",
        "RelationType": "Default Component Of"
      },
      {
        "ProductReference": "gd-2.1.0-24.17.1",
        "RelatesToProductReference": "SUSE Linux Enterprise Server 12 SP4",
        "RelationType": "Default Component Of"
      },
      {
        "ProductReference": "gd-2.1.0-24.17.1",
        "RelatesToProductReference": "SUSE Linux Enterprise Server for SAP Applications 12 SP4",
        "RelationType": "Default Component Of"
      },
      {
        "ProductReference": "gd-2.1.0-24.17.1",
        "RelatesToProductReference": "SUSE Linux Enterprise Server 12 SP5",
        "RelationType": "Default Component Of"
      },
      {
        "ProductReference": "gd-2.1.0-24.17.1",
        "RelatesToProductReference": "SUSE Linux Enterprise Server for SAP Applications 12 SP5",
        "RelationType": "Default Component Of"
      },
      {
        "ProductReference": "gd-2.1.0-24.17.1",
        "RelatesToProductReference": "SUSE Linux Enterprise Workstation Extension 12 SP4",
        "RelationType": "Default Component Of"
      },
      {
        "ProductReference": "gd-32bit-2.1.0-24.17.1",
        "RelatesToProductReference": "SUSE Linux Enterprise Workstation Extension 12 SP4",
        "RelationType": "Default Component Of"
      },
      {
        "ProductReference": "gd-2.1.0-24.17.1",
        "RelatesToProductReference": "SUSE Linux Enterprise Workstation Extension 12 SP5",
        "RelationType": "Default Component Of"
      },
      {
        "ProductReference": "gd-32bit-2.1.0-24.17.1",
        "RelatesToProductReference": "SUSE Linux Enterprise Workstation Extension 12 SP5",
        "RelationType": "Default Component Of"
      }
    ]
  },
  "References": [
    {
      "URL": "https://www.suse.com/support/update/announcement/2020/suse-su-20200623-1/",
      "Description": "Link for SUSE-SU-2020:0623-1"
    },
    {
      "URL": "http://lists.suse.com/pipermail/sle-security-updates/2020-March/006588.html",
      "Description": "E-Mail link for SUSE-SU-2020:0623-1"
    },
    {
      "URL": "https://www.suse.com/support/security/rating/",
      "Description": "SUSE Security Ratings"
    }
  ],
  "Vulnerabilities": [
    {
      "CVE": "CVE-2017-7890",
      "Description": "The GIF decoding function gdImageCreateFromGifCtx in gd_gif_in.c in the GD Graphics Library (aka libgd), as used in PHP before 5.6.31 and 7.x before 7.1.7, does not zero colorMap arrays before use. A specially crafted GIF image could use the uninitialized tables to read ~700 bytes from the top of the stack, potentially disclosing sensitive information.",
      "Threats": [
        {
          "Type": "Impact",
          "Severity": "moderate"
        }
      ],
      "References": [
        {
          "URL": "https://www.suse.com/security/cve/CVE-2017-7890.html",
          "Description": "CVE-2017-7890"
        },
        {
          "URL": "https://bugzilla.suse.com/1050241",
          "Description": "SUSE Bug 1050241"
        }
      ],
      "ProductStatuses": [
        {
          "Type": "Fixed",
          "ProductID": [
            "SUSE Linux Enterprise Desktop 12 SP4:gd-2.1.0-24.17.1",
            "SUSE Linux Enterprise Desktop 12 SP4:gd-32bit-2.1.0-24.17.1",
            "SUSE Linux Enterprise Server 12 SP4:gd-2.1.0-24.17.1",
            "SUSE Linux Enterprise Server 12 SP5:gd-2.1.0-24.17.1",
            "SUSE Linux Enterprise Server for SAP Applications 12 SP4:gd-2.1.0-24.17.1",
            "SUSE Linux Enterprise Server for SAP Applications 12 SP5:gd-2.1.0-24.17.1",
            "SUSE Linux Enterprise Software Development Kit 12 SP4:gd-2.1.0-24.17.1",
            "SUSE Linux Enterprise Software Development Kit 12 SP4:gd-devel-2.1.0-24.17.1",
            "SUSE Linux Enterprise Software Development Kit 12 SP5:gd-2.1.0-24.17.1",
            "SUSE Linux Enterprise Software Development Kit 12 SP5:gd-devel-2.1.0-24.17.1",
            "SUSE Linux Enterprise Workstation Extension 12 SP4:gd-2.1.0-24.17.1",
            "SUSE Linux Enterprise Workstation Extension 12 SP4:gd-32bit-2.1.0-24.17.1",
            "SUSE Linux Enterprise Workstation Extension 12 SP5:gd-2.1.0-24.17.1",
            "SUSE Linux Enterprise Workstation Extension 12 SP5:gd-32bit-2.1.0-24.17.1"
          ]
        }
      ],
      "CVSSScoreSets": {
        "BaseScore": "4.3",
        "Vector": "AV:N/AC:M/Au:N/C:P/I:N/A:N"
      }
    },
    {
      "CVE": "CVE-2018-14553",
      "Description": "gdImageClone in gd.c in libgd 2.1.0-rc2 through 2.2.5 has a NULL pointer dereference allowing attackers to crash an application via a specific function call sequence. Only affects PHP when linked with an external libgd (not bundled).",
      "Threats": [
        {
          "Type": "Impact",
          "Severity": "moderate"
        }
      ],
      "References": [
        {
          "URL": "https://www.suse.com/security/cve/CVE-2018-14553.html",
          "Description": "CVE-2018-14553"
        },
        {
          "URL": "https://bugzilla.suse.com/1165471",
          "Description": "SUSE Bug 1165471"
        }
      ],
      "ProductStatuses": [
        {
          "Type": "Fixed",
          "ProductID": [
            "SUSE Linux Enterprise Desktop 12 SP4:gd-2.1.0-24.17.1",
            "SUSE Linux Enterprise Desktop 12 SP4:gd-32bit-2.1.0-24.17.1",
            "SUSE Linux Enterprise Server 12 SP4:gd-2.1.0-24.17.1",
            "SUSE Linux Enterprise Server 12 SP5:gd-2.1.0-24.17.1",
            "SUSE Linux Enterprise Server for SAP Applications 12 SP4:gd-2.1.0-24.17.1",
            "SUSE Linux Enterprise Server for SAP Applications 12 SP5:gd-2.1.0-24.17.1",
            "SUSE Linux Enterprise Software Development Kit 12 SP4:gd-2.1.0-24.17.1",
            "SUSE Linux Enterprise Software Development Kit 12 SP4:gd-devel-2.1.0-24.17.1",
            "SUSE Linux Enterprise Software Development Kit 12 SP5:gd-2.1.0-24.17.1",
            "SUSE Linux Enterprise Software Development Kit 12 SP5:gd-devel-2.1.0-24.17.1",
            "SUSE Linux Enterprise Workstation Extension 12 SP4:gd-2.1.0-24.17.1",
            "SUSE Linux Enterprise Workstation Extension 12 SP4:gd-32bit-2.1.0-24.17.1",
            "SUSE Linux Enterprise Workstation Extension 12 SP5:gd-2.1.0-24.17.1",
            "SUSE Linux Enterprise Workstation Extension 12 SP5:gd-32bit-2.1.0-24.17.1"
          ]
        }
      ],
      "CVSSScoreSets": {}
    },
    {
      "CVE": "CVE-2019-11038",
      "Description": "When using the gdImageCreateFromXbm() function in the GD Graphics Library (aka LibGD) 2.2.5, as used in the PHP GD extension in PHP versions 7.1.x below 7.1.30, 7.2.x below 7.2.19 and 7.3.x below 7.3.6, it is possible to supply data that will cause the function to use the value of uninitialized variable. This may lead to disclosing contents of the stack that has been left there by previous code.",
      "Threats": [
        {
          "Type": "Impact",
          "Severity": "moderate"
        }
      ],
      "References": [
        {
          "URL": "https://www.suse.com/security/cve/CVE-2019-11038.html",
          "Description": "CVE-2019-11038"
        },
        {
          "URL": "https://bugzilla.suse.com/1140118",
          "Description": "SUSE Bug 1140118"
        },
        {
          "URL": "https://bugzilla.suse.com/1140120",
          "Description": "SUSE Bug 1140120"
        }
      ],
      "ProductStatuses": [
        {
          "Type": "Fixed",
          "ProductID": [
            "SUSE Linux Enterprise Desktop 12 SP4:gd-2.1.0-24.17.1",
            "SUSE Linux Enterprise Desktop 12 SP4:gd-32bit-2.1.0-24.17.1",
            "SUSE Linux Enterprise Server 12 SP4:gd-2.1.0-24.17.1",
            "SUSE Linux Enterprise Server 12 SP5:gd-2.1.0-24.17.1",
            "SUSE Linux Enterprise Server for SAP Applications 12 SP4:gd-2.1.0-24.17.1",
            "SUSE Linux Enterprise Server for SAP Applications 12 SP5:gd-2.1.0-24.17.1",
            "SUSE Linux Enterprise Software Development Kit 12 SP4:gd-2.1.0-24.17.1",
            "SUSE Linux Enterprise Software Development Kit 12 SP4:gd-devel-2.1.0-24.17.1",
            "SUSE Linux Enterprise Software Development Kit 12 SP5:gd-2.1.0-24.17.1",
            "SUSE Linux Enterprise Software Development Kit 12 SP5:gd-devel-2.1.0-24.17.1",
            "SUSE Linux Enterprise Workstation Extension 12 SP4:gd-2.1.0-24.17.1",
            "SUSE Linux Enterprise Workstation Extension 12 SP4:gd-32bit-2.1.0-24.17.1",
            "SUSE Linux Enterprise Workstation Extension 12 SP5:gd-2.1.0-24.17.1",
            "SUSE Linux Enterprise Workstation Extension 12 SP5:gd-32bit-2.1.0-24.17.1"
          ]
        }
      ],
      "CVSSScoreSets": {}
    }
  ]
}