{
  "Title": "Security update for libzypp",
  "Tracking": {
    "ID": "SUSE-SU-2020:0079-2",
    "Status": "Final",
    "Version": "1",
    "InitialReleaseDate": "2020-09-16T14:17:37Z",
    "CurrentReleaseDate": "2020-09-16T14:17:37Z",
    "RevisionHistory": [
      {
        "Number": "1",
        "Date": "2020-09-16T14:17:37Z",
        "Description": "current"
      }
    ]
  },
  "Notes": [
    {
      "Text": "Security update for libzypp",
      "Title": "Topic",
      "Type": "Summary"
    },
    {
      "Text": "This update for libzypp fixes the following issues:\n\nSecurity issue fixed:\n\n- CVE-2019-18900: Fixed assert cookie file that was world readable (bsc#1158763).\n",
      "Title": "Details",
      "Type": "General"
    },
    {
      "Text": "The CVRF data is provided by SUSE under the Creative Commons License 4.0 with Attribution for Non-Commercial usage (CC-BY-NC-4.0).",
      "Title": "Terms of Use",
      "Type": "Legal Disclaimer"
    }
  ],
  "ProductTree": {
    "Relationships": [
      {
        "ProductReference": "libzypp-16.21.2-2.45.1",
        "RelatesToProductReference": "Container suse/sles12sp4:latest",
        "RelationType": "Default Component Of"
      },
      {
        "ProductReference": "libzypp-16.21.2-2.45.1",
        "RelatesToProductReference": "Container suse/sles12sp5:latest",
        "RelationType": "Default Component Of"
      },
      {
        "ProductReference": "libzypp-16.21.2-2.45.1",
        "RelatesToProductReference": "HPE Helion Openstack 8",
        "RelationType": "Default Component Of"
      },
      {
        "ProductReference": "libzypp-devel-16.21.2-2.45.1",
        "RelatesToProductReference": "HPE Helion Openstack 8",
        "RelationType": "Default Component Of"
      },
      {
        "ProductReference": "libzypp-16.21.2-2.45.1",
        "RelatesToProductReference": "SUSE OpenStack Cloud 8",
        "RelationType": "Default Component Of"
      },
      {
        "ProductReference": "libzypp-devel-16.21.2-2.45.1",
        "RelatesToProductReference": "SUSE OpenStack Cloud 8",
        "RelationType": "Default Component Of"
      },
      {
        "ProductReference": "libzypp-16.21.2-2.45.1",
        "RelatesToProductReference": "SUSE OpenStack Cloud 9",
        "RelationType": "Default Component Of"
      },
      {
        "ProductReference": "libzypp-devel-16.21.2-2.45.1",
        "RelatesToProductReference": "SUSE OpenStack Cloud 9",
        "RelationType": "Default Component Of"
      },
      {
        "ProductReference": "libzypp-16.21.2-2.45.1",
        "RelatesToProductReference": "SUSE OpenStack Cloud Crowbar 8",
        "RelationType": "Default Component Of"
      },
      {
        "ProductReference": "libzypp-devel-16.21.2-2.45.1",
        "RelatesToProductReference": "SUSE OpenStack Cloud Crowbar 8",
        "RelationType": "Default Component Of"
      },
      {
        "ProductReference": "libzypp-16.21.2-2.45.1",
        "RelatesToProductReference": "SUSE OpenStack Cloud Crowbar 9",
        "RelationType": "Default Component Of"
      },
      {
        "ProductReference": "libzypp-devel-16.21.2-2.45.1",
        "RelatesToProductReference": "SUSE OpenStack Cloud Crowbar 9",
        "RelationType": "Default Component Of"
      },
      {
        "ProductReference": "libzypp-16.21.2-2.45.1",
        "RelatesToProductReference": "SUSE Linux Enterprise Server for SAP Applications 12 SP3",
        "RelationType": "Default Component Of"
      },
      {
        "ProductReference": "libzypp-devel-16.21.2-2.45.1",
        "RelatesToProductReference": "SUSE Linux Enterprise Server for SAP Applications 12 SP3",
        "RelationType": "Default Component Of"
      },
      {
        "ProductReference": "libzypp-16.21.2-2.45.1",
        "RelatesToProductReference": "SUSE Linux Enterprise Server for SAP Applications 12 SP4",
        "RelationType": "Default Component Of"
      },
      {
        "ProductReference": "libzypp-devel-16.21.2-2.45.1",
        "RelatesToProductReference": "SUSE Linux Enterprise Server for SAP Applications 12 SP4",
        "RelationType": "Default Component Of"
      },
      {
        "ProductReference": "libzypp-16.21.2-2.45.1",
        "RelatesToProductReference": "SUSE Linux Enterprise Server 12 SP3-LTSS",
        "RelationType": "Default Component Of"
      },
      {
        "ProductReference": "libzypp-devel-16.21.2-2.45.1",
        "RelatesToProductReference": "SUSE Linux Enterprise Server 12 SP3-LTSS",
        "RelationType": "Default Component Of"
      },
      {
        "ProductReference": "libzypp-16.21.2-2.45.1",
        "RelatesToProductReference": "SUSE Linux Enterprise Server for SAP Applications 12 SP3-LTSS",
        "RelationType": "Default Component Of"
      },
      {
        "ProductReference": "libzypp-devel-16.21.2-2.45.1",
        "RelatesToProductReference": "SUSE Linux Enterprise Server for SAP Applications 12 SP3-LTSS",
        "RelationType": "Default Component Of"
      },
      {
        "ProductReference": "libzypp-16.21.2-2.45.1",
        "RelatesToProductReference": "SUSE Linux Enterprise Server 12 SP3-BCL",
        "RelationType": "Default Component Of"
      },
      {
        "ProductReference": "libzypp-devel-16.21.2-2.45.1",
        "RelatesToProductReference": "SUSE Linux Enterprise Server 12 SP3-BCL",
        "RelationType": "Default Component Of"
      },
      {
        "ProductReference": "libzypp-16.21.2-2.45.1",
        "RelatesToProductReference": "SUSE Linux Enterprise Server for SAP Applications 12 SP3-BCL",
        "RelationType": "Default Component Of"
      },
      {
        "ProductReference": "libzypp-devel-16.21.2-2.45.1",
        "RelatesToProductReference": "SUSE Linux Enterprise Server for SAP Applications 12 SP3-BCL",
        "RelationType": "Default Component Of"
      },
      {
        "ProductReference": "libzypp-16.21.2-2.45.1",
        "RelatesToProductReference": "SUSE Linux Enterprise Server 12 SP4-LTSS",
        "RelationType": "Default Component Of"
      },
      {
        "ProductReference": "libzypp-devel-16.21.2-2.45.1",
        "RelatesToProductReference": "SUSE Linux Enterprise Server 12 SP4-LTSS",
        "RelationType": "Default Component Of"
      },
      {
        "ProductReference": "libzypp-16.21.2-2.45.1",
        "RelatesToProductReference": "SUSE Linux Enterprise Server for SAP Applications 12 SP4-LTSS",
        "RelationType": "Default Component Of"
      },
      {
        "ProductReference": "libzypp-devel-16.21.2-2.45.1",
        "RelatesToProductReference": "SUSE Linux Enterprise Server for SAP Applications 12 SP4-LTSS",
        "RelationType": "Default Component Of"
      },
      {
        "ProductReference": "libzypp-16.21.2-2.45.1",
        "RelatesToProductReference": "SUSE Enterprise Storage 5",
        "RelationType": "Default Component Of"
      },
      {
        "ProductReference": "libzypp-devel-16.21.2-2.45.1",
        "RelatesToProductReference": "SUSE Enterprise Storage 5",
        "RelationType": "Default Component Of"
      }
    ]
  },
  "References": [
    {
      "URL": "https://www.suse.com/support/update/announcement/2020/suse-su-20200079-2/",
      "Description": "Link for SUSE-SU-2020:0079-2"
    },
    {
      "URL": "http://lists.suse.com/pipermail/sle-security-updates/2020-September/007437.html",
      "Description": "E-Mail link for SUSE-SU-2020:0079-2"
    },
    {
      "URL": "https://www.suse.com/support/security/rating/",
      "Description": "SUSE Security Ratings"
    }
  ],
  "Vulnerabilities": [
    {
      "CVE": "CVE-2019-18900",
      "Description": ": Incorrect Default Permissions vulnerability in libzypp of SUSE CaaS Platform 3.0, SUSE Linux Enterprise Server 12, SUSE Linux Enterprise Server 15 allowed local attackers to read a cookie store used by libzypp, exposing private cookies. This issue affects: SUSE CaaS Platform 3.0 libzypp versions prior to 16.21.2-27.68.1. SUSE Linux Enterprise Server 12 libzypp versions prior to 16.21.2-2.45.1. SUSE Linux Enterprise Server 15 17.19.0-3.34.1.",
      "Threats": [
        {
          "Type": "Impact",
          "Severity": "moderate"
        }
      ],
      "References": [
        {
          "URL": "https://www.suse.com/security/cve/CVE-2019-18900.html",
          "Description": "CVE-2019-18900"
        },
        {
          "URL": "https://bugzilla.suse.com/1158763",
          "Description": "SUSE Bug 1158763"
        }
      ],
      "ProductStatuses": [
        {
          "Type": "Fixed",
          "ProductID": [
            "Container suse/sles12sp4:latest:libzypp-16.21.2-2.45.1",
            "Container suse/sles12sp5:latest:libzypp-16.21.2-2.45.1",
            "HPE Helion Openstack 8:libzypp-16.21.2-2.45.1",
            "HPE Helion Openstack 8:libzypp-devel-16.21.2-2.45.1",
            "SUSE Enterprise Storage 5:libzypp-16.21.2-2.45.1",
            "SUSE Enterprise Storage 5:libzypp-devel-16.21.2-2.45.1",
            "SUSE Linux Enterprise Server 12 SP3-BCL:libzypp-16.21.2-2.45.1",
            "SUSE Linux Enterprise Server 12 SP3-BCL:libzypp-devel-16.21.2-2.45.1",
            "SUSE Linux Enterprise Server 12 SP3-LTSS:libzypp-16.21.2-2.45.1",
            "SUSE Linux Enterprise Server 12 SP3-LTSS:libzypp-devel-16.21.2-2.45.1",
            "SUSE Linux Enterprise Server 12 SP4-LTSS:libzypp-16.21.2-2.45.1",
            "SUSE Linux Enterprise Server 12 SP4-LTSS:libzypp-devel-16.21.2-2.45.1",
            "SUSE Linux Enterprise Server for SAP Applications 12 SP3-BCL:libzypp-16.21.2-2.45.1",
            "SUSE Linux Enterprise Server for SAP Applications 12 SP3-BCL:libzypp-devel-16.21.2-2.45.1",
            "SUSE Linux Enterprise Server for SAP Applications 12 SP3-LTSS:libzypp-16.21.2-2.45.1",
            "SUSE Linux Enterprise Server for SAP Applications 12 SP3-LTSS:libzypp-devel-16.21.2-2.45.1",
            "SUSE Linux Enterprise Server for SAP Applications 12 SP3:libzypp-16.21.2-2.45.1",
            "SUSE Linux Enterprise Server for SAP Applications 12 SP3:libzypp-devel-16.21.2-2.45.1",
            "SUSE Linux Enterprise Server for SAP Applications 12 SP4-LTSS:libzypp-16.21.2-2.45.1",
            "SUSE Linux Enterprise Server for SAP Applications 12 SP4-LTSS:libzypp-devel-16.21.2-2.45.1",
            "SUSE Linux Enterprise Server for SAP Applications 12 SP4:libzypp-16.21.2-2.45.1",
            "SUSE Linux Enterprise Server for SAP Applications 12 SP4:libzypp-devel-16.21.2-2.45.1",
            "SUSE OpenStack Cloud 8:libzypp-16.21.2-2.45.1",
            "SUSE OpenStack Cloud 8:libzypp-devel-16.21.2-2.45.1",
            "SUSE OpenStack Cloud 9:libzypp-16.21.2-2.45.1",
            "SUSE OpenStack Cloud 9:libzypp-devel-16.21.2-2.45.1",
            "SUSE OpenStack Cloud Crowbar 8:libzypp-16.21.2-2.45.1",
            "SUSE OpenStack Cloud Crowbar 8:libzypp-devel-16.21.2-2.45.1",
            "SUSE OpenStack Cloud Crowbar 9:libzypp-16.21.2-2.45.1",
            "SUSE OpenStack Cloud Crowbar 9:libzypp-devel-16.21.2-2.45.1"
          ]
        }
      ],
      "CVSSScoreSets": {}
    }
  ]
}