{
  "Title": "Security update for libvpx",
  "Tracking": {
    "ID": "SUSE-SU-2020:0459-1",
    "Status": "Final",
    "Version": "1",
    "InitialReleaseDate": "2020-02-25T10:02:12Z",
    "CurrentReleaseDate": "2020-02-25T10:02:12Z",
    "RevisionHistory": [
      {
        "Number": "1",
        "Date": "2020-02-25T10:02:12Z",
        "Description": "current"
      }
    ]
  },
  "Notes": [
    {
      "Text": "Security update for libvpx",
      "Title": "Topic",
      "Type": "Summary"
    },
    {
      "Text": "This update for libvpx fixes the following issues:\n\n- CVE-2019-9232: Fixed an out of bound memory access (bsc#1160613).\n- CVE-2019-9433: Fixdd a use-after-free in vp8_deblock() (bsc#1160614).\n",
      "Title": "Details",
      "Type": "General"
    },
    {
      "Text": "The CVRF data is provided by SUSE under the Creative Commons License 4.0 with Attribution for Non-Commercial usage (CC-BY-NC-4.0).",
      "Title": "Terms of Use",
      "Type": "Legal Disclaimer"
    }
  ],
  "ProductTree": {
    "Relationships": [
      {
        "ProductReference": "libvpx-1.3.0-3.6.1",
        "RelatesToProductReference": "SUSE Linux Enterprise Software Development Kit 12 SP4",
        "RelationType": "Default Component Of"
      },
      {
        "ProductReference": "libvpx-devel-1.3.0-3.6.1",
        "RelatesToProductReference": "SUSE Linux Enterprise Software Development Kit 12 SP4",
        "RelationType": "Default Component Of"
      },
      {
        "ProductReference": "libvpx-1.3.0-3.6.1",
        "RelatesToProductReference": "SUSE Linux Enterprise Software Development Kit 12 SP5",
        "RelationType": "Default Component Of"
      },
      {
        "ProductReference": "libvpx-devel-1.3.0-3.6.1",
        "RelatesToProductReference": "SUSE Linux Enterprise Software Development Kit 12 SP5",
        "RelationType": "Default Component Of"
      },
      {
        "ProductReference": "libvpx-1.3.0-3.6.1",
        "RelatesToProductReference": "SUSE Linux Enterprise Server 12 SP4",
        "RelationType": "Default Component Of"
      },
      {
        "ProductReference": "libvpx1-1.3.0-3.6.1",
        "RelatesToProductReference": "SUSE Linux Enterprise Server 12 SP4",
        "RelationType": "Default Component Of"
      },
      {
        "ProductReference": "libvpx-1.3.0-3.6.1",
        "RelatesToProductReference": "SUSE Linux Enterprise Server for SAP Applications 12 SP4",
        "RelationType": "Default Component Of"
      },
      {
        "ProductReference": "libvpx1-1.3.0-3.6.1",
        "RelatesToProductReference": "SUSE Linux Enterprise Server for SAP Applications 12 SP4",
        "RelationType": "Default Component Of"
      },
      {
        "ProductReference": "libvpx-1.3.0-3.6.1",
        "RelatesToProductReference": "SUSE Linux Enterprise Server 12 SP5",
        "RelationType": "Default Component Of"
      },
      {
        "ProductReference": "libvpx1-1.3.0-3.6.1",
        "RelatesToProductReference": "SUSE Linux Enterprise Server 12 SP5",
        "RelationType": "Default Component Of"
      },
      {
        "ProductReference": "libvpx-1.3.0-3.6.1",
        "RelatesToProductReference": "SUSE Linux Enterprise Server for SAP Applications 12 SP5",
        "RelationType": "Default Component Of"
      },
      {
        "ProductReference": "libvpx1-1.3.0-3.6.1",
        "RelatesToProductReference": "SUSE Linux Enterprise Server for SAP Applications 12 SP5",
        "RelationType": "Default Component Of"
      },
      {
        "ProductReference": "libvpx-1.3.0-3.6.1",
        "RelatesToProductReference": "SUSE Linux Enterprise Workstation Extension 12 SP4",
        "RelationType": "Default Component Of"
      },
      {
        "ProductReference": "libvpx1-32bit-1.3.0-3.6.1",
        "RelatesToProductReference": "SUSE Linux Enterprise Workstation Extension 12 SP4",
        "RelationType": "Default Component Of"
      },
      {
        "ProductReference": "vpx-tools-1.3.0-3.6.1",
        "RelatesToProductReference": "SUSE Linux Enterprise Workstation Extension 12 SP4",
        "RelationType": "Default Component Of"
      },
      {
        "ProductReference": "libvpx-1.3.0-3.6.1",
        "RelatesToProductReference": "SUSE Linux Enterprise Workstation Extension 12 SP5",
        "RelationType": "Default Component Of"
      },
      {
        "ProductReference": "libvpx1-32bit-1.3.0-3.6.1",
        "RelatesToProductReference": "SUSE Linux Enterprise Workstation Extension 12 SP5",
        "RelationType": "Default Component Of"
      },
      {
        "ProductReference": "vpx-tools-1.3.0-3.6.1",
        "RelatesToProductReference": "SUSE Linux Enterprise Workstation Extension 12 SP5",
        "RelationType": "Default Component Of"
      }
    ]
  },
  "References": [
    {
      "URL": "https://www.suse.com/support/update/announcement/2020/suse-su-20200459-1/",
      "Description": "Link for SUSE-SU-2020:0459-1"
    },
    {
      "URL": "http://lists.suse.com/pipermail/sle-security-updates/2020-February/006524.html",
      "Description": "E-Mail link for SUSE-SU-2020:0459-1"
    },
    {
      "URL": "https://www.suse.com/support/security/rating/",
      "Description": "SUSE Security Ratings"
    }
  ],
  "Vulnerabilities": [
    {
      "CVE": "CVE-2019-9232",
      "Description": "In libvpx, there is a possible out of bounds read due to a missing bounds check. This could lead to remote information disclosure with no additional execution privileges needed. User interaction is not needed for exploitation. Product: AndroidVersions: Android-10Android ID: A-122675483",
      "Threats": [
        {
          "Type": "Impact",
          "Severity": "moderate"
        }
      ],
      "References": [
        {
          "URL": "https://www.suse.com/security/cve/CVE-2019-9232.html",
          "Description": "CVE-2019-9232"
        },
        {
          "URL": "https://bugzilla.suse.com/1160613",
          "Description": "SUSE Bug 1160613"
        }
      ],
      "ProductStatuses": [
        {
          "Type": "Fixed",
          "ProductID": [
            "SUSE Linux Enterprise Server 12 SP4:libvpx-1.3.0-3.6.1",
            "SUSE Linux Enterprise Server 12 SP4:libvpx1-1.3.0-3.6.1",
            "SUSE Linux Enterprise Server 12 SP5:libvpx-1.3.0-3.6.1",
            "SUSE Linux Enterprise Server 12 SP5:libvpx1-1.3.0-3.6.1",
            "SUSE Linux Enterprise Server for SAP Applications 12 SP4:libvpx-1.3.0-3.6.1",
            "SUSE Linux Enterprise Server for SAP Applications 12 SP4:libvpx1-1.3.0-3.6.1",
            "SUSE Linux Enterprise Server for SAP Applications 12 SP5:libvpx-1.3.0-3.6.1",
            "SUSE Linux Enterprise Server for SAP Applications 12 SP5:libvpx1-1.3.0-3.6.1",
            "SUSE Linux Enterprise Software Development Kit 12 SP4:libvpx-1.3.0-3.6.1",
            "SUSE Linux Enterprise Software Development Kit 12 SP4:libvpx-devel-1.3.0-3.6.1",
            "SUSE Linux Enterprise Software Development Kit 12 SP5:libvpx-1.3.0-3.6.1",
            "SUSE Linux Enterprise Software Development Kit 12 SP5:libvpx-devel-1.3.0-3.6.1",
            "SUSE Linux Enterprise Workstation Extension 12 SP4:libvpx-1.3.0-3.6.1",
            "SUSE Linux Enterprise Workstation Extension 12 SP4:libvpx1-32bit-1.3.0-3.6.1",
            "SUSE Linux Enterprise Workstation Extension 12 SP4:vpx-tools-1.3.0-3.6.1",
            "SUSE Linux Enterprise Workstation Extension 12 SP5:libvpx-1.3.0-3.6.1",
            "SUSE Linux Enterprise Workstation Extension 12 SP5:libvpx1-32bit-1.3.0-3.6.1",
            "SUSE Linux Enterprise Workstation Extension 12 SP5:vpx-tools-1.3.0-3.6.1"
          ]
        }
      ],
      "CVSSScoreSets": {}
    },
    {
      "CVE": "CVE-2019-9433",
      "Description": "In libvpx, there is a possible information disclosure due to improper input validation. This could lead to remote information disclosure with no additional execution privileges needed. User interaction is needed for exploitation. Product: AndroidVersions: Android-10Android ID: A-80479354",
      "Threats": [
        {
          "Type": "Impact",
          "Severity": "moderate"
        }
      ],
      "References": [
        {
          "URL": "https://www.suse.com/security/cve/CVE-2019-9433.html",
          "Description": "CVE-2019-9433"
        },
        {
          "URL": "https://bugzilla.suse.com/1160614",
          "Description": "SUSE Bug 1160614"
        }
      ],
      "ProductStatuses": [
        {
          "Type": "Fixed",
          "ProductID": [
            "SUSE Linux Enterprise Server 12 SP4:libvpx-1.3.0-3.6.1",
            "SUSE Linux Enterprise Server 12 SP4:libvpx1-1.3.0-3.6.1",
            "SUSE Linux Enterprise Server 12 SP5:libvpx-1.3.0-3.6.1",
            "SUSE Linux Enterprise Server 12 SP5:libvpx1-1.3.0-3.6.1",
            "SUSE Linux Enterprise Server for SAP Applications 12 SP4:libvpx-1.3.0-3.6.1",
            "SUSE Linux Enterprise Server for SAP Applications 12 SP4:libvpx1-1.3.0-3.6.1",
            "SUSE Linux Enterprise Server for SAP Applications 12 SP5:libvpx-1.3.0-3.6.1",
            "SUSE Linux Enterprise Server for SAP Applications 12 SP5:libvpx1-1.3.0-3.6.1",
            "SUSE Linux Enterprise Software Development Kit 12 SP4:libvpx-1.3.0-3.6.1",
            "SUSE Linux Enterprise Software Development Kit 12 SP4:libvpx-devel-1.3.0-3.6.1",
            "SUSE Linux Enterprise Software Development Kit 12 SP5:libvpx-1.3.0-3.6.1",
            "SUSE Linux Enterprise Software Development Kit 12 SP5:libvpx-devel-1.3.0-3.6.1",
            "SUSE Linux Enterprise Workstation Extension 12 SP4:libvpx-1.3.0-3.6.1",
            "SUSE Linux Enterprise Workstation Extension 12 SP4:libvpx1-32bit-1.3.0-3.6.1",
            "SUSE Linux Enterprise Workstation Extension 12 SP4:vpx-tools-1.3.0-3.6.1",
            "SUSE Linux Enterprise Workstation Extension 12 SP5:libvpx-1.3.0-3.6.1",
            "SUSE Linux Enterprise Workstation Extension 12 SP5:libvpx1-32bit-1.3.0-3.6.1",
            "SUSE Linux Enterprise Workstation Extension 12 SP5:vpx-tools-1.3.0-3.6.1"
          ]
        }
      ],
      "CVSSScoreSets": {}
    }
  ]
}