{
  "Title": "Security update for gnome-settings-daemon, gnome-shell",
  "Tracking": {
    "ID": "SUSE-SU-2020:3132-1",
    "Status": "Final",
    "Version": "1",
    "InitialReleaseDate": "2020-11-03T11:11:17Z",
    "CurrentReleaseDate": "2020-11-03T11:11:17Z",
    "RevisionHistory": [
      {
        "Number": "1",
        "Date": "2020-11-03T11:11:17Z",
        "Description": "current"
      }
    ]
  },
  "Notes": [
    {
      "Text": "Security update for gnome-settings-daemon, gnome-shell",
      "Title": "Topic",
      "Type": "Summary"
    },
    {
      "Text": "This update for gnome-settings-daemon, gnome-shell fixes the following issues:\n\ngnome-settings-daemon:\n\n- Add support for recent UCM related changes in ALSA and PulseAudio. (jsc#SLE-16518)\n- Don't warn when a default source or sink is missing and the PulseAudio daemon is restarting. (jsc#SLE-16518)\n- Don't warn about starting/stopping services which don't exist. (bsc#1172760).\n\ngnome-shell:\n\n- Add support for recent UCM related changes in ALSA and PulseAudio. (jsc#SLE-16518)\n- CVE-2020-17489: reset auth prompt on vt switch before fade in in loginDialog (bsc#1175155).\n",
      "Title": "Details",
      "Type": "General"
    },
    {
      "Text": "The CVRF data is provided by SUSE under the Creative Commons License 4.0 with Attribution for Non-Commercial usage (CC-BY-NC-4.0).",
      "Title": "Terms of Use",
      "Type": "Legal Disclaimer"
    }
  ],
  "ProductTree": {
    "Relationships": [
      {
        "ProductReference": "gnome-settings-daemon-3.34.2+0-4.3.1",
        "RelatesToProductReference": "SUSE Linux Enterprise Module for Desktop Applications 15 SP2",
        "RelationType": "Default Component Of"
      },
      {
        "ProductReference": "gnome-settings-daemon-devel-3.34.2+0-4.3.1",
        "RelatesToProductReference": "SUSE Linux Enterprise Module for Desktop Applications 15 SP2",
        "RelationType": "Default Component Of"
      },
      {
        "ProductReference": "gnome-settings-daemon-lang-3.34.2+0-4.3.1",
        "RelatesToProductReference": "SUSE Linux Enterprise Module for Desktop Applications 15 SP2",
        "RelationType": "Default Component Of"
      },
      {
        "ProductReference": "gnome-shell-3.34.5-3.13.1",
        "RelatesToProductReference": "SUSE Linux Enterprise Module for Desktop Applications 15 SP2",
        "RelationType": "Default Component Of"
      },
      {
        "ProductReference": "gnome-shell-devel-3.34.5-3.13.1",
        "RelatesToProductReference": "SUSE Linux Enterprise Module for Desktop Applications 15 SP2",
        "RelationType": "Default Component Of"
      },
      {
        "ProductReference": "gnome-shell-lang-3.34.5-3.13.1",
        "RelatesToProductReference": "SUSE Linux Enterprise Module for Desktop Applications 15 SP2",
        "RelationType": "Default Component Of"
      },
      {
        "ProductReference": "gnome-shell-3.34.5-3.13.1",
        "RelatesToProductReference": "SUSE Linux Enterprise Workstation Extension 15 SP2",
        "RelationType": "Default Component Of"
      },
      {
        "ProductReference": "gnome-shell-calendar-3.34.5-3.13.1",
        "RelatesToProductReference": "SUSE Linux Enterprise Workstation Extension 15 SP2",
        "RelationType": "Default Component Of"
      }
    ]
  },
  "References": [
    {
      "URL": "https://www.suse.com/support/update/announcement/2020/suse-su-20203132-1/",
      "Description": "Link for SUSE-SU-2020:3132-1"
    },
    {
      "URL": "http://lists.suse.com/pipermail/sle-security-updates/2020-November/007684.html",
      "Description": "E-Mail link for SUSE-SU-2020:3132-1"
    },
    {
      "URL": "https://www.suse.com/support/security/rating/",
      "Description": "SUSE Security Ratings"
    }
  ],
  "Vulnerabilities": [
    {
      "CVE": "CVE-2020-17489",
      "Description": "An issue was discovered in certain configurations of GNOME gnome-shell through 3.36.4. When logging out of an account, the password box from the login dialog reappears with the password still visible. If the user had decided to have the password shown in cleartext at login time, it is then visible for a brief moment upon a logout. (If the password were never shown in cleartext, only the password length is revealed.)",
      "Threats": [
        {
          "Type": "Impact",
          "Severity": "moderate"
        }
      ],
      "References": [
        {
          "URL": "https://www.suse.com/security/cve/CVE-2020-17489.html",
          "Description": "CVE-2020-17489"
        },
        {
          "URL": "https://bugzilla.suse.com/1175155",
          "Description": "SUSE Bug 1175155"
        }
      ],
      "ProductStatuses": [
        {
          "Type": "Fixed",
          "ProductID": [
            "SUSE Linux Enterprise Module for Desktop Applications 15 SP2:gnome-settings-daemon-3.34.2+0-4.3.1",
            "SUSE Linux Enterprise Module for Desktop Applications 15 SP2:gnome-settings-daemon-devel-3.34.2+0-4.3.1",
            "SUSE Linux Enterprise Module for Desktop Applications 15 SP2:gnome-settings-daemon-lang-3.34.2+0-4.3.1",
            "SUSE Linux Enterprise Module for Desktop Applications 15 SP2:gnome-shell-3.34.5-3.13.1",
            "SUSE Linux Enterprise Module for Desktop Applications 15 SP2:gnome-shell-devel-3.34.5-3.13.1",
            "SUSE Linux Enterprise Module for Desktop Applications 15 SP2:gnome-shell-lang-3.34.5-3.13.1",
            "SUSE Linux Enterprise Workstation Extension 15 SP2:gnome-shell-3.34.5-3.13.1",
            "SUSE Linux Enterprise Workstation Extension 15 SP2:gnome-shell-calendar-3.34.5-3.13.1"
          ]
        }
      ],
      "CVSSScoreSets": {}
    }
  ]
}