{
  "Title": "Security update for java-11-openjdk",
  "Tracking": {
    "ID": "SUSE-SU-2020:1572-1",
    "Status": "Final",
    "Version": "1",
    "InitialReleaseDate": "2020-06-09T09:18:27Z",
    "CurrentReleaseDate": "2020-06-09T09:18:27Z",
    "RevisionHistory": [
      {
        "Number": "1",
        "Date": "2020-06-09T09:18:27Z",
        "Description": "current"
      }
    ]
  },
  "Notes": [
    {
      "Text": "Security update for java-11-openjdk",
      "Title": "Topic",
      "Type": "Summary"
    },
    {
      "Text": "This update for java-11-openjdk fixes the following issues:\n\nJava was updated to jdk-11.0.7+10 (April 2020 CPU, bsc#1169511).\n\nSecurity issues fixed:\n\n- CVE-2020-2754: Fixed an incorrect handling of regular expressions that could have resulted in denial of service (bsc#1169511).\n- CVE-2020-2755: Fixed an incorrect handling of regular expressions that could have resulted in denial of service (bsc#1169511).\n- CVE-2020-2756: Fixed an incorrect handling of regular expressions that could have resulted in denial of service (bsc#1169511).\n- CVE-2020-2757: Fixed an object deserialization issue that could have resulted in denial of service via crafted serialized input (bsc#1169511).\n- CVE-2020-2767: Fixed an incorrect handling of certificate messages during TLS handshakes (bsc#1169511).\n- CVE-2020-2773: Fixed the incorrect handling of exceptions thrown by unmarshalKeyInfo() and unmarshalXMLSignature() (bsc#1169511).\n- CVE-2020-2778: Fixed the incorrect handling of SSLParameters in setAlgorithmConstraints(), which could have been abused to override the defined systems security policy and lead to the use of weak crypto algorithms (bsc#1169511).\n- CVE-2020-2781: Fixed the incorrect re-use of single null TLS sessions (bsc#1169511).\n- CVE-2020-2800: Fixed an HTTP header injection issue caused by mishandling of CR/LF in header values (bsc#1169511).\n- CVE-2020-2803: Fixed a boundary check and type check issue that could have led to a sandbox bypass (bsc#1169511).\n- CVE-2020-2805: Fixed a boundary check and type check issue that could have led to a sandbox bypass (bsc#1169511).\n- CVE-2020-2816: Fixed an incorrect handling of application data packets during TLS handshakes  (bsc#1169511).\n- CVE-2020-2830: Fixed an incorrect handling of regular expressions that could have resulted in denial of service (bsc#1169511).\n",
      "Title": "Details",
      "Type": "General"
    },
    {
      "Text": "The CVRF data is provided by SUSE under the Creative Commons License 4.0 with Attribution for Non-Commercial usage (CC-BY-NC-4.0).",
      "Title": "Terms of Use",
      "Type": "Legal Disclaimer"
    }
  ],
  "ProductTree": {
    "Relationships": [
      {
        "ProductReference": "java-11-openjdk-11.0.7.0-3.9.2",
        "RelatesToProductReference": "SUSE Linux Enterprise Server 12 SP5",
        "RelationType": "Default Component Of"
      },
      {
        "ProductReference": "java-11-openjdk-demo-11.0.7.0-3.9.2",
        "RelatesToProductReference": "SUSE Linux Enterprise Server 12 SP5",
        "RelationType": "Default Component Of"
      },
      {
        "ProductReference": "java-11-openjdk-devel-11.0.7.0-3.9.2",
        "RelatesToProductReference": "SUSE Linux Enterprise Server 12 SP5",
        "RelationType": "Default Component Of"
      },
      {
        "ProductReference": "java-11-openjdk-headless-11.0.7.0-3.9.2",
        "RelatesToProductReference": "SUSE Linux Enterprise Server 12 SP5",
        "RelationType": "Default Component Of"
      },
      {
        "ProductReference": "java-11-openjdk-11.0.7.0-3.9.2",
        "RelatesToProductReference": "SUSE Linux Enterprise Server for SAP Applications 12 SP5",
        "RelationType": "Default Component Of"
      },
      {
        "ProductReference": "java-11-openjdk-demo-11.0.7.0-3.9.2",
        "RelatesToProductReference": "SUSE Linux Enterprise Server for SAP Applications 12 SP5",
        "RelationType": "Default Component Of"
      },
      {
        "ProductReference": "java-11-openjdk-devel-11.0.7.0-3.9.2",
        "RelatesToProductReference": "SUSE Linux Enterprise Server for SAP Applications 12 SP5",
        "RelationType": "Default Component Of"
      },
      {
        "ProductReference": "java-11-openjdk-headless-11.0.7.0-3.9.2",
        "RelatesToProductReference": "SUSE Linux Enterprise Server for SAP Applications 12 SP5",
        "RelationType": "Default Component Of"
      }
    ]
  },
  "References": [
    {
      "URL": "https://www.suse.com/support/update/announcement/2020/suse-su-20201572-1/",
      "Description": "Link for SUSE-SU-2020:1572-1"
    },
    {
      "URL": "http://lists.suse.com/pipermail/sle-security-updates/2020-June/006907.html",
      "Description": "E-Mail link for SUSE-SU-2020:1572-1"
    },
    {
      "URL": "https://www.suse.com/support/security/rating/",
      "Description": "SUSE Security Ratings"
    }
  ],
  "Vulnerabilities": [
    {
      "CVE": "CVE-2020-2754",
      "Description": "Vulnerability in the Java SE, Java SE Embedded product of Oracle Java SE (component: Scripting). Supported versions that are affected are Java SE: 8u241, 11.0.6 and 14; Java SE Embedded: 8u241. Difficult to exploit vulnerability allows unauthenticated attacker with network access via multiple protocols to compromise Java SE, Java SE Embedded. Successful attacks of this vulnerability can result in unauthorized ability to cause a partial denial of service (partial DOS) of Java SE, Java SE Embedded. Note: Applies to client and server deployment of Java. This vulnerability can be exploited through sandboxed Java Web Start applications and sandboxed Java applets. It can also be exploited by supplying data to APIs in the specified Component without using sandboxed Java Web Start applications or sandboxed Java applets, such as through a web service. CVSS 3.0 Base Score 3.7 (Availability impacts). CVSS Vector: (CVSS:3.0/AV:N/AC:H/PR:N/UI:N/S:U/C:N/I:N/A:L).",
      "Threats": [
        {
          "Type": "Impact",
          "Severity": "moderate"
        }
      ],
      "References": [
        {
          "URL": "https://www.suse.com/security/cve/CVE-2020-2754.html",
          "Description": "CVE-2020-2754"
        },
        {
          "URL": "https://bugzilla.suse.com/1169511",
          "Description": "SUSE Bug 1169511"
        },
        {
          "URL": "https://bugzilla.suse.com/1172277",
          "Description": "SUSE Bug 1172277"
        }
      ],
      "ProductStatuses": [
        {
          "Type": "Fixed",
          "ProductID": [
            "SUSE Linux Enterprise Server 12 SP5:java-11-openjdk-11.0.7.0-3.9.2",
            "SUSE Linux Enterprise Server 12 SP5:java-11-openjdk-demo-11.0.7.0-3.9.2",
            "SUSE Linux Enterprise Server 12 SP5:java-11-openjdk-devel-11.0.7.0-3.9.2",
            "SUSE Linux Enterprise Server 12 SP5:java-11-openjdk-headless-11.0.7.0-3.9.2",
            "SUSE Linux Enterprise Server for SAP Applications 12 SP5:java-11-openjdk-11.0.7.0-3.9.2",
            "SUSE Linux Enterprise Server for SAP Applications 12 SP5:java-11-openjdk-demo-11.0.7.0-3.9.2",
            "SUSE Linux Enterprise Server for SAP Applications 12 SP5:java-11-openjdk-devel-11.0.7.0-3.9.2",
            "SUSE Linux Enterprise Server for SAP Applications 12 SP5:java-11-openjdk-headless-11.0.7.0-3.9.2"
          ]
        }
      ],
      "CVSSScoreSets": {}
    },
    {
      "CVE": "CVE-2020-2755",
      "Description": "Vulnerability in the Java SE, Java SE Embedded product of Oracle Java SE (component: Scripting). Supported versions that are affected are Java SE: 8u241, 11.0.6 and 14; Java SE Embedded: 8u241. Difficult to exploit vulnerability allows unauthenticated attacker with network access via multiple protocols to compromise Java SE, Java SE Embedded. Successful attacks of this vulnerability can result in unauthorized ability to cause a partial denial of service (partial DOS) of Java SE, Java SE Embedded. Note: Applies to client and server deployment of Java. This vulnerability can be exploited through sandboxed Java Web Start applications and sandboxed Java applets. It can also be exploited by supplying data to APIs in the specified Component without using sandboxed Java Web Start applications or sandboxed Java applets, such as through a web service. CVSS 3.0 Base Score 3.7 (Availability impacts). CVSS Vector: (CVSS:3.0/AV:N/AC:H/PR:N/UI:N/S:U/C:N/I:N/A:L).",
      "Threats": [
        {
          "Type": "Impact",
          "Severity": "moderate"
        }
      ],
      "References": [
        {
          "URL": "https://www.suse.com/security/cve/CVE-2020-2755.html",
          "Description": "CVE-2020-2755"
        },
        {
          "URL": "https://bugzilla.suse.com/1169511",
          "Description": "SUSE Bug 1169511"
        },
        {
          "URL": "https://bugzilla.suse.com/1172277",
          "Description": "SUSE Bug 1172277"
        }
      ],
      "ProductStatuses": [
        {
          "Type": "Fixed",
          "ProductID": [
            "SUSE Linux Enterprise Server 12 SP5:java-11-openjdk-11.0.7.0-3.9.2",
            "SUSE Linux Enterprise Server 12 SP5:java-11-openjdk-demo-11.0.7.0-3.9.2",
            "SUSE Linux Enterprise Server 12 SP5:java-11-openjdk-devel-11.0.7.0-3.9.2",
            "SUSE Linux Enterprise Server 12 SP5:java-11-openjdk-headless-11.0.7.0-3.9.2",
            "SUSE Linux Enterprise Server for SAP Applications 12 SP5:java-11-openjdk-11.0.7.0-3.9.2",
            "SUSE Linux Enterprise Server for SAP Applications 12 SP5:java-11-openjdk-demo-11.0.7.0-3.9.2",
            "SUSE Linux Enterprise Server for SAP Applications 12 SP5:java-11-openjdk-devel-11.0.7.0-3.9.2",
            "SUSE Linux Enterprise Server for SAP Applications 12 SP5:java-11-openjdk-headless-11.0.7.0-3.9.2"
          ]
        }
      ],
      "CVSSScoreSets": {}
    },
    {
      "CVE": "CVE-2020-2756",
      "Description": "Vulnerability in the Java SE, Java SE Embedded product of Oracle Java SE (component: Serialization). Supported versions that are affected are Java SE: 7u251, 8u241, 11.0.6 and 14; Java SE Embedded: 8u241. Difficult to exploit vulnerability allows unauthenticated attacker with network access via multiple protocols to compromise Java SE, Java SE Embedded. Successful attacks of this vulnerability can result in unauthorized ability to cause a partial denial of service (partial DOS) of Java SE, Java SE Embedded. Note: Applies to client and server deployment of Java. This vulnerability can be exploited through sandboxed Java Web Start applications and sandboxed Java applets. It can also be exploited by supplying data to APIs in the specified Component without using sandboxed Java Web Start applications or sandboxed Java applets, such as through a web service. CVSS 3.0 Base Score 3.7 (Availability impacts). CVSS Vector: (CVSS:3.0/AV:N/AC:H/PR:N/UI:N/S:U/C:N/I:N/A:L).",
      "Threats": [
        {
          "Type": "Impact",
          "Severity": "moderate"
        }
      ],
      "References": [
        {
          "URL": "https://www.suse.com/security/cve/CVE-2020-2756.html",
          "Description": "CVE-2020-2756"
        },
        {
          "URL": "https://bugzilla.suse.com/1169511",
          "Description": "SUSE Bug 1169511"
        },
        {
          "URL": "https://bugzilla.suse.com/1172277",
          "Description": "SUSE Bug 1172277"
        }
      ],
      "ProductStatuses": [
        {
          "Type": "Fixed",
          "ProductID": [
            "SUSE Linux Enterprise Server 12 SP5:java-11-openjdk-11.0.7.0-3.9.2",
            "SUSE Linux Enterprise Server 12 SP5:java-11-openjdk-demo-11.0.7.0-3.9.2",
            "SUSE Linux Enterprise Server 12 SP5:java-11-openjdk-devel-11.0.7.0-3.9.2",
            "SUSE Linux Enterprise Server 12 SP5:java-11-openjdk-headless-11.0.7.0-3.9.2",
            "SUSE Linux Enterprise Server for SAP Applications 12 SP5:java-11-openjdk-11.0.7.0-3.9.2",
            "SUSE Linux Enterprise Server for SAP Applications 12 SP5:java-11-openjdk-demo-11.0.7.0-3.9.2",
            "SUSE Linux Enterprise Server for SAP Applications 12 SP5:java-11-openjdk-devel-11.0.7.0-3.9.2",
            "SUSE Linux Enterprise Server for SAP Applications 12 SP5:java-11-openjdk-headless-11.0.7.0-3.9.2"
          ]
        }
      ],
      "CVSSScoreSets": {}
    },
    {
      "CVE": "CVE-2020-2757",
      "Description": "Vulnerability in the Java SE, Java SE Embedded product of Oracle Java SE (component: Serialization). Supported versions that are affected are Java SE: 7u251, 8u241, 11.0.6 and 14; Java SE Embedded: 8u241. Difficult to exploit vulnerability allows unauthenticated attacker with network access via multiple protocols to compromise Java SE, Java SE Embedded. Successful attacks of this vulnerability can result in unauthorized ability to cause a partial denial of service (partial DOS) of Java SE, Java SE Embedded. Note: Applies to client and server deployment of Java. This vulnerability can be exploited through sandboxed Java Web Start applications and sandboxed Java applets. It can also be exploited by supplying data to APIs in the specified Component without using sandboxed Java Web Start applications or sandboxed Java applets, such as through a web service. CVSS 3.0 Base Score 3.7 (Availability impacts). CVSS Vector: (CVSS:3.0/AV:N/AC:H/PR:N/UI:N/S:U/C:N/I:N/A:L).",
      "Threats": [
        {
          "Type": "Impact",
          "Severity": "moderate"
        }
      ],
      "References": [
        {
          "URL": "https://www.suse.com/security/cve/CVE-2020-2757.html",
          "Description": "CVE-2020-2757"
        },
        {
          "URL": "https://bugzilla.suse.com/1169511",
          "Description": "SUSE Bug 1169511"
        },
        {
          "URL": "https://bugzilla.suse.com/1172277",
          "Description": "SUSE Bug 1172277"
        }
      ],
      "ProductStatuses": [
        {
          "Type": "Fixed",
          "ProductID": [
            "SUSE Linux Enterprise Server 12 SP5:java-11-openjdk-11.0.7.0-3.9.2",
            "SUSE Linux Enterprise Server 12 SP5:java-11-openjdk-demo-11.0.7.0-3.9.2",
            "SUSE Linux Enterprise Server 12 SP5:java-11-openjdk-devel-11.0.7.0-3.9.2",
            "SUSE Linux Enterprise Server 12 SP5:java-11-openjdk-headless-11.0.7.0-3.9.2",
            "SUSE Linux Enterprise Server for SAP Applications 12 SP5:java-11-openjdk-11.0.7.0-3.9.2",
            "SUSE Linux Enterprise Server for SAP Applications 12 SP5:java-11-openjdk-demo-11.0.7.0-3.9.2",
            "SUSE Linux Enterprise Server for SAP Applications 12 SP5:java-11-openjdk-devel-11.0.7.0-3.9.2",
            "SUSE Linux Enterprise Server for SAP Applications 12 SP5:java-11-openjdk-headless-11.0.7.0-3.9.2"
          ]
        }
      ],
      "CVSSScoreSets": {}
    },
    {
      "CVE": "CVE-2020-2767",
      "Description": "Vulnerability in the Java SE product of Oracle Java SE (component: JSSE). Supported versions that are affected are Java SE: 11.0.6 and 14. Difficult to exploit vulnerability allows unauthenticated attacker with network access via HTTPS to compromise Java SE. Successful attacks of this vulnerability can result in unauthorized update, insert or delete access to some of Java SE accessible data as well as unauthorized read access to a subset of Java SE accessible data. Note: Applies to client and server deployment of Java. This vulnerability can be exploited through sandboxed Java Web Start applications and sandboxed Java applets. It can also be exploited by supplying data to APIs in the specified Component without using sandboxed Java Web Start applications or sandboxed Java applets, such as through a web service. CVSS 3.0 Base Score 4.8 (Confidentiality and Integrity impacts). CVSS Vector: (CVSS:3.0/AV:N/AC:H/PR:N/UI:N/S:U/C:L/I:L/A:N).",
      "Threats": [
        {
          "Type": "Impact",
          "Severity": "moderate"
        }
      ],
      "References": [
        {
          "URL": "https://www.suse.com/security/cve/CVE-2020-2767.html",
          "Description": "CVE-2020-2767"
        },
        {
          "URL": "https://bugzilla.suse.com/1169511",
          "Description": "SUSE Bug 1169511"
        }
      ],
      "ProductStatuses": [
        {
          "Type": "Fixed",
          "ProductID": [
            "SUSE Linux Enterprise Server 12 SP5:java-11-openjdk-11.0.7.0-3.9.2",
            "SUSE Linux Enterprise Server 12 SP5:java-11-openjdk-demo-11.0.7.0-3.9.2",
            "SUSE Linux Enterprise Server 12 SP5:java-11-openjdk-devel-11.0.7.0-3.9.2",
            "SUSE Linux Enterprise Server 12 SP5:java-11-openjdk-headless-11.0.7.0-3.9.2",
            "SUSE Linux Enterprise Server for SAP Applications 12 SP5:java-11-openjdk-11.0.7.0-3.9.2",
            "SUSE Linux Enterprise Server for SAP Applications 12 SP5:java-11-openjdk-demo-11.0.7.0-3.9.2",
            "SUSE Linux Enterprise Server for SAP Applications 12 SP5:java-11-openjdk-devel-11.0.7.0-3.9.2",
            "SUSE Linux Enterprise Server for SAP Applications 12 SP5:java-11-openjdk-headless-11.0.7.0-3.9.2"
          ]
        }
      ],
      "CVSSScoreSets": {}
    },
    {
      "CVE": "CVE-2020-2773",
      "Description": "Vulnerability in the Java SE, Java SE Embedded product of Oracle Java SE (component: Security). Supported versions that are affected are Java SE: 7u251, 8u241, 11.0.6 and 14; Java SE Embedded: 8u241. Difficult to exploit vulnerability allows unauthenticated attacker with network access via multiple protocols to compromise Java SE, Java SE Embedded. Successful attacks of this vulnerability can result in unauthorized ability to cause a partial denial of service (partial DOS) of Java SE, Java SE Embedded. Note: Applies to client and server deployment of Java. This vulnerability can be exploited through sandboxed Java Web Start applications and sandboxed Java applets. It can also be exploited by supplying data to APIs in the specified Component without using sandboxed Java Web Start applications or sandboxed Java applets, such as through a web service. CVSS 3.0 Base Score 3.7 (Availability impacts). CVSS Vector: (CVSS:3.0/AV:N/AC:H/PR:N/UI:N/S:U/C:N/I:N/A:L).",
      "Threats": [
        {
          "Type": "Impact",
          "Severity": "moderate"
        }
      ],
      "References": [
        {
          "URL": "https://www.suse.com/security/cve/CVE-2020-2773.html",
          "Description": "CVE-2020-2773"
        },
        {
          "URL": "https://bugzilla.suse.com/1169511",
          "Description": "SUSE Bug 1169511"
        }
      ],
      "ProductStatuses": [
        {
          "Type": "Fixed",
          "ProductID": [
            "SUSE Linux Enterprise Server 12 SP5:java-11-openjdk-11.0.7.0-3.9.2",
            "SUSE Linux Enterprise Server 12 SP5:java-11-openjdk-demo-11.0.7.0-3.9.2",
            "SUSE Linux Enterprise Server 12 SP5:java-11-openjdk-devel-11.0.7.0-3.9.2",
            "SUSE Linux Enterprise Server 12 SP5:java-11-openjdk-headless-11.0.7.0-3.9.2",
            "SUSE Linux Enterprise Server for SAP Applications 12 SP5:java-11-openjdk-11.0.7.0-3.9.2",
            "SUSE Linux Enterprise Server for SAP Applications 12 SP5:java-11-openjdk-demo-11.0.7.0-3.9.2",
            "SUSE Linux Enterprise Server for SAP Applications 12 SP5:java-11-openjdk-devel-11.0.7.0-3.9.2",
            "SUSE Linux Enterprise Server for SAP Applications 12 SP5:java-11-openjdk-headless-11.0.7.0-3.9.2"
          ]
        }
      ],
      "CVSSScoreSets": {}
    },
    {
      "CVE": "CVE-2020-2778",
      "Description": "Vulnerability in the Java SE product of Oracle Java SE (component: JSSE). Supported versions that are affected are Java SE: 11.0.6 and 14. Difficult to exploit vulnerability allows unauthenticated attacker with network access via HTTPS to compromise Java SE. Successful attacks of this vulnerability can result in unauthorized read access to a subset of Java SE accessible data. Note: Applies to client and server deployment of Java. This vulnerability can be exploited through sandboxed Java Web Start applications and sandboxed Java applets. It can also be exploited by supplying data to APIs in the specified Component without using sandboxed Java Web Start applications or sandboxed Java applets, such as through a web service. CVSS 3.0 Base Score 3.7 (Confidentiality impacts). CVSS Vector: (CVSS:3.0/AV:N/AC:H/PR:N/UI:N/S:U/C:L/I:N/A:N).",
      "Threats": [
        {
          "Type": "Impact",
          "Severity": "moderate"
        }
      ],
      "References": [
        {
          "URL": "https://www.suse.com/security/cve/CVE-2020-2778.html",
          "Description": "CVE-2020-2778"
        },
        {
          "URL": "https://bugzilla.suse.com/1169511",
          "Description": "SUSE Bug 1169511"
        }
      ],
      "ProductStatuses": [
        {
          "Type": "Fixed",
          "ProductID": [
            "SUSE Linux Enterprise Server 12 SP5:java-11-openjdk-11.0.7.0-3.9.2",
            "SUSE Linux Enterprise Server 12 SP5:java-11-openjdk-demo-11.0.7.0-3.9.2",
            "SUSE Linux Enterprise Server 12 SP5:java-11-openjdk-devel-11.0.7.0-3.9.2",
            "SUSE Linux Enterprise Server 12 SP5:java-11-openjdk-headless-11.0.7.0-3.9.2",
            "SUSE Linux Enterprise Server for SAP Applications 12 SP5:java-11-openjdk-11.0.7.0-3.9.2",
            "SUSE Linux Enterprise Server for SAP Applications 12 SP5:java-11-openjdk-demo-11.0.7.0-3.9.2",
            "SUSE Linux Enterprise Server for SAP Applications 12 SP5:java-11-openjdk-devel-11.0.7.0-3.9.2",
            "SUSE Linux Enterprise Server for SAP Applications 12 SP5:java-11-openjdk-headless-11.0.7.0-3.9.2"
          ]
        }
      ],
      "CVSSScoreSets": {}
    },
    {
      "CVE": "CVE-2020-2781",
      "Description": "Vulnerability in the Java SE, Java SE Embedded product of Oracle Java SE (component: JSSE). Supported versions that are affected are Java SE: 7u251, 8u241, 11.0.6 and 14; Java SE Embedded: 8u241. Easily exploitable vulnerability allows unauthenticated attacker with network access via HTTPS to compromise Java SE, Java SE Embedded. Successful attacks of this vulnerability can result in unauthorized ability to cause a partial denial of service (partial DOS) of Java SE, Java SE Embedded. Note: Applies to client and server deployment of Java. This vulnerability can be exploited through sandboxed Java Web Start applications and sandboxed Java applets. It can also be exploited by supplying data to APIs in the specified Component without using sandboxed Java Web Start applications or sandboxed Java applets, such as through a web service. CVSS 3.0 Base Score 5.3 (Availability impacts). CVSS Vector: (CVSS:3.0/AV:N/AC:L/PR:N/UI:N/S:U/C:N/I:N/A:L).",
      "Threats": [
        {
          "Type": "Impact",
          "Severity": "moderate"
        }
      ],
      "References": [
        {
          "URL": "https://www.suse.com/security/cve/CVE-2020-2781.html",
          "Description": "CVE-2020-2781"
        },
        {
          "URL": "https://bugzilla.suse.com/1169511",
          "Description": "SUSE Bug 1169511"
        },
        {
          "URL": "https://bugzilla.suse.com/1172277",
          "Description": "SUSE Bug 1172277"
        }
      ],
      "ProductStatuses": [
        {
          "Type": "Fixed",
          "ProductID": [
            "SUSE Linux Enterprise Server 12 SP5:java-11-openjdk-11.0.7.0-3.9.2",
            "SUSE Linux Enterprise Server 12 SP5:java-11-openjdk-demo-11.0.7.0-3.9.2",
            "SUSE Linux Enterprise Server 12 SP5:java-11-openjdk-devel-11.0.7.0-3.9.2",
            "SUSE Linux Enterprise Server 12 SP5:java-11-openjdk-headless-11.0.7.0-3.9.2",
            "SUSE Linux Enterprise Server for SAP Applications 12 SP5:java-11-openjdk-11.0.7.0-3.9.2",
            "SUSE Linux Enterprise Server for SAP Applications 12 SP5:java-11-openjdk-demo-11.0.7.0-3.9.2",
            "SUSE Linux Enterprise Server for SAP Applications 12 SP5:java-11-openjdk-devel-11.0.7.0-3.9.2",
            "SUSE Linux Enterprise Server for SAP Applications 12 SP5:java-11-openjdk-headless-11.0.7.0-3.9.2"
          ]
        }
      ],
      "CVSSScoreSets": {}
    },
    {
      "CVE": "CVE-2020-2800",
      "Description": "Vulnerability in the Java SE, Java SE Embedded product of Oracle Java SE (component: Lightweight HTTP Server). Supported versions that are affected are Java SE: 7u251, 8u241, 11.0.6 and 14; Java SE Embedded: 8u241. Difficult to exploit vulnerability allows unauthenticated attacker with network access via multiple protocols to compromise Java SE, Java SE Embedded. Successful attacks of this vulnerability can result in unauthorized update, insert or delete access to some of Java SE, Java SE Embedded accessible data as well as unauthorized read access to a subset of Java SE, Java SE Embedded accessible data. Note: This vulnerability can only be exploited by supplying data to APIs in the specified Component without using Untrusted Java Web Start applications or Untrusted Java applets, such as through a web service. CVSS 3.0 Base Score 4.8 (Confidentiality and Integrity impacts). CVSS Vector: (CVSS:3.0/AV:N/AC:H/PR:N/UI:N/S:U/C:L/I:L/A:N).",
      "Threats": [
        {
          "Type": "Impact",
          "Severity": "moderate"
        }
      ],
      "References": [
        {
          "URL": "https://www.suse.com/security/cve/CVE-2020-2800.html",
          "Description": "CVE-2020-2800"
        },
        {
          "URL": "https://bugzilla.suse.com/1169511",
          "Description": "SUSE Bug 1169511"
        },
        {
          "URL": "https://bugzilla.suse.com/1172277",
          "Description": "SUSE Bug 1172277"
        }
      ],
      "ProductStatuses": [
        {
          "Type": "Fixed",
          "ProductID": [
            "SUSE Linux Enterprise Server 12 SP5:java-11-openjdk-11.0.7.0-3.9.2",
            "SUSE Linux Enterprise Server 12 SP5:java-11-openjdk-demo-11.0.7.0-3.9.2",
            "SUSE Linux Enterprise Server 12 SP5:java-11-openjdk-devel-11.0.7.0-3.9.2",
            "SUSE Linux Enterprise Server 12 SP5:java-11-openjdk-headless-11.0.7.0-3.9.2",
            "SUSE Linux Enterprise Server for SAP Applications 12 SP5:java-11-openjdk-11.0.7.0-3.9.2",
            "SUSE Linux Enterprise Server for SAP Applications 12 SP5:java-11-openjdk-demo-11.0.7.0-3.9.2",
            "SUSE Linux Enterprise Server for SAP Applications 12 SP5:java-11-openjdk-devel-11.0.7.0-3.9.2",
            "SUSE Linux Enterprise Server for SAP Applications 12 SP5:java-11-openjdk-headless-11.0.7.0-3.9.2"
          ]
        }
      ],
      "CVSSScoreSets": {}
    },
    {
      "CVE": "CVE-2020-2803",
      "Description": "Vulnerability in the Java SE, Java SE Embedded product of Oracle Java SE (component: Libraries). Supported versions that are affected are Java SE: 7u251, 8u241, 11.0.6 and 14; Java SE Embedded: 8u241. Difficult to exploit vulnerability allows unauthenticated attacker with network access via multiple protocols to compromise Java SE, Java SE Embedded. Successful attacks require human interaction from a person other than the attacker and while the vulnerability is in Java SE, Java SE Embedded, attacks may significantly impact additional products. Successful attacks of this vulnerability can result in takeover of Java SE, Java SE Embedded. Note: This vulnerability applies to Java deployments, typically in clients running sandboxed Java Web Start applications or sandboxed Java applets, that load and run untrusted code (e.g., code that comes from the internet) and rely on the Java sandbox for security. This vulnerability does not apply to Java deployments, typically in servers, that load and run only trusted code (e.g., code installed by an administrator). CVSS 3.0 Base Score 8.3 (Confidentiality, Integrity and Availability impacts). CVSS Vector: (CVSS:3.0/AV:N/AC:H/PR:N/UI:R/S:C/C:H/I:H/A:H).",
      "Threats": [
        {
          "Type": "Impact",
          "Severity": "moderate"
        }
      ],
      "References": [
        {
          "URL": "https://www.suse.com/security/cve/CVE-2020-2803.html",
          "Description": "CVE-2020-2803"
        },
        {
          "URL": "https://bugzilla.suse.com/1169511",
          "Description": "SUSE Bug 1169511"
        },
        {
          "URL": "https://bugzilla.suse.com/1172277",
          "Description": "SUSE Bug 1172277"
        }
      ],
      "ProductStatuses": [
        {
          "Type": "Fixed",
          "ProductID": [
            "SUSE Linux Enterprise Server 12 SP5:java-11-openjdk-11.0.7.0-3.9.2",
            "SUSE Linux Enterprise Server 12 SP5:java-11-openjdk-demo-11.0.7.0-3.9.2",
            "SUSE Linux Enterprise Server 12 SP5:java-11-openjdk-devel-11.0.7.0-3.9.2",
            "SUSE Linux Enterprise Server 12 SP5:java-11-openjdk-headless-11.0.7.0-3.9.2",
            "SUSE Linux Enterprise Server for SAP Applications 12 SP5:java-11-openjdk-11.0.7.0-3.9.2",
            "SUSE Linux Enterprise Server for SAP Applications 12 SP5:java-11-openjdk-demo-11.0.7.0-3.9.2",
            "SUSE Linux Enterprise Server for SAP Applications 12 SP5:java-11-openjdk-devel-11.0.7.0-3.9.2",
            "SUSE Linux Enterprise Server for SAP Applications 12 SP5:java-11-openjdk-headless-11.0.7.0-3.9.2"
          ]
        }
      ],
      "CVSSScoreSets": {}
    },
    {
      "CVE": "CVE-2020-2805",
      "Description": "Vulnerability in the Java SE, Java SE Embedded product of Oracle Java SE (component: Libraries). Supported versions that are affected are Java SE: 7u251, 8u241, 11.0.6 and 14; Java SE Embedded: 8u241. Difficult to exploit vulnerability allows unauthenticated attacker with network access via multiple protocols to compromise Java SE, Java SE Embedded. Successful attacks require human interaction from a person other than the attacker and while the vulnerability is in Java SE, Java SE Embedded, attacks may significantly impact additional products. Successful attacks of this vulnerability can result in takeover of Java SE, Java SE Embedded. Note: This vulnerability applies to Java deployments, typically in clients running sandboxed Java Web Start applications or sandboxed Java applets, that load and run untrusted code (e.g., code that comes from the internet) and rely on the Java sandbox for security. This vulnerability does not apply to Java deployments, typically in servers, that load and run only trusted code (e.g., code installed by an administrator). CVSS 3.0 Base Score 8.3 (Confidentiality, Integrity and Availability impacts). CVSS Vector: (CVSS:3.0/AV:N/AC:H/PR:N/UI:R/S:C/C:H/I:H/A:H).",
      "Threats": [
        {
          "Type": "Impact",
          "Severity": "moderate"
        }
      ],
      "References": [
        {
          "URL": "https://www.suse.com/security/cve/CVE-2020-2805.html",
          "Description": "CVE-2020-2805"
        },
        {
          "URL": "https://bugzilla.suse.com/1169511",
          "Description": "SUSE Bug 1169511"
        },
        {
          "URL": "https://bugzilla.suse.com/1172277",
          "Description": "SUSE Bug 1172277"
        }
      ],
      "ProductStatuses": [
        {
          "Type": "Fixed",
          "ProductID": [
            "SUSE Linux Enterprise Server 12 SP5:java-11-openjdk-11.0.7.0-3.9.2",
            "SUSE Linux Enterprise Server 12 SP5:java-11-openjdk-demo-11.0.7.0-3.9.2",
            "SUSE Linux Enterprise Server 12 SP5:java-11-openjdk-devel-11.0.7.0-3.9.2",
            "SUSE Linux Enterprise Server 12 SP5:java-11-openjdk-headless-11.0.7.0-3.9.2",
            "SUSE Linux Enterprise Server for SAP Applications 12 SP5:java-11-openjdk-11.0.7.0-3.9.2",
            "SUSE Linux Enterprise Server for SAP Applications 12 SP5:java-11-openjdk-demo-11.0.7.0-3.9.2",
            "SUSE Linux Enterprise Server for SAP Applications 12 SP5:java-11-openjdk-devel-11.0.7.0-3.9.2",
            "SUSE Linux Enterprise Server for SAP Applications 12 SP5:java-11-openjdk-headless-11.0.7.0-3.9.2"
          ]
        }
      ],
      "CVSSScoreSets": {}
    },
    {
      "CVE": "CVE-2020-2816",
      "Description": "Vulnerability in the Java SE product of Oracle Java SE (component: JSSE). Supported versions that are affected are Java SE: 11.0.6 and 14. Easily exploitable vulnerability allows unauthenticated attacker with network access via HTTPS to compromise Java SE. Successful attacks of this vulnerability can result in unauthorized creation, deletion or modification access to critical data or all Java SE accessible data. Note: This vulnerability can only be exploited by supplying data to APIs in the specified Component without using Untrusted Java Web Start applications or Untrusted Java applets, such as through a web service. CVSS 3.0 Base Score 7.5 (Integrity impacts). CVSS Vector: (CVSS:3.0/AV:N/AC:L/PR:N/UI:N/S:U/C:N/I:H/A:N).",
      "Threats": [
        {
          "Type": "Impact",
          "Severity": "moderate"
        }
      ],
      "References": [
        {
          "URL": "https://www.suse.com/security/cve/CVE-2020-2816.html",
          "Description": "CVE-2020-2816"
        },
        {
          "URL": "https://bugzilla.suse.com/1169511",
          "Description": "SUSE Bug 1169511"
        }
      ],
      "ProductStatuses": [
        {
          "Type": "Fixed",
          "ProductID": [
            "SUSE Linux Enterprise Server 12 SP5:java-11-openjdk-11.0.7.0-3.9.2",
            "SUSE Linux Enterprise Server 12 SP5:java-11-openjdk-demo-11.0.7.0-3.9.2",
            "SUSE Linux Enterprise Server 12 SP5:java-11-openjdk-devel-11.0.7.0-3.9.2",
            "SUSE Linux Enterprise Server 12 SP5:java-11-openjdk-headless-11.0.7.0-3.9.2",
            "SUSE Linux Enterprise Server for SAP Applications 12 SP5:java-11-openjdk-11.0.7.0-3.9.2",
            "SUSE Linux Enterprise Server for SAP Applications 12 SP5:java-11-openjdk-demo-11.0.7.0-3.9.2",
            "SUSE Linux Enterprise Server for SAP Applications 12 SP5:java-11-openjdk-devel-11.0.7.0-3.9.2",
            "SUSE Linux Enterprise Server for SAP Applications 12 SP5:java-11-openjdk-headless-11.0.7.0-3.9.2"
          ]
        }
      ],
      "CVSSScoreSets": {}
    },
    {
      "CVE": "CVE-2020-2830",
      "Description": "Vulnerability in the Java SE, Java SE Embedded product of Oracle Java SE (component: Concurrency). Supported versions that are affected are Java SE: 7u251, 8u241, 11.0.6 and 14; Java SE Embedded: 8u241. Easily exploitable vulnerability allows unauthenticated attacker with network access via multiple protocols to compromise Java SE, Java SE Embedded. Successful attacks of this vulnerability can result in unauthorized ability to cause a partial denial of service (partial DOS) of Java SE, Java SE Embedded. Note: Applies to client and server deployment of Java. This vulnerability can be exploited through sandboxed Java Web Start applications and sandboxed Java applets. It can also be exploited by supplying data to APIs in the specified Component without using sandboxed Java Web Start applications or sandboxed Java applets, such as through a web service. CVSS 3.0 Base Score 5.3 (Availability impacts). CVSS Vector: (CVSS:3.0/AV:N/AC:L/PR:N/UI:N/S:U/C:N/I:N/A:L).",
      "Threats": [
        {
          "Type": "Impact",
          "Severity": "moderate"
        }
      ],
      "References": [
        {
          "URL": "https://www.suse.com/security/cve/CVE-2020-2830.html",
          "Description": "CVE-2020-2830"
        },
        {
          "URL": "https://bugzilla.suse.com/1169511",
          "Description": "SUSE Bug 1169511"
        },
        {
          "URL": "https://bugzilla.suse.com/1172277",
          "Description": "SUSE Bug 1172277"
        }
      ],
      "ProductStatuses": [
        {
          "Type": "Fixed",
          "ProductID": [
            "SUSE Linux Enterprise Server 12 SP5:java-11-openjdk-11.0.7.0-3.9.2",
            "SUSE Linux Enterprise Server 12 SP5:java-11-openjdk-demo-11.0.7.0-3.9.2",
            "SUSE Linux Enterprise Server 12 SP5:java-11-openjdk-devel-11.0.7.0-3.9.2",
            "SUSE Linux Enterprise Server 12 SP5:java-11-openjdk-headless-11.0.7.0-3.9.2",
            "SUSE Linux Enterprise Server for SAP Applications 12 SP5:java-11-openjdk-11.0.7.0-3.9.2",
            "SUSE Linux Enterprise Server for SAP Applications 12 SP5:java-11-openjdk-demo-11.0.7.0-3.9.2",
            "SUSE Linux Enterprise Server for SAP Applications 12 SP5:java-11-openjdk-devel-11.0.7.0-3.9.2",
            "SUSE Linux Enterprise Server for SAP Applications 12 SP5:java-11-openjdk-headless-11.0.7.0-3.9.2"
          ]
        }
      ],
      "CVSSScoreSets": {}
    }
  ]
}