{
  "Title": "Security update for xorg-x11-server",
  "Tracking": {
    "ID": "SUSE-SU-2020:14553-1",
    "Status": "Final",
    "Version": "1",
    "InitialReleaseDate": "2020-12-01T15:29:30Z",
    "CurrentReleaseDate": "2020-12-01T15:29:30Z",
    "RevisionHistory": [
      {
        "Number": "1",
        "Date": "2020-12-01T15:29:30Z",
        "Description": "current"
      }
    ]
  },
  "Notes": [
    {
      "Text": "Security update for xorg-x11-server",
      "Title": "Topic",
      "Type": "Summary"
    },
    {
      "Text": "This update for xorg-x11-server fixes the following issues:\n\n- CVE-2020-25712: Fixed a heap-based buffer overflow which could have led to privilege escalation (bsc#1177596).\n- CVE-2020-14360: Fixed an out of bounds memory accesses on too short request which could lead to denial of service (bsc#1174908).\n",
      "Title": "Details",
      "Type": "General"
    },
    {
      "Text": "The CVRF data is provided by SUSE under the Creative Commons License 4.0 with Attribution for Non-Commercial usage (CC-BY-NC-4.0).",
      "Title": "Terms of Use",
      "Type": "Legal Disclaimer"
    }
  ],
  "ProductTree": {
    "Relationships": [
      {
        "ProductReference": "xorg-x11-Xvnc-7.4-27.122.37.1",
        "RelatesToProductReference": "SUSE Linux Enterprise Point of Sale 11 SP3",
        "RelationType": "Default Component Of"
      },
      {
        "ProductReference": "xorg-x11-server-7.4-27.122.37.1",
        "RelatesToProductReference": "SUSE Linux Enterprise Point of Sale 11 SP3",
        "RelationType": "Default Component Of"
      },
      {
        "ProductReference": "xorg-x11-server-extra-7.4-27.122.37.1",
        "RelatesToProductReference": "SUSE Linux Enterprise Point of Sale 11 SP3",
        "RelationType": "Default Component Of"
      },
      {
        "ProductReference": "xorg-x11-Xvnc-7.4-27.122.37.1",
        "RelatesToProductReference": "SUSE Linux Enterprise Server 11 SP4-LTSS",
        "RelationType": "Default Component Of"
      },
      {
        "ProductReference": "xorg-x11-server-7.4-27.122.37.1",
        "RelatesToProductReference": "SUSE Linux Enterprise Server 11 SP4-LTSS",
        "RelationType": "Default Component Of"
      },
      {
        "ProductReference": "xorg-x11-server-extra-7.4-27.122.37.1",
        "RelatesToProductReference": "SUSE Linux Enterprise Server 11 SP4-LTSS",
        "RelationType": "Default Component Of"
      },
      {
        "ProductReference": "xorg-x11-Xvnc-7.4-27.122.37.1",
        "RelatesToProductReference": "SUSE Linux Enterprise Server for SAP Applications 11 SP4-LTSS",
        "RelationType": "Default Component Of"
      },
      {
        "ProductReference": "xorg-x11-server-7.4-27.122.37.1",
        "RelatesToProductReference": "SUSE Linux Enterprise Server for SAP Applications 11 SP4-LTSS",
        "RelationType": "Default Component Of"
      },
      {
        "ProductReference": "xorg-x11-server-extra-7.4-27.122.37.1",
        "RelatesToProductReference": "SUSE Linux Enterprise Server for SAP Applications 11 SP4-LTSS",
        "RelationType": "Default Component Of"
      }
    ]
  },
  "References": [
    {
      "URL": "https://www.suse.com/support/update/announcement/2020/suse-su-202014553-1/",
      "Description": "Link for SUSE-SU-2020:14553-1"
    },
    {
      "URL": "http://lists.suse.com/pipermail/sle-security-updates/2020-December/007902.html",
      "Description": "E-Mail link for SUSE-SU-2020:14553-1"
    },
    {
      "URL": "https://www.suse.com/support/security/rating/",
      "Description": "SUSE Security Ratings"
    }
  ],
  "Vulnerabilities": [
    {
      "CVE": "CVE-2020-14360",
      "Description": "** RESERVED ** This candidate has been reserved by an organization or individual that will use it when announcing a new security problem. When the candidate has been publicized, the details for this candidate will be provided.",
      "Threats": [
        {
          "Type": "Impact",
          "Severity": "important"
        }
      ],
      "References": [
        {
          "URL": "https://www.suse.com/security/cve/CVE-2020-14360.html",
          "Description": "CVE-2020-14360"
        },
        {
          "URL": "https://bugzilla.suse.com/1174908",
          "Description": "SUSE Bug 1174908"
        },
        {
          "URL": "https://bugzilla.suse.com/1177596",
          "Description": "SUSE Bug 1177596"
        }
      ],
      "ProductStatuses": [
        {
          "Type": "Fixed",
          "ProductID": [
            "SUSE Linux Enterprise Point of Sale 11 SP3:xorg-x11-Xvnc-7.4-27.122.37.1",
            "SUSE Linux Enterprise Point of Sale 11 SP3:xorg-x11-server-7.4-27.122.37.1",
            "SUSE Linux Enterprise Point of Sale 11 SP3:xorg-x11-server-extra-7.4-27.122.37.1",
            "SUSE Linux Enterprise Server 11 SP4-LTSS:xorg-x11-Xvnc-7.4-27.122.37.1",
            "SUSE Linux Enterprise Server 11 SP4-LTSS:xorg-x11-server-7.4-27.122.37.1",
            "SUSE Linux Enterprise Server 11 SP4-LTSS:xorg-x11-server-extra-7.4-27.122.37.1",
            "SUSE Linux Enterprise Server for SAP Applications 11 SP4-LTSS:xorg-x11-Xvnc-7.4-27.122.37.1",
            "SUSE Linux Enterprise Server for SAP Applications 11 SP4-LTSS:xorg-x11-server-7.4-27.122.37.1",
            "SUSE Linux Enterprise Server for SAP Applications 11 SP4-LTSS:xorg-x11-server-extra-7.4-27.122.37.1"
          ]
        }
      ],
      "CVSSScoreSets": {}
    },
    {
      "CVE": "CVE-2020-25712",
      "Description": "** RESERVED ** This candidate has been reserved by an organization or individual that will use it when announcing a new security problem. When the candidate has been publicized, the details for this candidate will be provided.",
      "Threats": [
        {
          "Type": "Impact",
          "Severity": "important"
        }
      ],
      "References": [
        {
          "URL": "https://www.suse.com/security/cve/CVE-2020-25712.html",
          "Description": "CVE-2020-25712"
        },
        {
          "URL": "https://bugzilla.suse.com/1174908",
          "Description": "SUSE Bug 1174908"
        },
        {
          "URL": "https://bugzilla.suse.com/1177596",
          "Description": "SUSE Bug 1177596"
        }
      ],
      "ProductStatuses": [
        {
          "Type": "Fixed",
          "ProductID": [
            "SUSE Linux Enterprise Point of Sale 11 SP3:xorg-x11-Xvnc-7.4-27.122.37.1",
            "SUSE Linux Enterprise Point of Sale 11 SP3:xorg-x11-server-7.4-27.122.37.1",
            "SUSE Linux Enterprise Point of Sale 11 SP3:xorg-x11-server-extra-7.4-27.122.37.1",
            "SUSE Linux Enterprise Server 11 SP4-LTSS:xorg-x11-Xvnc-7.4-27.122.37.1",
            "SUSE Linux Enterprise Server 11 SP4-LTSS:xorg-x11-server-7.4-27.122.37.1",
            "SUSE Linux Enterprise Server 11 SP4-LTSS:xorg-x11-server-extra-7.4-27.122.37.1",
            "SUSE Linux Enterprise Server for SAP Applications 11 SP4-LTSS:xorg-x11-Xvnc-7.4-27.122.37.1",
            "SUSE Linux Enterprise Server for SAP Applications 11 SP4-LTSS:xorg-x11-server-7.4-27.122.37.1",
            "SUSE Linux Enterprise Server for SAP Applications 11 SP4-LTSS:xorg-x11-server-extra-7.4-27.122.37.1"
          ]
        }
      ],
      "CVSSScoreSets": {}
    }
  ]
}