{
  "Title": "Security update for openldap2",
  "Tracking": {
    "ID": "SUSE-SU-2020:3314-1",
    "Status": "Final",
    "Version": "1",
    "InitialReleaseDate": "2020-11-12T15:11:33Z",
    "CurrentReleaseDate": "2020-11-12T15:11:33Z",
    "RevisionHistory": [
      {
        "Number": "1",
        "Date": "2020-11-12T15:11:33Z",
        "Description": "current"
      }
    ]
  },
  "Notes": [
    {
      "Text": "Security update for openldap2",
      "Title": "Topic",
      "Type": "Summary"
    },
    {
      "Text": "This update for openldap2 fixes the following issues:\n\n- CVE-2020-25692: Fixed an unauthenticated remote denial of service due to incorrect validation of modrdn equality rules (bsc#1178387).\n",
      "Title": "Details",
      "Type": "General"
    },
    {
      "Text": "The CVRF data is provided by SUSE under the Creative Commons License 4.0 with Attribution for Non-Commercial usage (CC-BY-NC-4.0).",
      "Title": "Terms of Use",
      "Type": "Legal Disclaimer"
    }
  ],
  "ProductTree": {
    "Relationships": [
      {
        "ProductReference": "libldap-2_4-2-2.4.41-18.77.1",
        "RelatesToProductReference": "Container suse/sles12sp4:latest",
        "RelationType": "Default Component Of"
      },
      {
        "ProductReference": "libldap-2_4-2-2.4.41-18.77.1",
        "RelatesToProductReference": "Container suse/sles12sp5:latest",
        "RelationType": "Default Component Of"
      },
      {
        "ProductReference": "libldap-2_4-2-2.4.41-18.77.1",
        "RelatesToProductReference": "HPE Helion Openstack 8",
        "RelationType": "Default Component Of"
      },
      {
        "ProductReference": "libldap-2_4-2-32bit-2.4.41-18.77.1",
        "RelatesToProductReference": "HPE Helion Openstack 8",
        "RelationType": "Default Component Of"
      },
      {
        "ProductReference": "openldap2-2.4.41-18.77.1",
        "RelatesToProductReference": "HPE Helion Openstack 8",
        "RelationType": "Default Component Of"
      },
      {
        "ProductReference": "openldap2-back-meta-2.4.41-18.77.1",
        "RelatesToProductReference": "HPE Helion Openstack 8",
        "RelationType": "Default Component Of"
      },
      {
        "ProductReference": "openldap2-client-2.4.41-18.77.1",
        "RelatesToProductReference": "HPE Helion Openstack 8",
        "RelationType": "Default Component Of"
      },
      {
        "ProductReference": "openldap2-doc-2.4.41-18.77.1",
        "RelatesToProductReference": "HPE Helion Openstack 8",
        "RelationType": "Default Component Of"
      },
      {
        "ProductReference": "openldap2-ppolicy-check-password-1.2-18.77.1",
        "RelatesToProductReference": "HPE Helion Openstack 8",
        "RelationType": "Default Component Of"
      },
      {
        "ProductReference": "libldap-2_4-2-2.4.41-18.77.1",
        "RelatesToProductReference": "SUSE OpenStack Cloud 7",
        "RelationType": "Default Component Of"
      },
      {
        "ProductReference": "libldap-2_4-2-32bit-2.4.41-18.77.1",
        "RelatesToProductReference": "SUSE OpenStack Cloud 7",
        "RelationType": "Default Component Of"
      },
      {
        "ProductReference": "openldap2-2.4.41-18.77.1",
        "RelatesToProductReference": "SUSE OpenStack Cloud 7",
        "RelationType": "Default Component Of"
      },
      {
        "ProductReference": "openldap2-back-meta-2.4.41-18.77.1",
        "RelatesToProductReference": "SUSE OpenStack Cloud 7",
        "RelationType": "Default Component Of"
      },
      {
        "ProductReference": "openldap2-client-2.4.41-18.77.1",
        "RelatesToProductReference": "SUSE OpenStack Cloud 7",
        "RelationType": "Default Component Of"
      },
      {
        "ProductReference": "openldap2-doc-2.4.41-18.77.1",
        "RelatesToProductReference": "SUSE OpenStack Cloud 7",
        "RelationType": "Default Component Of"
      },
      {
        "ProductReference": "openldap2-ppolicy-check-password-1.2-18.77.1",
        "RelatesToProductReference": "SUSE OpenStack Cloud 7",
        "RelationType": "Default Component Of"
      },
      {
        "ProductReference": "libldap-2_4-2-2.4.41-18.77.1",
        "RelatesToProductReference": "SUSE OpenStack Cloud 8",
        "RelationType": "Default Component Of"
      },
      {
        "ProductReference": "libldap-2_4-2-32bit-2.4.41-18.77.1",
        "RelatesToProductReference": "SUSE OpenStack Cloud 8",
        "RelationType": "Default Component Of"
      },
      {
        "ProductReference": "openldap2-2.4.41-18.77.1",
        "RelatesToProductReference": "SUSE OpenStack Cloud 8",
        "RelationType": "Default Component Of"
      },
      {
        "ProductReference": "openldap2-back-meta-2.4.41-18.77.1",
        "RelatesToProductReference": "SUSE OpenStack Cloud 8",
        "RelationType": "Default Component Of"
      },
      {
        "ProductReference": "openldap2-client-2.4.41-18.77.1",
        "RelatesToProductReference": "SUSE OpenStack Cloud 8",
        "RelationType": "Default Component Of"
      },
      {
        "ProductReference": "openldap2-doc-2.4.41-18.77.1",
        "RelatesToProductReference": "SUSE OpenStack Cloud 8",
        "RelationType": "Default Component Of"
      },
      {
        "ProductReference": "openldap2-ppolicy-check-password-1.2-18.77.1",
        "RelatesToProductReference": "SUSE OpenStack Cloud 8",
        "RelationType": "Default Component Of"
      },
      {
        "ProductReference": "libldap-2_4-2-2.4.41-18.77.1",
        "RelatesToProductReference": "SUSE OpenStack Cloud 9",
        "RelationType": "Default Component Of"
      },
      {
        "ProductReference": "libldap-2_4-2-32bit-2.4.41-18.77.1",
        "RelatesToProductReference": "SUSE OpenStack Cloud 9",
        "RelationType": "Default Component Of"
      },
      {
        "ProductReference": "openldap2-2.4.41-18.77.1",
        "RelatesToProductReference": "SUSE OpenStack Cloud 9",
        "RelationType": "Default Component Of"
      },
      {
        "ProductReference": "openldap2-back-meta-2.4.41-18.77.1",
        "RelatesToProductReference": "SUSE OpenStack Cloud 9",
        "RelationType": "Default Component Of"
      },
      {
        "ProductReference": "openldap2-client-2.4.41-18.77.1",
        "RelatesToProductReference": "SUSE OpenStack Cloud 9",
        "RelationType": "Default Component Of"
      },
      {
        "ProductReference": "openldap2-doc-2.4.41-18.77.1",
        "RelatesToProductReference": "SUSE OpenStack Cloud 9",
        "RelationType": "Default Component Of"
      },
      {
        "ProductReference": "openldap2-ppolicy-check-password-1.2-18.77.1",
        "RelatesToProductReference": "SUSE OpenStack Cloud 9",
        "RelationType": "Default Component Of"
      },
      {
        "ProductReference": "libldap-2_4-2-2.4.41-18.77.1",
        "RelatesToProductReference": "SUSE OpenStack Cloud Crowbar 8",
        "RelationType": "Default Component Of"
      },
      {
        "ProductReference": "libldap-2_4-2-32bit-2.4.41-18.77.1",
        "RelatesToProductReference": "SUSE OpenStack Cloud Crowbar 8",
        "RelationType": "Default Component Of"
      },
      {
        "ProductReference": "openldap2-2.4.41-18.77.1",
        "RelatesToProductReference": "SUSE OpenStack Cloud Crowbar 8",
        "RelationType": "Default Component Of"
      },
      {
        "ProductReference": "openldap2-back-meta-2.4.41-18.77.1",
        "RelatesToProductReference": "SUSE OpenStack Cloud Crowbar 8",
        "RelationType": "Default Component Of"
      },
      {
        "ProductReference": "openldap2-client-2.4.41-18.77.1",
        "RelatesToProductReference": "SUSE OpenStack Cloud Crowbar 8",
        "RelationType": "Default Component Of"
      },
      {
        "ProductReference": "openldap2-doc-2.4.41-18.77.1",
        "RelatesToProductReference": "SUSE OpenStack Cloud Crowbar 8",
        "RelationType": "Default Component Of"
      },
      {
        "ProductReference": "openldap2-ppolicy-check-password-1.2-18.77.1",
        "RelatesToProductReference": "SUSE OpenStack Cloud Crowbar 8",
        "RelationType": "Default Component Of"
      },
      {
        "ProductReference": "libldap-2_4-2-2.4.41-18.77.1",
        "RelatesToProductReference": "SUSE OpenStack Cloud Crowbar 9",
        "RelationType": "Default Component Of"
      },
      {
        "ProductReference": "libldap-2_4-2-32bit-2.4.41-18.77.1",
        "RelatesToProductReference": "SUSE OpenStack Cloud Crowbar 9",
        "RelationType": "Default Component Of"
      },
      {
        "ProductReference": "openldap2-2.4.41-18.77.1",
        "RelatesToProductReference": "SUSE OpenStack Cloud Crowbar 9",
        "RelationType": "Default Component Of"
      },
      {
        "ProductReference": "openldap2-back-meta-2.4.41-18.77.1",
        "RelatesToProductReference": "SUSE OpenStack Cloud Crowbar 9",
        "RelationType": "Default Component Of"
      },
      {
        "ProductReference": "openldap2-client-2.4.41-18.77.1",
        "RelatesToProductReference": "SUSE OpenStack Cloud Crowbar 9",
        "RelationType": "Default Component Of"
      },
      {
        "ProductReference": "openldap2-doc-2.4.41-18.77.1",
        "RelatesToProductReference": "SUSE OpenStack Cloud Crowbar 9",
        "RelationType": "Default Component Of"
      },
      {
        "ProductReference": "openldap2-ppolicy-check-password-1.2-18.77.1",
        "RelatesToProductReference": "SUSE OpenStack Cloud Crowbar 9",
        "RelationType": "Default Component Of"
      },
      {
        "ProductReference": "libldap-2_4-2-2.4.41-18.77.1",
        "RelatesToProductReference": "SUSE Linux Enterprise Server for SAP Applications 12 SP2",
        "RelationType": "Default Component Of"
      },
      {
        "ProductReference": "libldap-2_4-2-32bit-2.4.41-18.77.1",
        "RelatesToProductReference": "SUSE Linux Enterprise Server for SAP Applications 12 SP2",
        "RelationType": "Default Component Of"
      },
      {
        "ProductReference": "openldap2-2.4.41-18.77.1",
        "RelatesToProductReference": "SUSE Linux Enterprise Server for SAP Applications 12 SP2",
        "RelationType": "Default Component Of"
      },
      {
        "ProductReference": "openldap2-back-meta-2.4.41-18.77.1",
        "RelatesToProductReference": "SUSE Linux Enterprise Server for SAP Applications 12 SP2",
        "RelationType": "Default Component Of"
      },
      {
        "ProductReference": "openldap2-client-2.4.41-18.77.1",
        "RelatesToProductReference": "SUSE Linux Enterprise Server for SAP Applications 12 SP2",
        "RelationType": "Default Component Of"
      },
      {
        "ProductReference": "openldap2-doc-2.4.41-18.77.1",
        "RelatesToProductReference": "SUSE Linux Enterprise Server for SAP Applications 12 SP2",
        "RelationType": "Default Component Of"
      },
      {
        "ProductReference": "openldap2-ppolicy-check-password-1.2-18.77.1",
        "RelatesToProductReference": "SUSE Linux Enterprise Server for SAP Applications 12 SP2",
        "RelationType": "Default Component Of"
      },
      {
        "ProductReference": "libldap-2_4-2-2.4.41-18.77.1",
        "RelatesToProductReference": "SUSE Linux Enterprise Server for SAP Applications 12 SP3",
        "RelationType": "Default Component Of"
      },
      {
        "ProductReference": "libldap-2_4-2-32bit-2.4.41-18.77.1",
        "RelatesToProductReference": "SUSE Linux Enterprise Server for SAP Applications 12 SP3",
        "RelationType": "Default Component Of"
      },
      {
        "ProductReference": "openldap2-2.4.41-18.77.1",
        "RelatesToProductReference": "SUSE Linux Enterprise Server for SAP Applications 12 SP3",
        "RelationType": "Default Component Of"
      },
      {
        "ProductReference": "openldap2-back-meta-2.4.41-18.77.1",
        "RelatesToProductReference": "SUSE Linux Enterprise Server for SAP Applications 12 SP3",
        "RelationType": "Default Component Of"
      },
      {
        "ProductReference": "openldap2-client-2.4.41-18.77.1",
        "RelatesToProductReference": "SUSE Linux Enterprise Server for SAP Applications 12 SP3",
        "RelationType": "Default Component Of"
      },
      {
        "ProductReference": "openldap2-doc-2.4.41-18.77.1",
        "RelatesToProductReference": "SUSE Linux Enterprise Server for SAP Applications 12 SP3",
        "RelationType": "Default Component Of"
      },
      {
        "ProductReference": "openldap2-ppolicy-check-password-1.2-18.77.1",
        "RelatesToProductReference": "SUSE Linux Enterprise Server for SAP Applications 12 SP3",
        "RelationType": "Default Component Of"
      },
      {
        "ProductReference": "libldap-2_4-2-2.4.41-18.77.1",
        "RelatesToProductReference": "SUSE Linux Enterprise Server for SAP Applications 12 SP4",
        "RelationType": "Default Component Of"
      },
      {
        "ProductReference": "libldap-2_4-2-32bit-2.4.41-18.77.1",
        "RelatesToProductReference": "SUSE Linux Enterprise Server for SAP Applications 12 SP4",
        "RelationType": "Default Component Of"
      },
      {
        "ProductReference": "openldap2-2.4.41-18.77.1",
        "RelatesToProductReference": "SUSE Linux Enterprise Server for SAP Applications 12 SP4",
        "RelationType": "Default Component Of"
      },
      {
        "ProductReference": "openldap2-back-meta-2.4.41-18.77.1",
        "RelatesToProductReference": "SUSE Linux Enterprise Server for SAP Applications 12 SP4",
        "RelationType": "Default Component Of"
      },
      {
        "ProductReference": "openldap2-client-2.4.41-18.77.1",
        "RelatesToProductReference": "SUSE Linux Enterprise Server for SAP Applications 12 SP4",
        "RelationType": "Default Component Of"
      },
      {
        "ProductReference": "openldap2-doc-2.4.41-18.77.1",
        "RelatesToProductReference": "SUSE Linux Enterprise Server for SAP Applications 12 SP4",
        "RelationType": "Default Component Of"
      },
      {
        "ProductReference": "openldap2-ppolicy-check-password-1.2-18.77.1",
        "RelatesToProductReference": "SUSE Linux Enterprise Server for SAP Applications 12 SP4",
        "RelationType": "Default Component Of"
      },
      {
        "ProductReference": "openldap2-2.4.41-18.77.1",
        "RelatesToProductReference": "SUSE Linux Enterprise Software Development Kit 12 SP5",
        "RelationType": "Default Component Of"
      },
      {
        "ProductReference": "openldap2-back-perl-2.4.41-18.77.1",
        "RelatesToProductReference": "SUSE Linux Enterprise Software Development Kit 12 SP5",
        "RelationType": "Default Component Of"
      },
      {
        "ProductReference": "openldap2-devel-2.4.41-18.77.1",
        "RelatesToProductReference": "SUSE Linux Enterprise Software Development Kit 12 SP5",
        "RelationType": "Default Component Of"
      },
      {
        "ProductReference": "openldap2-devel-static-2.4.41-18.77.1",
        "RelatesToProductReference": "SUSE Linux Enterprise Software Development Kit 12 SP5",
        "RelationType": "Default Component Of"
      },
      {
        "ProductReference": "libldap-2_4-2-2.4.41-18.77.1",
        "RelatesToProductReference": "SUSE Linux Enterprise Server 12 SP2-LTSS",
        "RelationType": "Default Component Of"
      },
      {
        "ProductReference": "libldap-2_4-2-32bit-2.4.41-18.77.1",
        "RelatesToProductReference": "SUSE Linux Enterprise Server 12 SP2-LTSS",
        "RelationType": "Default Component Of"
      },
      {
        "ProductReference": "openldap2-2.4.41-18.77.1",
        "RelatesToProductReference": "SUSE Linux Enterprise Server 12 SP2-LTSS",
        "RelationType": "Default Component Of"
      },
      {
        "ProductReference": "openldap2-back-meta-2.4.41-18.77.1",
        "RelatesToProductReference": "SUSE Linux Enterprise Server 12 SP2-LTSS",
        "RelationType": "Default Component Of"
      },
      {
        "ProductReference": "openldap2-client-2.4.41-18.77.1",
        "RelatesToProductReference": "SUSE Linux Enterprise Server 12 SP2-LTSS",
        "RelationType": "Default Component Of"
      },
      {
        "ProductReference": "openldap2-doc-2.4.41-18.77.1",
        "RelatesToProductReference": "SUSE Linux Enterprise Server 12 SP2-LTSS",
        "RelationType": "Default Component Of"
      },
      {
        "ProductReference": "openldap2-ppolicy-check-password-1.2-18.77.1",
        "RelatesToProductReference": "SUSE Linux Enterprise Server 12 SP2-LTSS",
        "RelationType": "Default Component Of"
      },
      {
        "ProductReference": "libldap-2_4-2-2.4.41-18.77.1",
        "RelatesToProductReference": "SUSE Linux Enterprise Server for SAP Applications 12 SP2-LTSS",
        "RelationType": "Default Component Of"
      },
      {
        "ProductReference": "libldap-2_4-2-32bit-2.4.41-18.77.1",
        "RelatesToProductReference": "SUSE Linux Enterprise Server for SAP Applications 12 SP2-LTSS",
        "RelationType": "Default Component Of"
      },
      {
        "ProductReference": "openldap2-2.4.41-18.77.1",
        "RelatesToProductReference": "SUSE Linux Enterprise Server for SAP Applications 12 SP2-LTSS",
        "RelationType": "Default Component Of"
      },
      {
        "ProductReference": "openldap2-back-meta-2.4.41-18.77.1",
        "RelatesToProductReference": "SUSE Linux Enterprise Server for SAP Applications 12 SP2-LTSS",
        "RelationType": "Default Component Of"
      },
      {
        "ProductReference": "openldap2-client-2.4.41-18.77.1",
        "RelatesToProductReference": "SUSE Linux Enterprise Server for SAP Applications 12 SP2-LTSS",
        "RelationType": "Default Component Of"
      },
      {
        "ProductReference": "openldap2-doc-2.4.41-18.77.1",
        "RelatesToProductReference": "SUSE Linux Enterprise Server for SAP Applications 12 SP2-LTSS",
        "RelationType": "Default Component Of"
      },
      {
        "ProductReference": "openldap2-ppolicy-check-password-1.2-18.77.1",
        "RelatesToProductReference": "SUSE Linux Enterprise Server for SAP Applications 12 SP2-LTSS",
        "RelationType": "Default Component Of"
      },
      {
        "ProductReference": "libldap-2_4-2-2.4.41-18.77.1",
        "RelatesToProductReference": "SUSE Linux Enterprise Server 12 SP2-BCL",
        "RelationType": "Default Component Of"
      },
      {
        "ProductReference": "libldap-2_4-2-32bit-2.4.41-18.77.1",
        "RelatesToProductReference": "SUSE Linux Enterprise Server 12 SP2-BCL",
        "RelationType": "Default Component Of"
      },
      {
        "ProductReference": "openldap2-2.4.41-18.77.1",
        "RelatesToProductReference": "SUSE Linux Enterprise Server 12 SP2-BCL",
        "RelationType": "Default Component Of"
      },
      {
        "ProductReference": "openldap2-back-meta-2.4.41-18.77.1",
        "RelatesToProductReference": "SUSE Linux Enterprise Server 12 SP2-BCL",
        "RelationType": "Default Component Of"
      },
      {
        "ProductReference": "openldap2-client-2.4.41-18.77.1",
        "RelatesToProductReference": "SUSE Linux Enterprise Server 12 SP2-BCL",
        "RelationType": "Default Component Of"
      },
      {
        "ProductReference": "openldap2-doc-2.4.41-18.77.1",
        "RelatesToProductReference": "SUSE Linux Enterprise Server 12 SP2-BCL",
        "RelationType": "Default Component Of"
      },
      {
        "ProductReference": "libldap-2_4-2-2.4.41-18.77.1",
        "RelatesToProductReference": "SUSE Linux Enterprise Server for SAP Applications 12 SP2-BCL",
        "RelationType": "Default Component Of"
      },
      {
        "ProductReference": "libldap-2_4-2-32bit-2.4.41-18.77.1",
        "RelatesToProductReference": "SUSE Linux Enterprise Server for SAP Applications 12 SP2-BCL",
        "RelationType": "Default Component Of"
      },
      {
        "ProductReference": "openldap2-2.4.41-18.77.1",
        "RelatesToProductReference": "SUSE Linux Enterprise Server for SAP Applications 12 SP2-BCL",
        "RelationType": "Default Component Of"
      },
      {
        "ProductReference": "openldap2-back-meta-2.4.41-18.77.1",
        "RelatesToProductReference": "SUSE Linux Enterprise Server for SAP Applications 12 SP2-BCL",
        "RelationType": "Default Component Of"
      },
      {
        "ProductReference": "openldap2-client-2.4.41-18.77.1",
        "RelatesToProductReference": "SUSE Linux Enterprise Server for SAP Applications 12 SP2-BCL",
        "RelationType": "Default Component Of"
      },
      {
        "ProductReference": "openldap2-doc-2.4.41-18.77.1",
        "RelatesToProductReference": "SUSE Linux Enterprise Server for SAP Applications 12 SP2-BCL",
        "RelationType": "Default Component Of"
      },
      {
        "ProductReference": "libldap-2_4-2-2.4.41-18.77.1",
        "RelatesToProductReference": "SUSE Linux Enterprise Server 12 SP3-LTSS",
        "RelationType": "Default Component Of"
      },
      {
        "ProductReference": "libldap-2_4-2-32bit-2.4.41-18.77.1",
        "RelatesToProductReference": "SUSE Linux Enterprise Server 12 SP3-LTSS",
        "RelationType": "Default Component Of"
      },
      {
        "ProductReference": "openldap2-2.4.41-18.77.1",
        "RelatesToProductReference": "SUSE Linux Enterprise Server 12 SP3-LTSS",
        "RelationType": "Default Component Of"
      },
      {
        "ProductReference": "openldap2-back-meta-2.4.41-18.77.1",
        "RelatesToProductReference": "SUSE Linux Enterprise Server 12 SP3-LTSS",
        "RelationType": "Default Component Of"
      },
      {
        "ProductReference": "openldap2-client-2.4.41-18.77.1",
        "RelatesToProductReference": "SUSE Linux Enterprise Server 12 SP3-LTSS",
        "RelationType": "Default Component Of"
      },
      {
        "ProductReference": "openldap2-doc-2.4.41-18.77.1",
        "RelatesToProductReference": "SUSE Linux Enterprise Server 12 SP3-LTSS",
        "RelationType": "Default Component Of"
      },
      {
        "ProductReference": "openldap2-ppolicy-check-password-1.2-18.77.1",
        "RelatesToProductReference": "SUSE Linux Enterprise Server 12 SP3-LTSS",
        "RelationType": "Default Component Of"
      },
      {
        "ProductReference": "libldap-2_4-2-2.4.41-18.77.1",
        "RelatesToProductReference": "SUSE Linux Enterprise Server for SAP Applications 12 SP3-LTSS",
        "RelationType": "Default Component Of"
      },
      {
        "ProductReference": "libldap-2_4-2-32bit-2.4.41-18.77.1",
        "RelatesToProductReference": "SUSE Linux Enterprise Server for SAP Applications 12 SP3-LTSS",
        "RelationType": "Default Component Of"
      },
      {
        "ProductReference": "openldap2-2.4.41-18.77.1",
        "RelatesToProductReference": "SUSE Linux Enterprise Server for SAP Applications 12 SP3-LTSS",
        "RelationType": "Default Component Of"
      },
      {
        "ProductReference": "openldap2-back-meta-2.4.41-18.77.1",
        "RelatesToProductReference": "SUSE Linux Enterprise Server for SAP Applications 12 SP3-LTSS",
        "RelationType": "Default Component Of"
      },
      {
        "ProductReference": "openldap2-client-2.4.41-18.77.1",
        "RelatesToProductReference": "SUSE Linux Enterprise Server for SAP Applications 12 SP3-LTSS",
        "RelationType": "Default Component Of"
      },
      {
        "ProductReference": "openldap2-doc-2.4.41-18.77.1",
        "RelatesToProductReference": "SUSE Linux Enterprise Server for SAP Applications 12 SP3-LTSS",
        "RelationType": "Default Component Of"
      },
      {
        "ProductReference": "openldap2-ppolicy-check-password-1.2-18.77.1",
        "RelatesToProductReference": "SUSE Linux Enterprise Server for SAP Applications 12 SP3-LTSS",
        "RelationType": "Default Component Of"
      },
      {
        "ProductReference": "libldap-2_4-2-2.4.41-18.77.1",
        "RelatesToProductReference": "SUSE Linux Enterprise Server 12 SP3-BCL",
        "RelationType": "Default Component Of"
      },
      {
        "ProductReference": "libldap-2_4-2-32bit-2.4.41-18.77.1",
        "RelatesToProductReference": "SUSE Linux Enterprise Server 12 SP3-BCL",
        "RelationType": "Default Component Of"
      },
      {
        "ProductReference": "openldap2-2.4.41-18.77.1",
        "RelatesToProductReference": "SUSE Linux Enterprise Server 12 SP3-BCL",
        "RelationType": "Default Component Of"
      },
      {
        "ProductReference": "openldap2-back-meta-2.4.41-18.77.1",
        "RelatesToProductReference": "SUSE Linux Enterprise Server 12 SP3-BCL",
        "RelationType": "Default Component Of"
      },
      {
        "ProductReference": "openldap2-client-2.4.41-18.77.1",
        "RelatesToProductReference": "SUSE Linux Enterprise Server 12 SP3-BCL",
        "RelationType": "Default Component Of"
      },
      {
        "ProductReference": "openldap2-doc-2.4.41-18.77.1",
        "RelatesToProductReference": "SUSE Linux Enterprise Server 12 SP3-BCL",
        "RelationType": "Default Component Of"
      },
      {
        "ProductReference": "openldap2-ppolicy-check-password-1.2-18.77.1",
        "RelatesToProductReference": "SUSE Linux Enterprise Server 12 SP3-BCL",
        "RelationType": "Default Component Of"
      },
      {
        "ProductReference": "libldap-2_4-2-2.4.41-18.77.1",
        "RelatesToProductReference": "SUSE Linux Enterprise Server for SAP Applications 12 SP3-BCL",
        "RelationType": "Default Component Of"
      },
      {
        "ProductReference": "libldap-2_4-2-32bit-2.4.41-18.77.1",
        "RelatesToProductReference": "SUSE Linux Enterprise Server for SAP Applications 12 SP3-BCL",
        "RelationType": "Default Component Of"
      },
      {
        "ProductReference": "openldap2-2.4.41-18.77.1",
        "RelatesToProductReference": "SUSE Linux Enterprise Server for SAP Applications 12 SP3-BCL",
        "RelationType": "Default Component Of"
      },
      {
        "ProductReference": "openldap2-back-meta-2.4.41-18.77.1",
        "RelatesToProductReference": "SUSE Linux Enterprise Server for SAP Applications 12 SP3-BCL",
        "RelationType": "Default Component Of"
      },
      {
        "ProductReference": "openldap2-client-2.4.41-18.77.1",
        "RelatesToProductReference": "SUSE Linux Enterprise Server for SAP Applications 12 SP3-BCL",
        "RelationType": "Default Component Of"
      },
      {
        "ProductReference": "openldap2-doc-2.4.41-18.77.1",
        "RelatesToProductReference": "SUSE Linux Enterprise Server for SAP Applications 12 SP3-BCL",
        "RelationType": "Default Component Of"
      },
      {
        "ProductReference": "openldap2-ppolicy-check-password-1.2-18.77.1",
        "RelatesToProductReference": "SUSE Linux Enterprise Server for SAP Applications 12 SP3-BCL",
        "RelationType": "Default Component Of"
      },
      {
        "ProductReference": "libldap-2_4-2-2.4.41-18.77.1",
        "RelatesToProductReference": "SUSE Linux Enterprise Server 12 SP4-LTSS",
        "RelationType": "Default Component Of"
      },
      {
        "ProductReference": "libldap-2_4-2-32bit-2.4.41-18.77.1",
        "RelatesToProductReference": "SUSE Linux Enterprise Server 12 SP4-LTSS",
        "RelationType": "Default Component Of"
      },
      {
        "ProductReference": "openldap2-2.4.41-18.77.1",
        "RelatesToProductReference": "SUSE Linux Enterprise Server 12 SP4-LTSS",
        "RelationType": "Default Component Of"
      },
      {
        "ProductReference": "openldap2-back-meta-2.4.41-18.77.1",
        "RelatesToProductReference": "SUSE Linux Enterprise Server 12 SP4-LTSS",
        "RelationType": "Default Component Of"
      },
      {
        "ProductReference": "openldap2-client-2.4.41-18.77.1",
        "RelatesToProductReference": "SUSE Linux Enterprise Server 12 SP4-LTSS",
        "RelationType": "Default Component Of"
      },
      {
        "ProductReference": "openldap2-doc-2.4.41-18.77.1",
        "RelatesToProductReference": "SUSE Linux Enterprise Server 12 SP4-LTSS",
        "RelationType": "Default Component Of"
      },
      {
        "ProductReference": "openldap2-ppolicy-check-password-1.2-18.77.1",
        "RelatesToProductReference": "SUSE Linux Enterprise Server 12 SP4-LTSS",
        "RelationType": "Default Component Of"
      },
      {
        "ProductReference": "libldap-2_4-2-2.4.41-18.77.1",
        "RelatesToProductReference": "SUSE Linux Enterprise Server for SAP Applications 12 SP4-LTSS",
        "RelationType": "Default Component Of"
      },
      {
        "ProductReference": "libldap-2_4-2-32bit-2.4.41-18.77.1",
        "RelatesToProductReference": "SUSE Linux Enterprise Server for SAP Applications 12 SP4-LTSS",
        "RelationType": "Default Component Of"
      },
      {
        "ProductReference": "openldap2-2.4.41-18.77.1",
        "RelatesToProductReference": "SUSE Linux Enterprise Server for SAP Applications 12 SP4-LTSS",
        "RelationType": "Default Component Of"
      },
      {
        "ProductReference": "openldap2-back-meta-2.4.41-18.77.1",
        "RelatesToProductReference": "SUSE Linux Enterprise Server for SAP Applications 12 SP4-LTSS",
        "RelationType": "Default Component Of"
      },
      {
        "ProductReference": "openldap2-client-2.4.41-18.77.1",
        "RelatesToProductReference": "SUSE Linux Enterprise Server for SAP Applications 12 SP4-LTSS",
        "RelationType": "Default Component Of"
      },
      {
        "ProductReference": "openldap2-doc-2.4.41-18.77.1",
        "RelatesToProductReference": "SUSE Linux Enterprise Server for SAP Applications 12 SP4-LTSS",
        "RelationType": "Default Component Of"
      },
      {
        "ProductReference": "openldap2-ppolicy-check-password-1.2-18.77.1",
        "RelatesToProductReference": "SUSE Linux Enterprise Server for SAP Applications 12 SP4-LTSS",
        "RelationType": "Default Component Of"
      },
      {
        "ProductReference": "libldap-2_4-2-2.4.41-18.77.1",
        "RelatesToProductReference": "SUSE Linux Enterprise Server 12 SP5",
        "RelationType": "Default Component Of"
      },
      {
        "ProductReference": "libldap-2_4-2-32bit-2.4.41-18.77.1",
        "RelatesToProductReference": "SUSE Linux Enterprise Server 12 SP5",
        "RelationType": "Default Component Of"
      },
      {
        "ProductReference": "openldap2-2.4.41-18.77.1",
        "RelatesToProductReference": "SUSE Linux Enterprise Server 12 SP5",
        "RelationType": "Default Component Of"
      },
      {
        "ProductReference": "openldap2-back-meta-2.4.41-18.77.1",
        "RelatesToProductReference": "SUSE Linux Enterprise Server 12 SP5",
        "RelationType": "Default Component Of"
      },
      {
        "ProductReference": "openldap2-client-2.4.41-18.77.1",
        "RelatesToProductReference": "SUSE Linux Enterprise Server 12 SP5",
        "RelationType": "Default Component Of"
      },
      {
        "ProductReference": "openldap2-doc-2.4.41-18.77.1",
        "RelatesToProductReference": "SUSE Linux Enterprise Server 12 SP5",
        "RelationType": "Default Component Of"
      },
      {
        "ProductReference": "openldap2-ppolicy-check-password-1.2-18.77.1",
        "RelatesToProductReference": "SUSE Linux Enterprise Server 12 SP5",
        "RelationType": "Default Component Of"
      },
      {
        "ProductReference": "libldap-2_4-2-2.4.41-18.77.1",
        "RelatesToProductReference": "SUSE Linux Enterprise Server for SAP Applications 12 SP5",
        "RelationType": "Default Component Of"
      },
      {
        "ProductReference": "libldap-2_4-2-32bit-2.4.41-18.77.1",
        "RelatesToProductReference": "SUSE Linux Enterprise Server for SAP Applications 12 SP5",
        "RelationType": "Default Component Of"
      },
      {
        "ProductReference": "openldap2-2.4.41-18.77.1",
        "RelatesToProductReference": "SUSE Linux Enterprise Server for SAP Applications 12 SP5",
        "RelationType": "Default Component Of"
      },
      {
        "ProductReference": "openldap2-back-meta-2.4.41-18.77.1",
        "RelatesToProductReference": "SUSE Linux Enterprise Server for SAP Applications 12 SP5",
        "RelationType": "Default Component Of"
      },
      {
        "ProductReference": "openldap2-client-2.4.41-18.77.1",
        "RelatesToProductReference": "SUSE Linux Enterprise Server for SAP Applications 12 SP5",
        "RelationType": "Default Component Of"
      },
      {
        "ProductReference": "openldap2-doc-2.4.41-18.77.1",
        "RelatesToProductReference": "SUSE Linux Enterprise Server for SAP Applications 12 SP5",
        "RelationType": "Default Component Of"
      },
      {
        "ProductReference": "openldap2-ppolicy-check-password-1.2-18.77.1",
        "RelatesToProductReference": "SUSE Linux Enterprise Server for SAP Applications 12 SP5",
        "RelationType": "Default Component Of"
      },
      {
        "ProductReference": "libldap-2_4-2-2.4.41-18.77.1",
        "RelatesToProductReference": "SUSE Enterprise Storage 5",
        "RelationType": "Default Component Of"
      },
      {
        "ProductReference": "libldap-2_4-2-32bit-2.4.41-18.77.1",
        "RelatesToProductReference": "SUSE Enterprise Storage 5",
        "RelationType": "Default Component Of"
      },
      {
        "ProductReference": "openldap2-2.4.41-18.77.1",
        "RelatesToProductReference": "SUSE Enterprise Storage 5",
        "RelationType": "Default Component Of"
      },
      {
        "ProductReference": "openldap2-back-meta-2.4.41-18.77.1",
        "RelatesToProductReference": "SUSE Enterprise Storage 5",
        "RelationType": "Default Component Of"
      },
      {
        "ProductReference": "openldap2-client-2.4.41-18.77.1",
        "RelatesToProductReference": "SUSE Enterprise Storage 5",
        "RelationType": "Default Component Of"
      },
      {
        "ProductReference": "openldap2-doc-2.4.41-18.77.1",
        "RelatesToProductReference": "SUSE Enterprise Storage 5",
        "RelationType": "Default Component Of"
      },
      {
        "ProductReference": "openldap2-ppolicy-check-password-1.2-18.77.1",
        "RelatesToProductReference": "SUSE Enterprise Storage 5",
        "RelationType": "Default Component Of"
      }
    ]
  },
  "References": [
    {
      "URL": "https://www.suse.com/support/update/announcement/2020/suse-su-20203314-1/",
      "Description": "Link for SUSE-SU-2020:3314-1"
    },
    {
      "URL": "http://lists.suse.com/pipermail/sle-security-updates/2020-November/007768.html",
      "Description": "E-Mail link for SUSE-SU-2020:3314-1"
    },
    {
      "URL": "https://www.suse.com/support/security/rating/",
      "Description": "SUSE Security Ratings"
    }
  ],
  "Vulnerabilities": [
    {
      "CVE": "CVE-2020-25692",
      "Description": "A NULL pointer dereference was found in OpenLDAP server and was fixed in openldap 2.4.55, during a request for renaming RDNs. An unauthenticated attacker could remotely crash the slapd process by sending a specially crafted request, causing a Denial of Service.",
      "Threats": [
        {
          "Type": "Impact",
          "Severity": "important"
        }
      ],
      "References": [
        {
          "URL": "https://www.suse.com/security/cve/CVE-2020-25692.html",
          "Description": "CVE-2020-25692"
        },
        {
          "URL": "https://bugzilla.suse.com/1178387",
          "Description": "SUSE Bug 1178387"
        }
      ],
      "ProductStatuses": [
        {
          "Type": "Fixed",
          "ProductID": [
            "Container suse/sles12sp4:latest:libldap-2_4-2-2.4.41-18.77.1",
            "Container suse/sles12sp5:latest:libldap-2_4-2-2.4.41-18.77.1",
            "HPE Helion Openstack 8:libldap-2_4-2-2.4.41-18.77.1",
            "HPE Helion Openstack 8:libldap-2_4-2-32bit-2.4.41-18.77.1",
            "HPE Helion Openstack 8:openldap2-2.4.41-18.77.1",
            "HPE Helion Openstack 8:openldap2-back-meta-2.4.41-18.77.1",
            "HPE Helion Openstack 8:openldap2-client-2.4.41-18.77.1",
            "HPE Helion Openstack 8:openldap2-doc-2.4.41-18.77.1",
            "HPE Helion Openstack 8:openldap2-ppolicy-check-password-1.2-18.77.1",
            "SUSE Enterprise Storage 5:libldap-2_4-2-2.4.41-18.77.1",
            "SUSE Enterprise Storage 5:libldap-2_4-2-32bit-2.4.41-18.77.1",
            "SUSE Enterprise Storage 5:openldap2-2.4.41-18.77.1",
            "SUSE Enterprise Storage 5:openldap2-back-meta-2.4.41-18.77.1",
            "SUSE Enterprise Storage 5:openldap2-client-2.4.41-18.77.1",
            "SUSE Enterprise Storage 5:openldap2-doc-2.4.41-18.77.1",
            "SUSE Enterprise Storage 5:openldap2-ppolicy-check-password-1.2-18.77.1",
            "SUSE Linux Enterprise Server 12 SP2-BCL:libldap-2_4-2-2.4.41-18.77.1",
            "SUSE Linux Enterprise Server 12 SP2-BCL:libldap-2_4-2-32bit-2.4.41-18.77.1",
            "SUSE Linux Enterprise Server 12 SP2-BCL:openldap2-2.4.41-18.77.1",
            "SUSE Linux Enterprise Server 12 SP2-BCL:openldap2-back-meta-2.4.41-18.77.1",
            "SUSE Linux Enterprise Server 12 SP2-BCL:openldap2-client-2.4.41-18.77.1",
            "SUSE Linux Enterprise Server 12 SP2-BCL:openldap2-doc-2.4.41-18.77.1",
            "SUSE Linux Enterprise Server 12 SP2-LTSS:libldap-2_4-2-2.4.41-18.77.1",
            "SUSE Linux Enterprise Server 12 SP2-LTSS:libldap-2_4-2-32bit-2.4.41-18.77.1",
            "SUSE Linux Enterprise Server 12 SP2-LTSS:openldap2-2.4.41-18.77.1",
            "SUSE Linux Enterprise Server 12 SP2-LTSS:openldap2-back-meta-2.4.41-18.77.1",
            "SUSE Linux Enterprise Server 12 SP2-LTSS:openldap2-client-2.4.41-18.77.1",
            "SUSE Linux Enterprise Server 12 SP2-LTSS:openldap2-doc-2.4.41-18.77.1",
            "SUSE Linux Enterprise Server 12 SP2-LTSS:openldap2-ppolicy-check-password-1.2-18.77.1",
            "SUSE Linux Enterprise Server 12 SP3-BCL:libldap-2_4-2-2.4.41-18.77.1",
            "SUSE Linux Enterprise Server 12 SP3-BCL:libldap-2_4-2-32bit-2.4.41-18.77.1",
            "SUSE Linux Enterprise Server 12 SP3-BCL:openldap2-2.4.41-18.77.1",
            "SUSE Linux Enterprise Server 12 SP3-BCL:openldap2-back-meta-2.4.41-18.77.1",
            "SUSE Linux Enterprise Server 12 SP3-BCL:openldap2-client-2.4.41-18.77.1",
            "SUSE Linux Enterprise Server 12 SP3-BCL:openldap2-doc-2.4.41-18.77.1",
            "SUSE Linux Enterprise Server 12 SP3-BCL:openldap2-ppolicy-check-password-1.2-18.77.1",
            "SUSE Linux Enterprise Server 12 SP3-LTSS:libldap-2_4-2-2.4.41-18.77.1",
            "SUSE Linux Enterprise Server 12 SP3-LTSS:libldap-2_4-2-32bit-2.4.41-18.77.1",
            "SUSE Linux Enterprise Server 12 SP3-LTSS:openldap2-2.4.41-18.77.1",
            "SUSE Linux Enterprise Server 12 SP3-LTSS:openldap2-back-meta-2.4.41-18.77.1",
            "SUSE Linux Enterprise Server 12 SP3-LTSS:openldap2-client-2.4.41-18.77.1",
            "SUSE Linux Enterprise Server 12 SP3-LTSS:openldap2-doc-2.4.41-18.77.1",
            "SUSE Linux Enterprise Server 12 SP3-LTSS:openldap2-ppolicy-check-password-1.2-18.77.1",
            "SUSE Linux Enterprise Server 12 SP4-LTSS:libldap-2_4-2-2.4.41-18.77.1",
            "SUSE Linux Enterprise Server 12 SP4-LTSS:libldap-2_4-2-32bit-2.4.41-18.77.1",
            "SUSE Linux Enterprise Server 12 SP4-LTSS:openldap2-2.4.41-18.77.1",
            "SUSE Linux Enterprise Server 12 SP4-LTSS:openldap2-back-meta-2.4.41-18.77.1",
            "SUSE Linux Enterprise Server 12 SP4-LTSS:openldap2-client-2.4.41-18.77.1",
            "SUSE Linux Enterprise Server 12 SP4-LTSS:openldap2-doc-2.4.41-18.77.1",
            "SUSE Linux Enterprise Server 12 SP4-LTSS:openldap2-ppolicy-check-password-1.2-18.77.1",
            "SUSE Linux Enterprise Server 12 SP5:libldap-2_4-2-2.4.41-18.77.1",
            "SUSE Linux Enterprise Server 12 SP5:libldap-2_4-2-32bit-2.4.41-18.77.1",
            "SUSE Linux Enterprise Server 12 SP5:openldap2-2.4.41-18.77.1",
            "SUSE Linux Enterprise Server 12 SP5:openldap2-back-meta-2.4.41-18.77.1",
            "SUSE Linux Enterprise Server 12 SP5:openldap2-client-2.4.41-18.77.1",
            "SUSE Linux Enterprise Server 12 SP5:openldap2-doc-2.4.41-18.77.1",
            "SUSE Linux Enterprise Server 12 SP5:openldap2-ppolicy-check-password-1.2-18.77.1",
            "SUSE Linux Enterprise Server for SAP Applications 12 SP2-BCL:libldap-2_4-2-2.4.41-18.77.1",
            "SUSE Linux Enterprise Server for SAP Applications 12 SP2-BCL:libldap-2_4-2-32bit-2.4.41-18.77.1",
            "SUSE Linux Enterprise Server for SAP Applications 12 SP2-BCL:openldap2-2.4.41-18.77.1",
            "SUSE Linux Enterprise Server for SAP Applications 12 SP2-BCL:openldap2-back-meta-2.4.41-18.77.1",
            "SUSE Linux Enterprise Server for SAP Applications 12 SP2-BCL:openldap2-client-2.4.41-18.77.1",
            "SUSE Linux Enterprise Server for SAP Applications 12 SP2-BCL:openldap2-doc-2.4.41-18.77.1",
            "SUSE Linux Enterprise Server for SAP Applications 12 SP2-LTSS:libldap-2_4-2-2.4.41-18.77.1",
            "SUSE Linux Enterprise Server for SAP Applications 12 SP2-LTSS:libldap-2_4-2-32bit-2.4.41-18.77.1",
            "SUSE Linux Enterprise Server for SAP Applications 12 SP2-LTSS:openldap2-2.4.41-18.77.1",
            "SUSE Linux Enterprise Server for SAP Applications 12 SP2-LTSS:openldap2-back-meta-2.4.41-18.77.1",
            "SUSE Linux Enterprise Server for SAP Applications 12 SP2-LTSS:openldap2-client-2.4.41-18.77.1",
            "SUSE Linux Enterprise Server for SAP Applications 12 SP2-LTSS:openldap2-doc-2.4.41-18.77.1",
            "SUSE Linux Enterprise Server for SAP Applications 12 SP2-LTSS:openldap2-ppolicy-check-password-1.2-18.77.1",
            "SUSE Linux Enterprise Server for SAP Applications 12 SP2:libldap-2_4-2-2.4.41-18.77.1",
            "SUSE Linux Enterprise Server for SAP Applications 12 SP2:libldap-2_4-2-32bit-2.4.41-18.77.1",
            "SUSE Linux Enterprise Server for SAP Applications 12 SP2:openldap2-2.4.41-18.77.1",
            "SUSE Linux Enterprise Server for SAP Applications 12 SP2:openldap2-back-meta-2.4.41-18.77.1",
            "SUSE Linux Enterprise Server for SAP Applications 12 SP2:openldap2-client-2.4.41-18.77.1",
            "SUSE Linux Enterprise Server for SAP Applications 12 SP2:openldap2-doc-2.4.41-18.77.1",
            "SUSE Linux Enterprise Server for SAP Applications 12 SP2:openldap2-ppolicy-check-password-1.2-18.77.1",
            "SUSE Linux Enterprise Server for SAP Applications 12 SP3-BCL:libldap-2_4-2-2.4.41-18.77.1",
            "SUSE Linux Enterprise Server for SAP Applications 12 SP3-BCL:libldap-2_4-2-32bit-2.4.41-18.77.1",
            "SUSE Linux Enterprise Server for SAP Applications 12 SP3-BCL:openldap2-2.4.41-18.77.1",
            "SUSE Linux Enterprise Server for SAP Applications 12 SP3-BCL:openldap2-back-meta-2.4.41-18.77.1",
            "SUSE Linux Enterprise Server for SAP Applications 12 SP3-BCL:openldap2-client-2.4.41-18.77.1",
            "SUSE Linux Enterprise Server for SAP Applications 12 SP3-BCL:openldap2-doc-2.4.41-18.77.1",
            "SUSE Linux Enterprise Server for SAP Applications 12 SP3-BCL:openldap2-ppolicy-check-password-1.2-18.77.1",
            "SUSE Linux Enterprise Server for SAP Applications 12 SP3-LTSS:libldap-2_4-2-2.4.41-18.77.1",
            "SUSE Linux Enterprise Server for SAP Applications 12 SP3-LTSS:libldap-2_4-2-32bit-2.4.41-18.77.1",
            "SUSE Linux Enterprise Server for SAP Applications 12 SP3-LTSS:openldap2-2.4.41-18.77.1",
            "SUSE Linux Enterprise Server for SAP Applications 12 SP3-LTSS:openldap2-back-meta-2.4.41-18.77.1",
            "SUSE Linux Enterprise Server for SAP Applications 12 SP3-LTSS:openldap2-client-2.4.41-18.77.1",
            "SUSE Linux Enterprise Server for SAP Applications 12 SP3-LTSS:openldap2-doc-2.4.41-18.77.1",
            "SUSE Linux Enterprise Server for SAP Applications 12 SP3-LTSS:openldap2-ppolicy-check-password-1.2-18.77.1",
            "SUSE Linux Enterprise Server for SAP Applications 12 SP3:libldap-2_4-2-2.4.41-18.77.1",
            "SUSE Linux Enterprise Server for SAP Applications 12 SP3:libldap-2_4-2-32bit-2.4.41-18.77.1",
            "SUSE Linux Enterprise Server for SAP Applications 12 SP3:openldap2-2.4.41-18.77.1",
            "SUSE Linux Enterprise Server for SAP Applications 12 SP3:openldap2-back-meta-2.4.41-18.77.1",
            "SUSE Linux Enterprise Server for SAP Applications 12 SP3:openldap2-client-2.4.41-18.77.1",
            "SUSE Linux Enterprise Server for SAP Applications 12 SP3:openldap2-doc-2.4.41-18.77.1",
            "SUSE Linux Enterprise Server for SAP Applications 12 SP3:openldap2-ppolicy-check-password-1.2-18.77.1",
            "SUSE Linux Enterprise Server for SAP Applications 12 SP4-LTSS:libldap-2_4-2-2.4.41-18.77.1",
            "SUSE Linux Enterprise Server for SAP Applications 12 SP4-LTSS:libldap-2_4-2-32bit-2.4.41-18.77.1",
            "SUSE Linux Enterprise Server for SAP Applications 12 SP4-LTSS:openldap2-2.4.41-18.77.1",
            "SUSE Linux Enterprise Server for SAP Applications 12 SP4-LTSS:openldap2-back-meta-2.4.41-18.77.1",
            "SUSE Linux Enterprise Server for SAP Applications 12 SP4-LTSS:openldap2-client-2.4.41-18.77.1",
            "SUSE Linux Enterprise Server for SAP Applications 12 SP4-LTSS:openldap2-doc-2.4.41-18.77.1",
            "SUSE Linux Enterprise Server for SAP Applications 12 SP4-LTSS:openldap2-ppolicy-check-password-1.2-18.77.1",
            "SUSE Linux Enterprise Server for SAP Applications 12 SP4:libldap-2_4-2-2.4.41-18.77.1",
            "SUSE Linux Enterprise Server for SAP Applications 12 SP4:libldap-2_4-2-32bit-2.4.41-18.77.1",
            "SUSE Linux Enterprise Server for SAP Applications 12 SP4:openldap2-2.4.41-18.77.1",
            "SUSE Linux Enterprise Server for SAP Applications 12 SP4:openldap2-back-meta-2.4.41-18.77.1",
            "SUSE Linux Enterprise Server for SAP Applications 12 SP4:openldap2-client-2.4.41-18.77.1",
            "SUSE Linux Enterprise Server for SAP Applications 12 SP4:openldap2-doc-2.4.41-18.77.1",
            "SUSE Linux Enterprise Server for SAP Applications 12 SP4:openldap2-ppolicy-check-password-1.2-18.77.1",
            "SUSE Linux Enterprise Server for SAP Applications 12 SP5:libldap-2_4-2-2.4.41-18.77.1",
            "SUSE Linux Enterprise Server for SAP Applications 12 SP5:libldap-2_4-2-32bit-2.4.41-18.77.1",
            "SUSE Linux Enterprise Server for SAP Applications 12 SP5:openldap2-2.4.41-18.77.1",
            "SUSE Linux Enterprise Server for SAP Applications 12 SP5:openldap2-back-meta-2.4.41-18.77.1",
            "SUSE Linux Enterprise Server for SAP Applications 12 SP5:openldap2-client-2.4.41-18.77.1",
            "SUSE Linux Enterprise Server for SAP Applications 12 SP5:openldap2-doc-2.4.41-18.77.1",
            "SUSE Linux Enterprise Server for SAP Applications 12 SP5:openldap2-ppolicy-check-password-1.2-18.77.1",
            "SUSE Linux Enterprise Software Development Kit 12 SP5:openldap2-2.4.41-18.77.1",
            "SUSE Linux Enterprise Software Development Kit 12 SP5:openldap2-back-perl-2.4.41-18.77.1",
            "SUSE Linux Enterprise Software Development Kit 12 SP5:openldap2-devel-2.4.41-18.77.1",
            "SUSE Linux Enterprise Software Development Kit 12 SP5:openldap2-devel-static-2.4.41-18.77.1",
            "SUSE OpenStack Cloud 7:libldap-2_4-2-2.4.41-18.77.1",
            "SUSE OpenStack Cloud 7:libldap-2_4-2-32bit-2.4.41-18.77.1",
            "SUSE OpenStack Cloud 7:openldap2-2.4.41-18.77.1",
            "SUSE OpenStack Cloud 7:openldap2-back-meta-2.4.41-18.77.1",
            "SUSE OpenStack Cloud 7:openldap2-client-2.4.41-18.77.1",
            "SUSE OpenStack Cloud 7:openldap2-doc-2.4.41-18.77.1",
            "SUSE OpenStack Cloud 7:openldap2-ppolicy-check-password-1.2-18.77.1",
            "SUSE OpenStack Cloud 8:libldap-2_4-2-2.4.41-18.77.1",
            "SUSE OpenStack Cloud 8:libldap-2_4-2-32bit-2.4.41-18.77.1",
            "SUSE OpenStack Cloud 8:openldap2-2.4.41-18.77.1",
            "SUSE OpenStack Cloud 8:openldap2-back-meta-2.4.41-18.77.1",
            "SUSE OpenStack Cloud 8:openldap2-client-2.4.41-18.77.1",
            "SUSE OpenStack Cloud 8:openldap2-doc-2.4.41-18.77.1",
            "SUSE OpenStack Cloud 8:openldap2-ppolicy-check-password-1.2-18.77.1",
            "SUSE OpenStack Cloud 9:libldap-2_4-2-2.4.41-18.77.1",
            "SUSE OpenStack Cloud 9:libldap-2_4-2-32bit-2.4.41-18.77.1",
            "SUSE OpenStack Cloud 9:openldap2-2.4.41-18.77.1",
            "SUSE OpenStack Cloud 9:openldap2-back-meta-2.4.41-18.77.1",
            "SUSE OpenStack Cloud 9:openldap2-client-2.4.41-18.77.1",
            "SUSE OpenStack Cloud 9:openldap2-doc-2.4.41-18.77.1",
            "SUSE OpenStack Cloud 9:openldap2-ppolicy-check-password-1.2-18.77.1",
            "SUSE OpenStack Cloud Crowbar 8:libldap-2_4-2-2.4.41-18.77.1",
            "SUSE OpenStack Cloud Crowbar 8:libldap-2_4-2-32bit-2.4.41-18.77.1",
            "SUSE OpenStack Cloud Crowbar 8:openldap2-2.4.41-18.77.1",
            "SUSE OpenStack Cloud Crowbar 8:openldap2-back-meta-2.4.41-18.77.1",
            "SUSE OpenStack Cloud Crowbar 8:openldap2-client-2.4.41-18.77.1",
            "SUSE OpenStack Cloud Crowbar 8:openldap2-doc-2.4.41-18.77.1",
            "SUSE OpenStack Cloud Crowbar 8:openldap2-ppolicy-check-password-1.2-18.77.1",
            "SUSE OpenStack Cloud Crowbar 9:libldap-2_4-2-2.4.41-18.77.1",
            "SUSE OpenStack Cloud Crowbar 9:libldap-2_4-2-32bit-2.4.41-18.77.1",
            "SUSE OpenStack Cloud Crowbar 9:openldap2-2.4.41-18.77.1",
            "SUSE OpenStack Cloud Crowbar 9:openldap2-back-meta-2.4.41-18.77.1",
            "SUSE OpenStack Cloud Crowbar 9:openldap2-client-2.4.41-18.77.1",
            "SUSE OpenStack Cloud Crowbar 9:openldap2-doc-2.4.41-18.77.1",
            "SUSE OpenStack Cloud Crowbar 9:openldap2-ppolicy-check-password-1.2-18.77.1"
          ]
        }
      ],
      "CVSSScoreSets": {}
    }
  ]
}