{
  "Title": "Security update for tomcat",
  "Tracking": {
    "ID": "SUSE-SU-2020:1963-1",
    "Status": "Final",
    "Version": "1",
    "InitialReleaseDate": "2020-07-20T15:30:46Z",
    "CurrentReleaseDate": "2020-07-20T15:30:46Z",
    "RevisionHistory": [
      {
        "Number": "1",
        "Date": "2020-07-20T15:30:46Z",
        "Description": "current"
      }
    ]
  },
  "Notes": [
    {
      "Text": "Security update for tomcat",
      "Title": "Topic",
      "Type": "Summary"
    },
    {
      "Text": "This update for tomcat fixes the following issues:\n\nTomcat was updated to 9.0.36 See changelog at\n\n- CVE-2020-11996: Fixed an issue which by sending a specially crafted sequence of HTTP/2 requests could have triggered high CPU\n  usage for several seconds making potentially the server unresponsive (bsc#1173389).\t  \n",
      "Title": "Details",
      "Type": "General"
    },
    {
      "Text": "The CVRF data is provided by SUSE under the Creative Commons License 4.0 with Attribution for Non-Commercial usage (CC-BY-NC-4.0).",
      "Title": "Terms of Use",
      "Type": "Legal Disclaimer"
    }
  ],
  "ProductTree": {
    "Relationships": [
      {
        "ProductReference": "tomcat-9.0.36-3.42.2",
        "RelatesToProductReference": "SUSE OpenStack Cloud 9",
        "RelationType": "Default Component Of"
      },
      {
        "ProductReference": "tomcat-admin-webapps-9.0.36-3.42.2",
        "RelatesToProductReference": "SUSE OpenStack Cloud 9",
        "RelationType": "Default Component Of"
      },
      {
        "ProductReference": "tomcat-docs-webapp-9.0.36-3.42.2",
        "RelatesToProductReference": "SUSE OpenStack Cloud 9",
        "RelationType": "Default Component Of"
      },
      {
        "ProductReference": "tomcat-el-3_0-api-9.0.36-3.42.2",
        "RelatesToProductReference": "SUSE OpenStack Cloud 9",
        "RelationType": "Default Component Of"
      },
      {
        "ProductReference": "tomcat-javadoc-9.0.36-3.42.2",
        "RelatesToProductReference": "SUSE OpenStack Cloud 9",
        "RelationType": "Default Component Of"
      },
      {
        "ProductReference": "tomcat-jsp-2_3-api-9.0.36-3.42.2",
        "RelatesToProductReference": "SUSE OpenStack Cloud 9",
        "RelationType": "Default Component Of"
      },
      {
        "ProductReference": "tomcat-lib-9.0.36-3.42.2",
        "RelatesToProductReference": "SUSE OpenStack Cloud 9",
        "RelationType": "Default Component Of"
      },
      {
        "ProductReference": "tomcat-servlet-4_0-api-9.0.36-3.42.2",
        "RelatesToProductReference": "SUSE OpenStack Cloud 9",
        "RelationType": "Default Component Of"
      },
      {
        "ProductReference": "tomcat-webapps-9.0.36-3.42.2",
        "RelatesToProductReference": "SUSE OpenStack Cloud 9",
        "RelationType": "Default Component Of"
      },
      {
        "ProductReference": "tomcat-9.0.36-3.42.2",
        "RelatesToProductReference": "SUSE OpenStack Cloud Crowbar 9",
        "RelationType": "Default Component Of"
      },
      {
        "ProductReference": "tomcat-admin-webapps-9.0.36-3.42.2",
        "RelatesToProductReference": "SUSE OpenStack Cloud Crowbar 9",
        "RelationType": "Default Component Of"
      },
      {
        "ProductReference": "tomcat-docs-webapp-9.0.36-3.42.2",
        "RelatesToProductReference": "SUSE OpenStack Cloud Crowbar 9",
        "RelationType": "Default Component Of"
      },
      {
        "ProductReference": "tomcat-el-3_0-api-9.0.36-3.42.2",
        "RelatesToProductReference": "SUSE OpenStack Cloud Crowbar 9",
        "RelationType": "Default Component Of"
      },
      {
        "ProductReference": "tomcat-javadoc-9.0.36-3.42.2",
        "RelatesToProductReference": "SUSE OpenStack Cloud Crowbar 9",
        "RelationType": "Default Component Of"
      },
      {
        "ProductReference": "tomcat-jsp-2_3-api-9.0.36-3.42.2",
        "RelatesToProductReference": "SUSE OpenStack Cloud Crowbar 9",
        "RelationType": "Default Component Of"
      },
      {
        "ProductReference": "tomcat-lib-9.0.36-3.42.2",
        "RelatesToProductReference": "SUSE OpenStack Cloud Crowbar 9",
        "RelationType": "Default Component Of"
      },
      {
        "ProductReference": "tomcat-servlet-4_0-api-9.0.36-3.42.2",
        "RelatesToProductReference": "SUSE OpenStack Cloud Crowbar 9",
        "RelationType": "Default Component Of"
      },
      {
        "ProductReference": "tomcat-webapps-9.0.36-3.42.2",
        "RelatesToProductReference": "SUSE OpenStack Cloud Crowbar 9",
        "RelationType": "Default Component Of"
      },
      {
        "ProductReference": "tomcat-9.0.36-3.42.2",
        "RelatesToProductReference": "SUSE Linux Enterprise Server for SAP Applications 12 SP4",
        "RelationType": "Default Component Of"
      },
      {
        "ProductReference": "tomcat-admin-webapps-9.0.36-3.42.2",
        "RelatesToProductReference": "SUSE Linux Enterprise Server for SAP Applications 12 SP4",
        "RelationType": "Default Component Of"
      },
      {
        "ProductReference": "tomcat-docs-webapp-9.0.36-3.42.2",
        "RelatesToProductReference": "SUSE Linux Enterprise Server for SAP Applications 12 SP4",
        "RelationType": "Default Component Of"
      },
      {
        "ProductReference": "tomcat-el-3_0-api-9.0.36-3.42.2",
        "RelatesToProductReference": "SUSE Linux Enterprise Server for SAP Applications 12 SP4",
        "RelationType": "Default Component Of"
      },
      {
        "ProductReference": "tomcat-javadoc-9.0.36-3.42.2",
        "RelatesToProductReference": "SUSE Linux Enterprise Server for SAP Applications 12 SP4",
        "RelationType": "Default Component Of"
      },
      {
        "ProductReference": "tomcat-jsp-2_3-api-9.0.36-3.42.2",
        "RelatesToProductReference": "SUSE Linux Enterprise Server for SAP Applications 12 SP4",
        "RelationType": "Default Component Of"
      },
      {
        "ProductReference": "tomcat-lib-9.0.36-3.42.2",
        "RelatesToProductReference": "SUSE Linux Enterprise Server for SAP Applications 12 SP4",
        "RelationType": "Default Component Of"
      },
      {
        "ProductReference": "tomcat-servlet-4_0-api-9.0.36-3.42.2",
        "RelatesToProductReference": "SUSE Linux Enterprise Server for SAP Applications 12 SP4",
        "RelationType": "Default Component Of"
      },
      {
        "ProductReference": "tomcat-webapps-9.0.36-3.42.2",
        "RelatesToProductReference": "SUSE Linux Enterprise Server for SAP Applications 12 SP4",
        "RelationType": "Default Component Of"
      },
      {
        "ProductReference": "tomcat-9.0.36-3.42.2",
        "RelatesToProductReference": "SUSE Linux Enterprise Server 12 SP4-LTSS",
        "RelationType": "Default Component Of"
      },
      {
        "ProductReference": "tomcat-admin-webapps-9.0.36-3.42.2",
        "RelatesToProductReference": "SUSE Linux Enterprise Server 12 SP4-LTSS",
        "RelationType": "Default Component Of"
      },
      {
        "ProductReference": "tomcat-docs-webapp-9.0.36-3.42.2",
        "RelatesToProductReference": "SUSE Linux Enterprise Server 12 SP4-LTSS",
        "RelationType": "Default Component Of"
      },
      {
        "ProductReference": "tomcat-el-3_0-api-9.0.36-3.42.2",
        "RelatesToProductReference": "SUSE Linux Enterprise Server 12 SP4-LTSS",
        "RelationType": "Default Component Of"
      },
      {
        "ProductReference": "tomcat-javadoc-9.0.36-3.42.2",
        "RelatesToProductReference": "SUSE Linux Enterprise Server 12 SP4-LTSS",
        "RelationType": "Default Component Of"
      },
      {
        "ProductReference": "tomcat-jsp-2_3-api-9.0.36-3.42.2",
        "RelatesToProductReference": "SUSE Linux Enterprise Server 12 SP4-LTSS",
        "RelationType": "Default Component Of"
      },
      {
        "ProductReference": "tomcat-lib-9.0.36-3.42.2",
        "RelatesToProductReference": "SUSE Linux Enterprise Server 12 SP4-LTSS",
        "RelationType": "Default Component Of"
      },
      {
        "ProductReference": "tomcat-servlet-4_0-api-9.0.36-3.42.2",
        "RelatesToProductReference": "SUSE Linux Enterprise Server 12 SP4-LTSS",
        "RelationType": "Default Component Of"
      },
      {
        "ProductReference": "tomcat-webapps-9.0.36-3.42.2",
        "RelatesToProductReference": "SUSE Linux Enterprise Server 12 SP4-LTSS",
        "RelationType": "Default Component Of"
      },
      {
        "ProductReference": "tomcat-9.0.36-3.42.2",
        "RelatesToProductReference": "SUSE Linux Enterprise Server for SAP Applications 12 SP4-LTSS",
        "RelationType": "Default Component Of"
      },
      {
        "ProductReference": "tomcat-admin-webapps-9.0.36-3.42.2",
        "RelatesToProductReference": "SUSE Linux Enterprise Server for SAP Applications 12 SP4-LTSS",
        "RelationType": "Default Component Of"
      },
      {
        "ProductReference": "tomcat-docs-webapp-9.0.36-3.42.2",
        "RelatesToProductReference": "SUSE Linux Enterprise Server for SAP Applications 12 SP4-LTSS",
        "RelationType": "Default Component Of"
      },
      {
        "ProductReference": "tomcat-el-3_0-api-9.0.36-3.42.2",
        "RelatesToProductReference": "SUSE Linux Enterprise Server for SAP Applications 12 SP4-LTSS",
        "RelationType": "Default Component Of"
      },
      {
        "ProductReference": "tomcat-javadoc-9.0.36-3.42.2",
        "RelatesToProductReference": "SUSE Linux Enterprise Server for SAP Applications 12 SP4-LTSS",
        "RelationType": "Default Component Of"
      },
      {
        "ProductReference": "tomcat-jsp-2_3-api-9.0.36-3.42.2",
        "RelatesToProductReference": "SUSE Linux Enterprise Server for SAP Applications 12 SP4-LTSS",
        "RelationType": "Default Component Of"
      },
      {
        "ProductReference": "tomcat-lib-9.0.36-3.42.2",
        "RelatesToProductReference": "SUSE Linux Enterprise Server for SAP Applications 12 SP4-LTSS",
        "RelationType": "Default Component Of"
      },
      {
        "ProductReference": "tomcat-servlet-4_0-api-9.0.36-3.42.2",
        "RelatesToProductReference": "SUSE Linux Enterprise Server for SAP Applications 12 SP4-LTSS",
        "RelationType": "Default Component Of"
      },
      {
        "ProductReference": "tomcat-webapps-9.0.36-3.42.2",
        "RelatesToProductReference": "SUSE Linux Enterprise Server for SAP Applications 12 SP4-LTSS",
        "RelationType": "Default Component Of"
      },
      {
        "ProductReference": "tomcat-9.0.36-3.42.2",
        "RelatesToProductReference": "SUSE Linux Enterprise Server 12 SP5",
        "RelationType": "Default Component Of"
      },
      {
        "ProductReference": "tomcat-admin-webapps-9.0.36-3.42.2",
        "RelatesToProductReference": "SUSE Linux Enterprise Server 12 SP5",
        "RelationType": "Default Component Of"
      },
      {
        "ProductReference": "tomcat-docs-webapp-9.0.36-3.42.2",
        "RelatesToProductReference": "SUSE Linux Enterprise Server 12 SP5",
        "RelationType": "Default Component Of"
      },
      {
        "ProductReference": "tomcat-el-3_0-api-9.0.36-3.42.2",
        "RelatesToProductReference": "SUSE Linux Enterprise Server 12 SP5",
        "RelationType": "Default Component Of"
      },
      {
        "ProductReference": "tomcat-javadoc-9.0.36-3.42.2",
        "RelatesToProductReference": "SUSE Linux Enterprise Server 12 SP5",
        "RelationType": "Default Component Of"
      },
      {
        "ProductReference": "tomcat-jsp-2_3-api-9.0.36-3.42.2",
        "RelatesToProductReference": "SUSE Linux Enterprise Server 12 SP5",
        "RelationType": "Default Component Of"
      },
      {
        "ProductReference": "tomcat-lib-9.0.36-3.42.2",
        "RelatesToProductReference": "SUSE Linux Enterprise Server 12 SP5",
        "RelationType": "Default Component Of"
      },
      {
        "ProductReference": "tomcat-servlet-4_0-api-9.0.36-3.42.2",
        "RelatesToProductReference": "SUSE Linux Enterprise Server 12 SP5",
        "RelationType": "Default Component Of"
      },
      {
        "ProductReference": "tomcat-webapps-9.0.36-3.42.2",
        "RelatesToProductReference": "SUSE Linux Enterprise Server 12 SP5",
        "RelationType": "Default Component Of"
      },
      {
        "ProductReference": "tomcat-9.0.36-3.42.2",
        "RelatesToProductReference": "SUSE Linux Enterprise Server for SAP Applications 12 SP5",
        "RelationType": "Default Component Of"
      },
      {
        "ProductReference": "tomcat-admin-webapps-9.0.36-3.42.2",
        "RelatesToProductReference": "SUSE Linux Enterprise Server for SAP Applications 12 SP5",
        "RelationType": "Default Component Of"
      },
      {
        "ProductReference": "tomcat-docs-webapp-9.0.36-3.42.2",
        "RelatesToProductReference": "SUSE Linux Enterprise Server for SAP Applications 12 SP5",
        "RelationType": "Default Component Of"
      },
      {
        "ProductReference": "tomcat-el-3_0-api-9.0.36-3.42.2",
        "RelatesToProductReference": "SUSE Linux Enterprise Server for SAP Applications 12 SP5",
        "RelationType": "Default Component Of"
      },
      {
        "ProductReference": "tomcat-javadoc-9.0.36-3.42.2",
        "RelatesToProductReference": "SUSE Linux Enterprise Server for SAP Applications 12 SP5",
        "RelationType": "Default Component Of"
      },
      {
        "ProductReference": "tomcat-jsp-2_3-api-9.0.36-3.42.2",
        "RelatesToProductReference": "SUSE Linux Enterprise Server for SAP Applications 12 SP5",
        "RelationType": "Default Component Of"
      },
      {
        "ProductReference": "tomcat-lib-9.0.36-3.42.2",
        "RelatesToProductReference": "SUSE Linux Enterprise Server for SAP Applications 12 SP5",
        "RelationType": "Default Component Of"
      },
      {
        "ProductReference": "tomcat-servlet-4_0-api-9.0.36-3.42.2",
        "RelatesToProductReference": "SUSE Linux Enterprise Server for SAP Applications 12 SP5",
        "RelationType": "Default Component Of"
      },
      {
        "ProductReference": "tomcat-webapps-9.0.36-3.42.2",
        "RelatesToProductReference": "SUSE Linux Enterprise Server for SAP Applications 12 SP5",
        "RelationType": "Default Component Of"
      }
    ]
  },
  "References": [
    {
      "URL": "https://www.suse.com/support/update/announcement/2020/suse-su-20201963-1/",
      "Description": "Link for SUSE-SU-2020:1963-1"
    },
    {
      "URL": "http://lists.suse.com/pipermail/sle-security-updates/2020-July/007155.html",
      "Description": "E-Mail link for SUSE-SU-2020:1963-1"
    },
    {
      "URL": "https://www.suse.com/support/security/rating/",
      "Description": "SUSE Security Ratings"
    }
  ],
  "Vulnerabilities": [
    {
      "CVE": "CVE-2020-11996",
      "Description": "A specially crafted sequence of HTTP/2 requests sent to Apache Tomcat 10.0.0-M1 to 10.0.0-M5, 9.0.0.M1 to 9.0.35 and 8.5.0 to 8.5.55 could trigger high CPU usage for several seconds. If a sufficient number of such requests were made on concurrent HTTP/2 connections, the server could become unresponsive.",
      "Threats": [
        {
          "Type": "Impact",
          "Severity": "moderate"
        }
      ],
      "References": [
        {
          "URL": "https://www.suse.com/security/cve/CVE-2020-11996.html",
          "Description": "CVE-2020-11996"
        },
        {
          "URL": "https://bugzilla.suse.com/1173389",
          "Description": "SUSE Bug 1173389"
        }
      ],
      "ProductStatuses": [
        {
          "Type": "Fixed",
          "ProductID": [
            "SUSE Linux Enterprise Server 12 SP4-LTSS:tomcat-9.0.36-3.42.2",
            "SUSE Linux Enterprise Server 12 SP4-LTSS:tomcat-admin-webapps-9.0.36-3.42.2",
            "SUSE Linux Enterprise Server 12 SP4-LTSS:tomcat-docs-webapp-9.0.36-3.42.2",
            "SUSE Linux Enterprise Server 12 SP4-LTSS:tomcat-el-3_0-api-9.0.36-3.42.2",
            "SUSE Linux Enterprise Server 12 SP4-LTSS:tomcat-javadoc-9.0.36-3.42.2",
            "SUSE Linux Enterprise Server 12 SP4-LTSS:tomcat-jsp-2_3-api-9.0.36-3.42.2",
            "SUSE Linux Enterprise Server 12 SP4-LTSS:tomcat-lib-9.0.36-3.42.2",
            "SUSE Linux Enterprise Server 12 SP4-LTSS:tomcat-servlet-4_0-api-9.0.36-3.42.2",
            "SUSE Linux Enterprise Server 12 SP4-LTSS:tomcat-webapps-9.0.36-3.42.2",
            "SUSE Linux Enterprise Server 12 SP5:tomcat-9.0.36-3.42.2",
            "SUSE Linux Enterprise Server 12 SP5:tomcat-admin-webapps-9.0.36-3.42.2",
            "SUSE Linux Enterprise Server 12 SP5:tomcat-docs-webapp-9.0.36-3.42.2",
            "SUSE Linux Enterprise Server 12 SP5:tomcat-el-3_0-api-9.0.36-3.42.2",
            "SUSE Linux Enterprise Server 12 SP5:tomcat-javadoc-9.0.36-3.42.2",
            "SUSE Linux Enterprise Server 12 SP5:tomcat-jsp-2_3-api-9.0.36-3.42.2",
            "SUSE Linux Enterprise Server 12 SP5:tomcat-lib-9.0.36-3.42.2",
            "SUSE Linux Enterprise Server 12 SP5:tomcat-servlet-4_0-api-9.0.36-3.42.2",
            "SUSE Linux Enterprise Server 12 SP5:tomcat-webapps-9.0.36-3.42.2",
            "SUSE Linux Enterprise Server for SAP Applications 12 SP4-LTSS:tomcat-9.0.36-3.42.2",
            "SUSE Linux Enterprise Server for SAP Applications 12 SP4-LTSS:tomcat-admin-webapps-9.0.36-3.42.2",
            "SUSE Linux Enterprise Server for SAP Applications 12 SP4-LTSS:tomcat-docs-webapp-9.0.36-3.42.2",
            "SUSE Linux Enterprise Server for SAP Applications 12 SP4-LTSS:tomcat-el-3_0-api-9.0.36-3.42.2",
            "SUSE Linux Enterprise Server for SAP Applications 12 SP4-LTSS:tomcat-javadoc-9.0.36-3.42.2",
            "SUSE Linux Enterprise Server for SAP Applications 12 SP4-LTSS:tomcat-jsp-2_3-api-9.0.36-3.42.2",
            "SUSE Linux Enterprise Server for SAP Applications 12 SP4-LTSS:tomcat-lib-9.0.36-3.42.2",
            "SUSE Linux Enterprise Server for SAP Applications 12 SP4-LTSS:tomcat-servlet-4_0-api-9.0.36-3.42.2",
            "SUSE Linux Enterprise Server for SAP Applications 12 SP4-LTSS:tomcat-webapps-9.0.36-3.42.2",
            "SUSE Linux Enterprise Server for SAP Applications 12 SP4:tomcat-9.0.36-3.42.2",
            "SUSE Linux Enterprise Server for SAP Applications 12 SP4:tomcat-admin-webapps-9.0.36-3.42.2",
            "SUSE Linux Enterprise Server for SAP Applications 12 SP4:tomcat-docs-webapp-9.0.36-3.42.2",
            "SUSE Linux Enterprise Server for SAP Applications 12 SP4:tomcat-el-3_0-api-9.0.36-3.42.2",
            "SUSE Linux Enterprise Server for SAP Applications 12 SP4:tomcat-javadoc-9.0.36-3.42.2",
            "SUSE Linux Enterprise Server for SAP Applications 12 SP4:tomcat-jsp-2_3-api-9.0.36-3.42.2",
            "SUSE Linux Enterprise Server for SAP Applications 12 SP4:tomcat-lib-9.0.36-3.42.2",
            "SUSE Linux Enterprise Server for SAP Applications 12 SP4:tomcat-servlet-4_0-api-9.0.36-3.42.2",
            "SUSE Linux Enterprise Server for SAP Applications 12 SP4:tomcat-webapps-9.0.36-3.42.2",
            "SUSE Linux Enterprise Server for SAP Applications 12 SP5:tomcat-9.0.36-3.42.2",
            "SUSE Linux Enterprise Server for SAP Applications 12 SP5:tomcat-admin-webapps-9.0.36-3.42.2",
            "SUSE Linux Enterprise Server for SAP Applications 12 SP5:tomcat-docs-webapp-9.0.36-3.42.2",
            "SUSE Linux Enterprise Server for SAP Applications 12 SP5:tomcat-el-3_0-api-9.0.36-3.42.2",
            "SUSE Linux Enterprise Server for SAP Applications 12 SP5:tomcat-javadoc-9.0.36-3.42.2",
            "SUSE Linux Enterprise Server for SAP Applications 12 SP5:tomcat-jsp-2_3-api-9.0.36-3.42.2",
            "SUSE Linux Enterprise Server for SAP Applications 12 SP5:tomcat-lib-9.0.36-3.42.2",
            "SUSE Linux Enterprise Server for SAP Applications 12 SP5:tomcat-servlet-4_0-api-9.0.36-3.42.2",
            "SUSE Linux Enterprise Server for SAP Applications 12 SP5:tomcat-webapps-9.0.36-3.42.2",
            "SUSE OpenStack Cloud 9:tomcat-9.0.36-3.42.2",
            "SUSE OpenStack Cloud 9:tomcat-admin-webapps-9.0.36-3.42.2",
            "SUSE OpenStack Cloud 9:tomcat-docs-webapp-9.0.36-3.42.2",
            "SUSE OpenStack Cloud 9:tomcat-el-3_0-api-9.0.36-3.42.2",
            "SUSE OpenStack Cloud 9:tomcat-javadoc-9.0.36-3.42.2",
            "SUSE OpenStack Cloud 9:tomcat-jsp-2_3-api-9.0.36-3.42.2",
            "SUSE OpenStack Cloud 9:tomcat-lib-9.0.36-3.42.2",
            "SUSE OpenStack Cloud 9:tomcat-servlet-4_0-api-9.0.36-3.42.2",
            "SUSE OpenStack Cloud 9:tomcat-webapps-9.0.36-3.42.2",
            "SUSE OpenStack Cloud Crowbar 9:tomcat-9.0.36-3.42.2",
            "SUSE OpenStack Cloud Crowbar 9:tomcat-admin-webapps-9.0.36-3.42.2",
            "SUSE OpenStack Cloud Crowbar 9:tomcat-docs-webapp-9.0.36-3.42.2",
            "SUSE OpenStack Cloud Crowbar 9:tomcat-el-3_0-api-9.0.36-3.42.2",
            "SUSE OpenStack Cloud Crowbar 9:tomcat-javadoc-9.0.36-3.42.2",
            "SUSE OpenStack Cloud Crowbar 9:tomcat-jsp-2_3-api-9.0.36-3.42.2",
            "SUSE OpenStack Cloud Crowbar 9:tomcat-lib-9.0.36-3.42.2",
            "SUSE OpenStack Cloud Crowbar 9:tomcat-servlet-4_0-api-9.0.36-3.42.2",
            "SUSE OpenStack Cloud Crowbar 9:tomcat-webapps-9.0.36-3.42.2"
          ]
        }
      ],
      "CVSSScoreSets": {}
    }
  ]
}