{
  "XMLName": {
    "Space": "http://oval.mitre.org/XMLSchema/oval-definitions-5",
    "Local": "definition"
  },
  "ID": "oval:com.redhat.rhsa:def:20183534",
  "Class": "patch",
  "Title": "RHSA-2018:3534: java-1.8.0-ibm security update (Critical)",
  "Affecteds": [
    {
      "XMLName": {
        "Space": "http://oval.mitre.org/XMLSchema/oval-definitions-5",
        "Local": "affected"
      },
      "Family": "unix",
      "Platforms": [
        "Red Hat Enterprise Linux 7 Supplementary"
      ]
    }
  ],
  "References": [
    {
      "XMLName": {
        "Space": "http://oval.mitre.org/XMLSchema/oval-definitions-5",
        "Local": "reference"
      },
      "Source": "RHSA",
      "RefID": "RHSA-2018:3534",
      "RefURL": "https://access.redhat.com/errata/RHSA-2018:3534"
    },
    {
      "XMLName": {
        "Space": "http://oval.mitre.org/XMLSchema/oval-definitions-5",
        "Local": "reference"
      },
      "Source": "CVE",
      "RefID": "CVE-2018-13785",
      "RefURL": "https://access.redhat.com/security/cve/CVE-2018-13785"
    },
    {
      "XMLName": {
        "Space": "http://oval.mitre.org/XMLSchema/oval-definitions-5",
        "Local": "reference"
      },
      "Source": "CVE",
      "RefID": "CVE-2018-3136",
      "RefURL": "https://access.redhat.com/security/cve/CVE-2018-3136"
    },
    {
      "XMLName": {
        "Space": "http://oval.mitre.org/XMLSchema/oval-definitions-5",
        "Local": "reference"
      },
      "Source": "CVE",
      "RefID": "CVE-2018-3139",
      "RefURL": "https://access.redhat.com/security/cve/CVE-2018-3139"
    },
    {
      "XMLName": {
        "Space": "http://oval.mitre.org/XMLSchema/oval-definitions-5",
        "Local": "reference"
      },
      "Source": "CVE",
      "RefID": "CVE-2018-3149",
      "RefURL": "https://access.redhat.com/security/cve/CVE-2018-3149"
    },
    {
      "XMLName": {
        "Space": "http://oval.mitre.org/XMLSchema/oval-definitions-5",
        "Local": "reference"
      },
      "Source": "CVE",
      "RefID": "CVE-2018-3169",
      "RefURL": "https://access.redhat.com/security/cve/CVE-2018-3169"
    },
    {
      "XMLName": {
        "Space": "http://oval.mitre.org/XMLSchema/oval-definitions-5",
        "Local": "reference"
      },
      "Source": "CVE",
      "RefID": "CVE-2018-3180",
      "RefURL": "https://access.redhat.com/security/cve/CVE-2018-3180"
    },
    {
      "XMLName": {
        "Space": "http://oval.mitre.org/XMLSchema/oval-definitions-5",
        "Local": "reference"
      },
      "Source": "CVE",
      "RefID": "CVE-2018-3183",
      "RefURL": "https://access.redhat.com/security/cve/CVE-2018-3183"
    },
    {
      "XMLName": {
        "Space": "http://oval.mitre.org/XMLSchema/oval-definitions-5",
        "Local": "reference"
      },
      "Source": "CVE",
      "RefID": "CVE-2018-3214",
      "RefURL": "https://access.redhat.com/security/cve/CVE-2018-3214"
    }
  ],
  "Description": "IBM Java SE version 8 includes the IBM Java Runtime Environment and the IBM Java Software Development Kit.\n\nThis update upgrades IBM Java SE 8 to version 8 SR5-FP25.\n\nSecurity Fix(es):\n\n* OpenJDK: Improper field access checks (Hotspot, 8199226) (CVE-2018-3169)\n\n* OpenJDK: Unrestricted access to scripting engine (Scripting, 8202936) (CVE-2018-3183)\n\n* OpenJDK: Incomplete enforcement of the trustURLCodebase restriction (JNDI, 8199177) (CVE-2018-3149)\n\n* OpenJDK: Incorrect handling of unsigned attributes in signed Jar manifests (Security, 8194534) (CVE-2018-3136)\n\n* OpenJDK: Leak of sensitive header data via HTTP redirect (Networking, 8196902) (CVE-2018-3139)\n\n* OpenJDK: Missing endpoint identification algorithm check during TLS session resumption (JSSE, 8202613) (CVE-2018-3180)\n\n* OpenJDK: Infinite loop in RIFF format reader (Sound, 8205361) (CVE-2018-3214)\n\n* libpng: Integer overflow and resultant divide-by-zero in pngrutil.c:png_check_chunk_length() allows for denial of service (CVE-2018-13785)\n\nFor more details about the security issue(s), including the impact, a CVSS score, and other related information, refer to the CVE page(s) listed in the References section.",
  "Advisory": {
    "XMLName": {
      "Space": "http://oval.mitre.org/XMLSchema/oval-definitions-5",
      "Local": "advisory"
    },
    "Severity": "Critical",
    "Cves": [
      {
        "XMLName": {
          "Space": "http://oval.mitre.org/XMLSchema/oval-definitions-5",
          "Local": "cve"
        },
        "CveID": "CVE-2018-13785",
        "Cvss2": "",
        "Cvss3": "4.3/CVSS:3.0/AV:N/AC:L/PR:N/UI:R/S:U/C:N/I:N/A:L",
        "Cwe": "CWE-190 CWE-369",
        "Impact": "low",
        "Href": "https://access.redhat.com/security/cve/CVE-2018-13785",
        "Public": "20180405"
      },
      {
        "XMLName": {
          "Space": "http://oval.mitre.org/XMLSchema/oval-definitions-5",
          "Local": "cve"
        },
        "CveID": "CVE-2018-3136",
        "Cvss2": "",
        "Cvss3": "3.1/CVSS:3.0/AV:N/AC:H/PR:N/UI:R/S:U/C:N/I:L/A:N",
        "Cwe": "CWE-347",
        "Impact": "moderate",
        "Href": "https://access.redhat.com/security/cve/CVE-2018-3136",
        "Public": "20181016"
      },
      {
        "XMLName": {
          "Space": "http://oval.mitre.org/XMLSchema/oval-definitions-5",
          "Local": "cve"
        },
        "CveID": "CVE-2018-3139",
        "Cvss2": "",
        "Cvss3": "3.1/CVSS:3.0/AV:N/AC:H/PR:N/UI:R/S:U/C:L/I:N/A:N",
        "Cwe": "CWE-201",
        "Impact": "moderate",
        "Href": "https://access.redhat.com/security/cve/CVE-2018-3139",
        "Public": "20181016"
      },
      {
        "XMLName": {
          "Space": "http://oval.mitre.org/XMLSchema/oval-definitions-5",
          "Local": "cve"
        },
        "CveID": "CVE-2018-3149",
        "Cvss2": "",
        "Cvss3": "7.5/CVSS:3.0/AV:N/AC:H/PR:N/UI:R/S:U/C:H/I:H/A:H",
        "Cwe": "CWE-426",
        "Impact": "important",
        "Href": "https://access.redhat.com/security/cve/CVE-2018-3149",
        "Public": "20181016"
      },
      {
        "XMLName": {
          "Space": "http://oval.mitre.org/XMLSchema/oval-definitions-5",
          "Local": "cve"
        },
        "CveID": "CVE-2018-3169",
        "Cvss2": "",
        "Cvss3": "7.5/CVSS:3.0/AV:N/AC:H/PR:N/UI:R/S:U/C:H/I:H/A:H",
        "Cwe": "CWE-284",
        "Impact": "",
        "Href": "https://access.redhat.com/security/cve/CVE-2018-3169",
        "Public": "20181016"
      },
      {
        "XMLName": {
          "Space": "http://oval.mitre.org/XMLSchema/oval-definitions-5",
          "Local": "cve"
        },
        "CveID": "CVE-2018-3180",
        "Cvss2": "",
        "Cvss3": "4.8/CVSS:3.0/AV:N/AC:H/PR:N/UI:N/S:U/C:L/I:L/A:N",
        "Cwe": "CWE-295",
        "Impact": "moderate",
        "Href": "https://access.redhat.com/security/cve/CVE-2018-3180",
        "Public": "20181016"
      },
      {
        "XMLName": {
          "Space": "http://oval.mitre.org/XMLSchema/oval-definitions-5",
          "Local": "cve"
        },
        "CveID": "CVE-2018-3183",
        "Cvss2": "",
        "Cvss3": "8.1/CVSS:3.0/AV:N/AC:H/PR:N/UI:N/S:U/C:H/I:H/A:H",
        "Cwe": "CWE-284",
        "Impact": "",
        "Href": "https://access.redhat.com/security/cve/CVE-2018-3183",
        "Public": "20181016"
      },
      {
        "XMLName": {
          "Space": "http://oval.mitre.org/XMLSchema/oval-definitions-5",
          "Local": "cve"
        },
        "CveID": "CVE-2018-3214",
        "Cvss2": "",
        "Cvss3": "7.5/CVSS:3.0/AV:N/AC:L/PR:N/UI:N/S:U/C:N/I:N/A:H",
        "Cwe": "CWE-835",
        "Impact": "moderate",
        "Href": "https://access.redhat.com/security/cve/CVE-2018-3214",
        "Public": "20181016"
      }
    ],
    "Bugzillas": [
      {
        "XMLName": {
          "Space": "http://oval.mitre.org/XMLSchema/oval-definitions-5",
          "Local": "bugzilla"
        },
        "ID": "1599943",
        "URL": "https://bugzilla.redhat.com/1599943",
        "Title": "CVE-2018-13785 libpng: Integer overflow and resultant divide-by-zero in pngrutil.c:png_check_chunk_length() allows for denial of service"
      },
      {
        "XMLName": {
          "Space": "http://oval.mitre.org/XMLSchema/oval-definitions-5",
          "Local": "bugzilla"
        },
        "ID": "1639268",
        "URL": "https://bugzilla.redhat.com/1639268",
        "Title": "CVE-2018-3183 OpenJDK: Unrestricted access to scripting engine (Scripting, 8202936)"
      },
      {
        "XMLName": {
          "Space": "http://oval.mitre.org/XMLSchema/oval-definitions-5",
          "Local": "bugzilla"
        },
        "ID": "1639293",
        "URL": "https://bugzilla.redhat.com/1639293",
        "Title": "CVE-2018-3169 OpenJDK: Improper field access checks (Hotspot, 8199226)"
      },
      {
        "XMLName": {
          "Space": "http://oval.mitre.org/XMLSchema/oval-definitions-5",
          "Local": "bugzilla"
        },
        "ID": "1639301",
        "URL": "https://bugzilla.redhat.com/1639301",
        "Title": "CVE-2018-3214 OpenJDK: Infinite loop in RIFF format reader (Sound, 8205361)"
      },
      {
        "XMLName": {
          "Space": "http://oval.mitre.org/XMLSchema/oval-definitions-5",
          "Local": "bugzilla"
        },
        "ID": "1639442",
        "URL": "https://bugzilla.redhat.com/1639442",
        "Title": "CVE-2018-3139 OpenJDK: Leak of sensitive header data via HTTP redirect (Networking, 8196902)"
      },
      {
        "XMLName": {
          "Space": "http://oval.mitre.org/XMLSchema/oval-definitions-5",
          "Local": "bugzilla"
        },
        "ID": "1639484",
        "URL": "https://bugzilla.redhat.com/1639484",
        "Title": "CVE-2018-3180 OpenJDK: Missing endpoint identification algorithm check during TLS session resumption (JSSE, 8202613)"
      },
      {
        "XMLName": {
          "Space": "http://oval.mitre.org/XMLSchema/oval-definitions-5",
          "Local": "bugzilla"
        },
        "ID": "1639755",
        "URL": "https://bugzilla.redhat.com/1639755",
        "Title": "CVE-2018-3136 OpenJDK: Incorrect handling of unsigned attributes in signed Jar manifests (Security, 8194534)"
      },
      {
        "XMLName": {
          "Space": "http://oval.mitre.org/XMLSchema/oval-definitions-5",
          "Local": "bugzilla"
        },
        "ID": "1639834",
        "URL": "https://bugzilla.redhat.com/1639834",
        "Title": "CVE-2018-3149 OpenJDK: Incomplete enforcement of the trustURLCodebase restriction (JNDI, 8199177)"
      }
    ],
    "AffectedCPEList": [
      "cpe:/a:redhat:rhel_extras:7",
      "cpe:/a:redhat:rhel_extras:7"
    ],
    "Issued": {
      "Date": "2018-11-09"
    },
    "Updated": {
      "Date": "2018-11-09"
    }
  },
  "Criteria": {
    "XMLName": {
      "Space": "http://oval.mitre.org/XMLSchema/oval-definitions-5",
      "Local": "criteria"
    },
    "Operator": "OR",
    "Criterias": [
      {
        "XMLName": {
          "Space": "http://oval.mitre.org/XMLSchema/oval-definitions-5",
          "Local": "criteria"
        },
        "Operator": "AND",
        "Criterias": [
          {
            "XMLName": {
              "Space": "http://oval.mitre.org/XMLSchema/oval-definitions-5",
              "Local": "criteria"
            },
            "Operator": "OR",
            "Criterias": [
              {
                "XMLName": {
                  "Space": "http://oval.mitre.org/XMLSchema/oval-definitions-5",
                  "Local": "criteria"
                },
                "Operator": "AND",
                "Criterias": null,
                "Criterions": [
                  {
                    "XMLName": {
                      "Space": "http://oval.mitre.org/XMLSchema/oval-definitions-5",
                      "Local": "criterion"
                    },
                    "Negate": false,
                    "TestRef": "oval:com.redhat.rhsa:tst:20183534001",
                    "Comment": "java-1.8.0-ibm is earlier than 1:1.8.0.5.25-1jpp.1.el7"
                  },
                  {
                    "XMLName": {
                      "Space": "http://oval.mitre.org/XMLSchema/oval-definitions-5",
                      "Local": "criterion"
                    },
                    "Negate": false,
                    "TestRef": "oval:com.redhat.rhsa:tst:20152509002",
                    "Comment": "java-1.8.0-ibm is signed with Red Hat redhatrelease2 key"
                  }
                ]
              },
              {
                "XMLName": {
                  "Space": "http://oval.mitre.org/XMLSchema/oval-definitions-5",
                  "Local": "criteria"
                },
                "Operator": "AND",
                "Criterias": null,
                "Criterions": [
                  {
                    "XMLName": {
                      "Space": "http://oval.mitre.org/XMLSchema/oval-definitions-5",
                      "Local": "criterion"
                    },
                    "Negate": false,
                    "TestRef": "oval:com.redhat.rhsa:tst:20183534003",
                    "Comment": "java-1.8.0-ibm-demo is earlier than 1:1.8.0.5.25-1jpp.1.el7"
                  },
                  {
                    "XMLName": {
                      "Space": "http://oval.mitre.org/XMLSchema/oval-definitions-5",
                      "Local": "criterion"
                    },
                    "Negate": false,
                    "TestRef": "oval:com.redhat.rhsa:tst:20152509004",
                    "Comment": "java-1.8.0-ibm-demo is signed with Red Hat redhatrelease2 key"
                  }
                ]
              },
              {
                "XMLName": {
                  "Space": "http://oval.mitre.org/XMLSchema/oval-definitions-5",
                  "Local": "criteria"
                },
                "Operator": "AND",
                "Criterias": null,
                "Criterions": [
                  {
                    "XMLName": {
                      "Space": "http://oval.mitre.org/XMLSchema/oval-definitions-5",
                      "Local": "criterion"
                    },
                    "Negate": false,
                    "TestRef": "oval:com.redhat.rhsa:tst:20183534005",
                    "Comment": "java-1.8.0-ibm-devel is earlier than 1:1.8.0.5.25-1jpp.1.el7"
                  },
                  {
                    "XMLName": {
                      "Space": "http://oval.mitre.org/XMLSchema/oval-definitions-5",
                      "Local": "criterion"
                    },
                    "Negate": false,
                    "TestRef": "oval:com.redhat.rhsa:tst:20152509006",
                    "Comment": "java-1.8.0-ibm-devel is signed with Red Hat redhatrelease2 key"
                  }
                ]
              },
              {
                "XMLName": {
                  "Space": "http://oval.mitre.org/XMLSchema/oval-definitions-5",
                  "Local": "criteria"
                },
                "Operator": "AND",
                "Criterias": null,
                "Criterions": [
                  {
                    "XMLName": {
                      "Space": "http://oval.mitre.org/XMLSchema/oval-definitions-5",
                      "Local": "criterion"
                    },
                    "Negate": false,
                    "TestRef": "oval:com.redhat.rhsa:tst:20183534007",
                    "Comment": "java-1.8.0-ibm-jdbc is earlier than 1:1.8.0.5.25-1jpp.1.el7"
                  },
                  {
                    "XMLName": {
                      "Space": "http://oval.mitre.org/XMLSchema/oval-definitions-5",
                      "Local": "criterion"
                    },
                    "Negate": false,
                    "TestRef": "oval:com.redhat.rhsa:tst:20152509008",
                    "Comment": "java-1.8.0-ibm-jdbc is signed with Red Hat redhatrelease2 key"
                  }
                ]
              },
              {
                "XMLName": {
                  "Space": "http://oval.mitre.org/XMLSchema/oval-definitions-5",
                  "Local": "criteria"
                },
                "Operator": "AND",
                "Criterias": null,
                "Criterions": [
                  {
                    "XMLName": {
                      "Space": "http://oval.mitre.org/XMLSchema/oval-definitions-5",
                      "Local": "criterion"
                    },
                    "Negate": false,
                    "TestRef": "oval:com.redhat.rhsa:tst:20183534009",
                    "Comment": "java-1.8.0-ibm-plugin is earlier than 1:1.8.0.5.25-1jpp.1.el7"
                  },
                  {
                    "XMLName": {
                      "Space": "http://oval.mitre.org/XMLSchema/oval-definitions-5",
                      "Local": "criterion"
                    },
                    "Negate": false,
                    "TestRef": "oval:com.redhat.rhsa:tst:20152509010",
                    "Comment": "java-1.8.0-ibm-plugin is signed with Red Hat redhatrelease2 key"
                  }
                ]
              },
              {
                "XMLName": {
                  "Space": "http://oval.mitre.org/XMLSchema/oval-definitions-5",
                  "Local": "criteria"
                },
                "Operator": "AND",
                "Criterias": null,
                "Criterions": [
                  {
                    "XMLName": {
                      "Space": "http://oval.mitre.org/XMLSchema/oval-definitions-5",
                      "Local": "criterion"
                    },
                    "Negate": false,
                    "TestRef": "oval:com.redhat.rhsa:tst:20183534011",
                    "Comment": "java-1.8.0-ibm-src is earlier than 1:1.8.0.5.25-1jpp.1.el7"
                  },
                  {
                    "XMLName": {
                      "Space": "http://oval.mitre.org/XMLSchema/oval-definitions-5",
                      "Local": "criterion"
                    },
                    "Negate": false,
                    "TestRef": "oval:com.redhat.rhsa:tst:20152509012",
                    "Comment": "java-1.8.0-ibm-src is signed with Red Hat redhatrelease2 key"
                  }
                ]
              }
            ],
            "Criterions": null
          }
        ],
        "Criterions": [
          {
            "XMLName": {
              "Space": "http://oval.mitre.org/XMLSchema/oval-definitions-5",
              "Local": "criterion"
            },
            "Negate": false,
            "TestRef": "oval:com.redhat.rhba:tst:20150364027",
            "Comment": "Red Hat Enterprise Linux 7 is installed"
          }
        ]
      }
    ],
    "Criterions": [
      {
        "XMLName": {
          "Space": "http://oval.mitre.org/XMLSchema/oval-definitions-5",
          "Local": "criterion"
        },
        "Negate": false,
        "TestRef": "oval:com.redhat.rhba:tst:20150364028",
        "Comment": "Red Hat Enterprise Linux must be installed"
      }
    ]
  }
}