{
  "Title": "Security update for ceph",
  "Tracking": {
    "ID": "SUSE-SU-2019:2364-1",
    "Status": "Final",
    "Version": "1",
    "InitialReleaseDate": "2019-09-12T09:23:04Z",
    "CurrentReleaseDate": "2019-09-12T09:23:04Z",
    "RevisionHistory": [
      {
        "Number": "1",
        "Date": "2019-09-12T09:23:04Z",
        "Description": "current"
      }
    ]
  },
  "Notes": [
    {
      "Text": "Security update for ceph",
      "Title": "Topic",
      "Type": "Summary"
    },
    {
      "Text": "This update for ceph to version 12.2.12-594-g02236657ca fixes the following issues:\n\nSecurity issues fixed:\n\n- CVE-2018-16889: Fixed missing sanitation of customer encryption keys from log output in v4 auth. (bsc#1121567)\n",
      "Title": "Details",
      "Type": "General"
    },
    {
      "Text": "The CVRF data is provided by SUSE under the Creative Commons License 4.0 with Attribution for Non-Commercial usage (CC-BY-NC-4.0).",
      "Title": "Terms of Use",
      "Type": "Legal Disclaimer"
    }
  ],
  "ProductTree": {
    "Relationships": [
      {
        "ProductReference": "ceph-12.2.12+git.1568024032.02236657ca-2.39.1",
        "RelatesToProductReference": "SUSE Linux Enterprise Desktop 12 SP4",
        "RelationType": "Default Component Of"
      },
      {
        "ProductReference": "ceph-common-12.2.12+git.1568024032.02236657ca-2.39.1",
        "RelatesToProductReference": "SUSE Linux Enterprise Desktop 12 SP4",
        "RelationType": "Default Component Of"
      },
      {
        "ProductReference": "libcephfs2-12.2.12+git.1568024032.02236657ca-2.39.1",
        "RelatesToProductReference": "SUSE Linux Enterprise Desktop 12 SP4",
        "RelationType": "Default Component Of"
      },
      {
        "ProductReference": "librados2-12.2.12+git.1568024032.02236657ca-2.39.1",
        "RelatesToProductReference": "SUSE Linux Enterprise Desktop 12 SP4",
        "RelationType": "Default Component Of"
      },
      {
        "ProductReference": "libradosstriper1-12.2.12+git.1568024032.02236657ca-2.39.1",
        "RelatesToProductReference": "SUSE Linux Enterprise Desktop 12 SP4",
        "RelationType": "Default Component Of"
      },
      {
        "ProductReference": "librbd1-12.2.12+git.1568024032.02236657ca-2.39.1",
        "RelatesToProductReference": "SUSE Linux Enterprise Desktop 12 SP4",
        "RelationType": "Default Component Of"
      },
      {
        "ProductReference": "librgw2-12.2.12+git.1568024032.02236657ca-2.39.1",
        "RelatesToProductReference": "SUSE Linux Enterprise Desktop 12 SP4",
        "RelationType": "Default Component Of"
      },
      {
        "ProductReference": "python-cephfs-12.2.12+git.1568024032.02236657ca-2.39.1",
        "RelatesToProductReference": "SUSE Linux Enterprise Desktop 12 SP4",
        "RelationType": "Default Component Of"
      },
      {
        "ProductReference": "python-rados-12.2.12+git.1568024032.02236657ca-2.39.1",
        "RelatesToProductReference": "SUSE Linux Enterprise Desktop 12 SP4",
        "RelationType": "Default Component Of"
      },
      {
        "ProductReference": "python-rbd-12.2.12+git.1568024032.02236657ca-2.39.1",
        "RelatesToProductReference": "SUSE Linux Enterprise Desktop 12 SP4",
        "RelationType": "Default Component Of"
      },
      {
        "ProductReference": "python-rgw-12.2.12+git.1568024032.02236657ca-2.39.1",
        "RelatesToProductReference": "SUSE Linux Enterprise Desktop 12 SP4",
        "RelationType": "Default Component Of"
      },
      {
        "ProductReference": "ceph-12.2.12+git.1568024032.02236657ca-2.39.1",
        "RelatesToProductReference": "SUSE Linux Enterprise Software Development Kit 12 SP4",
        "RelationType": "Default Component Of"
      },
      {
        "ProductReference": "libcephfs-devel-12.2.12+git.1568024032.02236657ca-2.39.1",
        "RelatesToProductReference": "SUSE Linux Enterprise Software Development Kit 12 SP4",
        "RelationType": "Default Component Of"
      },
      {
        "ProductReference": "librados-devel-12.2.12+git.1568024032.02236657ca-2.39.1",
        "RelatesToProductReference": "SUSE Linux Enterprise Software Development Kit 12 SP4",
        "RelationType": "Default Component Of"
      },
      {
        "ProductReference": "librbd-devel-12.2.12+git.1568024032.02236657ca-2.39.1",
        "RelatesToProductReference": "SUSE Linux Enterprise Software Development Kit 12 SP4",
        "RelationType": "Default Component Of"
      },
      {
        "ProductReference": "ceph-12.2.12+git.1568024032.02236657ca-2.39.1",
        "RelatesToProductReference": "SUSE Linux Enterprise Server 12 SP4",
        "RelationType": "Default Component Of"
      },
      {
        "ProductReference": "ceph-common-12.2.12+git.1568024032.02236657ca-2.39.1",
        "RelatesToProductReference": "SUSE Linux Enterprise Server 12 SP4",
        "RelationType": "Default Component Of"
      },
      {
        "ProductReference": "libcephfs2-12.2.12+git.1568024032.02236657ca-2.39.1",
        "RelatesToProductReference": "SUSE Linux Enterprise Server 12 SP4",
        "RelationType": "Default Component Of"
      },
      {
        "ProductReference": "librados2-12.2.12+git.1568024032.02236657ca-2.39.1",
        "RelatesToProductReference": "SUSE Linux Enterprise Server 12 SP4",
        "RelationType": "Default Component Of"
      },
      {
        "ProductReference": "libradosstriper1-12.2.12+git.1568024032.02236657ca-2.39.1",
        "RelatesToProductReference": "SUSE Linux Enterprise Server 12 SP4",
        "RelationType": "Default Component Of"
      },
      {
        "ProductReference": "librbd1-12.2.12+git.1568024032.02236657ca-2.39.1",
        "RelatesToProductReference": "SUSE Linux Enterprise Server 12 SP4",
        "RelationType": "Default Component Of"
      },
      {
        "ProductReference": "librgw2-12.2.12+git.1568024032.02236657ca-2.39.1",
        "RelatesToProductReference": "SUSE Linux Enterprise Server 12 SP4",
        "RelationType": "Default Component Of"
      },
      {
        "ProductReference": "python-cephfs-12.2.12+git.1568024032.02236657ca-2.39.1",
        "RelatesToProductReference": "SUSE Linux Enterprise Server 12 SP4",
        "RelationType": "Default Component Of"
      },
      {
        "ProductReference": "python-rados-12.2.12+git.1568024032.02236657ca-2.39.1",
        "RelatesToProductReference": "SUSE Linux Enterprise Server 12 SP4",
        "RelationType": "Default Component Of"
      },
      {
        "ProductReference": "python-rbd-12.2.12+git.1568024032.02236657ca-2.39.1",
        "RelatesToProductReference": "SUSE Linux Enterprise Server 12 SP4",
        "RelationType": "Default Component Of"
      },
      {
        "ProductReference": "python-rgw-12.2.12+git.1568024032.02236657ca-2.39.1",
        "RelatesToProductReference": "SUSE Linux Enterprise Server 12 SP4",
        "RelationType": "Default Component Of"
      },
      {
        "ProductReference": "ceph-12.2.12+git.1568024032.02236657ca-2.39.1",
        "RelatesToProductReference": "SUSE Linux Enterprise Server for SAP Applications 12 SP4",
        "RelationType": "Default Component Of"
      },
      {
        "ProductReference": "ceph-common-12.2.12+git.1568024032.02236657ca-2.39.1",
        "RelatesToProductReference": "SUSE Linux Enterprise Server for SAP Applications 12 SP4",
        "RelationType": "Default Component Of"
      },
      {
        "ProductReference": "libcephfs2-12.2.12+git.1568024032.02236657ca-2.39.1",
        "RelatesToProductReference": "SUSE Linux Enterprise Server for SAP Applications 12 SP4",
        "RelationType": "Default Component Of"
      },
      {
        "ProductReference": "librados2-12.2.12+git.1568024032.02236657ca-2.39.1",
        "RelatesToProductReference": "SUSE Linux Enterprise Server for SAP Applications 12 SP4",
        "RelationType": "Default Component Of"
      },
      {
        "ProductReference": "libradosstriper1-12.2.12+git.1568024032.02236657ca-2.39.1",
        "RelatesToProductReference": "SUSE Linux Enterprise Server for SAP Applications 12 SP4",
        "RelationType": "Default Component Of"
      },
      {
        "ProductReference": "librbd1-12.2.12+git.1568024032.02236657ca-2.39.1",
        "RelatesToProductReference": "SUSE Linux Enterprise Server for SAP Applications 12 SP4",
        "RelationType": "Default Component Of"
      },
      {
        "ProductReference": "librgw2-12.2.12+git.1568024032.02236657ca-2.39.1",
        "RelatesToProductReference": "SUSE Linux Enterprise Server for SAP Applications 12 SP4",
        "RelationType": "Default Component Of"
      },
      {
        "ProductReference": "python-cephfs-12.2.12+git.1568024032.02236657ca-2.39.1",
        "RelatesToProductReference": "SUSE Linux Enterprise Server for SAP Applications 12 SP4",
        "RelationType": "Default Component Of"
      },
      {
        "ProductReference": "python-rados-12.2.12+git.1568024032.02236657ca-2.39.1",
        "RelatesToProductReference": "SUSE Linux Enterprise Server for SAP Applications 12 SP4",
        "RelationType": "Default Component Of"
      },
      {
        "ProductReference": "python-rbd-12.2.12+git.1568024032.02236657ca-2.39.1",
        "RelatesToProductReference": "SUSE Linux Enterprise Server for SAP Applications 12 SP4",
        "RelationType": "Default Component Of"
      },
      {
        "ProductReference": "python-rgw-12.2.12+git.1568024032.02236657ca-2.39.1",
        "RelatesToProductReference": "SUSE Linux Enterprise Server for SAP Applications 12 SP4",
        "RelationType": "Default Component Of"
      },
      {
        "ProductReference": "ceph-12.2.12+git.1568024032.02236657ca-2.39.1",
        "RelatesToProductReference": "SUSE Enterprise Storage 5",
        "RelationType": "Default Component Of"
      },
      {
        "ProductReference": "ceph-base-12.2.12+git.1568024032.02236657ca-2.39.1",
        "RelatesToProductReference": "SUSE Enterprise Storage 5",
        "RelationType": "Default Component Of"
      },
      {
        "ProductReference": "ceph-common-12.2.12+git.1568024032.02236657ca-2.39.1",
        "RelatesToProductReference": "SUSE Enterprise Storage 5",
        "RelationType": "Default Component Of"
      },
      {
        "ProductReference": "ceph-fuse-12.2.12+git.1568024032.02236657ca-2.39.1",
        "RelatesToProductReference": "SUSE Enterprise Storage 5",
        "RelationType": "Default Component Of"
      },
      {
        "ProductReference": "ceph-mds-12.2.12+git.1568024032.02236657ca-2.39.1",
        "RelatesToProductReference": "SUSE Enterprise Storage 5",
        "RelationType": "Default Component Of"
      },
      {
        "ProductReference": "ceph-mgr-12.2.12+git.1568024032.02236657ca-2.39.1",
        "RelatesToProductReference": "SUSE Enterprise Storage 5",
        "RelationType": "Default Component Of"
      },
      {
        "ProductReference": "ceph-mon-12.2.12+git.1568024032.02236657ca-2.39.1",
        "RelatesToProductReference": "SUSE Enterprise Storage 5",
        "RelationType": "Default Component Of"
      },
      {
        "ProductReference": "ceph-osd-12.2.12+git.1568024032.02236657ca-2.39.1",
        "RelatesToProductReference": "SUSE Enterprise Storage 5",
        "RelationType": "Default Component Of"
      },
      {
        "ProductReference": "ceph-radosgw-12.2.12+git.1568024032.02236657ca-2.39.1",
        "RelatesToProductReference": "SUSE Enterprise Storage 5",
        "RelationType": "Default Component Of"
      },
      {
        "ProductReference": "libcephfs2-12.2.12+git.1568024032.02236657ca-2.39.1",
        "RelatesToProductReference": "SUSE Enterprise Storage 5",
        "RelationType": "Default Component Of"
      },
      {
        "ProductReference": "librados2-12.2.12+git.1568024032.02236657ca-2.39.1",
        "RelatesToProductReference": "SUSE Enterprise Storage 5",
        "RelationType": "Default Component Of"
      },
      {
        "ProductReference": "libradosstriper1-12.2.12+git.1568024032.02236657ca-2.39.1",
        "RelatesToProductReference": "SUSE Enterprise Storage 5",
        "RelationType": "Default Component Of"
      },
      {
        "ProductReference": "librbd1-12.2.12+git.1568024032.02236657ca-2.39.1",
        "RelatesToProductReference": "SUSE Enterprise Storage 5",
        "RelationType": "Default Component Of"
      },
      {
        "ProductReference": "librgw2-12.2.12+git.1568024032.02236657ca-2.39.1",
        "RelatesToProductReference": "SUSE Enterprise Storage 5",
        "RelationType": "Default Component Of"
      },
      {
        "ProductReference": "python-ceph-compat-12.2.12+git.1568024032.02236657ca-2.39.1",
        "RelatesToProductReference": "SUSE Enterprise Storage 5",
        "RelationType": "Default Component Of"
      },
      {
        "ProductReference": "python-cephfs-12.2.12+git.1568024032.02236657ca-2.39.1",
        "RelatesToProductReference": "SUSE Enterprise Storage 5",
        "RelationType": "Default Component Of"
      },
      {
        "ProductReference": "python-rados-12.2.12+git.1568024032.02236657ca-2.39.1",
        "RelatesToProductReference": "SUSE Enterprise Storage 5",
        "RelationType": "Default Component Of"
      },
      {
        "ProductReference": "python-rbd-12.2.12+git.1568024032.02236657ca-2.39.1",
        "RelatesToProductReference": "SUSE Enterprise Storage 5",
        "RelationType": "Default Component Of"
      },
      {
        "ProductReference": "python-rgw-12.2.12+git.1568024032.02236657ca-2.39.1",
        "RelatesToProductReference": "SUSE Enterprise Storage 5",
        "RelationType": "Default Component Of"
      },
      {
        "ProductReference": "python3-ceph-argparse-12.2.12+git.1568024032.02236657ca-2.39.1",
        "RelatesToProductReference": "SUSE Enterprise Storage 5",
        "RelationType": "Default Component Of"
      },
      {
        "ProductReference": "python3-cephfs-12.2.12+git.1568024032.02236657ca-2.39.1",
        "RelatesToProductReference": "SUSE Enterprise Storage 5",
        "RelationType": "Default Component Of"
      },
      {
        "ProductReference": "python3-rados-12.2.12+git.1568024032.02236657ca-2.39.1",
        "RelatesToProductReference": "SUSE Enterprise Storage 5",
        "RelationType": "Default Component Of"
      },
      {
        "ProductReference": "python3-rbd-12.2.12+git.1568024032.02236657ca-2.39.1",
        "RelatesToProductReference": "SUSE Enterprise Storage 5",
        "RelationType": "Default Component Of"
      },
      {
        "ProductReference": "python3-rgw-12.2.12+git.1568024032.02236657ca-2.39.1",
        "RelatesToProductReference": "SUSE Enterprise Storage 5",
        "RelationType": "Default Component Of"
      },
      {
        "ProductReference": "rbd-fuse-12.2.12+git.1568024032.02236657ca-2.39.1",
        "RelatesToProductReference": "SUSE Enterprise Storage 5",
        "RelationType": "Default Component Of"
      },
      {
        "ProductReference": "rbd-mirror-12.2.12+git.1568024032.02236657ca-2.39.1",
        "RelatesToProductReference": "SUSE Enterprise Storage 5",
        "RelationType": "Default Component Of"
      },
      {
        "ProductReference": "rbd-nbd-12.2.12+git.1568024032.02236657ca-2.39.1",
        "RelatesToProductReference": "SUSE Enterprise Storage 5",
        "RelationType": "Default Component Of"
      }
    ]
  },
  "References": [
    {
      "URL": "https://www.suse.com/support/update/announcement/2019/suse-su-20192364-1/",
      "Description": "Link for SUSE-SU-2019:2364-1"
    },
    {
      "URL": "http://lists.suse.com/pipermail/sle-security-updates/2019-September/005910.html",
      "Description": "E-Mail link for SUSE-SU-2019:2364-1"
    },
    {
      "URL": "https://www.suse.com/support/security/rating/",
      "Description": "SUSE Security Ratings"
    }
  ],
  "Vulnerabilities": [
    {
      "CVE": "CVE-2018-16889",
      "Description": "Ceph does not properly sanitize encryption keys in debug logging for v4 auth. This results in the leaking of encryption key information in log files via plaintext. Versions up to v13.2.4 are vulnerable.",
      "Threats": [
        {
          "Type": "Impact",
          "Severity": "moderate"
        }
      ],
      "References": [
        {
          "URL": "https://www.suse.com/security/cve/CVE-2018-16889.html",
          "Description": "CVE-2018-16889"
        },
        {
          "URL": "https://bugzilla.suse.com/1121567",
          "Description": "SUSE Bug 1121567"
        }
      ],
      "ProductStatuses": [
        {
          "Type": "Fixed",
          "ProductID": [
            "SUSE Enterprise Storage 5:ceph-12.2.12+git.1568024032.02236657ca-2.39.1",
            "SUSE Enterprise Storage 5:ceph-base-12.2.12+git.1568024032.02236657ca-2.39.1",
            "SUSE Enterprise Storage 5:ceph-common-12.2.12+git.1568024032.02236657ca-2.39.1",
            "SUSE Enterprise Storage 5:ceph-fuse-12.2.12+git.1568024032.02236657ca-2.39.1",
            "SUSE Enterprise Storage 5:ceph-mds-12.2.12+git.1568024032.02236657ca-2.39.1",
            "SUSE Enterprise Storage 5:ceph-mgr-12.2.12+git.1568024032.02236657ca-2.39.1",
            "SUSE Enterprise Storage 5:ceph-mon-12.2.12+git.1568024032.02236657ca-2.39.1",
            "SUSE Enterprise Storage 5:ceph-osd-12.2.12+git.1568024032.02236657ca-2.39.1",
            "SUSE Enterprise Storage 5:ceph-radosgw-12.2.12+git.1568024032.02236657ca-2.39.1",
            "SUSE Enterprise Storage 5:libcephfs2-12.2.12+git.1568024032.02236657ca-2.39.1",
            "SUSE Enterprise Storage 5:librados2-12.2.12+git.1568024032.02236657ca-2.39.1",
            "SUSE Enterprise Storage 5:libradosstriper1-12.2.12+git.1568024032.02236657ca-2.39.1",
            "SUSE Enterprise Storage 5:librbd1-12.2.12+git.1568024032.02236657ca-2.39.1",
            "SUSE Enterprise Storage 5:librgw2-12.2.12+git.1568024032.02236657ca-2.39.1",
            "SUSE Enterprise Storage 5:python-ceph-compat-12.2.12+git.1568024032.02236657ca-2.39.1",
            "SUSE Enterprise Storage 5:python-cephfs-12.2.12+git.1568024032.02236657ca-2.39.1",
            "SUSE Enterprise Storage 5:python-rados-12.2.12+git.1568024032.02236657ca-2.39.1",
            "SUSE Enterprise Storage 5:python-rbd-12.2.12+git.1568024032.02236657ca-2.39.1",
            "SUSE Enterprise Storage 5:python-rgw-12.2.12+git.1568024032.02236657ca-2.39.1",
            "SUSE Enterprise Storage 5:python3-ceph-argparse-12.2.12+git.1568024032.02236657ca-2.39.1",
            "SUSE Enterprise Storage 5:python3-cephfs-12.2.12+git.1568024032.02236657ca-2.39.1",
            "SUSE Enterprise Storage 5:python3-rados-12.2.12+git.1568024032.02236657ca-2.39.1",
            "SUSE Enterprise Storage 5:python3-rbd-12.2.12+git.1568024032.02236657ca-2.39.1",
            "SUSE Enterprise Storage 5:python3-rgw-12.2.12+git.1568024032.02236657ca-2.39.1",
            "SUSE Enterprise Storage 5:rbd-fuse-12.2.12+git.1568024032.02236657ca-2.39.1",
            "SUSE Enterprise Storage 5:rbd-mirror-12.2.12+git.1568024032.02236657ca-2.39.1",
            "SUSE Enterprise Storage 5:rbd-nbd-12.2.12+git.1568024032.02236657ca-2.39.1",
            "SUSE Linux Enterprise Desktop 12 SP4:ceph-12.2.12+git.1568024032.02236657ca-2.39.1",
            "SUSE Linux Enterprise Desktop 12 SP4:ceph-common-12.2.12+git.1568024032.02236657ca-2.39.1",
            "SUSE Linux Enterprise Desktop 12 SP4:libcephfs2-12.2.12+git.1568024032.02236657ca-2.39.1",
            "SUSE Linux Enterprise Desktop 12 SP4:librados2-12.2.12+git.1568024032.02236657ca-2.39.1",
            "SUSE Linux Enterprise Desktop 12 SP4:libradosstriper1-12.2.12+git.1568024032.02236657ca-2.39.1",
            "SUSE Linux Enterprise Desktop 12 SP4:librbd1-12.2.12+git.1568024032.02236657ca-2.39.1",
            "SUSE Linux Enterprise Desktop 12 SP4:librgw2-12.2.12+git.1568024032.02236657ca-2.39.1",
            "SUSE Linux Enterprise Desktop 12 SP4:python-cephfs-12.2.12+git.1568024032.02236657ca-2.39.1",
            "SUSE Linux Enterprise Desktop 12 SP4:python-rados-12.2.12+git.1568024032.02236657ca-2.39.1",
            "SUSE Linux Enterprise Desktop 12 SP4:python-rbd-12.2.12+git.1568024032.02236657ca-2.39.1",
            "SUSE Linux Enterprise Desktop 12 SP4:python-rgw-12.2.12+git.1568024032.02236657ca-2.39.1",
            "SUSE Linux Enterprise Server 12 SP4:ceph-12.2.12+git.1568024032.02236657ca-2.39.1",
            "SUSE Linux Enterprise Server 12 SP4:ceph-common-12.2.12+git.1568024032.02236657ca-2.39.1",
            "SUSE Linux Enterprise Server 12 SP4:libcephfs2-12.2.12+git.1568024032.02236657ca-2.39.1",
            "SUSE Linux Enterprise Server 12 SP4:librados2-12.2.12+git.1568024032.02236657ca-2.39.1",
            "SUSE Linux Enterprise Server 12 SP4:libradosstriper1-12.2.12+git.1568024032.02236657ca-2.39.1",
            "SUSE Linux Enterprise Server 12 SP4:librbd1-12.2.12+git.1568024032.02236657ca-2.39.1",
            "SUSE Linux Enterprise Server 12 SP4:librgw2-12.2.12+git.1568024032.02236657ca-2.39.1",
            "SUSE Linux Enterprise Server 12 SP4:python-cephfs-12.2.12+git.1568024032.02236657ca-2.39.1",
            "SUSE Linux Enterprise Server 12 SP4:python-rados-12.2.12+git.1568024032.02236657ca-2.39.1",
            "SUSE Linux Enterprise Server 12 SP4:python-rbd-12.2.12+git.1568024032.02236657ca-2.39.1",
            "SUSE Linux Enterprise Server 12 SP4:python-rgw-12.2.12+git.1568024032.02236657ca-2.39.1",
            "SUSE Linux Enterprise Server for SAP Applications 12 SP4:ceph-12.2.12+git.1568024032.02236657ca-2.39.1",
            "SUSE Linux Enterprise Server for SAP Applications 12 SP4:ceph-common-12.2.12+git.1568024032.02236657ca-2.39.1",
            "SUSE Linux Enterprise Server for SAP Applications 12 SP4:libcephfs2-12.2.12+git.1568024032.02236657ca-2.39.1",
            "SUSE Linux Enterprise Server for SAP Applications 12 SP4:librados2-12.2.12+git.1568024032.02236657ca-2.39.1",
            "SUSE Linux Enterprise Server for SAP Applications 12 SP4:libradosstriper1-12.2.12+git.1568024032.02236657ca-2.39.1",
            "SUSE Linux Enterprise Server for SAP Applications 12 SP4:librbd1-12.2.12+git.1568024032.02236657ca-2.39.1",
            "SUSE Linux Enterprise Server for SAP Applications 12 SP4:librgw2-12.2.12+git.1568024032.02236657ca-2.39.1",
            "SUSE Linux Enterprise Server for SAP Applications 12 SP4:python-cephfs-12.2.12+git.1568024032.02236657ca-2.39.1",
            "SUSE Linux Enterprise Server for SAP Applications 12 SP4:python-rados-12.2.12+git.1568024032.02236657ca-2.39.1",
            "SUSE Linux Enterprise Server for SAP Applications 12 SP4:python-rbd-12.2.12+git.1568024032.02236657ca-2.39.1",
            "SUSE Linux Enterprise Server for SAP Applications 12 SP4:python-rgw-12.2.12+git.1568024032.02236657ca-2.39.1",
            "SUSE Linux Enterprise Software Development Kit 12 SP4:ceph-12.2.12+git.1568024032.02236657ca-2.39.1",
            "SUSE Linux Enterprise Software Development Kit 12 SP4:libcephfs-devel-12.2.12+git.1568024032.02236657ca-2.39.1",
            "SUSE Linux Enterprise Software Development Kit 12 SP4:librados-devel-12.2.12+git.1568024032.02236657ca-2.39.1",
            "SUSE Linux Enterprise Software Development Kit 12 SP4:librbd-devel-12.2.12+git.1568024032.02236657ca-2.39.1"
          ]
        }
      ],
      "CVSSScoreSets": {}
    }
  ]
}