{
  "Title": "Security update for mariadb",
  "Tracking": {
    "ID": "SUSE-SU-2019:0119-1",
    "Status": "Final",
    "Version": "1",
    "InitialReleaseDate": "2019-01-18T10:53:17Z",
    "CurrentReleaseDate": "2019-01-18T10:53:17Z",
    "RevisionHistory": [
      {
        "Number": "1",
        "Date": "2019-01-18T10:53:17Z",
        "Description": "current"
      }
    ]
  },
  "Notes": [
    {
      "Text": "Security update for mariadb",
      "Title": "Topic",
      "Type": "Summary"
    },
    {
      "Text": "This update for mariadb to version 10.2.19 fixes the following issues: (bsc#1116686)\n\nSecurity issues fixed:\n\n- CVE-2016-9843: Big-endian out-of-bounds pointer (bsc#1013882)\n- CVE-2018-3282, CVE-2018-3174, CVE-2018-3143, CVE-2018-3156, \n  CVE-2018-3251, CVE-2018-3185, CVE-2018-3277, CVE-2018-3162, \n  CVE-2018-3173, CVE-2018-3200, CVE-2018-3284:\n            Fixed multiple denial of service vulnerabilities \n  (bsc#1112432, bsc#1112368, bsc#1112421, bsc#1112417, \n   bsc#1112397, bsc#1112391, bsc#1112415, bsc#1112386,\n   bsc#1112404, bsc#1112377, bsc#1112384)\n\nNon-security issues fixed:\n\n- Fixed database corruption after renaming a prefix-indexed column (bsc#1120041)\n- Remove PerconaFT from the package as it has a AGPL license (bsc#1118754)\n- Enable testing for client plugins (bsc#1111859)\n- Improve test coverage by keeping debug_key_management.so (bsc#1111858)\n  ",
      "Title": "Details",
      "Type": "General"
    },
    {
      "Text": "The CVRF data is provided by SUSE under the Creative Commons License 4.0 with Attribution for Non-Commercial usage (CC-BY-NC-4.0).",
      "Title": "Terms of Use",
      "Type": "Legal Disclaimer"
    }
  ],
  "ProductTree": {
    "Relationships": [
      {
        "ProductReference": "mariadb-10.2.21-3.7.1",
        "RelatesToProductReference": "SUSE Linux Enterprise Desktop 12 SP4",
        "RelationType": "Default Component Of"
      },
      {
        "ProductReference": "mariadb-client-10.2.21-3.7.1",
        "RelatesToProductReference": "SUSE Linux Enterprise Desktop 12 SP4",
        "RelationType": "Default Component Of"
      },
      {
        "ProductReference": "mariadb-errormessages-10.2.21-3.7.1",
        "RelatesToProductReference": "SUSE Linux Enterprise Desktop 12 SP4",
        "RelationType": "Default Component Of"
      },
      {
        "ProductReference": "mariadb-10.2.21-3.7.1",
        "RelatesToProductReference": "SUSE Linux Enterprise Server 12 SP4",
        "RelationType": "Default Component Of"
      },
      {
        "ProductReference": "mariadb-client-10.2.21-3.7.1",
        "RelatesToProductReference": "SUSE Linux Enterprise Server 12 SP4",
        "RelationType": "Default Component Of"
      },
      {
        "ProductReference": "mariadb-errormessages-10.2.21-3.7.1",
        "RelatesToProductReference": "SUSE Linux Enterprise Server 12 SP4",
        "RelationType": "Default Component Of"
      },
      {
        "ProductReference": "mariadb-tools-10.2.21-3.7.1",
        "RelatesToProductReference": "SUSE Linux Enterprise Server 12 SP4",
        "RelationType": "Default Component Of"
      },
      {
        "ProductReference": "mariadb-10.2.21-3.7.1",
        "RelatesToProductReference": "SUSE Linux Enterprise Server for SAP Applications 12 SP4",
        "RelationType": "Default Component Of"
      },
      {
        "ProductReference": "mariadb-client-10.2.21-3.7.1",
        "RelatesToProductReference": "SUSE Linux Enterprise Server for SAP Applications 12 SP4",
        "RelationType": "Default Component Of"
      },
      {
        "ProductReference": "mariadb-errormessages-10.2.21-3.7.1",
        "RelatesToProductReference": "SUSE Linux Enterprise Server for SAP Applications 12 SP4",
        "RelationType": "Default Component Of"
      },
      {
        "ProductReference": "mariadb-tools-10.2.21-3.7.1",
        "RelatesToProductReference": "SUSE Linux Enterprise Server for SAP Applications 12 SP4",
        "RelationType": "Default Component Of"
      }
    ]
  },
  "References": [
    {
      "URL": "https://www.suse.com/support/update/announcement/2019/suse-su-20190119-1/",
      "Description": "Link for SUSE-SU-2019:0119-1"
    },
    {
      "URL": "http://lists.suse.com/pipermail/sle-security-updates/2019-January/005041.html",
      "Description": "E-Mail link for SUSE-SU-2019:0119-1"
    },
    {
      "URL": "https://www.suse.com/support/security/rating/",
      "Description": "SUSE Security Ratings"
    }
  ],
  "Vulnerabilities": [
    {
      "CVE": "CVE-2016-9843",
      "Description": "The crc32_big function in crc32.c in zlib 1.2.8 might allow context-dependent attackers to have unspecified impact via vectors involving big-endian CRC calculation.",
      "Threats": [
        {
          "Type": "Impact",
          "Severity": "moderate"
        }
      ],
      "References": [
        {
          "URL": "https://www.suse.com/security/cve/CVE-2016-9843.html",
          "Description": "CVE-2016-9843"
        },
        {
          "URL": "https://bugzilla.suse.com/1003580",
          "Description": "SUSE Bug 1003580"
        },
        {
          "URL": "https://bugzilla.suse.com/1013882",
          "Description": "SUSE Bug 1013882"
        },
        {
          "URL": "https://bugzilla.suse.com/1038505",
          "Description": "SUSE Bug 1038505"
        },
        {
          "URL": "https://bugzilla.suse.com/1116686",
          "Description": "SUSE Bug 1116686"
        },
        {
          "URL": "https://bugzilla.suse.com/1120866",
          "Description": "SUSE Bug 1120866"
        },
        {
          "URL": "https://bugzilla.suse.com/1123150",
          "Description": "SUSE Bug 1123150"
        }
      ],
      "ProductStatuses": [
        {
          "Type": "Fixed",
          "ProductID": [
            "SUSE Linux Enterprise Desktop 12 SP4:mariadb-10.2.21-3.7.1",
            "SUSE Linux Enterprise Desktop 12 SP4:mariadb-client-10.2.21-3.7.1",
            "SUSE Linux Enterprise Desktop 12 SP4:mariadb-errormessages-10.2.21-3.7.1",
            "SUSE Linux Enterprise Server 12 SP4:mariadb-10.2.21-3.7.1",
            "SUSE Linux Enterprise Server 12 SP4:mariadb-client-10.2.21-3.7.1",
            "SUSE Linux Enterprise Server 12 SP4:mariadb-errormessages-10.2.21-3.7.1",
            "SUSE Linux Enterprise Server 12 SP4:mariadb-tools-10.2.21-3.7.1",
            "SUSE Linux Enterprise Server for SAP Applications 12 SP4:mariadb-10.2.21-3.7.1",
            "SUSE Linux Enterprise Server for SAP Applications 12 SP4:mariadb-client-10.2.21-3.7.1",
            "SUSE Linux Enterprise Server for SAP Applications 12 SP4:mariadb-errormessages-10.2.21-3.7.1",
            "SUSE Linux Enterprise Server for SAP Applications 12 SP4:mariadb-tools-10.2.21-3.7.1"
          ]
        }
      ],
      "CVSSScoreSets": {
        "BaseScore": "4.6",
        "Vector": "AV:N/AC:H/Au:S/C:P/I:P/A:P"
      }
    },
    {
      "CVE": "CVE-2018-3143",
      "Description": "Vulnerability in the MySQL Server component of Oracle MySQL (subcomponent: InnoDB). Supported versions that are affected are 5.6.41 and prior, 5.7.23 and prior and 8.0.12 and prior. Easily exploitable vulnerability allows low privileged attacker with network access via multiple protocols to compromise MySQL Server. Successful attacks of this vulnerability can result in unauthorized ability to cause a hang or frequently repeatable crash (complete DOS) of MySQL Server. CVSS 3.0 Base Score 6.5 (Availability impacts). CVSS Vector: (CVSS:3.0/AV:N/AC:L/PR:L/UI:N/S:U/C:N/I:N/A:H).",
      "Threats": [
        {
          "Type": "Impact",
          "Severity": "moderate"
        }
      ],
      "References": [
        {
          "URL": "https://www.suse.com/security/cve/CVE-2018-3143.html",
          "Description": "CVE-2018-3143"
        },
        {
          "URL": "https://bugzilla.suse.com/1112421",
          "Description": "SUSE Bug 1112421"
        },
        {
          "URL": "https://bugzilla.suse.com/1116686",
          "Description": "SUSE Bug 1116686"
        }
      ],
      "ProductStatuses": [
        {
          "Type": "Fixed",
          "ProductID": [
            "SUSE Linux Enterprise Desktop 12 SP4:mariadb-10.2.21-3.7.1",
            "SUSE Linux Enterprise Desktop 12 SP4:mariadb-client-10.2.21-3.7.1",
            "SUSE Linux Enterprise Desktop 12 SP4:mariadb-errormessages-10.2.21-3.7.1",
            "SUSE Linux Enterprise Server 12 SP4:mariadb-10.2.21-3.7.1",
            "SUSE Linux Enterprise Server 12 SP4:mariadb-client-10.2.21-3.7.1",
            "SUSE Linux Enterprise Server 12 SP4:mariadb-errormessages-10.2.21-3.7.1",
            "SUSE Linux Enterprise Server 12 SP4:mariadb-tools-10.2.21-3.7.1",
            "SUSE Linux Enterprise Server for SAP Applications 12 SP4:mariadb-10.2.21-3.7.1",
            "SUSE Linux Enterprise Server for SAP Applications 12 SP4:mariadb-client-10.2.21-3.7.1",
            "SUSE Linux Enterprise Server for SAP Applications 12 SP4:mariadb-errormessages-10.2.21-3.7.1",
            "SUSE Linux Enterprise Server for SAP Applications 12 SP4:mariadb-tools-10.2.21-3.7.1"
          ]
        }
      ],
      "CVSSScoreSets": {}
    },
    {
      "CVE": "CVE-2018-3156",
      "Description": "Vulnerability in the MySQL Server component of Oracle MySQL (subcomponent: InnoDB). Supported versions that are affected are 5.6.41 and prior, 5.7.23 and prior and 8.0.12 and prior. Easily exploitable vulnerability allows low privileged attacker with network access via multiple protocols to compromise MySQL Server. Successful attacks of this vulnerability can result in unauthorized ability to cause a hang or frequently repeatable crash (complete DOS) of MySQL Server. CVSS 3.0 Base Score 6.5 (Availability impacts). CVSS Vector: (CVSS:3.0/AV:N/AC:L/PR:L/UI:N/S:U/C:N/I:N/A:H).",
      "Threats": [
        {
          "Type": "Impact",
          "Severity": "moderate"
        }
      ],
      "References": [
        {
          "URL": "https://www.suse.com/security/cve/CVE-2018-3156.html",
          "Description": "CVE-2018-3156"
        },
        {
          "URL": "https://bugzilla.suse.com/1112417",
          "Description": "SUSE Bug 1112417"
        },
        {
          "URL": "https://bugzilla.suse.com/1116686",
          "Description": "SUSE Bug 1116686"
        }
      ],
      "ProductStatuses": [
        {
          "Type": "Fixed",
          "ProductID": [
            "SUSE Linux Enterprise Desktop 12 SP4:mariadb-10.2.21-3.7.1",
            "SUSE Linux Enterprise Desktop 12 SP4:mariadb-client-10.2.21-3.7.1",
            "SUSE Linux Enterprise Desktop 12 SP4:mariadb-errormessages-10.2.21-3.7.1",
            "SUSE Linux Enterprise Server 12 SP4:mariadb-10.2.21-3.7.1",
            "SUSE Linux Enterprise Server 12 SP4:mariadb-client-10.2.21-3.7.1",
            "SUSE Linux Enterprise Server 12 SP4:mariadb-errormessages-10.2.21-3.7.1",
            "SUSE Linux Enterprise Server 12 SP4:mariadb-tools-10.2.21-3.7.1",
            "SUSE Linux Enterprise Server for SAP Applications 12 SP4:mariadb-10.2.21-3.7.1",
            "SUSE Linux Enterprise Server for SAP Applications 12 SP4:mariadb-client-10.2.21-3.7.1",
            "SUSE Linux Enterprise Server for SAP Applications 12 SP4:mariadb-errormessages-10.2.21-3.7.1",
            "SUSE Linux Enterprise Server for SAP Applications 12 SP4:mariadb-tools-10.2.21-3.7.1"
          ]
        }
      ],
      "CVSSScoreSets": {}
    },
    {
      "CVE": "CVE-2018-3162",
      "Description": "Vulnerability in the MySQL Server component of Oracle MySQL (subcomponent: InnoDB). Supported versions that are affected are 5.7.23 and prior and 8.0.12 and prior. Easily exploitable vulnerability allows high privileged attacker with network access via multiple protocols to compromise MySQL Server. Successful attacks of this vulnerability can result in unauthorized ability to cause a hang or frequently repeatable crash (complete DOS) of MySQL Server. CVSS 3.0 Base Score 4.9 (Availability impacts). CVSS Vector: (CVSS:3.0/AV:N/AC:L/PR:H/UI:N/S:U/C:N/I:N/A:H).",
      "Threats": [
        {
          "Type": "Impact",
          "Severity": "important"
        }
      ],
      "References": [
        {
          "URL": "https://www.suse.com/security/cve/CVE-2018-3162.html",
          "Description": "CVE-2018-3162"
        },
        {
          "URL": "https://bugzilla.suse.com/1112415",
          "Description": "SUSE Bug 1112415"
        },
        {
          "URL": "https://bugzilla.suse.com/1116686",
          "Description": "SUSE Bug 1116686"
        }
      ],
      "ProductStatuses": [
        {
          "Type": "Fixed",
          "ProductID": [
            "SUSE Linux Enterprise Desktop 12 SP4:mariadb-10.2.21-3.7.1",
            "SUSE Linux Enterprise Desktop 12 SP4:mariadb-client-10.2.21-3.7.1",
            "SUSE Linux Enterprise Desktop 12 SP4:mariadb-errormessages-10.2.21-3.7.1",
            "SUSE Linux Enterprise Server 12 SP4:mariadb-10.2.21-3.7.1",
            "SUSE Linux Enterprise Server 12 SP4:mariadb-client-10.2.21-3.7.1",
            "SUSE Linux Enterprise Server 12 SP4:mariadb-errormessages-10.2.21-3.7.1",
            "SUSE Linux Enterprise Server 12 SP4:mariadb-tools-10.2.21-3.7.1",
            "SUSE Linux Enterprise Server for SAP Applications 12 SP4:mariadb-10.2.21-3.7.1",
            "SUSE Linux Enterprise Server for SAP Applications 12 SP4:mariadb-client-10.2.21-3.7.1",
            "SUSE Linux Enterprise Server for SAP Applications 12 SP4:mariadb-errormessages-10.2.21-3.7.1",
            "SUSE Linux Enterprise Server for SAP Applications 12 SP4:mariadb-tools-10.2.21-3.7.1"
          ]
        }
      ],
      "CVSSScoreSets": {}
    },
    {
      "CVE": "CVE-2018-3173",
      "Description": "Vulnerability in the MySQL Server component of Oracle MySQL (subcomponent: InnoDB). Supported versions that are affected are 5.7.23 and prior and 8.0.12 and prior. Easily exploitable vulnerability allows high privileged attacker with network access via multiple protocols to compromise MySQL Server. Successful attacks of this vulnerability can result in unauthorized ability to cause a hang or frequently repeatable crash (complete DOS) of MySQL Server. CVSS 3.0 Base Score 4.9 (Availability impacts). CVSS Vector: (CVSS:3.0/AV:N/AC:L/PR:H/UI:N/S:U/C:N/I:N/A:H).",
      "Threats": [
        {
          "Type": "Impact",
          "Severity": "important"
        }
      ],
      "References": [
        {
          "URL": "https://www.suse.com/security/cve/CVE-2018-3173.html",
          "Description": "CVE-2018-3173"
        },
        {
          "URL": "https://bugzilla.suse.com/1112386",
          "Description": "SUSE Bug 1112386"
        },
        {
          "URL": "https://bugzilla.suse.com/1116686",
          "Description": "SUSE Bug 1116686"
        }
      ],
      "ProductStatuses": [
        {
          "Type": "Fixed",
          "ProductID": [
            "SUSE Linux Enterprise Desktop 12 SP4:mariadb-10.2.21-3.7.1",
            "SUSE Linux Enterprise Desktop 12 SP4:mariadb-client-10.2.21-3.7.1",
            "SUSE Linux Enterprise Desktop 12 SP4:mariadb-errormessages-10.2.21-3.7.1",
            "SUSE Linux Enterprise Server 12 SP4:mariadb-10.2.21-3.7.1",
            "SUSE Linux Enterprise Server 12 SP4:mariadb-client-10.2.21-3.7.1",
            "SUSE Linux Enterprise Server 12 SP4:mariadb-errormessages-10.2.21-3.7.1",
            "SUSE Linux Enterprise Server 12 SP4:mariadb-tools-10.2.21-3.7.1",
            "SUSE Linux Enterprise Server for SAP Applications 12 SP4:mariadb-10.2.21-3.7.1",
            "SUSE Linux Enterprise Server for SAP Applications 12 SP4:mariadb-client-10.2.21-3.7.1",
            "SUSE Linux Enterprise Server for SAP Applications 12 SP4:mariadb-errormessages-10.2.21-3.7.1",
            "SUSE Linux Enterprise Server for SAP Applications 12 SP4:mariadb-tools-10.2.21-3.7.1"
          ]
        }
      ],
      "CVSSScoreSets": {}
    },
    {
      "CVE": "CVE-2018-3174",
      "Description": "Vulnerability in the MySQL Server component of Oracle MySQL (subcomponent: Client programs). Supported versions that are affected are 5.5.61 and prior, 5.6.41 and prior, 5.7.23 and prior and 8.0.12 and prior. Difficult to exploit vulnerability allows high privileged attacker with logon to the infrastructure where MySQL Server executes to compromise MySQL Server. While the vulnerability is in MySQL Server, attacks may significantly impact additional products. Successful attacks of this vulnerability can result in unauthorized ability to cause a hang or frequently repeatable crash (complete DOS) of MySQL Server. CVSS 3.0 Base Score 5.3 (Availability impacts). CVSS Vector: (CVSS:3.0/AV:L/AC:H/PR:H/UI:N/S:C/C:N/I:N/A:H).",
      "Threats": [
        {
          "Type": "Impact",
          "Severity": "moderate"
        }
      ],
      "References": [
        {
          "URL": "https://www.suse.com/security/cve/CVE-2018-3174.html",
          "Description": "CVE-2018-3174"
        },
        {
          "URL": "https://bugzilla.suse.com/1112368",
          "Description": "SUSE Bug 1112368"
        },
        {
          "URL": "https://bugzilla.suse.com/1116686",
          "Description": "SUSE Bug 1116686"
        }
      ],
      "ProductStatuses": [
        {
          "Type": "Fixed",
          "ProductID": [
            "SUSE Linux Enterprise Desktop 12 SP4:mariadb-10.2.21-3.7.1",
            "SUSE Linux Enterprise Desktop 12 SP4:mariadb-client-10.2.21-3.7.1",
            "SUSE Linux Enterprise Desktop 12 SP4:mariadb-errormessages-10.2.21-3.7.1",
            "SUSE Linux Enterprise Server 12 SP4:mariadb-10.2.21-3.7.1",
            "SUSE Linux Enterprise Server 12 SP4:mariadb-client-10.2.21-3.7.1",
            "SUSE Linux Enterprise Server 12 SP4:mariadb-errormessages-10.2.21-3.7.1",
            "SUSE Linux Enterprise Server 12 SP4:mariadb-tools-10.2.21-3.7.1",
            "SUSE Linux Enterprise Server for SAP Applications 12 SP4:mariadb-10.2.21-3.7.1",
            "SUSE Linux Enterprise Server for SAP Applications 12 SP4:mariadb-client-10.2.21-3.7.1",
            "SUSE Linux Enterprise Server for SAP Applications 12 SP4:mariadb-errormessages-10.2.21-3.7.1",
            "SUSE Linux Enterprise Server for SAP Applications 12 SP4:mariadb-tools-10.2.21-3.7.1"
          ]
        }
      ],
      "CVSSScoreSets": {}
    },
    {
      "CVE": "CVE-2018-3185",
      "Description": "Vulnerability in the MySQL Server component of Oracle MySQL (subcomponent: InnoDB). Supported versions that are affected are 5.7.23 and prior and 8.0.12 and prior. Easily exploitable vulnerability allows high privileged attacker with network access via multiple protocols to compromise MySQL Server. Successful attacks of this vulnerability can result in unauthorized ability to cause a hang or frequently repeatable crash (complete DOS) of MySQL Server as well as unauthorized update, insert or delete access to some of MySQL Server accessible data. CVSS 3.0 Base Score 5.5 (Integrity and Availability impacts). CVSS Vector: (CVSS:3.0/AV:N/AC:L/PR:H/UI:N/S:U/C:N/I:L/A:H).",
      "Threats": [
        {
          "Type": "Impact",
          "Severity": "important"
        }
      ],
      "References": [
        {
          "URL": "https://www.suse.com/security/cve/CVE-2018-3185.html",
          "Description": "CVE-2018-3185"
        },
        {
          "URL": "https://bugzilla.suse.com/1112384",
          "Description": "SUSE Bug 1112384"
        },
        {
          "URL": "https://bugzilla.suse.com/1116686",
          "Description": "SUSE Bug 1116686"
        }
      ],
      "ProductStatuses": [
        {
          "Type": "Fixed",
          "ProductID": [
            "SUSE Linux Enterprise Desktop 12 SP4:mariadb-10.2.21-3.7.1",
            "SUSE Linux Enterprise Desktop 12 SP4:mariadb-client-10.2.21-3.7.1",
            "SUSE Linux Enterprise Desktop 12 SP4:mariadb-errormessages-10.2.21-3.7.1",
            "SUSE Linux Enterprise Server 12 SP4:mariadb-10.2.21-3.7.1",
            "SUSE Linux Enterprise Server 12 SP4:mariadb-client-10.2.21-3.7.1",
            "SUSE Linux Enterprise Server 12 SP4:mariadb-errormessages-10.2.21-3.7.1",
            "SUSE Linux Enterprise Server 12 SP4:mariadb-tools-10.2.21-3.7.1",
            "SUSE Linux Enterprise Server for SAP Applications 12 SP4:mariadb-10.2.21-3.7.1",
            "SUSE Linux Enterprise Server for SAP Applications 12 SP4:mariadb-client-10.2.21-3.7.1",
            "SUSE Linux Enterprise Server for SAP Applications 12 SP4:mariadb-errormessages-10.2.21-3.7.1",
            "SUSE Linux Enterprise Server for SAP Applications 12 SP4:mariadb-tools-10.2.21-3.7.1"
          ]
        }
      ],
      "CVSSScoreSets": {}
    },
    {
      "CVE": "CVE-2018-3200",
      "Description": "Vulnerability in the MySQL Server component of Oracle MySQL (subcomponent: InnoDB). Supported versions that are affected are 5.7.23 and prior and 8.0.12 and prior. Easily exploitable vulnerability allows high privileged attacker with network access via multiple protocols to compromise MySQL Server. Successful attacks of this vulnerability can result in unauthorized ability to cause a hang or frequently repeatable crash (complete DOS) of MySQL Server. CVSS 3.0 Base Score 4.9 (Availability impacts). CVSS Vector: (CVSS:3.0/AV:N/AC:L/PR:H/UI:N/S:U/C:N/I:N/A:H).",
      "Threats": [
        {
          "Type": "Impact",
          "Severity": "important"
        }
      ],
      "References": [
        {
          "URL": "https://www.suse.com/security/cve/CVE-2018-3200.html",
          "Description": "CVE-2018-3200"
        },
        {
          "URL": "https://bugzilla.suse.com/1112404",
          "Description": "SUSE Bug 1112404"
        },
        {
          "URL": "https://bugzilla.suse.com/1116686",
          "Description": "SUSE Bug 1116686"
        }
      ],
      "ProductStatuses": [
        {
          "Type": "Fixed",
          "ProductID": [
            "SUSE Linux Enterprise Desktop 12 SP4:mariadb-10.2.21-3.7.1",
            "SUSE Linux Enterprise Desktop 12 SP4:mariadb-client-10.2.21-3.7.1",
            "SUSE Linux Enterprise Desktop 12 SP4:mariadb-errormessages-10.2.21-3.7.1",
            "SUSE Linux Enterprise Server 12 SP4:mariadb-10.2.21-3.7.1",
            "SUSE Linux Enterprise Server 12 SP4:mariadb-client-10.2.21-3.7.1",
            "SUSE Linux Enterprise Server 12 SP4:mariadb-errormessages-10.2.21-3.7.1",
            "SUSE Linux Enterprise Server 12 SP4:mariadb-tools-10.2.21-3.7.1",
            "SUSE Linux Enterprise Server for SAP Applications 12 SP4:mariadb-10.2.21-3.7.1",
            "SUSE Linux Enterprise Server for SAP Applications 12 SP4:mariadb-client-10.2.21-3.7.1",
            "SUSE Linux Enterprise Server for SAP Applications 12 SP4:mariadb-errormessages-10.2.21-3.7.1",
            "SUSE Linux Enterprise Server for SAP Applications 12 SP4:mariadb-tools-10.2.21-3.7.1"
          ]
        }
      ],
      "CVSSScoreSets": {}
    },
    {
      "CVE": "CVE-2018-3251",
      "Description": "Vulnerability in the MySQL Server component of Oracle MySQL (subcomponent: InnoDB). Supported versions that are affected are 5.6.41 and prior, 5.7.23 and prior and 8.0.12 and prior. Easily exploitable vulnerability allows low privileged attacker with network access via multiple protocols to compromise MySQL Server. Successful attacks of this vulnerability can result in unauthorized ability to cause a hang or frequently repeatable crash (complete DOS) of MySQL Server. CVSS 3.0 Base Score 6.5 (Availability impacts). CVSS Vector: (CVSS:3.0/AV:N/AC:L/PR:L/UI:N/S:U/C:N/I:N/A:H).",
      "Threats": [
        {
          "Type": "Impact",
          "Severity": "moderate"
        }
      ],
      "References": [
        {
          "URL": "https://www.suse.com/security/cve/CVE-2018-3251.html",
          "Description": "CVE-2018-3251"
        },
        {
          "URL": "https://bugzilla.suse.com/1112397",
          "Description": "SUSE Bug 1112397"
        },
        {
          "URL": "https://bugzilla.suse.com/1116686",
          "Description": "SUSE Bug 1116686"
        }
      ],
      "ProductStatuses": [
        {
          "Type": "Fixed",
          "ProductID": [
            "SUSE Linux Enterprise Desktop 12 SP4:mariadb-10.2.21-3.7.1",
            "SUSE Linux Enterprise Desktop 12 SP4:mariadb-client-10.2.21-3.7.1",
            "SUSE Linux Enterprise Desktop 12 SP4:mariadb-errormessages-10.2.21-3.7.1",
            "SUSE Linux Enterprise Server 12 SP4:mariadb-10.2.21-3.7.1",
            "SUSE Linux Enterprise Server 12 SP4:mariadb-client-10.2.21-3.7.1",
            "SUSE Linux Enterprise Server 12 SP4:mariadb-errormessages-10.2.21-3.7.1",
            "SUSE Linux Enterprise Server 12 SP4:mariadb-tools-10.2.21-3.7.1",
            "SUSE Linux Enterprise Server for SAP Applications 12 SP4:mariadb-10.2.21-3.7.1",
            "SUSE Linux Enterprise Server for SAP Applications 12 SP4:mariadb-client-10.2.21-3.7.1",
            "SUSE Linux Enterprise Server for SAP Applications 12 SP4:mariadb-errormessages-10.2.21-3.7.1",
            "SUSE Linux Enterprise Server for SAP Applications 12 SP4:mariadb-tools-10.2.21-3.7.1"
          ]
        }
      ],
      "CVSSScoreSets": {}
    },
    {
      "CVE": "CVE-2018-3277",
      "Description": "Vulnerability in the MySQL Server component of Oracle MySQL (subcomponent: InnoDB). Supported versions that are affected are 5.7.23 and prior and 8.0.12 and prior. Easily exploitable vulnerability allows high privileged attacker with network access via multiple protocols to compromise MySQL Server. Successful attacks of this vulnerability can result in unauthorized ability to cause a hang or frequently repeatable crash (complete DOS) of MySQL Server. CVSS 3.0 Base Score 4.9 (Availability impacts). CVSS Vector: (CVSS:3.0/AV:N/AC:L/PR:H/UI:N/S:U/C:N/I:N/A:H).",
      "Threats": [
        {
          "Type": "Impact",
          "Severity": "important"
        }
      ],
      "References": [
        {
          "URL": "https://www.suse.com/security/cve/CVE-2018-3277.html",
          "Description": "CVE-2018-3277"
        },
        {
          "URL": "https://bugzilla.suse.com/1112391",
          "Description": "SUSE Bug 1112391"
        },
        {
          "URL": "https://bugzilla.suse.com/1116686",
          "Description": "SUSE Bug 1116686"
        }
      ],
      "ProductStatuses": [
        {
          "Type": "Fixed",
          "ProductID": [
            "SUSE Linux Enterprise Desktop 12 SP4:mariadb-10.2.21-3.7.1",
            "SUSE Linux Enterprise Desktop 12 SP4:mariadb-client-10.2.21-3.7.1",
            "SUSE Linux Enterprise Desktop 12 SP4:mariadb-errormessages-10.2.21-3.7.1",
            "SUSE Linux Enterprise Server 12 SP4:mariadb-10.2.21-3.7.1",
            "SUSE Linux Enterprise Server 12 SP4:mariadb-client-10.2.21-3.7.1",
            "SUSE Linux Enterprise Server 12 SP4:mariadb-errormessages-10.2.21-3.7.1",
            "SUSE Linux Enterprise Server 12 SP4:mariadb-tools-10.2.21-3.7.1",
            "SUSE Linux Enterprise Server for SAP Applications 12 SP4:mariadb-10.2.21-3.7.1",
            "SUSE Linux Enterprise Server for SAP Applications 12 SP4:mariadb-client-10.2.21-3.7.1",
            "SUSE Linux Enterprise Server for SAP Applications 12 SP4:mariadb-errormessages-10.2.21-3.7.1",
            "SUSE Linux Enterprise Server for SAP Applications 12 SP4:mariadb-tools-10.2.21-3.7.1"
          ]
        }
      ],
      "CVSSScoreSets": {}
    },
    {
      "CVE": "CVE-2018-3282",
      "Description": "Vulnerability in the MySQL Server component of Oracle MySQL (subcomponent: Server: Storage Engines). Supported versions that are affected are 5.5.61 and prior, 5.6.41 and prior, 5.7.23 and prior and 8.0.12 and prior. Easily exploitable vulnerability allows high privileged attacker with network access via multiple protocols to compromise MySQL Server. Successful attacks of this vulnerability can result in unauthorized ability to cause a hang or frequently repeatable crash (complete DOS) of MySQL Server. CVSS 3.0 Base Score 4.9 (Availability impacts). CVSS Vector: (CVSS:3.0/AV:N/AC:L/PR:H/UI:N/S:U/C:N/I:N/A:H).",
      "Threats": [
        {
          "Type": "Impact",
          "Severity": "moderate"
        }
      ],
      "References": [
        {
          "URL": "https://www.suse.com/security/cve/CVE-2018-3282.html",
          "Description": "CVE-2018-3282"
        },
        {
          "URL": "https://bugzilla.suse.com/1112432",
          "Description": "SUSE Bug 1112432"
        },
        {
          "URL": "https://bugzilla.suse.com/1116686",
          "Description": "SUSE Bug 1116686"
        }
      ],
      "ProductStatuses": [
        {
          "Type": "Fixed",
          "ProductID": [
            "SUSE Linux Enterprise Desktop 12 SP4:mariadb-10.2.21-3.7.1",
            "SUSE Linux Enterprise Desktop 12 SP4:mariadb-client-10.2.21-3.7.1",
            "SUSE Linux Enterprise Desktop 12 SP4:mariadb-errormessages-10.2.21-3.7.1",
            "SUSE Linux Enterprise Server 12 SP4:mariadb-10.2.21-3.7.1",
            "SUSE Linux Enterprise Server 12 SP4:mariadb-client-10.2.21-3.7.1",
            "SUSE Linux Enterprise Server 12 SP4:mariadb-errormessages-10.2.21-3.7.1",
            "SUSE Linux Enterprise Server 12 SP4:mariadb-tools-10.2.21-3.7.1",
            "SUSE Linux Enterprise Server for SAP Applications 12 SP4:mariadb-10.2.21-3.7.1",
            "SUSE Linux Enterprise Server for SAP Applications 12 SP4:mariadb-client-10.2.21-3.7.1",
            "SUSE Linux Enterprise Server for SAP Applications 12 SP4:mariadb-errormessages-10.2.21-3.7.1",
            "SUSE Linux Enterprise Server for SAP Applications 12 SP4:mariadb-tools-10.2.21-3.7.1"
          ]
        }
      ],
      "CVSSScoreSets": {}
    },
    {
      "CVE": "CVE-2018-3284",
      "Description": "Vulnerability in the MySQL Server component of Oracle MySQL (subcomponent: InnoDB). Supported versions that are affected are 5.7.23 and prior and 8.0.12 and prior. Difficult to exploit vulnerability allows high privileged attacker with network access via multiple protocols to compromise MySQL Server. Successful attacks of this vulnerability can result in unauthorized ability to cause a hang or frequently repeatable crash (complete DOS) of MySQL Server. CVSS 3.0 Base Score 4.4 (Availability impacts). CVSS Vector: (CVSS:3.0/AV:N/AC:H/PR:H/UI:N/S:U/C:N/I:N/A:H).",
      "Threats": [
        {
          "Type": "Impact",
          "Severity": "important"
        }
      ],
      "References": [
        {
          "URL": "https://www.suse.com/security/cve/CVE-2018-3284.html",
          "Description": "CVE-2018-3284"
        },
        {
          "URL": "https://bugzilla.suse.com/1112377",
          "Description": "SUSE Bug 1112377"
        },
        {
          "URL": "https://bugzilla.suse.com/1116686",
          "Description": "SUSE Bug 1116686"
        }
      ],
      "ProductStatuses": [
        {
          "Type": "Fixed",
          "ProductID": [
            "SUSE Linux Enterprise Desktop 12 SP4:mariadb-10.2.21-3.7.1",
            "SUSE Linux Enterprise Desktop 12 SP4:mariadb-client-10.2.21-3.7.1",
            "SUSE Linux Enterprise Desktop 12 SP4:mariadb-errormessages-10.2.21-3.7.1",
            "SUSE Linux Enterprise Server 12 SP4:mariadb-10.2.21-3.7.1",
            "SUSE Linux Enterprise Server 12 SP4:mariadb-client-10.2.21-3.7.1",
            "SUSE Linux Enterprise Server 12 SP4:mariadb-errormessages-10.2.21-3.7.1",
            "SUSE Linux Enterprise Server 12 SP4:mariadb-tools-10.2.21-3.7.1",
            "SUSE Linux Enterprise Server for SAP Applications 12 SP4:mariadb-10.2.21-3.7.1",
            "SUSE Linux Enterprise Server for SAP Applications 12 SP4:mariadb-client-10.2.21-3.7.1",
            "SUSE Linux Enterprise Server for SAP Applications 12 SP4:mariadb-errormessages-10.2.21-3.7.1",
            "SUSE Linux Enterprise Server for SAP Applications 12 SP4:mariadb-tools-10.2.21-3.7.1"
          ]
        }
      ],
      "CVSSScoreSets": {}
    }
  ]
}