{
  "Title": "Security update for gnutls",
  "Tracking": {
    "ID": "SUSE-SU-2019:1351-2",
    "Status": "Final",
    "Version": "1",
    "InitialReleaseDate": "2019-05-24T12:41:10Z",
    "CurrentReleaseDate": "2019-05-24T12:41:10Z",
    "RevisionHistory": [
      {
        "Number": "1",
        "Date": "2019-05-24T12:41:10Z",
        "Description": "current"
      }
    ]
  },
  "Notes": [
    {
      "Text": "Security update for gnutls",
      "Title": "Topic",
      "Type": "Summary"
    },
    {
      "Text": "This update for gnutls fixes the following issues:\n\nSecurity issue fixed:\n\n- CVE-2018-16868: Fixed Bleichenbacher-like side channel leakage in PKCS#1 v1.5 verification (bsc#1118087).\n\nNon-security issue fixed:\n\n- Explicitly require libnettle 3.4.1 to prevent missing symbol errors (bsc#1134856).\n",
      "Title": "Details",
      "Type": "General"
    },
    {
      "Text": "The CVRF data is provided by SUSE under the Creative Commons License 4.0 with Attribution for Non-Commercial usage (CC-BY-NC-4.0).",
      "Title": "Terms of Use",
      "Type": "Legal Disclaimer"
    }
  ],
  "ProductTree": {
    "Relationships": [
      {
        "ProductReference": "libgnutls30-3.6.7-6.11.1",
        "RelatesToProductReference": "Container caasp/v4/389-ds:1.4.0",
        "RelationType": "Default Component Of"
      },
      {
        "ProductReference": "libgnutls30-3.6.7-6.11.1",
        "RelatesToProductReference": "Container caasp/v4/busybox:1.26.2",
        "RelationType": "Default Component Of"
      },
      {
        "ProductReference": "libgnutls30-3.6.7-6.11.1",
        "RelatesToProductReference": "Container caasp/v4/caasp-dex:2.16.0",
        "RelationType": "Default Component Of"
      },
      {
        "ProductReference": "libgnutls30-3.6.7-6.11.1",
        "RelatesToProductReference": "Container caasp/v4/caaspctl-tooling:beta",
        "RelationType": "Default Component Of"
      },
      {
        "ProductReference": "libgnutls30-3.6.7-6.11.1",
        "RelatesToProductReference": "Container caasp/v4/cert-exporter:2.3.0",
        "RelationType": "Default Component Of"
      },
      {
        "ProductReference": "libgnutls30-3.6.7-6.11.1",
        "RelatesToProductReference": "Container caasp/v4/cilium-etcd-operator:2.0.5",
        "RelationType": "Default Component Of"
      },
      {
        "ProductReference": "libgnutls30-3.6.7-6.11.1",
        "RelatesToProductReference": "Container caasp/v4/cilium-init:1.5.3",
        "RelationType": "Default Component Of"
      },
      {
        "ProductReference": "libgnutls30-3.6.7-6.11.1",
        "RelatesToProductReference": "Container caasp/v4/cilium-operator:1.6.6",
        "RelationType": "Default Component Of"
      },
      {
        "ProductReference": "libgnutls30-3.6.7-6.11.1",
        "RelatesToProductReference": "Container caasp/v4/cilium:1.6.6",
        "RelationType": "Default Component Of"
      },
      {
        "ProductReference": "libgnutls30-3.6.7-6.11.1",
        "RelatesToProductReference": "Container caasp/v4/cloud-provider-openstack:1.15.0",
        "RelationType": "Default Component Of"
      },
      {
        "ProductReference": "libgnutls30-3.6.7-6.11.1",
        "RelatesToProductReference": "Container caasp/v4/configmap-reload:0.3.0",
        "RelationType": "Default Component Of"
      },
      {
        "ProductReference": "libgnutls30-3.6.7-6.11.1",
        "RelatesToProductReference": "Container caasp/v4/coredns:1.6.5",
        "RelationType": "Default Component Of"
      },
      {
        "ProductReference": "libgnutls30-3.6.7-6.11.1",
        "RelatesToProductReference": "Container caasp/v4/curl:7.60.0",
        "RelationType": "Default Component Of"
      },
      {
        "ProductReference": "libgnutls30-3.6.7-6.11.1",
        "RelatesToProductReference": "Container caasp/v4/etcd:3.4.3",
        "RelationType": "Default Component Of"
      },
      {
        "ProductReference": "libgnutls30-3.6.7-6.11.1",
        "RelatesToProductReference": "Container caasp/v4/gangway:3.1.0",
        "RelationType": "Default Component Of"
      },
      {
        "ProductReference": "libgnutls30-3.6.7-6.11.1",
        "RelatesToProductReference": "Container caasp/v4/grafana:6.2.5",
        "RelationType": "Default Component Of"
      },
      {
        "ProductReference": "libgnutls30-3.6.7-6.11.1",
        "RelatesToProductReference": "Container caasp/v4/helm-tiller:2.16.1",
        "RelationType": "Default Component Of"
      },
      {
        "ProductReference": "libgnutls30-3.6.7-6.11.1",
        "RelatesToProductReference": "Container caasp/v4/hyperkube:v1.17.4",
        "RelationType": "Default Component Of"
      },
      {
        "ProductReference": "libgnutls30-3.6.7-6.11.1",
        "RelatesToProductReference": "Container caasp/v4/k8s-sidecar:0.1.75",
        "RelationType": "Default Component Of"
      },
      {
        "ProductReference": "libgnutls30-3.6.7-6.11.1",
        "RelatesToProductReference": "Container caasp/v4/kube-state-metrics:1.9.3",
        "RelationType": "Default Component Of"
      },
      {
        "ProductReference": "libgnutls30-3.6.7-6.11.1",
        "RelatesToProductReference": "Container caasp/v4/kubernetes-client:1.17.4",
        "RelationType": "Default Component Of"
      },
      {
        "ProductReference": "libgnutls30-3.6.7-6.11.1",
        "RelatesToProductReference": "Container caasp/v4/kured:1.3.0",
        "RelationType": "Default Component Of"
      },
      {
        "ProductReference": "libgnutls30-3.6.7-6.11.1",
        "RelatesToProductReference": "Container caasp/v4/metrics-server:0.3.6",
        "RelationType": "Default Component Of"
      },
      {
        "ProductReference": "libgnutls30-3.6.7-6.11.1",
        "RelatesToProductReference": "Container caasp/v4/prometheus-alertmanager:0.16.2",
        "RelationType": "Default Component Of"
      },
      {
        "ProductReference": "libgnutls30-3.6.7-6.11.1",
        "RelatesToProductReference": "Container caasp/v4/prometheus-node-exporter:0.17.0",
        "RelationType": "Default Component Of"
      },
      {
        "ProductReference": "libgnutls30-3.6.7-6.11.1",
        "RelatesToProductReference": "Container caasp/v4/prometheus-pushgateway:0.6.0",
        "RelationType": "Default Component Of"
      },
      {
        "ProductReference": "libgnutls30-3.6.7-6.11.1",
        "RelatesToProductReference": "Container caasp/v4/prometheus-server:2.7.1",
        "RelationType": "Default Component Of"
      },
      {
        "ProductReference": "libgnutls30-3.6.7-6.11.1",
        "RelatesToProductReference": "Container caasp/v4/rsyslog:8.39.0",
        "RelationType": "Default Component Of"
      },
      {
        "ProductReference": "libgnutls30-3.6.7-6.11.1",
        "RelatesToProductReference": "Container caasp/v4/skuba-tooling:0.1.0",
        "RelationType": "Default Component Of"
      },
      {
        "ProductReference": "libgnutls30-3.6.7-6.11.1",
        "RelatesToProductReference": "Container caasp/v4/test-update:beta",
        "RelationType": "Default Component Of"
      },
      {
        "ProductReference": "libgnutls30-3.6.7-6.11.1",
        "RelatesToProductReference": "Container caasp/v4/velero-plugin-for-aws:1.0.1",
        "RelationType": "Default Component Of"
      },
      {
        "ProductReference": "libgnutls30-3.6.7-6.11.1",
        "RelatesToProductReference": "Container caasp/v4/velero-plugin-for-gcp:1.0.1",
        "RelationType": "Default Component Of"
      },
      {
        "ProductReference": "libgnutls30-3.6.7-6.11.1",
        "RelatesToProductReference": "Container caasp/v4/velero-plugin-for-microsoft-azure:1.0.1",
        "RelationType": "Default Component Of"
      },
      {
        "ProductReference": "libgnutls30-3.6.7-6.11.1",
        "RelatesToProductReference": "Container caasp/v4/velero-restic-restore-helper:1.3.1",
        "RelationType": "Default Component Of"
      },
      {
        "ProductReference": "libgnutls30-3.6.7-6.11.1",
        "RelatesToProductReference": "Container caasp/v4/velero:1.3.1",
        "RelationType": "Default Component Of"
      },
      {
        "ProductReference": "libgnutls30-3.6.7-6.11.1",
        "RelatesToProductReference": "Container suse/sle15:15.0",
        "RelationType": "Default Component Of"
      },
      {
        "ProductReference": "libgnutls30-3.6.7-6.11.1",
        "RelatesToProductReference": "Container suse/sle15:15.1",
        "RelationType": "Default Component Of"
      },
      {
        "ProductReference": "libgnutls30-3.6.7-6.11.1",
        "RelatesToProductReference": "Image SLES15-EC2-CHOST-HVM-BYOS",
        "RelationType": "Default Component Of"
      },
      {
        "ProductReference": "libgnutls30-3.6.7-6.11.1",
        "RelatesToProductReference": "Image SLES15-SP1-CHOST-BYOS-Ali",
        "RelationType": "Default Component Of"
      },
      {
        "ProductReference": "libgnutls30-3.6.7-6.11.1",
        "RelatesToProductReference": "Image SLES15-SP1-CHOST-BYOS-Azure",
        "RelationType": "Default Component Of"
      },
      {
        "ProductReference": "libgnutls30-3.6.7-6.11.1",
        "RelatesToProductReference": "Image SLES15-SP1-CHOST-BYOS-EC2",
        "RelationType": "Default Component Of"
      },
      {
        "ProductReference": "libgnutls30-3.6.7-6.11.1",
        "RelatesToProductReference": "Image SLES15-SP1-CHOST-BYOS-GCE",
        "RelationType": "Default Component Of"
      },
      {
        "ProductReference": "libgnutls30-3.6.7-6.11.1",
        "RelatesToProductReference": "Image SLES15-SP1-CHOST-BYOS-OpenStack",
        "RelationType": "Default Component Of"
      },
      {
        "ProductReference": "libgnutls30-3.6.7-6.11.1",
        "RelatesToProductReference": "Image caasp4/caasp-389-ds-image",
        "RelationType": "Default Component Of"
      },
      {
        "ProductReference": "libgnutls30-3.6.7-6.11.1",
        "RelatesToProductReference": "Image caasp4/caasp-busybox-image",
        "RelationType": "Default Component Of"
      },
      {
        "ProductReference": "libgnutls30-3.6.7-6.11.1",
        "RelatesToProductReference": "Image caasp4/caasp-caasp-dex-image",
        "RelationType": "Default Component Of"
      },
      {
        "ProductReference": "libgnutls30-3.6.7-6.11.1",
        "RelatesToProductReference": "Image caasp4/caasp-cert-exporter-image",
        "RelationType": "Default Component Of"
      },
      {
        "ProductReference": "libgnutls30-3.6.7-6.11.1",
        "RelatesToProductReference": "Image caasp4/caasp-cilium-etcd-operator-image",
        "RelationType": "Default Component Of"
      },
      {
        "ProductReference": "libgnutls30-3.6.7-6.11.1",
        "RelatesToProductReference": "Image caasp4/caasp-cilium-image",
        "RelationType": "Default Component Of"
      },
      {
        "ProductReference": "libgnutls30-3.6.7-6.11.1",
        "RelatesToProductReference": "Image caasp4/caasp-cilium-init-image",
        "RelationType": "Default Component Of"
      },
      {
        "ProductReference": "libgnutls30-3.6.7-6.11.1",
        "RelatesToProductReference": "Image caasp4/caasp-cilium-operator-image",
        "RelationType": "Default Component Of"
      },
      {
        "ProductReference": "libgnutls30-3.6.7-6.11.1",
        "RelatesToProductReference": "Image caasp4/caasp-cloud-provider-openstack-image",
        "RelationType": "Default Component Of"
      },
      {
        "ProductReference": "libgnutls30-3.6.7-6.11.1",
        "RelatesToProductReference": "Image caasp4/caasp-configmap-reload-image",
        "RelationType": "Default Component Of"
      },
      {
        "ProductReference": "libgnutls30-3.6.7-6.11.1",
        "RelatesToProductReference": "Image caasp4/caasp-coredns-image",
        "RelationType": "Default Component Of"
      },
      {
        "ProductReference": "libgnutls30-3.6.7-6.11.1",
        "RelatesToProductReference": "Image caasp4/caasp-curl-image",
        "RelationType": "Default Component Of"
      },
      {
        "ProductReference": "libgnutls30-3.6.7-6.11.1",
        "RelatesToProductReference": "Image caasp4/caasp-etcd-image",
        "RelationType": "Default Component Of"
      },
      {
        "ProductReference": "libgnutls30-3.6.7-6.11.1",
        "RelatesToProductReference": "Image caasp4/caasp-gangway-image",
        "RelationType": "Default Component Of"
      },
      {
        "ProductReference": "libgnutls30-3.6.7-6.11.1",
        "RelatesToProductReference": "Image caasp4/caasp-grafana-image",
        "RelationType": "Default Component Of"
      },
      {
        "ProductReference": "libgnutls30-3.6.7-6.11.1",
        "RelatesToProductReference": "Image caasp4/caasp-helm-tiller-image",
        "RelationType": "Default Component Of"
      },
      {
        "ProductReference": "libgnutls30-3.6.7-6.11.1",
        "RelatesToProductReference": "Image caasp4/caasp-hyperkube-image",
        "RelationType": "Default Component Of"
      },
      {
        "ProductReference": "libgnutls30-3.6.7-6.11.1",
        "RelatesToProductReference": "Image caasp4/caasp-k8s-sidecar-image",
        "RelationType": "Default Component Of"
      },
      {
        "ProductReference": "libgnutls30-3.6.7-6.11.1",
        "RelatesToProductReference": "Image caasp4/caasp-kube-state-metrics-image",
        "RelationType": "Default Component Of"
      },
      {
        "ProductReference": "libgnutls30-3.6.7-6.11.1",
        "RelatesToProductReference": "Image caasp4/caasp-kubernetes-client-image",
        "RelationType": "Default Component Of"
      },
      {
        "ProductReference": "libgnutls30-3.6.7-6.11.1",
        "RelatesToProductReference": "Image caasp4/caasp-kured-image",
        "RelationType": "Default Component Of"
      },
      {
        "ProductReference": "libgnutls30-3.6.7-6.11.1",
        "RelatesToProductReference": "Image caasp4/caasp-metrics-server-image",
        "RelationType": "Default Component Of"
      },
      {
        "ProductReference": "libgnutls30-3.6.7-6.11.1",
        "RelatesToProductReference": "Image caasp4/caasp-prometheus-alertmanager-image",
        "RelationType": "Default Component Of"
      },
      {
        "ProductReference": "libgnutls30-3.6.7-6.11.1",
        "RelatesToProductReference": "Image caasp4/caasp-prometheus-node-exporter-image",
        "RelationType": "Default Component Of"
      },
      {
        "ProductReference": "libgnutls30-3.6.7-6.11.1",
        "RelatesToProductReference": "Image caasp4/caasp-prometheus-pushgateway-image",
        "RelationType": "Default Component Of"
      },
      {
        "ProductReference": "libgnutls30-3.6.7-6.11.1",
        "RelatesToProductReference": "Image caasp4/caasp-prometheus-server-image",
        "RelationType": "Default Component Of"
      },
      {
        "ProductReference": "libgnutls30-3.6.7-6.11.1",
        "RelatesToProductReference": "Image caasp4/caasp-rsyslog-image",
        "RelationType": "Default Component Of"
      },
      {
        "ProductReference": "libgnutls30-3.6.7-6.11.1",
        "RelatesToProductReference": "Image caasp4/caasp-test-update-image",
        "RelationType": "Default Component Of"
      },
      {
        "ProductReference": "libgnutls30-3.6.7-6.11.1",
        "RelatesToProductReference": "Image caasp4/caasp-velero-image",
        "RelationType": "Default Component Of"
      },
      {
        "ProductReference": "libgnutls30-3.6.7-6.11.1",
        "RelatesToProductReference": "Image caasp4/caasp-velero-plugin-for-aws-image",
        "RelationType": "Default Component Of"
      },
      {
        "ProductReference": "libgnutls30-3.6.7-6.11.1",
        "RelatesToProductReference": "Image caasp4/caasp-velero-plugin-for-gcp-image",
        "RelationType": "Default Component Of"
      },
      {
        "ProductReference": "libgnutls30-3.6.7-6.11.1",
        "RelatesToProductReference": "Image caasp4/caasp-velero-plugin-for-microsoft-azure-image",
        "RelationType": "Default Component Of"
      },
      {
        "ProductReference": "libgnutls30-3.6.7-6.11.1",
        "RelatesToProductReference": "Image caasp4/caasp-velero-restic-restore-helper-image",
        "RelationType": "Default Component Of"
      },
      {
        "ProductReference": "gnutls-3.6.7-6.11.1",
        "RelatesToProductReference": "SUSE Linux Enterprise Module for Basesystem 15 SP1",
        "RelationType": "Default Component Of"
      },
      {
        "ProductReference": "libgnutls-devel-3.6.7-6.11.1",
        "RelatesToProductReference": "SUSE Linux Enterprise Module for Basesystem 15 SP1",
        "RelationType": "Default Component Of"
      },
      {
        "ProductReference": "libgnutls30-3.6.7-6.11.1",
        "RelatesToProductReference": "SUSE Linux Enterprise Module for Basesystem 15 SP1",
        "RelationType": "Default Component Of"
      },
      {
        "ProductReference": "libgnutls30-32bit-3.6.7-6.11.1",
        "RelatesToProductReference": "SUSE Linux Enterprise Module for Basesystem 15 SP1",
        "RelationType": "Default Component Of"
      },
      {
        "ProductReference": "libgnutlsxx-devel-3.6.7-6.11.1",
        "RelatesToProductReference": "SUSE Linux Enterprise Module for Basesystem 15 SP1",
        "RelationType": "Default Component Of"
      },
      {
        "ProductReference": "libgnutlsxx28-3.6.7-6.11.1",
        "RelatesToProductReference": "SUSE Linux Enterprise Module for Basesystem 15 SP1",
        "RelationType": "Default Component Of"
      },
      {
        "ProductReference": "gnutls-3.6.7-6.11.1",
        "RelatesToProductReference": "SUSE Linux Enterprise Module for Open Buildservice Development Tools 15 SP1",
        "RelationType": "Default Component Of"
      },
      {
        "ProductReference": "gnutls-guile-3.6.7-6.11.1",
        "RelatesToProductReference": "SUSE Linux Enterprise Module for Open Buildservice Development Tools 15 SP1",
        "RelationType": "Default Component Of"
      },
      {
        "ProductReference": "libgnutls-devel-32bit-3.6.7-6.11.1",
        "RelatesToProductReference": "SUSE Linux Enterprise Module for Open Buildservice Development Tools 15 SP1",
        "RelationType": "Default Component Of"
      }
    ]
  },
  "References": [
    {
      "URL": "https://www.suse.com/support/update/announcement/2019/suse-su-20191351-2/",
      "Description": "Link for SUSE-SU-2019:1351-2"
    },
    {
      "URL": "http://lists.suse.com/pipermail/sle-security-updates/2019-July/005638.html",
      "Description": "E-Mail link for SUSE-SU-2019:1351-2"
    },
    {
      "URL": "https://www.suse.com/support/security/rating/",
      "Description": "SUSE Security Ratings"
    }
  ],
  "Vulnerabilities": [
    {
      "CVE": "CVE-2018-16868",
      "Description": "A Bleichenbacher type side-channel based padding oracle attack was found in the way gnutls handles verification of RSA decrypted PKCS#1 v1.5 data. An attacker who is able to run process on the same physical core as the victim process, could use this to extract plaintext or in some cases downgrade any TLS connections to a vulnerable server.",
      "Threats": [
        {
          "Type": "Impact",
          "Severity": "moderate"
        }
      ],
      "References": [
        {
          "URL": "https://www.suse.com/security/cve/CVE-2018-16868.html",
          "Description": "CVE-2018-16868"
        },
        {
          "URL": "https://bugzilla.suse.com/1117951",
          "Description": "SUSE Bug 1117951"
        },
        {
          "URL": "https://bugzilla.suse.com/1118087",
          "Description": "SUSE Bug 1118087"
        },
        {
          "URL": "https://bugzilla.suse.com/1134856",
          "Description": "SUSE Bug 1134856"
        }
      ],
      "ProductStatuses": [
        {
          "Type": "Fixed",
          "ProductID": [
            "Container caasp/v4/389-ds:1.4.0:libgnutls30-3.6.7-6.11.1",
            "Container caasp/v4/busybox:1.26.2:libgnutls30-3.6.7-6.11.1",
            "Container caasp/v4/caasp-dex:2.16.0:libgnutls30-3.6.7-6.11.1",
            "Container caasp/v4/caaspctl-tooling:beta:libgnutls30-3.6.7-6.11.1",
            "Container caasp/v4/cert-exporter:2.3.0:libgnutls30-3.6.7-6.11.1",
            "Container caasp/v4/cilium-etcd-operator:2.0.5:libgnutls30-3.6.7-6.11.1",
            "Container caasp/v4/cilium-init:1.5.3:libgnutls30-3.6.7-6.11.1",
            "Container caasp/v4/cilium-operator:1.6.6:libgnutls30-3.6.7-6.11.1",
            "Container caasp/v4/cilium:1.6.6:libgnutls30-3.6.7-6.11.1",
            "Container caasp/v4/cloud-provider-openstack:1.15.0:libgnutls30-3.6.7-6.11.1",
            "Container caasp/v4/configmap-reload:0.3.0:libgnutls30-3.6.7-6.11.1",
            "Container caasp/v4/coredns:1.6.5:libgnutls30-3.6.7-6.11.1",
            "Container caasp/v4/curl:7.60.0:libgnutls30-3.6.7-6.11.1",
            "Container caasp/v4/etcd:3.4.3:libgnutls30-3.6.7-6.11.1",
            "Container caasp/v4/gangway:3.1.0:libgnutls30-3.6.7-6.11.1",
            "Container caasp/v4/grafana:6.2.5:libgnutls30-3.6.7-6.11.1",
            "Container caasp/v4/helm-tiller:2.16.1:libgnutls30-3.6.7-6.11.1",
            "Container caasp/v4/hyperkube:v1.17.4:libgnutls30-3.6.7-6.11.1",
            "Container caasp/v4/k8s-sidecar:0.1.75:libgnutls30-3.6.7-6.11.1",
            "Container caasp/v4/kube-state-metrics:1.9.3:libgnutls30-3.6.7-6.11.1",
            "Container caasp/v4/kubernetes-client:1.17.4:libgnutls30-3.6.7-6.11.1",
            "Container caasp/v4/kured:1.3.0:libgnutls30-3.6.7-6.11.1",
            "Container caasp/v4/metrics-server:0.3.6:libgnutls30-3.6.7-6.11.1",
            "Container caasp/v4/prometheus-alertmanager:0.16.2:libgnutls30-3.6.7-6.11.1",
            "Container caasp/v4/prometheus-node-exporter:0.17.0:libgnutls30-3.6.7-6.11.1",
            "Container caasp/v4/prometheus-pushgateway:0.6.0:libgnutls30-3.6.7-6.11.1",
            "Container caasp/v4/prometheus-server:2.7.1:libgnutls30-3.6.7-6.11.1",
            "Container caasp/v4/rsyslog:8.39.0:libgnutls30-3.6.7-6.11.1",
            "Container caasp/v4/skuba-tooling:0.1.0:libgnutls30-3.6.7-6.11.1",
            "Container caasp/v4/test-update:beta:libgnutls30-3.6.7-6.11.1",
            "Container caasp/v4/velero-plugin-for-aws:1.0.1:libgnutls30-3.6.7-6.11.1",
            "Container caasp/v4/velero-plugin-for-gcp:1.0.1:libgnutls30-3.6.7-6.11.1",
            "Container caasp/v4/velero-plugin-for-microsoft-azure:1.0.1:libgnutls30-3.6.7-6.11.1",
            "Container caasp/v4/velero-restic-restore-helper:1.3.1:libgnutls30-3.6.7-6.11.1",
            "Container caasp/v4/velero:1.3.1:libgnutls30-3.6.7-6.11.1",
            "Container suse/sle15:15.0:libgnutls30-3.6.7-6.11.1",
            "Container suse/sle15:15.1:libgnutls30-3.6.7-6.11.1",
            "Image SLES15-EC2-CHOST-HVM-BYOS:libgnutls30-3.6.7-6.11.1",
            "Image SLES15-SP1-CHOST-BYOS-Ali:libgnutls30-3.6.7-6.11.1",
            "Image SLES15-SP1-CHOST-BYOS-Azure:libgnutls30-3.6.7-6.11.1",
            "Image SLES15-SP1-CHOST-BYOS-EC2:libgnutls30-3.6.7-6.11.1",
            "Image SLES15-SP1-CHOST-BYOS-GCE:libgnutls30-3.6.7-6.11.1",
            "Image SLES15-SP1-CHOST-BYOS-OpenStack:libgnutls30-3.6.7-6.11.1",
            "Image caasp4/caasp-389-ds-image:libgnutls30-3.6.7-6.11.1",
            "Image caasp4/caasp-busybox-image:libgnutls30-3.6.7-6.11.1",
            "Image caasp4/caasp-caasp-dex-image:libgnutls30-3.6.7-6.11.1",
            "Image caasp4/caasp-cert-exporter-image:libgnutls30-3.6.7-6.11.1",
            "Image caasp4/caasp-cilium-etcd-operator-image:libgnutls30-3.6.7-6.11.1",
            "Image caasp4/caasp-cilium-image:libgnutls30-3.6.7-6.11.1",
            "Image caasp4/caasp-cilium-init-image:libgnutls30-3.6.7-6.11.1",
            "Image caasp4/caasp-cilium-operator-image:libgnutls30-3.6.7-6.11.1",
            "Image caasp4/caasp-cloud-provider-openstack-image:libgnutls30-3.6.7-6.11.1",
            "Image caasp4/caasp-configmap-reload-image:libgnutls30-3.6.7-6.11.1",
            "Image caasp4/caasp-coredns-image:libgnutls30-3.6.7-6.11.1",
            "Image caasp4/caasp-curl-image:libgnutls30-3.6.7-6.11.1",
            "Image caasp4/caasp-etcd-image:libgnutls30-3.6.7-6.11.1",
            "Image caasp4/caasp-gangway-image:libgnutls30-3.6.7-6.11.1",
            "Image caasp4/caasp-grafana-image:libgnutls30-3.6.7-6.11.1",
            "Image caasp4/caasp-helm-tiller-image:libgnutls30-3.6.7-6.11.1",
            "Image caasp4/caasp-hyperkube-image:libgnutls30-3.6.7-6.11.1",
            "Image caasp4/caasp-k8s-sidecar-image:libgnutls30-3.6.7-6.11.1",
            "Image caasp4/caasp-kube-state-metrics-image:libgnutls30-3.6.7-6.11.1",
            "Image caasp4/caasp-kubernetes-client-image:libgnutls30-3.6.7-6.11.1",
            "Image caasp4/caasp-kured-image:libgnutls30-3.6.7-6.11.1",
            "Image caasp4/caasp-metrics-server-image:libgnutls30-3.6.7-6.11.1",
            "Image caasp4/caasp-prometheus-alertmanager-image:libgnutls30-3.6.7-6.11.1",
            "Image caasp4/caasp-prometheus-node-exporter-image:libgnutls30-3.6.7-6.11.1",
            "Image caasp4/caasp-prometheus-pushgateway-image:libgnutls30-3.6.7-6.11.1",
            "Image caasp4/caasp-prometheus-server-image:libgnutls30-3.6.7-6.11.1",
            "Image caasp4/caasp-rsyslog-image:libgnutls30-3.6.7-6.11.1",
            "Image caasp4/caasp-test-update-image:libgnutls30-3.6.7-6.11.1",
            "Image caasp4/caasp-velero-image:libgnutls30-3.6.7-6.11.1",
            "Image caasp4/caasp-velero-plugin-for-aws-image:libgnutls30-3.6.7-6.11.1",
            "Image caasp4/caasp-velero-plugin-for-gcp-image:libgnutls30-3.6.7-6.11.1",
            "Image caasp4/caasp-velero-plugin-for-microsoft-azure-image:libgnutls30-3.6.7-6.11.1",
            "Image caasp4/caasp-velero-restic-restore-helper-image:libgnutls30-3.6.7-6.11.1",
            "SUSE Linux Enterprise Module for Basesystem 15 SP1:gnutls-3.6.7-6.11.1",
            "SUSE Linux Enterprise Module for Basesystem 15 SP1:libgnutls-devel-3.6.7-6.11.1",
            "SUSE Linux Enterprise Module for Basesystem 15 SP1:libgnutls30-3.6.7-6.11.1",
            "SUSE Linux Enterprise Module for Basesystem 15 SP1:libgnutls30-32bit-3.6.7-6.11.1",
            "SUSE Linux Enterprise Module for Basesystem 15 SP1:libgnutlsxx-devel-3.6.7-6.11.1",
            "SUSE Linux Enterprise Module for Basesystem 15 SP1:libgnutlsxx28-3.6.7-6.11.1",
            "SUSE Linux Enterprise Module for Open Buildservice Development Tools 15 SP1:gnutls-3.6.7-6.11.1",
            "SUSE Linux Enterprise Module for Open Buildservice Development Tools 15 SP1:gnutls-guile-3.6.7-6.11.1",
            "SUSE Linux Enterprise Module for Open Buildservice Development Tools 15 SP1:libgnutls-devel-32bit-3.6.7-6.11.1"
          ]
        }
      ],
      "CVSSScoreSets": {}
    }
  ]
}