{
  "Title": "Security update for the Linux Kernel (Live Patch 10 for SLE 12 SP3)",
  "Tracking": {
    "ID": "SUSE-SU-2019:0298-1",
    "Status": "Final",
    "Version": "1",
    "InitialReleaseDate": "2019-02-08T13:44:59Z",
    "CurrentReleaseDate": "2019-02-08T13:44:59Z",
    "RevisionHistory": [
      {
        "Number": "1",
        "Date": "2019-02-08T13:44:59Z",
        "Description": "current"
      }
    ]
  },
  "Notes": [
    {
      "Text": "Security update for the Linux Kernel (Live Patch 10 for SLE 12 SP3)",
      "Title": "Topic",
      "Type": "Summary"
    },
    {
      "Text": "This update for the Linux Kernel 4.4.120-94_17 fixes one issue.\n\nThe following security issue was fixed:\n\n- CVE-2018-16884: A flaw was found in the Linux kernel's NFS41+ subsystem. NFS41+ shares mounted in different network namespaces at the same time could make bc_svc_process() use wrong back-channel IDs and cause a use-after-free vulnerability. Thus a malicious container user can cause a host kernel memory corruption and a system panic. Due to the nature of the flaw, privilege escalation cannot be fully ruled out (bsc#1119947).\n",
      "Title": "Details",
      "Type": "General"
    },
    {
      "Text": "The CVRF data is provided by SUSE under the Creative Commons License 4.0 with Attribution for Non-Commercial usage (CC-BY-NC-4.0).",
      "Title": "Terms of Use",
      "Type": "Legal Disclaimer"
    }
  ],
  "ProductTree": {
    "Relationships": [
      {
        "ProductReference": "kgraft-patch-4_4_114-94_11-default-11-2.1",
        "RelatesToProductReference": "SUSE Linux Enterprise Live Patching 12 SP3",
        "RelationType": "Default Component Of"
      },
      {
        "ProductReference": "kgraft-patch-SLE12-SP3_Update_8-11-2.1",
        "RelatesToProductReference": "SUSE Linux Enterprise Live Patching 12 SP3",
        "RelationType": "Default Component Of"
      },
      {
        "ProductReference": "kgraft-patch-4_12_14-95_3-default-2-2.1",
        "RelatesToProductReference": "SUSE Linux Enterprise Live Patching 12 SP4",
        "RelationType": "Default Component Of"
      },
      {
        "ProductReference": "kgraft-patch-SLE12-SP4_Update_1-2-2.1",
        "RelatesToProductReference": "SUSE Linux Enterprise Live Patching 12 SP4",
        "RelationType": "Default Component Of"
      }
    ]
  },
  "References": [
    {
      "URL": "https://www.suse.com/support/update/announcement/2019/suse-su-20190298-1/",
      "Description": "Link for SUSE-SU-2019:0298-1"
    },
    {
      "URL": "http://lists.suse.com/pipermail/sle-security-updates/2019-February/005099.html",
      "Description": "E-Mail link for SUSE-SU-2019:0298-1"
    },
    {
      "URL": "https://www.suse.com/support/security/rating/",
      "Description": "SUSE Security Ratings"
    }
  ],
  "Vulnerabilities": [
    {
      "CVE": "CVE-2018-16884",
      "Description": "A flaw was found in the Linux kernel's NFS41+ subsystem. NFS41+ shares mounted in different network namespaces at the same time can make bc_svc_process() use wrong back-channel IDs and cause a use-after-free vulnerability. Thus a malicious container user can cause a host kernel memory corruption and a system panic. Due to the nature of the flaw, privilege escalation cannot be fully ruled out.",
      "Threats": [
        {
          "Type": "Impact",
          "Severity": "important"
        }
      ],
      "References": [
        {
          "URL": "https://www.suse.com/security/cve/CVE-2018-16884.html",
          "Description": "CVE-2018-16884"
        },
        {
          "URL": "https://bugzilla.suse.com/1119946",
          "Description": "SUSE Bug 1119946"
        },
        {
          "URL": "https://bugzilla.suse.com/1119947",
          "Description": "SUSE Bug 1119947"
        }
      ],
      "ProductStatuses": [
        {
          "Type": "Fixed",
          "ProductID": [
            "SUSE Linux Enterprise Live Patching 12 SP3:kgraft-patch-4_4_114-94_11-default-11-2.1",
            "SUSE Linux Enterprise Live Patching 12 SP3:kgraft-patch-SLE12-SP3_Update_8-11-2.1",
            "SUSE Linux Enterprise Live Patching 12 SP4:kgraft-patch-4_12_14-95_3-default-2-2.1",
            "SUSE Linux Enterprise Live Patching 12 SP4:kgraft-patch-SLE12-SP4_Update_1-2-2.1"
          ]
        }
      ],
      "CVSSScoreSets": {}
    }
  ]
}