{
  "Title": "Security update for expat",
  "Tracking": {
    "ID": "SUSE-SU-2019:2429-1",
    "Status": "Final",
    "Version": "1",
    "InitialReleaseDate": "2019-09-23T07:28:40Z",
    "CurrentReleaseDate": "2019-09-23T07:28:40Z",
    "RevisionHistory": [
      {
        "Number": "1",
        "Date": "2019-09-23T07:28:40Z",
        "Description": "current"
      }
    ]
  },
  "Notes": [
    {
      "Text": "Security update for expat",
      "Title": "Topic",
      "Type": "Summary"
    },
    {
      "Text": "This update for expat fixes the following issues:\n\nSecurity issues fixed:\n\n- CVE-2019-15903: Fixed heap-based buffer over-read caused by crafted XML input. (bsc#1149429)\n",
      "Title": "Details",
      "Type": "General"
    },
    {
      "Text": "The CVRF data is provided by SUSE under the Creative Commons License 4.0 with Attribution for Non-Commercial usage (CC-BY-NC-4.0).",
      "Title": "Terms of Use",
      "Type": "Legal Disclaimer"
    }
  ],
  "ProductTree": {
    "Relationships": [
      {
        "ProductReference": "libexpat1-2.2.5-3.6.1",
        "RelatesToProductReference": "Container caasp/v4.5/389-ds:1.4.3",
        "RelationType": "Default Component Of"
      },
      {
        "ProductReference": "libexpat1-2.2.5-3.6.1",
        "RelatesToProductReference": "Container caasp/v4.5/cilium:1.7.6",
        "RelationType": "Default Component Of"
      },
      {
        "ProductReference": "libexpat1-2.2.5-3.6.1",
        "RelatesToProductReference": "Container caasp/v4.5/curl:7.66.0",
        "RelationType": "Default Component Of"
      },
      {
        "ProductReference": "libexpat1-2.2.5-3.6.1",
        "RelatesToProductReference": "Container caasp/v4.5/etcd:3.4.3",
        "RelationType": "Default Component Of"
      },
      {
        "ProductReference": "libexpat1-2.2.5-3.6.1",
        "RelatesToProductReference": "Container caasp/v4.5/grafana:7.0.3",
        "RelationType": "Default Component Of"
      },
      {
        "ProductReference": "libexpat1-2.2.5-3.6.1",
        "RelatesToProductReference": "Container caasp/v4.5/istio-base:beta",
        "RelationType": "Default Component Of"
      },
      {
        "ProductReference": "libexpat1-2.2.5-3.6.1",
        "RelatesToProductReference": "Container caasp/v4.5/istio-pilot:beta",
        "RelationType": "Default Component Of"
      },
      {
        "ProductReference": "libexpat1-2.2.5-3.6.1",
        "RelatesToProductReference": "Container caasp/v4.5/istio-proxyv2:beta",
        "RelationType": "Default Component Of"
      },
      {
        "ProductReference": "libexpat1-2.2.5-3.6.1",
        "RelatesToProductReference": "Container caasp/v4.5/k8s-sidecar:0.1.75",
        "RelationType": "Default Component Of"
      },
      {
        "ProductReference": "libexpat1-2.2.5-3.6.1",
        "RelatesToProductReference": "Container caasp/v4.5/kube-controller-manager:v1.18.6",
        "RelationType": "Default Component Of"
      },
      {
        "ProductReference": "libexpat1-2.2.5-3.6.1",
        "RelatesToProductReference": "Container caasp/v4.5/kube-proxy:v1.18.6",
        "RelationType": "Default Component Of"
      },
      {
        "ProductReference": "libexpat1-2.2.5-3.6.1",
        "RelatesToProductReference": "Container caasp/v4.5/prometheus-alertmanager:0.16.2",
        "RelationType": "Default Component Of"
      },
      {
        "ProductReference": "libexpat1-2.2.5-3.6.1",
        "RelatesToProductReference": "Container caasp/v4.5/prometheus-node-exporter:0.18.1",
        "RelationType": "Default Component Of"
      },
      {
        "ProductReference": "libexpat1-2.2.5-3.6.1",
        "RelatesToProductReference": "Container caasp/v4.5/prometheus-pushgateway:0.6.0",
        "RelationType": "Default Component Of"
      },
      {
        "ProductReference": "libexpat1-2.2.5-3.6.1",
        "RelatesToProductReference": "Container caasp/v4.5/prometheus-server:2.18.0",
        "RelationType": "Default Component Of"
      },
      {
        "ProductReference": "libexpat1-2.2.5-3.6.1",
        "RelatesToProductReference": "Container caasp/v4.5/rsyslog:8.39.0",
        "RelationType": "Default Component Of"
      },
      {
        "ProductReference": "libexpat1-2.2.5-3.6.1",
        "RelatesToProductReference": "Container caasp/v4.5/skuba-tooling:0.1.0",
        "RelationType": "Default Component Of"
      },
      {
        "ProductReference": "libexpat1-2.2.5-3.6.1",
        "RelatesToProductReference": "Container caasp/v4/389-ds:1.4.0",
        "RelationType": "Default Component Of"
      },
      {
        "ProductReference": "libexpat1-2.2.5-3.6.1",
        "RelatesToProductReference": "Container caasp/v4/cilium:1.6.6",
        "RelationType": "Default Component Of"
      },
      {
        "ProductReference": "libexpat1-2.2.5-3.6.1",
        "RelatesToProductReference": "Container caasp/v4/curl:7.60.0",
        "RelationType": "Default Component Of"
      },
      {
        "ProductReference": "libexpat1-2.2.5-3.6.1",
        "RelatesToProductReference": "Container caasp/v4/etcd:3.4.3",
        "RelationType": "Default Component Of"
      },
      {
        "ProductReference": "libexpat1-2.2.5-3.6.1",
        "RelatesToProductReference": "Container caasp/v4/grafana:6.2.5",
        "RelationType": "Default Component Of"
      },
      {
        "ProductReference": "libexpat1-2.2.5-3.6.1",
        "RelatesToProductReference": "Container caasp/v4/hyperkube:v1.17.4",
        "RelationType": "Default Component Of"
      },
      {
        "ProductReference": "libexpat1-2.2.5-3.6.1",
        "RelatesToProductReference": "Container caasp/v4/k8s-sidecar:0.1.75",
        "RelationType": "Default Component Of"
      },
      {
        "ProductReference": "libexpat1-2.2.5-3.6.1",
        "RelatesToProductReference": "Container caasp/v4/prometheus-alertmanager:0.16.2",
        "RelationType": "Default Component Of"
      },
      {
        "ProductReference": "libexpat1-2.2.5-3.6.1",
        "RelatesToProductReference": "Container caasp/v4/prometheus-node-exporter:0.17.0",
        "RelationType": "Default Component Of"
      },
      {
        "ProductReference": "libexpat1-2.2.5-3.6.1",
        "RelatesToProductReference": "Container caasp/v4/prometheus-pushgateway:0.6.0",
        "RelationType": "Default Component Of"
      },
      {
        "ProductReference": "libexpat1-2.2.5-3.6.1",
        "RelatesToProductReference": "Container caasp/v4/prometheus-server:2.7.1",
        "RelationType": "Default Component Of"
      },
      {
        "ProductReference": "libexpat1-2.2.5-3.6.1",
        "RelatesToProductReference": "Container ingress-nginx-controller:0.15.0",
        "RelationType": "Default Component Of"
      },
      {
        "ProductReference": "libexpat1-2.2.5-3.6.1",
        "RelatesToProductReference": "Image SLES15-EC2-CHOST-HVM-BYOS",
        "RelationType": "Default Component Of"
      },
      {
        "ProductReference": "libexpat1-2.2.5-3.6.1",
        "RelatesToProductReference": "Image SLES15-SP1-CHOST-BYOS-Ali",
        "RelationType": "Default Component Of"
      },
      {
        "ProductReference": "libexpat1-2.2.5-3.6.1",
        "RelatesToProductReference": "Image SLES15-SP1-CHOST-BYOS-Azure",
        "RelationType": "Default Component Of"
      },
      {
        "ProductReference": "libexpat1-2.2.5-3.6.1",
        "RelatesToProductReference": "Image SLES15-SP1-CHOST-BYOS-EC2",
        "RelationType": "Default Component Of"
      },
      {
        "ProductReference": "libexpat1-2.2.5-3.6.1",
        "RelatesToProductReference": "Image SLES15-SP1-CHOST-BYOS-GCE",
        "RelationType": "Default Component Of"
      },
      {
        "ProductReference": "libexpat1-2.2.5-3.6.1",
        "RelatesToProductReference": "Image SLES15-SP1-CHOST-BYOS-OpenStack",
        "RelationType": "Default Component Of"
      },
      {
        "ProductReference": "libexpat1-2.2.5-3.6.1",
        "RelatesToProductReference": "Image SLES15-SP2-CHOST-BYOS-Ali",
        "RelationType": "Default Component Of"
      },
      {
        "ProductReference": "libexpat1-2.2.5-3.6.1",
        "RelatesToProductReference": "Image SLES15-SP2-CHOST-BYOS-Azure",
        "RelationType": "Default Component Of"
      },
      {
        "ProductReference": "libexpat1-2.2.5-3.6.1",
        "RelatesToProductReference": "Image SLES15-SP2-CHOST-BYOS-EC2",
        "RelationType": "Default Component Of"
      },
      {
        "ProductReference": "libexpat1-2.2.5-3.6.1",
        "RelatesToProductReference": "Image SLES15-SP2-CHOST-BYOS-GCE",
        "RelationType": "Default Component Of"
      },
      {
        "ProductReference": "libexpat1-2.2.5-3.6.1",
        "RelatesToProductReference": "Image SLES15-SP2-CHOST-BYOS-OpenStack",
        "RelationType": "Default Component Of"
      },
      {
        "ProductReference": "libexpat1-2.2.5-3.6.1",
        "RelatesToProductReference": "Image caasp4/caasp-389-ds-image",
        "RelationType": "Default Component Of"
      },
      {
        "ProductReference": "libexpat1-2.2.5-3.6.1",
        "RelatesToProductReference": "Image caasp4/caasp-cilium-image",
        "RelationType": "Default Component Of"
      },
      {
        "ProductReference": "libexpat1-2.2.5-3.6.1",
        "RelatesToProductReference": "Image caasp4/caasp-curl-image",
        "RelationType": "Default Component Of"
      },
      {
        "ProductReference": "libexpat1-2.2.5-3.6.1",
        "RelatesToProductReference": "Image caasp4/caasp-etcd-image",
        "RelationType": "Default Component Of"
      },
      {
        "ProductReference": "libexpat1-2.2.5-3.6.1",
        "RelatesToProductReference": "Image caasp4/caasp-grafana-image",
        "RelationType": "Default Component Of"
      },
      {
        "ProductReference": "libexpat1-2.2.5-3.6.1",
        "RelatesToProductReference": "Image caasp4/caasp-hyperkube-image",
        "RelationType": "Default Component Of"
      },
      {
        "ProductReference": "libexpat1-2.2.5-3.6.1",
        "RelatesToProductReference": "Image caasp4/caasp-k8s-sidecar-image",
        "RelationType": "Default Component Of"
      },
      {
        "ProductReference": "libexpat1-2.2.5-3.6.1",
        "RelatesToProductReference": "Image caasp4/caasp-prometheus-alertmanager-image",
        "RelationType": "Default Component Of"
      },
      {
        "ProductReference": "libexpat1-2.2.5-3.6.1",
        "RelatesToProductReference": "Image caasp4/caasp-prometheus-node-exporter-image",
        "RelationType": "Default Component Of"
      },
      {
        "ProductReference": "libexpat1-2.2.5-3.6.1",
        "RelatesToProductReference": "Image caasp4/caasp-prometheus-pushgateway-image",
        "RelationType": "Default Component Of"
      },
      {
        "ProductReference": "libexpat1-2.2.5-3.6.1",
        "RelatesToProductReference": "Image caasp4/caasp-prometheus-server-image",
        "RelationType": "Default Component Of"
      },
      {
        "ProductReference": "libexpat1-2.2.5-3.6.1",
        "RelatesToProductReference": "Image caasp4/caasp-rsyslog-image",
        "RelationType": "Default Component Of"
      },
      {
        "ProductReference": "libexpat1-2.2.5-3.6.1",
        "RelatesToProductReference": "Image caasp45/caasp-389-ds-image",
        "RelationType": "Default Component Of"
      },
      {
        "ProductReference": "libexpat1-2.2.5-3.6.1",
        "RelatesToProductReference": "Image caasp45/caasp-cilium-image",
        "RelationType": "Default Component Of"
      },
      {
        "ProductReference": "libexpat1-2.2.5-3.6.1",
        "RelatesToProductReference": "Image caasp45/caasp-curl-image",
        "RelationType": "Default Component Of"
      },
      {
        "ProductReference": "libexpat1-2.2.5-3.6.1",
        "RelatesToProductReference": "Image caasp45/caasp-etcd-image",
        "RelationType": "Default Component Of"
      },
      {
        "ProductReference": "libexpat1-2.2.5-3.6.1",
        "RelatesToProductReference": "Image caasp45/caasp-grafana-image",
        "RelationType": "Default Component Of"
      },
      {
        "ProductReference": "libexpat1-2.2.5-3.6.1",
        "RelatesToProductReference": "Image caasp45/caasp-ingress-nginx-controller-image",
        "RelationType": "Default Component Of"
      },
      {
        "ProductReference": "libexpat1-2.2.5-3.6.1",
        "RelatesToProductReference": "Image caasp45/caasp-istio-base-image",
        "RelationType": "Default Component Of"
      },
      {
        "ProductReference": "libexpat1-2.2.5-3.6.1",
        "RelatesToProductReference": "Image caasp45/caasp-istio-pilot-image",
        "RelationType": "Default Component Of"
      },
      {
        "ProductReference": "libexpat1-2.2.5-3.6.1",
        "RelatesToProductReference": "Image caasp45/caasp-istio-proxyv2-image",
        "RelationType": "Default Component Of"
      },
      {
        "ProductReference": "libexpat1-2.2.5-3.6.1",
        "RelatesToProductReference": "Image caasp45/caasp-k8s-sidecar-image",
        "RelationType": "Default Component Of"
      },
      {
        "ProductReference": "libexpat1-2.2.5-3.6.1",
        "RelatesToProductReference": "Image caasp45/caasp-kube-controller-manager-image",
        "RelationType": "Default Component Of"
      },
      {
        "ProductReference": "libexpat1-2.2.5-3.6.1",
        "RelatesToProductReference": "Image caasp45/caasp-kube-proxy-image",
        "RelationType": "Default Component Of"
      },
      {
        "ProductReference": "libexpat1-2.2.5-3.6.1",
        "RelatesToProductReference": "Image caasp45/caasp-prometheus-alertmanager-image",
        "RelationType": "Default Component Of"
      },
      {
        "ProductReference": "libexpat1-2.2.5-3.6.1",
        "RelatesToProductReference": "Image caasp45/caasp-prometheus-node-exporter-image",
        "RelationType": "Default Component Of"
      },
      {
        "ProductReference": "libexpat1-2.2.5-3.6.1",
        "RelatesToProductReference": "Image caasp45/caasp-prometheus-pushgateway-image",
        "RelationType": "Default Component Of"
      },
      {
        "ProductReference": "libexpat1-2.2.5-3.6.1",
        "RelatesToProductReference": "Image caasp45/caasp-prometheus-server-image",
        "RelationType": "Default Component Of"
      },
      {
        "ProductReference": "libexpat1-2.2.5-3.6.1",
        "RelatesToProductReference": "Image caasp45/caasp-rsyslog-image",
        "RelationType": "Default Component Of"
      },
      {
        "ProductReference": "libexpat1-2.2.5-3.6.1",
        "RelatesToProductReference": "Image caasp45/caasp-skuba-tooling-image",
        "RelationType": "Default Component Of"
      },
      {
        "ProductReference": "expat-2.2.5-3.6.1",
        "RelatesToProductReference": "SUSE Linux Enterprise Module for Basesystem 15",
        "RelationType": "Default Component Of"
      },
      {
        "ProductReference": "libexpat-devel-2.2.5-3.6.1",
        "RelatesToProductReference": "SUSE Linux Enterprise Module for Basesystem 15",
        "RelationType": "Default Component Of"
      },
      {
        "ProductReference": "libexpat1-2.2.5-3.6.1",
        "RelatesToProductReference": "SUSE Linux Enterprise Module for Basesystem 15",
        "RelationType": "Default Component Of"
      },
      {
        "ProductReference": "libexpat1-32bit-2.2.5-3.6.1",
        "RelatesToProductReference": "SUSE Linux Enterprise Module for Basesystem 15",
        "RelationType": "Default Component Of"
      },
      {
        "ProductReference": "expat-2.2.5-3.6.1",
        "RelatesToProductReference": "SUSE Linux Enterprise Module for Basesystem 15 SP1",
        "RelationType": "Default Component Of"
      },
      {
        "ProductReference": "libexpat-devel-2.2.5-3.6.1",
        "RelatesToProductReference": "SUSE Linux Enterprise Module for Basesystem 15 SP1",
        "RelationType": "Default Component Of"
      },
      {
        "ProductReference": "libexpat1-2.2.5-3.6.1",
        "RelatesToProductReference": "SUSE Linux Enterprise Module for Basesystem 15 SP1",
        "RelationType": "Default Component Of"
      },
      {
        "ProductReference": "libexpat1-32bit-2.2.5-3.6.1",
        "RelatesToProductReference": "SUSE Linux Enterprise Module for Basesystem 15 SP1",
        "RelationType": "Default Component Of"
      },
      {
        "ProductReference": "expat-2.2.5-3.6.1",
        "RelatesToProductReference": "SUSE Linux Enterprise Module for Open Buildservice Development Tools 15 SP1",
        "RelationType": "Default Component Of"
      },
      {
        "ProductReference": "libexpat-devel-32bit-2.2.5-3.6.1",
        "RelatesToProductReference": "SUSE Linux Enterprise Module for Open Buildservice Development Tools 15 SP1",
        "RelationType": "Default Component Of"
      }
    ]
  },
  "References": [
    {
      "URL": "https://www.suse.com/support/update/announcement/2019/suse-su-20192429-1/",
      "Description": "Link for SUSE-SU-2019:2429-1"
    },
    {
      "URL": "http://lists.suse.com/pipermail/sle-security-updates/2019-September/005950.html",
      "Description": "E-Mail link for SUSE-SU-2019:2429-1"
    },
    {
      "URL": "https://www.suse.com/support/security/rating/",
      "Description": "SUSE Security Ratings"
    }
  ],
  "Vulnerabilities": [
    {
      "CVE": "CVE-2019-15903",
      "Description": "In libexpat before 2.2.8, crafted XML input could fool the parser into changing from DTD parsing to document parsing too early; a consecutive call to XML_GetCurrentLineNumber (or XML_GetCurrentColumnNumber) then resulted in a heap-based buffer over-read.",
      "Threats": [
        {
          "Type": "Impact",
          "Severity": "moderate"
        }
      ],
      "References": [
        {
          "URL": "https://www.suse.com/security/cve/CVE-2019-15903.html",
          "Description": "CVE-2019-15903"
        },
        {
          "URL": "https://bugzilla.suse.com/1149429",
          "Description": "SUSE Bug 1149429"
        },
        {
          "URL": "https://bugzilla.suse.com/1154738",
          "Description": "SUSE Bug 1154738"
        },
        {
          "URL": "https://bugzilla.suse.com/1154806",
          "Description": "SUSE Bug 1154806"
        }
      ],
      "ProductStatuses": [
        {
          "Type": "Fixed",
          "ProductID": [
            "Container caasp/v4.5/389-ds:1.4.3:libexpat1-2.2.5-3.6.1",
            "Container caasp/v4.5/cilium:1.7.6:libexpat1-2.2.5-3.6.1",
            "Container caasp/v4.5/curl:7.66.0:libexpat1-2.2.5-3.6.1",
            "Container caasp/v4.5/etcd:3.4.3:libexpat1-2.2.5-3.6.1",
            "Container caasp/v4.5/grafana:7.0.3:libexpat1-2.2.5-3.6.1",
            "Container caasp/v4.5/istio-base:beta:libexpat1-2.2.5-3.6.1",
            "Container caasp/v4.5/istio-pilot:beta:libexpat1-2.2.5-3.6.1",
            "Container caasp/v4.5/istio-proxyv2:beta:libexpat1-2.2.5-3.6.1",
            "Container caasp/v4.5/k8s-sidecar:0.1.75:libexpat1-2.2.5-3.6.1",
            "Container caasp/v4.5/kube-controller-manager:v1.18.6:libexpat1-2.2.5-3.6.1",
            "Container caasp/v4.5/kube-proxy:v1.18.6:libexpat1-2.2.5-3.6.1",
            "Container caasp/v4.5/prometheus-alertmanager:0.16.2:libexpat1-2.2.5-3.6.1",
            "Container caasp/v4.5/prometheus-node-exporter:0.18.1:libexpat1-2.2.5-3.6.1",
            "Container caasp/v4.5/prometheus-pushgateway:0.6.0:libexpat1-2.2.5-3.6.1",
            "Container caasp/v4.5/prometheus-server:2.18.0:libexpat1-2.2.5-3.6.1",
            "Container caasp/v4.5/rsyslog:8.39.0:libexpat1-2.2.5-3.6.1",
            "Container caasp/v4.5/skuba-tooling:0.1.0:libexpat1-2.2.5-3.6.1",
            "Container caasp/v4/389-ds:1.4.0:libexpat1-2.2.5-3.6.1",
            "Container caasp/v4/cilium:1.6.6:libexpat1-2.2.5-3.6.1",
            "Container caasp/v4/curl:7.60.0:libexpat1-2.2.5-3.6.1",
            "Container caasp/v4/etcd:3.4.3:libexpat1-2.2.5-3.6.1",
            "Container caasp/v4/grafana:6.2.5:libexpat1-2.2.5-3.6.1",
            "Container caasp/v4/hyperkube:v1.17.4:libexpat1-2.2.5-3.6.1",
            "Container caasp/v4/k8s-sidecar:0.1.75:libexpat1-2.2.5-3.6.1",
            "Container caasp/v4/prometheus-alertmanager:0.16.2:libexpat1-2.2.5-3.6.1",
            "Container caasp/v4/prometheus-node-exporter:0.17.0:libexpat1-2.2.5-3.6.1",
            "Container caasp/v4/prometheus-pushgateway:0.6.0:libexpat1-2.2.5-3.6.1",
            "Container caasp/v4/prometheus-server:2.7.1:libexpat1-2.2.5-3.6.1",
            "Container ingress-nginx-controller:0.15.0:libexpat1-2.2.5-3.6.1",
            "Image SLES15-EC2-CHOST-HVM-BYOS:libexpat1-2.2.5-3.6.1",
            "Image SLES15-SP1-CHOST-BYOS-Ali:libexpat1-2.2.5-3.6.1",
            "Image SLES15-SP1-CHOST-BYOS-Azure:libexpat1-2.2.5-3.6.1",
            "Image SLES15-SP1-CHOST-BYOS-EC2:libexpat1-2.2.5-3.6.1",
            "Image SLES15-SP1-CHOST-BYOS-GCE:libexpat1-2.2.5-3.6.1",
            "Image SLES15-SP1-CHOST-BYOS-OpenStack:libexpat1-2.2.5-3.6.1",
            "Image SLES15-SP2-CHOST-BYOS-Ali:libexpat1-2.2.5-3.6.1",
            "Image SLES15-SP2-CHOST-BYOS-Azure:libexpat1-2.2.5-3.6.1",
            "Image SLES15-SP2-CHOST-BYOS-EC2:libexpat1-2.2.5-3.6.1",
            "Image SLES15-SP2-CHOST-BYOS-GCE:libexpat1-2.2.5-3.6.1",
            "Image SLES15-SP2-CHOST-BYOS-OpenStack:libexpat1-2.2.5-3.6.1",
            "Image caasp4/caasp-389-ds-image:libexpat1-2.2.5-3.6.1",
            "Image caasp4/caasp-cilium-image:libexpat1-2.2.5-3.6.1",
            "Image caasp4/caasp-curl-image:libexpat1-2.2.5-3.6.1",
            "Image caasp4/caasp-etcd-image:libexpat1-2.2.5-3.6.1",
            "Image caasp4/caasp-grafana-image:libexpat1-2.2.5-3.6.1",
            "Image caasp4/caasp-hyperkube-image:libexpat1-2.2.5-3.6.1",
            "Image caasp4/caasp-k8s-sidecar-image:libexpat1-2.2.5-3.6.1",
            "Image caasp4/caasp-prometheus-alertmanager-image:libexpat1-2.2.5-3.6.1",
            "Image caasp4/caasp-prometheus-node-exporter-image:libexpat1-2.2.5-3.6.1",
            "Image caasp4/caasp-prometheus-pushgateway-image:libexpat1-2.2.5-3.6.1",
            "Image caasp4/caasp-prometheus-server-image:libexpat1-2.2.5-3.6.1",
            "Image caasp4/caasp-rsyslog-image:libexpat1-2.2.5-3.6.1",
            "Image caasp45/caasp-389-ds-image:libexpat1-2.2.5-3.6.1",
            "Image caasp45/caasp-cilium-image:libexpat1-2.2.5-3.6.1",
            "Image caasp45/caasp-curl-image:libexpat1-2.2.5-3.6.1",
            "Image caasp45/caasp-etcd-image:libexpat1-2.2.5-3.6.1",
            "Image caasp45/caasp-grafana-image:libexpat1-2.2.5-3.6.1",
            "Image caasp45/caasp-ingress-nginx-controller-image:libexpat1-2.2.5-3.6.1",
            "Image caasp45/caasp-istio-base-image:libexpat1-2.2.5-3.6.1",
            "Image caasp45/caasp-istio-pilot-image:libexpat1-2.2.5-3.6.1",
            "Image caasp45/caasp-istio-proxyv2-image:libexpat1-2.2.5-3.6.1",
            "Image caasp45/caasp-k8s-sidecar-image:libexpat1-2.2.5-3.6.1",
            "Image caasp45/caasp-kube-controller-manager-image:libexpat1-2.2.5-3.6.1",
            "Image caasp45/caasp-kube-proxy-image:libexpat1-2.2.5-3.6.1",
            "Image caasp45/caasp-prometheus-alertmanager-image:libexpat1-2.2.5-3.6.1",
            "Image caasp45/caasp-prometheus-node-exporter-image:libexpat1-2.2.5-3.6.1",
            "Image caasp45/caasp-prometheus-pushgateway-image:libexpat1-2.2.5-3.6.1",
            "Image caasp45/caasp-prometheus-server-image:libexpat1-2.2.5-3.6.1",
            "Image caasp45/caasp-rsyslog-image:libexpat1-2.2.5-3.6.1",
            "Image caasp45/caasp-skuba-tooling-image:libexpat1-2.2.5-3.6.1",
            "SUSE Linux Enterprise Module for Basesystem 15 SP1:expat-2.2.5-3.6.1",
            "SUSE Linux Enterprise Module for Basesystem 15 SP1:libexpat-devel-2.2.5-3.6.1",
            "SUSE Linux Enterprise Module for Basesystem 15 SP1:libexpat1-2.2.5-3.6.1",
            "SUSE Linux Enterprise Module for Basesystem 15 SP1:libexpat1-32bit-2.2.5-3.6.1",
            "SUSE Linux Enterprise Module for Basesystem 15:expat-2.2.5-3.6.1",
            "SUSE Linux Enterprise Module for Basesystem 15:libexpat-devel-2.2.5-3.6.1",
            "SUSE Linux Enterprise Module for Basesystem 15:libexpat1-2.2.5-3.6.1",
            "SUSE Linux Enterprise Module for Basesystem 15:libexpat1-32bit-2.2.5-3.6.1",
            "SUSE Linux Enterprise Module for Open Buildservice Development Tools 15 SP1:expat-2.2.5-3.6.1",
            "SUSE Linux Enterprise Module for Open Buildservice Development Tools 15 SP1:libexpat-devel-32bit-2.2.5-3.6.1"
          ]
        }
      ],
      "CVSSScoreSets": {}
    }
  ]
}