{
  "Title": "Security update for bzip2",
  "Tracking": {
    "ID": "SUSE-SU-2019:1955-1",
    "Status": "Final",
    "Version": "1",
    "InitialReleaseDate": "2019-07-23T09:42:41Z",
    "CurrentReleaseDate": "2019-07-23T09:42:41Z",
    "RevisionHistory": [
      {
        "Number": "1",
        "Date": "2019-07-23T09:42:41Z",
        "Description": "current"
      }
    ]
  },
  "Notes": [
    {
      "Text": "Security update for bzip2",
      "Title": "Topic",
      "Type": "Summary"
    },
    {
      "Text": "This update for bzip2 fixes the following issues:\n\nSecurity issue fixed:\n\n- CVE-2019-12900: Fixed an out-of-bounds write in decompress.c with many selectors (bsc#1139083).\n- CVE-2016-3189: Fixed a use-after-free in bzip2recover (bsc#985657).\n",
      "Title": "Details",
      "Type": "General"
    },
    {
      "Text": "The CVRF data is provided by SUSE under the Creative Commons License 4.0 with Attribution for Non-Commercial usage (CC-BY-NC-4.0).",
      "Title": "Terms of Use",
      "Type": "Legal Disclaimer"
    }
  ],
  "ProductTree": {
    "Relationships": [
      {
        "ProductReference": "libbz2-1-1.0.6-30.5.1",
        "RelatesToProductReference": "Container suse/sles12sp4:latest",
        "RelationType": "Default Component Of"
      },
      {
        "ProductReference": "libbz2-1-1.0.6-30.5.1",
        "RelatesToProductReference": "Container suse/sles12sp5:latest",
        "RelationType": "Default Component Of"
      },
      {
        "ProductReference": "bzip2-1.0.6-30.5.1",
        "RelatesToProductReference": "SUSE OpenStack Cloud 7",
        "RelationType": "Default Component Of"
      },
      {
        "ProductReference": "bzip2-doc-1.0.6-30.5.1",
        "RelatesToProductReference": "SUSE OpenStack Cloud 7",
        "RelationType": "Default Component Of"
      },
      {
        "ProductReference": "libbz2-1-1.0.6-30.5.1",
        "RelatesToProductReference": "SUSE OpenStack Cloud 7",
        "RelationType": "Default Component Of"
      },
      {
        "ProductReference": "libbz2-1-32bit-1.0.6-30.5.1",
        "RelatesToProductReference": "SUSE OpenStack Cloud 7",
        "RelationType": "Default Component Of"
      },
      {
        "ProductReference": "bzip2-1.0.6-30.5.1",
        "RelatesToProductReference": "SUSE OpenStack Cloud 8",
        "RelationType": "Default Component Of"
      },
      {
        "ProductReference": "bzip2-doc-1.0.6-30.5.1",
        "RelatesToProductReference": "SUSE OpenStack Cloud 8",
        "RelationType": "Default Component Of"
      },
      {
        "ProductReference": "libbz2-1-1.0.6-30.5.1",
        "RelatesToProductReference": "SUSE OpenStack Cloud 8",
        "RelationType": "Default Component Of"
      },
      {
        "ProductReference": "libbz2-1-32bit-1.0.6-30.5.1",
        "RelatesToProductReference": "SUSE OpenStack Cloud 8",
        "RelationType": "Default Component Of"
      },
      {
        "ProductReference": "bzip2-1.0.6-30.5.1",
        "RelatesToProductReference": "SUSE Linux Enterprise Desktop 12 SP4",
        "RelationType": "Default Component Of"
      },
      {
        "ProductReference": "libbz2-1-1.0.6-30.5.1",
        "RelatesToProductReference": "SUSE Linux Enterprise Desktop 12 SP4",
        "RelationType": "Default Component Of"
      },
      {
        "ProductReference": "libbz2-1-32bit-1.0.6-30.5.1",
        "RelatesToProductReference": "SUSE Linux Enterprise Desktop 12 SP4",
        "RelationType": "Default Component Of"
      },
      {
        "ProductReference": "bzip2-1.0.6-30.5.1",
        "RelatesToProductReference": "SUSE Linux Enterprise Server for SAP Applications 12 SP1",
        "RelationType": "Default Component Of"
      },
      {
        "ProductReference": "bzip2-doc-1.0.6-30.5.1",
        "RelatesToProductReference": "SUSE Linux Enterprise Server for SAP Applications 12 SP1",
        "RelationType": "Default Component Of"
      },
      {
        "ProductReference": "libbz2-1-1.0.6-30.5.1",
        "RelatesToProductReference": "SUSE Linux Enterprise Server for SAP Applications 12 SP1",
        "RelationType": "Default Component Of"
      },
      {
        "ProductReference": "libbz2-1-32bit-1.0.6-30.5.1",
        "RelatesToProductReference": "SUSE Linux Enterprise Server for SAP Applications 12 SP1",
        "RelationType": "Default Component Of"
      },
      {
        "ProductReference": "bzip2-1.0.6-30.5.1",
        "RelatesToProductReference": "SUSE Linux Enterprise Server for SAP Applications 12 SP2",
        "RelationType": "Default Component Of"
      },
      {
        "ProductReference": "bzip2-doc-1.0.6-30.5.1",
        "RelatesToProductReference": "SUSE Linux Enterprise Server for SAP Applications 12 SP2",
        "RelationType": "Default Component Of"
      },
      {
        "ProductReference": "libbz2-1-1.0.6-30.5.1",
        "RelatesToProductReference": "SUSE Linux Enterprise Server for SAP Applications 12 SP2",
        "RelationType": "Default Component Of"
      },
      {
        "ProductReference": "libbz2-1-32bit-1.0.6-30.5.1",
        "RelatesToProductReference": "SUSE Linux Enterprise Server for SAP Applications 12 SP2",
        "RelationType": "Default Component Of"
      },
      {
        "ProductReference": "bzip2-1.0.6-30.5.1",
        "RelatesToProductReference": "SUSE Linux Enterprise Server for SAP Applications 12 SP3",
        "RelationType": "Default Component Of"
      },
      {
        "ProductReference": "bzip2-doc-1.0.6-30.5.1",
        "RelatesToProductReference": "SUSE Linux Enterprise Server for SAP Applications 12 SP3",
        "RelationType": "Default Component Of"
      },
      {
        "ProductReference": "libbz2-1-1.0.6-30.5.1",
        "RelatesToProductReference": "SUSE Linux Enterprise Server for SAP Applications 12 SP3",
        "RelationType": "Default Component Of"
      },
      {
        "ProductReference": "libbz2-1-32bit-1.0.6-30.5.1",
        "RelatesToProductReference": "SUSE Linux Enterprise Server for SAP Applications 12 SP3",
        "RelationType": "Default Component Of"
      },
      {
        "ProductReference": "bzip2-1.0.6-30.5.1",
        "RelatesToProductReference": "SUSE Linux Enterprise Software Development Kit 12 SP4",
        "RelationType": "Default Component Of"
      },
      {
        "ProductReference": "libbz2-devel-1.0.6-30.5.1",
        "RelatesToProductReference": "SUSE Linux Enterprise Software Development Kit 12 SP4",
        "RelationType": "Default Component Of"
      },
      {
        "ProductReference": "bzip2-1.0.6-30.5.1",
        "RelatesToProductReference": "SUSE Linux Enterprise Server 12 SP1-LTSS",
        "RelationType": "Default Component Of"
      },
      {
        "ProductReference": "bzip2-doc-1.0.6-30.5.1",
        "RelatesToProductReference": "SUSE Linux Enterprise Server 12 SP1-LTSS",
        "RelationType": "Default Component Of"
      },
      {
        "ProductReference": "libbz2-1-1.0.6-30.5.1",
        "RelatesToProductReference": "SUSE Linux Enterprise Server 12 SP1-LTSS",
        "RelationType": "Default Component Of"
      },
      {
        "ProductReference": "libbz2-1-32bit-1.0.6-30.5.1",
        "RelatesToProductReference": "SUSE Linux Enterprise Server 12 SP1-LTSS",
        "RelationType": "Default Component Of"
      },
      {
        "ProductReference": "bzip2-1.0.6-30.5.1",
        "RelatesToProductReference": "SUSE Linux Enterprise Server for SAP Applications 12 SP1-LTSS",
        "RelationType": "Default Component Of"
      },
      {
        "ProductReference": "bzip2-doc-1.0.6-30.5.1",
        "RelatesToProductReference": "SUSE Linux Enterprise Server for SAP Applications 12 SP1-LTSS",
        "RelationType": "Default Component Of"
      },
      {
        "ProductReference": "libbz2-1-1.0.6-30.5.1",
        "RelatesToProductReference": "SUSE Linux Enterprise Server for SAP Applications 12 SP1-LTSS",
        "RelationType": "Default Component Of"
      },
      {
        "ProductReference": "libbz2-1-32bit-1.0.6-30.5.1",
        "RelatesToProductReference": "SUSE Linux Enterprise Server for SAP Applications 12 SP1-LTSS",
        "RelationType": "Default Component Of"
      },
      {
        "ProductReference": "bzip2-1.0.6-30.5.1",
        "RelatesToProductReference": "SUSE Linux Enterprise Server 12 SP2-LTSS",
        "RelationType": "Default Component Of"
      },
      {
        "ProductReference": "bzip2-doc-1.0.6-30.5.1",
        "RelatesToProductReference": "SUSE Linux Enterprise Server 12 SP2-LTSS",
        "RelationType": "Default Component Of"
      },
      {
        "ProductReference": "libbz2-1-1.0.6-30.5.1",
        "RelatesToProductReference": "SUSE Linux Enterprise Server 12 SP2-LTSS",
        "RelationType": "Default Component Of"
      },
      {
        "ProductReference": "libbz2-1-32bit-1.0.6-30.5.1",
        "RelatesToProductReference": "SUSE Linux Enterprise Server 12 SP2-LTSS",
        "RelationType": "Default Component Of"
      },
      {
        "ProductReference": "bzip2-1.0.6-30.5.1",
        "RelatesToProductReference": "SUSE Linux Enterprise Server for SAP Applications 12 SP2-LTSS",
        "RelationType": "Default Component Of"
      },
      {
        "ProductReference": "bzip2-doc-1.0.6-30.5.1",
        "RelatesToProductReference": "SUSE Linux Enterprise Server for SAP Applications 12 SP2-LTSS",
        "RelationType": "Default Component Of"
      },
      {
        "ProductReference": "libbz2-1-1.0.6-30.5.1",
        "RelatesToProductReference": "SUSE Linux Enterprise Server for SAP Applications 12 SP2-LTSS",
        "RelationType": "Default Component Of"
      },
      {
        "ProductReference": "libbz2-1-32bit-1.0.6-30.5.1",
        "RelatesToProductReference": "SUSE Linux Enterprise Server for SAP Applications 12 SP2-LTSS",
        "RelationType": "Default Component Of"
      },
      {
        "ProductReference": "bzip2-1.0.6-30.5.1",
        "RelatesToProductReference": "SUSE Linux Enterprise Server 12 SP2-BCL",
        "RelationType": "Default Component Of"
      },
      {
        "ProductReference": "bzip2-doc-1.0.6-30.5.1",
        "RelatesToProductReference": "SUSE Linux Enterprise Server 12 SP2-BCL",
        "RelationType": "Default Component Of"
      },
      {
        "ProductReference": "libbz2-1-1.0.6-30.5.1",
        "RelatesToProductReference": "SUSE Linux Enterprise Server 12 SP2-BCL",
        "RelationType": "Default Component Of"
      },
      {
        "ProductReference": "libbz2-1-32bit-1.0.6-30.5.1",
        "RelatesToProductReference": "SUSE Linux Enterprise Server 12 SP2-BCL",
        "RelationType": "Default Component Of"
      },
      {
        "ProductReference": "bzip2-1.0.6-30.5.1",
        "RelatesToProductReference": "SUSE Linux Enterprise Server for SAP Applications 12 SP2-BCL",
        "RelationType": "Default Component Of"
      },
      {
        "ProductReference": "bzip2-doc-1.0.6-30.5.1",
        "RelatesToProductReference": "SUSE Linux Enterprise Server for SAP Applications 12 SP2-BCL",
        "RelationType": "Default Component Of"
      },
      {
        "ProductReference": "libbz2-1-1.0.6-30.5.1",
        "RelatesToProductReference": "SUSE Linux Enterprise Server for SAP Applications 12 SP2-BCL",
        "RelationType": "Default Component Of"
      },
      {
        "ProductReference": "libbz2-1-32bit-1.0.6-30.5.1",
        "RelatesToProductReference": "SUSE Linux Enterprise Server for SAP Applications 12 SP2-BCL",
        "RelationType": "Default Component Of"
      },
      {
        "ProductReference": "bzip2-1.0.6-30.5.1",
        "RelatesToProductReference": "SUSE Linux Enterprise Server 12 SP3-LTSS",
        "RelationType": "Default Component Of"
      },
      {
        "ProductReference": "bzip2-doc-1.0.6-30.5.1",
        "RelatesToProductReference": "SUSE Linux Enterprise Server 12 SP3-LTSS",
        "RelationType": "Default Component Of"
      },
      {
        "ProductReference": "libbz2-1-1.0.6-30.5.1",
        "RelatesToProductReference": "SUSE Linux Enterprise Server 12 SP3-LTSS",
        "RelationType": "Default Component Of"
      },
      {
        "ProductReference": "libbz2-1-32bit-1.0.6-30.5.1",
        "RelatesToProductReference": "SUSE Linux Enterprise Server 12 SP3-LTSS",
        "RelationType": "Default Component Of"
      },
      {
        "ProductReference": "bzip2-1.0.6-30.5.1",
        "RelatesToProductReference": "SUSE Linux Enterprise Server for SAP Applications 12 SP3-LTSS",
        "RelationType": "Default Component Of"
      },
      {
        "ProductReference": "bzip2-doc-1.0.6-30.5.1",
        "RelatesToProductReference": "SUSE Linux Enterprise Server for SAP Applications 12 SP3-LTSS",
        "RelationType": "Default Component Of"
      },
      {
        "ProductReference": "libbz2-1-1.0.6-30.5.1",
        "RelatesToProductReference": "SUSE Linux Enterprise Server for SAP Applications 12 SP3-LTSS",
        "RelationType": "Default Component Of"
      },
      {
        "ProductReference": "libbz2-1-32bit-1.0.6-30.5.1",
        "RelatesToProductReference": "SUSE Linux Enterprise Server for SAP Applications 12 SP3-LTSS",
        "RelationType": "Default Component Of"
      },
      {
        "ProductReference": "bzip2-1.0.6-30.5.1",
        "RelatesToProductReference": "SUSE Linux Enterprise Server 12 SP4",
        "RelationType": "Default Component Of"
      },
      {
        "ProductReference": "bzip2-doc-1.0.6-30.5.1",
        "RelatesToProductReference": "SUSE Linux Enterprise Server 12 SP4",
        "RelationType": "Default Component Of"
      },
      {
        "ProductReference": "libbz2-1-1.0.6-30.5.1",
        "RelatesToProductReference": "SUSE Linux Enterprise Server 12 SP4",
        "RelationType": "Default Component Of"
      },
      {
        "ProductReference": "libbz2-1-32bit-1.0.6-30.5.1",
        "RelatesToProductReference": "SUSE Linux Enterprise Server 12 SP4",
        "RelationType": "Default Component Of"
      },
      {
        "ProductReference": "bzip2-1.0.6-30.5.1",
        "RelatesToProductReference": "SUSE Linux Enterprise Server for SAP Applications 12 SP4",
        "RelationType": "Default Component Of"
      },
      {
        "ProductReference": "bzip2-doc-1.0.6-30.5.1",
        "RelatesToProductReference": "SUSE Linux Enterprise Server for SAP Applications 12 SP4",
        "RelationType": "Default Component Of"
      },
      {
        "ProductReference": "libbz2-1-1.0.6-30.5.1",
        "RelatesToProductReference": "SUSE Linux Enterprise Server for SAP Applications 12 SP4",
        "RelationType": "Default Component Of"
      },
      {
        "ProductReference": "libbz2-1-32bit-1.0.6-30.5.1",
        "RelatesToProductReference": "SUSE Linux Enterprise Server for SAP Applications 12 SP4",
        "RelationType": "Default Component Of"
      },
      {
        "ProductReference": "bzip2-1.0.6-30.5.1",
        "RelatesToProductReference": "SUSE Enterprise Storage 4",
        "RelationType": "Default Component Of"
      },
      {
        "ProductReference": "bzip2-doc-1.0.6-30.5.1",
        "RelatesToProductReference": "SUSE Enterprise Storage 4",
        "RelationType": "Default Component Of"
      },
      {
        "ProductReference": "libbz2-1-1.0.6-30.5.1",
        "RelatesToProductReference": "SUSE Enterprise Storage 4",
        "RelationType": "Default Component Of"
      },
      {
        "ProductReference": "libbz2-1-32bit-1.0.6-30.5.1",
        "RelatesToProductReference": "SUSE Enterprise Storage 4",
        "RelationType": "Default Component Of"
      },
      {
        "ProductReference": "bzip2-1.0.6-30.5.1",
        "RelatesToProductReference": "SUSE Enterprise Storage 5",
        "RelationType": "Default Component Of"
      },
      {
        "ProductReference": "bzip2-doc-1.0.6-30.5.1",
        "RelatesToProductReference": "SUSE Enterprise Storage 5",
        "RelationType": "Default Component Of"
      },
      {
        "ProductReference": "libbz2-1-1.0.6-30.5.1",
        "RelatesToProductReference": "SUSE Enterprise Storage 5",
        "RelationType": "Default Component Of"
      },
      {
        "ProductReference": "libbz2-1-32bit-1.0.6-30.5.1",
        "RelatesToProductReference": "SUSE Enterprise Storage 5",
        "RelationType": "Default Component Of"
      }
    ]
  },
  "References": [
    {
      "URL": "https://www.suse.com/support/update/announcement/2019/suse-su-20191955-1/",
      "Description": "Link for SUSE-SU-2019:1955-1"
    },
    {
      "URL": "http://lists.suse.com/pipermail/sle-security-updates/2019-July/005739.html",
      "Description": "E-Mail link for SUSE-SU-2019:1955-1"
    },
    {
      "URL": "https://www.suse.com/support/security/rating/",
      "Description": "SUSE Security Ratings"
    }
  ],
  "Vulnerabilities": [
    {
      "CVE": "CVE-2016-3189",
      "Description": "Use-after-free vulnerability in bzip2recover in bzip2 1.0.6 allows remote attackers to cause a denial of service (crash) via a crafted bzip2 file, related to block ends set to before the start of the block.",
      "Threats": [
        {
          "Type": "Impact",
          "Severity": "low"
        }
      ],
      "References": [
        {
          "URL": "https://www.suse.com/security/cve/CVE-2016-3189.html",
          "Description": "CVE-2016-3189"
        },
        {
          "URL": "https://bugzilla.suse.com/985657",
          "Description": "SUSE Bug 985657"
        }
      ],
      "ProductStatuses": [
        {
          "Type": "Fixed",
          "ProductID": [
            "Container suse/sles12sp4:latest:libbz2-1-1.0.6-30.5.1",
            "Container suse/sles12sp5:latest:libbz2-1-1.0.6-30.5.1",
            "SUSE Enterprise Storage 4:bzip2-1.0.6-30.5.1",
            "SUSE Enterprise Storage 4:bzip2-doc-1.0.6-30.5.1",
            "SUSE Enterprise Storage 4:libbz2-1-1.0.6-30.5.1",
            "SUSE Enterprise Storage 4:libbz2-1-32bit-1.0.6-30.5.1",
            "SUSE Enterprise Storage 5:bzip2-1.0.6-30.5.1",
            "SUSE Enterprise Storage 5:bzip2-doc-1.0.6-30.5.1",
            "SUSE Enterprise Storage 5:libbz2-1-1.0.6-30.5.1",
            "SUSE Enterprise Storage 5:libbz2-1-32bit-1.0.6-30.5.1",
            "SUSE Linux Enterprise Desktop 12 SP4:bzip2-1.0.6-30.5.1",
            "SUSE Linux Enterprise Desktop 12 SP4:libbz2-1-1.0.6-30.5.1",
            "SUSE Linux Enterprise Desktop 12 SP4:libbz2-1-32bit-1.0.6-30.5.1",
            "SUSE Linux Enterprise Server 12 SP1-LTSS:bzip2-1.0.6-30.5.1",
            "SUSE Linux Enterprise Server 12 SP1-LTSS:bzip2-doc-1.0.6-30.5.1",
            "SUSE Linux Enterprise Server 12 SP1-LTSS:libbz2-1-1.0.6-30.5.1",
            "SUSE Linux Enterprise Server 12 SP1-LTSS:libbz2-1-32bit-1.0.6-30.5.1",
            "SUSE Linux Enterprise Server 12 SP2-BCL:bzip2-1.0.6-30.5.1",
            "SUSE Linux Enterprise Server 12 SP2-BCL:bzip2-doc-1.0.6-30.5.1",
            "SUSE Linux Enterprise Server 12 SP2-BCL:libbz2-1-1.0.6-30.5.1",
            "SUSE Linux Enterprise Server 12 SP2-BCL:libbz2-1-32bit-1.0.6-30.5.1",
            "SUSE Linux Enterprise Server 12 SP2-LTSS:bzip2-1.0.6-30.5.1",
            "SUSE Linux Enterprise Server 12 SP2-LTSS:bzip2-doc-1.0.6-30.5.1",
            "SUSE Linux Enterprise Server 12 SP2-LTSS:libbz2-1-1.0.6-30.5.1",
            "SUSE Linux Enterprise Server 12 SP2-LTSS:libbz2-1-32bit-1.0.6-30.5.1",
            "SUSE Linux Enterprise Server 12 SP3-LTSS:bzip2-1.0.6-30.5.1",
            "SUSE Linux Enterprise Server 12 SP3-LTSS:bzip2-doc-1.0.6-30.5.1",
            "SUSE Linux Enterprise Server 12 SP3-LTSS:libbz2-1-1.0.6-30.5.1",
            "SUSE Linux Enterprise Server 12 SP3-LTSS:libbz2-1-32bit-1.0.6-30.5.1",
            "SUSE Linux Enterprise Server 12 SP4:bzip2-1.0.6-30.5.1",
            "SUSE Linux Enterprise Server 12 SP4:bzip2-doc-1.0.6-30.5.1",
            "SUSE Linux Enterprise Server 12 SP4:libbz2-1-1.0.6-30.5.1",
            "SUSE Linux Enterprise Server 12 SP4:libbz2-1-32bit-1.0.6-30.5.1",
            "SUSE Linux Enterprise Server for SAP Applications 12 SP1-LTSS:bzip2-1.0.6-30.5.1",
            "SUSE Linux Enterprise Server for SAP Applications 12 SP1-LTSS:bzip2-doc-1.0.6-30.5.1",
            "SUSE Linux Enterprise Server for SAP Applications 12 SP1-LTSS:libbz2-1-1.0.6-30.5.1",
            "SUSE Linux Enterprise Server for SAP Applications 12 SP1-LTSS:libbz2-1-32bit-1.0.6-30.5.1",
            "SUSE Linux Enterprise Server for SAP Applications 12 SP1:bzip2-1.0.6-30.5.1",
            "SUSE Linux Enterprise Server for SAP Applications 12 SP1:bzip2-doc-1.0.6-30.5.1",
            "SUSE Linux Enterprise Server for SAP Applications 12 SP1:libbz2-1-1.0.6-30.5.1",
            "SUSE Linux Enterprise Server for SAP Applications 12 SP1:libbz2-1-32bit-1.0.6-30.5.1",
            "SUSE Linux Enterprise Server for SAP Applications 12 SP2-BCL:bzip2-1.0.6-30.5.1",
            "SUSE Linux Enterprise Server for SAP Applications 12 SP2-BCL:bzip2-doc-1.0.6-30.5.1",
            "SUSE Linux Enterprise Server for SAP Applications 12 SP2-BCL:libbz2-1-1.0.6-30.5.1",
            "SUSE Linux Enterprise Server for SAP Applications 12 SP2-BCL:libbz2-1-32bit-1.0.6-30.5.1",
            "SUSE Linux Enterprise Server for SAP Applications 12 SP2-LTSS:bzip2-1.0.6-30.5.1",
            "SUSE Linux Enterprise Server for SAP Applications 12 SP2-LTSS:bzip2-doc-1.0.6-30.5.1",
            "SUSE Linux Enterprise Server for SAP Applications 12 SP2-LTSS:libbz2-1-1.0.6-30.5.1",
            "SUSE Linux Enterprise Server for SAP Applications 12 SP2-LTSS:libbz2-1-32bit-1.0.6-30.5.1",
            "SUSE Linux Enterprise Server for SAP Applications 12 SP2:bzip2-1.0.6-30.5.1",
            "SUSE Linux Enterprise Server for SAP Applications 12 SP2:bzip2-doc-1.0.6-30.5.1",
            "SUSE Linux Enterprise Server for SAP Applications 12 SP2:libbz2-1-1.0.6-30.5.1",
            "SUSE Linux Enterprise Server for SAP Applications 12 SP2:libbz2-1-32bit-1.0.6-30.5.1",
            "SUSE Linux Enterprise Server for SAP Applications 12 SP3-LTSS:bzip2-1.0.6-30.5.1",
            "SUSE Linux Enterprise Server for SAP Applications 12 SP3-LTSS:bzip2-doc-1.0.6-30.5.1",
            "SUSE Linux Enterprise Server for SAP Applications 12 SP3-LTSS:libbz2-1-1.0.6-30.5.1",
            "SUSE Linux Enterprise Server for SAP Applications 12 SP3-LTSS:libbz2-1-32bit-1.0.6-30.5.1",
            "SUSE Linux Enterprise Server for SAP Applications 12 SP3:bzip2-1.0.6-30.5.1",
            "SUSE Linux Enterprise Server for SAP Applications 12 SP3:bzip2-doc-1.0.6-30.5.1",
            "SUSE Linux Enterprise Server for SAP Applications 12 SP3:libbz2-1-1.0.6-30.5.1",
            "SUSE Linux Enterprise Server for SAP Applications 12 SP3:libbz2-1-32bit-1.0.6-30.5.1",
            "SUSE Linux Enterprise Server for SAP Applications 12 SP4:bzip2-1.0.6-30.5.1",
            "SUSE Linux Enterprise Server for SAP Applications 12 SP4:bzip2-doc-1.0.6-30.5.1",
            "SUSE Linux Enterprise Server for SAP Applications 12 SP4:libbz2-1-1.0.6-30.5.1",
            "SUSE Linux Enterprise Server for SAP Applications 12 SP4:libbz2-1-32bit-1.0.6-30.5.1",
            "SUSE Linux Enterprise Software Development Kit 12 SP4:bzip2-1.0.6-30.5.1",
            "SUSE Linux Enterprise Software Development Kit 12 SP4:libbz2-devel-1.0.6-30.5.1",
            "SUSE OpenStack Cloud 7:bzip2-1.0.6-30.5.1",
            "SUSE OpenStack Cloud 7:bzip2-doc-1.0.6-30.5.1",
            "SUSE OpenStack Cloud 7:libbz2-1-1.0.6-30.5.1",
            "SUSE OpenStack Cloud 7:libbz2-1-32bit-1.0.6-30.5.1",
            "SUSE OpenStack Cloud 8:bzip2-1.0.6-30.5.1",
            "SUSE OpenStack Cloud 8:bzip2-doc-1.0.6-30.5.1",
            "SUSE OpenStack Cloud 8:libbz2-1-1.0.6-30.5.1",
            "SUSE OpenStack Cloud 8:libbz2-1-32bit-1.0.6-30.5.1"
          ]
        }
      ],
      "CVSSScoreSets": {
        "BaseScore": "3.3",
        "Vector": "AV:L/AC:M/Au:N/C:N/I:P/A:P"
      }
    },
    {
      "CVE": "CVE-2019-12900",
      "Description": "BZ2_decompress in decompress.c in bzip2 through 1.0.6 has an out-of-bounds write when there are many selectors.",
      "Threats": [
        {
          "Type": "Impact",
          "Severity": "important"
        }
      ],
      "References": [
        {
          "URL": "https://www.suse.com/security/cve/CVE-2019-12900.html",
          "Description": "CVE-2019-12900"
        },
        {
          "URL": "https://bugzilla.suse.com/1139083",
          "Description": "SUSE Bug 1139083"
        },
        {
          "URL": "https://bugzilla.suse.com/1149458",
          "Description": "SUSE Bug 1149458"
        }
      ],
      "ProductStatuses": [
        {
          "Type": "Fixed",
          "ProductID": [
            "Container suse/sles12sp4:latest:libbz2-1-1.0.6-30.5.1",
            "Container suse/sles12sp5:latest:libbz2-1-1.0.6-30.5.1",
            "SUSE Enterprise Storage 4:bzip2-1.0.6-30.5.1",
            "SUSE Enterprise Storage 4:bzip2-doc-1.0.6-30.5.1",
            "SUSE Enterprise Storage 4:libbz2-1-1.0.6-30.5.1",
            "SUSE Enterprise Storage 4:libbz2-1-32bit-1.0.6-30.5.1",
            "SUSE Enterprise Storage 5:bzip2-1.0.6-30.5.1",
            "SUSE Enterprise Storage 5:bzip2-doc-1.0.6-30.5.1",
            "SUSE Enterprise Storage 5:libbz2-1-1.0.6-30.5.1",
            "SUSE Enterprise Storage 5:libbz2-1-32bit-1.0.6-30.5.1",
            "SUSE Linux Enterprise Desktop 12 SP4:bzip2-1.0.6-30.5.1",
            "SUSE Linux Enterprise Desktop 12 SP4:libbz2-1-1.0.6-30.5.1",
            "SUSE Linux Enterprise Desktop 12 SP4:libbz2-1-32bit-1.0.6-30.5.1",
            "SUSE Linux Enterprise Server 12 SP1-LTSS:bzip2-1.0.6-30.5.1",
            "SUSE Linux Enterprise Server 12 SP1-LTSS:bzip2-doc-1.0.6-30.5.1",
            "SUSE Linux Enterprise Server 12 SP1-LTSS:libbz2-1-1.0.6-30.5.1",
            "SUSE Linux Enterprise Server 12 SP1-LTSS:libbz2-1-32bit-1.0.6-30.5.1",
            "SUSE Linux Enterprise Server 12 SP2-BCL:bzip2-1.0.6-30.5.1",
            "SUSE Linux Enterprise Server 12 SP2-BCL:bzip2-doc-1.0.6-30.5.1",
            "SUSE Linux Enterprise Server 12 SP2-BCL:libbz2-1-1.0.6-30.5.1",
            "SUSE Linux Enterprise Server 12 SP2-BCL:libbz2-1-32bit-1.0.6-30.5.1",
            "SUSE Linux Enterprise Server 12 SP2-LTSS:bzip2-1.0.6-30.5.1",
            "SUSE Linux Enterprise Server 12 SP2-LTSS:bzip2-doc-1.0.6-30.5.1",
            "SUSE Linux Enterprise Server 12 SP2-LTSS:libbz2-1-1.0.6-30.5.1",
            "SUSE Linux Enterprise Server 12 SP2-LTSS:libbz2-1-32bit-1.0.6-30.5.1",
            "SUSE Linux Enterprise Server 12 SP3-LTSS:bzip2-1.0.6-30.5.1",
            "SUSE Linux Enterprise Server 12 SP3-LTSS:bzip2-doc-1.0.6-30.5.1",
            "SUSE Linux Enterprise Server 12 SP3-LTSS:libbz2-1-1.0.6-30.5.1",
            "SUSE Linux Enterprise Server 12 SP3-LTSS:libbz2-1-32bit-1.0.6-30.5.1",
            "SUSE Linux Enterprise Server 12 SP4:bzip2-1.0.6-30.5.1",
            "SUSE Linux Enterprise Server 12 SP4:bzip2-doc-1.0.6-30.5.1",
            "SUSE Linux Enterprise Server 12 SP4:libbz2-1-1.0.6-30.5.1",
            "SUSE Linux Enterprise Server 12 SP4:libbz2-1-32bit-1.0.6-30.5.1",
            "SUSE Linux Enterprise Server for SAP Applications 12 SP1-LTSS:bzip2-1.0.6-30.5.1",
            "SUSE Linux Enterprise Server for SAP Applications 12 SP1-LTSS:bzip2-doc-1.0.6-30.5.1",
            "SUSE Linux Enterprise Server for SAP Applications 12 SP1-LTSS:libbz2-1-1.0.6-30.5.1",
            "SUSE Linux Enterprise Server for SAP Applications 12 SP1-LTSS:libbz2-1-32bit-1.0.6-30.5.1",
            "SUSE Linux Enterprise Server for SAP Applications 12 SP1:bzip2-1.0.6-30.5.1",
            "SUSE Linux Enterprise Server for SAP Applications 12 SP1:bzip2-doc-1.0.6-30.5.1",
            "SUSE Linux Enterprise Server for SAP Applications 12 SP1:libbz2-1-1.0.6-30.5.1",
            "SUSE Linux Enterprise Server for SAP Applications 12 SP1:libbz2-1-32bit-1.0.6-30.5.1",
            "SUSE Linux Enterprise Server for SAP Applications 12 SP2-BCL:bzip2-1.0.6-30.5.1",
            "SUSE Linux Enterprise Server for SAP Applications 12 SP2-BCL:bzip2-doc-1.0.6-30.5.1",
            "SUSE Linux Enterprise Server for SAP Applications 12 SP2-BCL:libbz2-1-1.0.6-30.5.1",
            "SUSE Linux Enterprise Server for SAP Applications 12 SP2-BCL:libbz2-1-32bit-1.0.6-30.5.1",
            "SUSE Linux Enterprise Server for SAP Applications 12 SP2-LTSS:bzip2-1.0.6-30.5.1",
            "SUSE Linux Enterprise Server for SAP Applications 12 SP2-LTSS:bzip2-doc-1.0.6-30.5.1",
            "SUSE Linux Enterprise Server for SAP Applications 12 SP2-LTSS:libbz2-1-1.0.6-30.5.1",
            "SUSE Linux Enterprise Server for SAP Applications 12 SP2-LTSS:libbz2-1-32bit-1.0.6-30.5.1",
            "SUSE Linux Enterprise Server for SAP Applications 12 SP2:bzip2-1.0.6-30.5.1",
            "SUSE Linux Enterprise Server for SAP Applications 12 SP2:bzip2-doc-1.0.6-30.5.1",
            "SUSE Linux Enterprise Server for SAP Applications 12 SP2:libbz2-1-1.0.6-30.5.1",
            "SUSE Linux Enterprise Server for SAP Applications 12 SP2:libbz2-1-32bit-1.0.6-30.5.1",
            "SUSE Linux Enterprise Server for SAP Applications 12 SP3-LTSS:bzip2-1.0.6-30.5.1",
            "SUSE Linux Enterprise Server for SAP Applications 12 SP3-LTSS:bzip2-doc-1.0.6-30.5.1",
            "SUSE Linux Enterprise Server for SAP Applications 12 SP3-LTSS:libbz2-1-1.0.6-30.5.1",
            "SUSE Linux Enterprise Server for SAP Applications 12 SP3-LTSS:libbz2-1-32bit-1.0.6-30.5.1",
            "SUSE Linux Enterprise Server for SAP Applications 12 SP3:bzip2-1.0.6-30.5.1",
            "SUSE Linux Enterprise Server for SAP Applications 12 SP3:bzip2-doc-1.0.6-30.5.1",
            "SUSE Linux Enterprise Server for SAP Applications 12 SP3:libbz2-1-1.0.6-30.5.1",
            "SUSE Linux Enterprise Server for SAP Applications 12 SP3:libbz2-1-32bit-1.0.6-30.5.1",
            "SUSE Linux Enterprise Server for SAP Applications 12 SP4:bzip2-1.0.6-30.5.1",
            "SUSE Linux Enterprise Server for SAP Applications 12 SP4:bzip2-doc-1.0.6-30.5.1",
            "SUSE Linux Enterprise Server for SAP Applications 12 SP4:libbz2-1-1.0.6-30.5.1",
            "SUSE Linux Enterprise Server for SAP Applications 12 SP4:libbz2-1-32bit-1.0.6-30.5.1",
            "SUSE Linux Enterprise Software Development Kit 12 SP4:bzip2-1.0.6-30.5.1",
            "SUSE Linux Enterprise Software Development Kit 12 SP4:libbz2-devel-1.0.6-30.5.1",
            "SUSE OpenStack Cloud 7:bzip2-1.0.6-30.5.1",
            "SUSE OpenStack Cloud 7:bzip2-doc-1.0.6-30.5.1",
            "SUSE OpenStack Cloud 7:libbz2-1-1.0.6-30.5.1",
            "SUSE OpenStack Cloud 7:libbz2-1-32bit-1.0.6-30.5.1",
            "SUSE OpenStack Cloud 8:bzip2-1.0.6-30.5.1",
            "SUSE OpenStack Cloud 8:bzip2-doc-1.0.6-30.5.1",
            "SUSE OpenStack Cloud 8:libbz2-1-1.0.6-30.5.1",
            "SUSE OpenStack Cloud 8:libbz2-1-32bit-1.0.6-30.5.1"
          ]
        }
      ],
      "CVSSScoreSets": {}
    }
  ]
}