{
  "Title": "Security update for the Linux Kernel (Live Patch 28 for SLE 12 SP3)",
  "Tracking": {
    "ID": "SUSE-SU-2019:3230-1",
    "Status": "Final",
    "Version": "1",
    "InitialReleaseDate": "2019-12-10T09:16:29Z",
    "CurrentReleaseDate": "2019-12-10T09:16:29Z",
    "RevisionHistory": [
      {
        "Number": "1",
        "Date": "2019-12-10T09:16:29Z",
        "Description": "current"
      }
    ]
  },
  "Notes": [
    {
      "Text": "Security update for the Linux Kernel (Live Patch 28 for SLE 12 SP3)",
      "Title": "Topic",
      "Type": "Summary"
    },
    {
      "Text": "This update for the Linux Kernel 4.4.180-94_103 fixes several issues.\n\nThe following security issues were fixed:\n\n- CVE-2019-13272: Fixed a privilege escalation from user to root due to improper handling of credentials by leveraging certain scenarios with a parent-child process relationship (bsc#1156321).\n- CVE-2019-15239: Fixed a vulnerability where a local attacker could have triggered multiple use-after-free conditions resulted in privilege escalation (bsc#1156317).\n- CVE-2019-10220: Fixed an issue where samba servers could inject relative paths in directory entry lists (bsc#1153108).\n\nThe following bugs were fixed:\n\n- Fixed boot up hang revealed by int3 self test (bsc#1157770).\n",
      "Title": "Details",
      "Type": "General"
    },
    {
      "Text": "The CVRF data is provided by SUSE under the Creative Commons License 4.0 with Attribution for Non-Commercial usage (CC-BY-NC-4.0).",
      "Title": "Terms of Use",
      "Type": "Legal Disclaimer"
    }
  ],
  "ProductTree": {
    "Relationships": [
      {
        "ProductReference": "kgraft-patch-4_12_14-95_19-default-5-2.1",
        "RelatesToProductReference": "SUSE Linux Enterprise Live Patching 12 SP4",
        "RelationType": "Default Component Of"
      },
      {
        "ProductReference": "kgraft-patch-SLE12-SP4_Update_5-5-2.1",
        "RelatesToProductReference": "SUSE Linux Enterprise Live Patching 12 SP4",
        "RelationType": "Default Component Of"
      },
      {
        "ProductReference": "kernel-livepatch-4_12_14-197_7-default-6-2.1",
        "RelatesToProductReference": "SUSE Linux Enterprise Module for Live Patching 15 SP1",
        "RelationType": "Default Component Of"
      },
      {
        "ProductReference": "kernel-livepatch-SLE15-SP1_Update_2-6-2.1",
        "RelatesToProductReference": "SUSE Linux Enterprise Module for Live Patching 15 SP1",
        "RelationType": "Default Component Of"
      },
      {
        "ProductReference": "kgraft-patch-4_4_180-94_103-default-4-2.1",
        "RelatesToProductReference": "SUSE Linux Enterprise Server for SAP Applications 12 SP3",
        "RelationType": "Default Component Of"
      },
      {
        "ProductReference": "kgraft-patch-SLE12-SP3_Update_28-4-2.1",
        "RelatesToProductReference": "SUSE Linux Enterprise Server for SAP Applications 12 SP3",
        "RelationType": "Default Component Of"
      },
      {
        "ProductReference": "kgraft-patch-4_4_180-94_103-default-4-2.1",
        "RelatesToProductReference": "SUSE Linux Enterprise Server 12 SP3-LTSS",
        "RelationType": "Default Component Of"
      },
      {
        "ProductReference": "kgraft-patch-SLE12-SP3_Update_28-4-2.1",
        "RelatesToProductReference": "SUSE Linux Enterprise Server 12 SP3-LTSS",
        "RelationType": "Default Component Of"
      },
      {
        "ProductReference": "kgraft-patch-4_4_180-94_103-default-4-2.1",
        "RelatesToProductReference": "SUSE Linux Enterprise Server for SAP Applications 12 SP3-LTSS",
        "RelationType": "Default Component Of"
      },
      {
        "ProductReference": "kgraft-patch-SLE12-SP3_Update_28-4-2.1",
        "RelatesToProductReference": "SUSE Linux Enterprise Server for SAP Applications 12 SP3-LTSS",
        "RelationType": "Default Component Of"
      }
    ]
  },
  "References": [
    {
      "URL": "https://www.suse.com/support/update/announcement/2019/suse-su-20193230-1/",
      "Description": "Link for SUSE-SU-2019:3230-1"
    },
    {
      "URL": "http://lists.suse.com/pipermail/sle-security-updates/2019-December/006235.html",
      "Description": "E-Mail link for SUSE-SU-2019:3230-1"
    },
    {
      "URL": "https://www.suse.com/support/security/rating/",
      "Description": "SUSE Security Ratings"
    }
  ],
  "Vulnerabilities": [
    {
      "CVE": "CVE-2019-10220",
      "Description": "Linux kernel CIFS implementation, version 4.9.0 is vulnerable to a relative paths injection in directory entry lists.",
      "Threats": [
        {
          "Type": "Impact",
          "Severity": "important"
        }
      ],
      "References": [
        {
          "URL": "https://www.suse.com/security/cve/CVE-2019-10220.html",
          "Description": "CVE-2019-10220"
        },
        {
          "URL": "https://bugzilla.suse.com/1144903",
          "Description": "SUSE Bug 1144903"
        },
        {
          "URL": "https://bugzilla.suse.com/1153108",
          "Description": "SUSE Bug 1153108"
        }
      ],
      "ProductStatuses": [
        {
          "Type": "Fixed",
          "ProductID": [
            "SUSE Linux Enterprise Live Patching 12 SP4:kgraft-patch-4_12_14-95_19-default-5-2.1",
            "SUSE Linux Enterprise Live Patching 12 SP4:kgraft-patch-SLE12-SP4_Update_5-5-2.1",
            "SUSE Linux Enterprise Module for Live Patching 15 SP1:kernel-livepatch-4_12_14-197_7-default-6-2.1",
            "SUSE Linux Enterprise Module for Live Patching 15 SP1:kernel-livepatch-SLE15-SP1_Update_2-6-2.1",
            "SUSE Linux Enterprise Server 12 SP3-LTSS:kgraft-patch-4_4_180-94_103-default-4-2.1",
            "SUSE Linux Enterprise Server 12 SP3-LTSS:kgraft-patch-SLE12-SP3_Update_28-4-2.1",
            "SUSE Linux Enterprise Server for SAP Applications 12 SP3-LTSS:kgraft-patch-4_4_180-94_103-default-4-2.1",
            "SUSE Linux Enterprise Server for SAP Applications 12 SP3-LTSS:kgraft-patch-SLE12-SP3_Update_28-4-2.1",
            "SUSE Linux Enterprise Server for SAP Applications 12 SP3:kgraft-patch-4_4_180-94_103-default-4-2.1",
            "SUSE Linux Enterprise Server for SAP Applications 12 SP3:kgraft-patch-SLE12-SP3_Update_28-4-2.1"
          ]
        }
      ],
      "CVSSScoreSets": {}
    },
    {
      "CVE": "CVE-2019-13272",
      "Description": "In the Linux kernel before 5.1.17, ptrace_link in kernel/ptrace.c mishandles the recording of the credentials of a process that wants to create a ptrace relationship, which allows local users to obtain root access by leveraging certain scenarios with a parent-child process relationship, where a parent drops privileges and calls execve (potentially allowing control by an attacker). One contributing factor is an object lifetime issue (which can also cause a panic). Another contributing factor is incorrect marking of a ptrace relationship as privileged, which is exploitable through (for example) Polkit's pkexec helper with PTRACE_TRACEME. NOTE: SELinux deny_ptrace might be a usable workaround in some environments.",
      "Threats": [
        {
          "Type": "Impact",
          "Severity": "important"
        }
      ],
      "References": [
        {
          "URL": "https://www.suse.com/security/cve/CVE-2019-13272.html",
          "Description": "CVE-2019-13272"
        },
        {
          "URL": "https://bugzilla.suse.com/1140671",
          "Description": "SUSE Bug 1140671"
        },
        {
          "URL": "https://bugzilla.suse.com/1156321",
          "Description": "SUSE Bug 1156321"
        }
      ],
      "ProductStatuses": [
        {
          "Type": "Fixed",
          "ProductID": [
            "SUSE Linux Enterprise Live Patching 12 SP4:kgraft-patch-4_12_14-95_19-default-5-2.1",
            "SUSE Linux Enterprise Live Patching 12 SP4:kgraft-patch-SLE12-SP4_Update_5-5-2.1",
            "SUSE Linux Enterprise Module for Live Patching 15 SP1:kernel-livepatch-4_12_14-197_7-default-6-2.1",
            "SUSE Linux Enterprise Module for Live Patching 15 SP1:kernel-livepatch-SLE15-SP1_Update_2-6-2.1",
            "SUSE Linux Enterprise Server 12 SP3-LTSS:kgraft-patch-4_4_180-94_103-default-4-2.1",
            "SUSE Linux Enterprise Server 12 SP3-LTSS:kgraft-patch-SLE12-SP3_Update_28-4-2.1",
            "SUSE Linux Enterprise Server for SAP Applications 12 SP3-LTSS:kgraft-patch-4_4_180-94_103-default-4-2.1",
            "SUSE Linux Enterprise Server for SAP Applications 12 SP3-LTSS:kgraft-patch-SLE12-SP3_Update_28-4-2.1",
            "SUSE Linux Enterprise Server for SAP Applications 12 SP3:kgraft-patch-4_4_180-94_103-default-4-2.1",
            "SUSE Linux Enterprise Server for SAP Applications 12 SP3:kgraft-patch-SLE12-SP3_Update_28-4-2.1"
          ]
        }
      ],
      "CVSSScoreSets": {}
    },
    {
      "CVE": "CVE-2019-15239",
      "Description": "In the Linux kernel, a certain net/ipv4/tcp_output.c change, which was properly incorporated into 4.16.12, was incorrectly backported to the earlier longterm kernels, introducing a new vulnerability that was potentially more severe than the issue that was intended to be fixed by backporting. Specifically, by adding to a write queue between disconnection and re-connection, a local attacker can trigger multiple use-after-free conditions. This can result in a kernel crash, or potentially in privilege escalation. NOTE: this affects (for example) Linux distributions that use 4.9.x longterm kernels before 4.9.190 or 4.14.x longterm kernels before 4.14.139.",
      "Threats": [
        {
          "Type": "Impact",
          "Severity": "important"
        }
      ],
      "References": [
        {
          "URL": "https://www.suse.com/security/cve/CVE-2019-15239.html",
          "Description": "CVE-2019-15239"
        },
        {
          "URL": "https://bugzilla.suse.com/1146589",
          "Description": "SUSE Bug 1146589"
        },
        {
          "URL": "https://bugzilla.suse.com/1156317",
          "Description": "SUSE Bug 1156317"
        }
      ],
      "ProductStatuses": [
        {
          "Type": "Fixed",
          "ProductID": [
            "SUSE Linux Enterprise Live Patching 12 SP4:kgraft-patch-4_12_14-95_19-default-5-2.1",
            "SUSE Linux Enterprise Live Patching 12 SP4:kgraft-patch-SLE12-SP4_Update_5-5-2.1",
            "SUSE Linux Enterprise Module for Live Patching 15 SP1:kernel-livepatch-4_12_14-197_7-default-6-2.1",
            "SUSE Linux Enterprise Module for Live Patching 15 SP1:kernel-livepatch-SLE15-SP1_Update_2-6-2.1",
            "SUSE Linux Enterprise Server 12 SP3-LTSS:kgraft-patch-4_4_180-94_103-default-4-2.1",
            "SUSE Linux Enterprise Server 12 SP3-LTSS:kgraft-patch-SLE12-SP3_Update_28-4-2.1",
            "SUSE Linux Enterprise Server for SAP Applications 12 SP3-LTSS:kgraft-patch-4_4_180-94_103-default-4-2.1",
            "SUSE Linux Enterprise Server for SAP Applications 12 SP3-LTSS:kgraft-patch-SLE12-SP3_Update_28-4-2.1",
            "SUSE Linux Enterprise Server for SAP Applications 12 SP3:kgraft-patch-4_4_180-94_103-default-4-2.1",
            "SUSE Linux Enterprise Server for SAP Applications 12 SP3:kgraft-patch-SLE12-SP3_Update_28-4-2.1"
          ]
        }
      ],
      "CVSSScoreSets": {}
    }
  ]
}