{
  "Title": "Security update for libgxps",
  "Tracking": {
    "ID": "SUSE-SU-2019:0720-1",
    "Status": "Final",
    "Version": "1",
    "InitialReleaseDate": "2019-03-22T15:53:55Z",
    "CurrentReleaseDate": "2019-03-22T15:53:55Z",
    "RevisionHistory": [
      {
        "Number": "1",
        "Date": "2019-03-22T15:53:55Z",
        "Description": "current"
      }
    ]
  },
  "Notes": [
    {
      "Text": "Security update for libgxps",
      "Title": "Topic",
      "Type": "Summary"
    },
    {
      "Text": "This update for libgxps fixes the following issues:\n\n- CVE-2018-10733: Fixed a heap-based buffer over-read issue in ft_font_face_hash (bsc#1092125).\n\n",
      "Title": "Details",
      "Type": "General"
    },
    {
      "Text": "The CVRF data is provided by SUSE under the Creative Commons License 4.0 with Attribution for Non-Commercial usage (CC-BY-NC-4.0).",
      "Title": "Terms of Use",
      "Type": "Legal Disclaimer"
    }
  ],
  "ProductTree": {
    "Relationships": [
      {
        "ProductReference": "libgxps-0.3.0-4.3.29",
        "RelatesToProductReference": "SUSE Linux Enterprise Module for Desktop Applications 15",
        "RelationType": "Default Component Of"
      },
      {
        "ProductReference": "libgxps-devel-0.3.0-4.3.29",
        "RelatesToProductReference": "SUSE Linux Enterprise Module for Desktop Applications 15",
        "RelationType": "Default Component Of"
      },
      {
        "ProductReference": "libgxps2-0.3.0-4.3.29",
        "RelatesToProductReference": "SUSE Linux Enterprise Module for Desktop Applications 15",
        "RelationType": "Default Component Of"
      },
      {
        "ProductReference": "typelib-1_0-GXPS-0_1-0.3.0-4.3.29",
        "RelatesToProductReference": "SUSE Linux Enterprise Module for Desktop Applications 15",
        "RelationType": "Default Component Of"
      },
      {
        "ProductReference": "libgxps-0.3.0-4.3.29",
        "RelatesToProductReference": "SUSE Linux Enterprise Module for Open Buildservice Development Tools 15",
        "RelationType": "Default Component Of"
      },
      {
        "ProductReference": "libgxps-tools-0.3.0-4.3.29",
        "RelatesToProductReference": "SUSE Linux Enterprise Module for Open Buildservice Development Tools 15",
        "RelationType": "Default Component Of"
      }
    ]
  },
  "References": [
    {
      "URL": "https://www.suse.com/support/update/announcement/2019/suse-su-20190720-1/",
      "Description": "Link for SUSE-SU-2019:0720-1"
    },
    {
      "URL": "http://lists.suse.com/pipermail/sle-security-updates/2019-March/005223.html",
      "Description": "E-Mail link for SUSE-SU-2019:0720-1"
    },
    {
      "URL": "https://www.suse.com/support/security/rating/",
      "Description": "SUSE Security Ratings"
    }
  ],
  "Vulnerabilities": [
    {
      "CVE": "CVE-2018-10733",
      "Description": "There is a heap-based buffer over-read in the function ft_font_face_hash of gxps-fonts.c in libgxps through 0.3.0. A crafted input will lead to a remote denial of service attack.",
      "Threats": [
        {
          "Type": "Impact",
          "Severity": "moderate"
        }
      ],
      "References": [
        {
          "URL": "https://www.suse.com/security/cve/CVE-2018-10733.html",
          "Description": "CVE-2018-10733"
        },
        {
          "URL": "https://bugzilla.suse.com/1092125",
          "Description": "SUSE Bug 1092125"
        }
      ],
      "ProductStatuses": [
        {
          "Type": "Fixed",
          "ProductID": [
            "SUSE Linux Enterprise Module for Desktop Applications 15:libgxps-0.3.0-4.3.29",
            "SUSE Linux Enterprise Module for Desktop Applications 15:libgxps-devel-0.3.0-4.3.29",
            "SUSE Linux Enterprise Module for Desktop Applications 15:libgxps2-0.3.0-4.3.29",
            "SUSE Linux Enterprise Module for Desktop Applications 15:typelib-1_0-GXPS-0_1-0.3.0-4.3.29",
            "SUSE Linux Enterprise Module for Open Buildservice Development Tools 15:libgxps-0.3.0-4.3.29",
            "SUSE Linux Enterprise Module for Open Buildservice Development Tools 15:libgxps-tools-0.3.0-4.3.29"
          ]
        }
      ],
      "CVSSScoreSets": {}
    }
  ]
}