{
  "Title": "Security update for the Linux Kernel (Live Patch 21 for SLE 12 SP3)",
  "Tracking": {
    "ID": "SUSE-SU-2019:1948-1",
    "Status": "Final",
    "Version": "1",
    "InitialReleaseDate": "2019-07-23T08:07:58Z",
    "CurrentReleaseDate": "2019-07-23T08:07:58Z",
    "RevisionHistory": [
      {
        "Number": "1",
        "Date": "2019-07-23T08:07:58Z",
        "Description": "current"
      }
    ]
  },
  "Notes": [
    {
      "Text": "Security update for the Linux Kernel (Live Patch 21 for SLE 12 SP3)",
      "Title": "Topic",
      "Type": "Summary"
    },
    {
      "Text": "This update for the Linux Kernel 4.4.162-94_69 fixes several issues.\n\nThe following security issues were fixed:\n\n- CVE-2019-11477: Jonathan Looney discovered that the TCP_SKB_CB(skb)-\u003etcp_gso_segs value was subject to an integer overflow when handling TCP Selective Acknowledgments (SACKs). A remote attacker could use this to cause a denial of service. (bsc#1137586)\n- CVE-2019-11478: Jonathan Looney discovered that the TCP retransmission queue implementation in tcp_fragment could be fragmented when handling certain TCP Selective Acknowledgment (SACK) sequences. A remote attacker could use this to cause a denial of service. (bsc#1137586)\n- CVE-2019-3846: A flaw that allowed an attacker to corrupt memory and possibly escalate privileges was found in the mwifiex kernel module while connecting to a malicious wireless network (bsc#1136424).\n\nThis update contains a regression fix for CVE-2019-11477 and CVE-2019-11478 (bsc#1140747).\n",
      "Title": "Details",
      "Type": "General"
    },
    {
      "Text": "The CVRF data is provided by SUSE under the Creative Commons License 4.0 with Attribution for Non-Commercial usage (CC-BY-NC-4.0).",
      "Title": "Terms of Use",
      "Type": "Legal Disclaimer"
    }
  ],
  "ProductTree": {
    "Relationships": [
      {
        "ProductReference": "kgraft-patch-4_12_14-94_41-default-6-2.16.1",
        "RelatesToProductReference": "SUSE Linux Enterprise Live Patching 12 SP4",
        "RelationType": "Default Component Of"
      },
      {
        "ProductReference": "kgraft-patch-SLE12-SP4_Update_0-6-2.16.1",
        "RelatesToProductReference": "SUSE Linux Enterprise Live Patching 12 SP4",
        "RelationType": "Default Component Of"
      },
      {
        "ProductReference": "kgraft-patch-4_4_121-92_92-default-8-2.1",
        "RelatesToProductReference": "SUSE Linux Enterprise Server for SAP Applications 12 SP2",
        "RelationType": "Default Component Of"
      },
      {
        "ProductReference": "kgraft-patch-SLE12-SP2_Update_24-8-2.1",
        "RelatesToProductReference": "SUSE Linux Enterprise Server for SAP Applications 12 SP2",
        "RelationType": "Default Component Of"
      },
      {
        "ProductReference": "kgraft-patch-4_4_140-94_42-default-10-2.1",
        "RelatesToProductReference": "SUSE Linux Enterprise Server for SAP Applications 12 SP3",
        "RelationType": "Default Component Of"
      },
      {
        "ProductReference": "kgraft-patch-SLE12-SP3_Update_15-10-2.1",
        "RelatesToProductReference": "SUSE Linux Enterprise Server for SAP Applications 12 SP3",
        "RelationType": "Default Component Of"
      },
      {
        "ProductReference": "kgraft-patch-4_4_121-92_92-default-8-2.1",
        "RelatesToProductReference": "SUSE Linux Enterprise Server 12 SP2-LTSS",
        "RelationType": "Default Component Of"
      },
      {
        "ProductReference": "kgraft-patch-SLE12-SP2_Update_24-8-2.1",
        "RelatesToProductReference": "SUSE Linux Enterprise Server 12 SP2-LTSS",
        "RelationType": "Default Component Of"
      },
      {
        "ProductReference": "kgraft-patch-4_4_121-92_92-default-8-2.1",
        "RelatesToProductReference": "SUSE Linux Enterprise Server for SAP Applications 12 SP2-LTSS",
        "RelationType": "Default Component Of"
      },
      {
        "ProductReference": "kgraft-patch-SLE12-SP2_Update_24-8-2.1",
        "RelatesToProductReference": "SUSE Linux Enterprise Server for SAP Applications 12 SP2-LTSS",
        "RelationType": "Default Component Of"
      },
      {
        "ProductReference": "kgraft-patch-4_4_140-94_42-default-10-2.1",
        "RelatesToProductReference": "SUSE Linux Enterprise Server 12 SP3-LTSS",
        "RelationType": "Default Component Of"
      },
      {
        "ProductReference": "kgraft-patch-SLE12-SP3_Update_15-10-2.1",
        "RelatesToProductReference": "SUSE Linux Enterprise Server 12 SP3-LTSS",
        "RelationType": "Default Component Of"
      },
      {
        "ProductReference": "kgraft-patch-4_4_140-94_42-default-10-2.1",
        "RelatesToProductReference": "SUSE Linux Enterprise Server for SAP Applications 12 SP3-LTSS",
        "RelationType": "Default Component Of"
      },
      {
        "ProductReference": "kgraft-patch-SLE12-SP3_Update_15-10-2.1",
        "RelatesToProductReference": "SUSE Linux Enterprise Server for SAP Applications 12 SP3-LTSS",
        "RelationType": "Default Component Of"
      }
    ]
  },
  "References": [
    {
      "URL": "https://www.suse.com/support/update/announcement/2019/suse-su-20191948-1/",
      "Description": "Link for SUSE-SU-2019:1948-1"
    },
    {
      "URL": "http://lists.suse.com/pipermail/sle-security-updates/2019-July/005744.html",
      "Description": "E-Mail link for SUSE-SU-2019:1948-1"
    },
    {
      "URL": "https://www.suse.com/support/security/rating/",
      "Description": "SUSE Security Ratings"
    }
  ],
  "Vulnerabilities": [
    {
      "CVE": "CVE-2019-11477",
      "Description": "Jonathan Looney discovered that the TCP_SKB_CB(skb)-\u003etcp_gso_segs value was subject to an integer overflow in the Linux kernel when handling TCP Selective Acknowledgments (SACKs). A remote attacker could use this to cause a denial of service. This has been fixed in stable kernel releases 4.4.182, 4.9.182, 4.14.127, 4.19.52, 5.1.11, and is fixed in commit 3b4929f65b0d8249f19a50245cd88ed1a2f78cff.",
      "Threats": [
        {
          "Type": "Impact",
          "Severity": "important"
        }
      ],
      "References": [
        {
          "URL": "https://www.suse.com/security/cve/CVE-2019-11477.html",
          "Description": "CVE-2019-11477"
        },
        {
          "URL": "https://bugzilla.suse.com/1132686",
          "Description": "SUSE Bug 1132686"
        },
        {
          "URL": "https://bugzilla.suse.com/1137586",
          "Description": "SUSE Bug 1137586"
        }
      ],
      "ProductStatuses": [
        {
          "Type": "Fixed",
          "ProductID": [
            "SUSE Linux Enterprise Live Patching 12 SP4:kgraft-patch-4_12_14-94_41-default-6-2.16.1",
            "SUSE Linux Enterprise Live Patching 12 SP4:kgraft-patch-SLE12-SP4_Update_0-6-2.16.1",
            "SUSE Linux Enterprise Server 12 SP2-LTSS:kgraft-patch-4_4_121-92_92-default-8-2.1",
            "SUSE Linux Enterprise Server 12 SP2-LTSS:kgraft-patch-SLE12-SP2_Update_24-8-2.1",
            "SUSE Linux Enterprise Server 12 SP3-LTSS:kgraft-patch-4_4_140-94_42-default-10-2.1",
            "SUSE Linux Enterprise Server 12 SP3-LTSS:kgraft-patch-SLE12-SP3_Update_15-10-2.1",
            "SUSE Linux Enterprise Server for SAP Applications 12 SP2-LTSS:kgraft-patch-4_4_121-92_92-default-8-2.1",
            "SUSE Linux Enterprise Server for SAP Applications 12 SP2-LTSS:kgraft-patch-SLE12-SP2_Update_24-8-2.1",
            "SUSE Linux Enterprise Server for SAP Applications 12 SP2:kgraft-patch-4_4_121-92_92-default-8-2.1",
            "SUSE Linux Enterprise Server for SAP Applications 12 SP2:kgraft-patch-SLE12-SP2_Update_24-8-2.1",
            "SUSE Linux Enterprise Server for SAP Applications 12 SP3-LTSS:kgraft-patch-4_4_140-94_42-default-10-2.1",
            "SUSE Linux Enterprise Server for SAP Applications 12 SP3-LTSS:kgraft-patch-SLE12-SP3_Update_15-10-2.1",
            "SUSE Linux Enterprise Server for SAP Applications 12 SP3:kgraft-patch-4_4_140-94_42-default-10-2.1",
            "SUSE Linux Enterprise Server for SAP Applications 12 SP3:kgraft-patch-SLE12-SP3_Update_15-10-2.1"
          ]
        }
      ],
      "CVSSScoreSets": {}
    },
    {
      "CVE": "CVE-2019-11478",
      "Description": "Jonathan Looney discovered that the TCP retransmission queue implementation in tcp_fragment in the Linux kernel could be fragmented when handling certain TCP Selective Acknowledgment (SACK) sequences. A remote attacker could use this to cause a denial of service. This has been fixed in stable kernel releases 4.4.182, 4.9.182, 4.14.127, 4.19.52, 5.1.11, and is fixed in commit f070ef2ac66716357066b683fb0baf55f8191a2e.",
      "Threats": [
        {
          "Type": "Impact",
          "Severity": "important"
        }
      ],
      "References": [
        {
          "URL": "https://www.suse.com/security/cve/CVE-2019-11478.html",
          "Description": "CVE-2019-11478"
        },
        {
          "URL": "https://bugzilla.suse.com/1132686",
          "Description": "SUSE Bug 1132686"
        },
        {
          "URL": "https://bugzilla.suse.com/1137586",
          "Description": "SUSE Bug 1137586"
        }
      ],
      "ProductStatuses": [
        {
          "Type": "Fixed",
          "ProductID": [
            "SUSE Linux Enterprise Live Patching 12 SP4:kgraft-patch-4_12_14-94_41-default-6-2.16.1",
            "SUSE Linux Enterprise Live Patching 12 SP4:kgraft-patch-SLE12-SP4_Update_0-6-2.16.1",
            "SUSE Linux Enterprise Server 12 SP2-LTSS:kgraft-patch-4_4_121-92_92-default-8-2.1",
            "SUSE Linux Enterprise Server 12 SP2-LTSS:kgraft-patch-SLE12-SP2_Update_24-8-2.1",
            "SUSE Linux Enterprise Server 12 SP3-LTSS:kgraft-patch-4_4_140-94_42-default-10-2.1",
            "SUSE Linux Enterprise Server 12 SP3-LTSS:kgraft-patch-SLE12-SP3_Update_15-10-2.1",
            "SUSE Linux Enterprise Server for SAP Applications 12 SP2-LTSS:kgraft-patch-4_4_121-92_92-default-8-2.1",
            "SUSE Linux Enterprise Server for SAP Applications 12 SP2-LTSS:kgraft-patch-SLE12-SP2_Update_24-8-2.1",
            "SUSE Linux Enterprise Server for SAP Applications 12 SP2:kgraft-patch-4_4_121-92_92-default-8-2.1",
            "SUSE Linux Enterprise Server for SAP Applications 12 SP2:kgraft-patch-SLE12-SP2_Update_24-8-2.1",
            "SUSE Linux Enterprise Server for SAP Applications 12 SP3-LTSS:kgraft-patch-4_4_140-94_42-default-10-2.1",
            "SUSE Linux Enterprise Server for SAP Applications 12 SP3-LTSS:kgraft-patch-SLE12-SP3_Update_15-10-2.1",
            "SUSE Linux Enterprise Server for SAP Applications 12 SP3:kgraft-patch-4_4_140-94_42-default-10-2.1",
            "SUSE Linux Enterprise Server for SAP Applications 12 SP3:kgraft-patch-SLE12-SP3_Update_15-10-2.1"
          ]
        }
      ],
      "CVSSScoreSets": {}
    },
    {
      "CVE": "CVE-2019-3846",
      "Description": "A flaw that allowed an attacker to corrupt memory and possibly escalate privileges was found in the mwifiex kernel module while connecting to a malicious wireless network.",
      "Threats": [
        {
          "Type": "Impact",
          "Severity": "important"
        }
      ],
      "References": [
        {
          "URL": "https://www.suse.com/security/cve/CVE-2019-3846.html",
          "Description": "CVE-2019-3846"
        },
        {
          "URL": "https://bugzilla.suse.com/1136424",
          "Description": "SUSE Bug 1136424"
        },
        {
          "URL": "https://bugzilla.suse.com/1136446",
          "Description": "SUSE Bug 1136446"
        },
        {
          "URL": "https://bugzilla.suse.com/1156330",
          "Description": "SUSE Bug 1156330"
        }
      ],
      "ProductStatuses": [
        {
          "Type": "Fixed",
          "ProductID": [
            "SUSE Linux Enterprise Live Patching 12 SP4:kgraft-patch-4_12_14-94_41-default-6-2.16.1",
            "SUSE Linux Enterprise Live Patching 12 SP4:kgraft-patch-SLE12-SP4_Update_0-6-2.16.1",
            "SUSE Linux Enterprise Server 12 SP2-LTSS:kgraft-patch-4_4_121-92_92-default-8-2.1",
            "SUSE Linux Enterprise Server 12 SP2-LTSS:kgraft-patch-SLE12-SP2_Update_24-8-2.1",
            "SUSE Linux Enterprise Server 12 SP3-LTSS:kgraft-patch-4_4_140-94_42-default-10-2.1",
            "SUSE Linux Enterprise Server 12 SP3-LTSS:kgraft-patch-SLE12-SP3_Update_15-10-2.1",
            "SUSE Linux Enterprise Server for SAP Applications 12 SP2-LTSS:kgraft-patch-4_4_121-92_92-default-8-2.1",
            "SUSE Linux Enterprise Server for SAP Applications 12 SP2-LTSS:kgraft-patch-SLE12-SP2_Update_24-8-2.1",
            "SUSE Linux Enterprise Server for SAP Applications 12 SP2:kgraft-patch-4_4_121-92_92-default-8-2.1",
            "SUSE Linux Enterprise Server for SAP Applications 12 SP2:kgraft-patch-SLE12-SP2_Update_24-8-2.1",
            "SUSE Linux Enterprise Server for SAP Applications 12 SP3-LTSS:kgraft-patch-4_4_140-94_42-default-10-2.1",
            "SUSE Linux Enterprise Server for SAP Applications 12 SP3-LTSS:kgraft-patch-SLE12-SP3_Update_15-10-2.1",
            "SUSE Linux Enterprise Server for SAP Applications 12 SP3:kgraft-patch-4_4_140-94_42-default-10-2.1",
            "SUSE Linux Enterprise Server for SAP Applications 12 SP3:kgraft-patch-SLE12-SP3_Update_15-10-2.1"
          ]
        }
      ],
      "CVSSScoreSets": {}
    }
  ]
}