{
  "Title": "Security update for python-ecdsa",
  "Tracking": {
    "ID": "SUSE-SU-2019:2891-2",
    "Status": "Final",
    "Version": "1",
    "InitialReleaseDate": "2019-11-04T16:47:10Z",
    "CurrentReleaseDate": "2019-11-04T16:47:10Z",
    "RevisionHistory": [
      {
        "Number": "1",
        "Date": "2019-11-04T16:47:10Z",
        "Description": "current"
      }
    ]
  },
  "Notes": [
    {
      "Text": "Security update for python-ecdsa",
      "Title": "Topic",
      "Type": "Summary"
    },
    {
      "Text": "This update for python-ecdsa to version 0.13.3 fixes the following issues:\n\nSecurity issues fixed:\n\n- CVE-2019-14853: Fixed unexpected exceptions during signature decoding (bsc#1153165).\n- CVE-2019-14859: Fixed a signature malleability caused by insufficient checks of DER encoding (bsc#1154217).\n",
      "Title": "Details",
      "Type": "General"
    },
    {
      "Text": "The CVRF data is provided by SUSE under the Creative Commons License 4.0 with Attribution for Non-Commercial usage (CC-BY-NC-4.0).",
      "Title": "Terms of Use",
      "Type": "Legal Disclaimer"
    }
  ],
  "ProductTree": {
    "Relationships": [
      {
        "ProductReference": "python3-ecdsa-0.13.3-3.3.1",
        "RelatesToProductReference": "Container caasp/v4.5/k8s-sidecar:0.1.75",
        "RelationType": "Default Component Of"
      },
      {
        "ProductReference": "python3-ecdsa-0.13.3-3.3.1",
        "RelatesToProductReference": "Container caasp/v4/k8s-sidecar:0.1.75",
        "RelationType": "Default Component Of"
      },
      {
        "ProductReference": "python3-ecdsa-0.13.3-3.3.1",
        "RelatesToProductReference": "Image SLES15-EC2-CHOST-HVM-BYOS",
        "RelationType": "Default Component Of"
      },
      {
        "ProductReference": "python3-ecdsa-0.13.3-3.3.1",
        "RelatesToProductReference": "Image SLES15-SP1-CHOST-BYOS-Ali",
        "RelationType": "Default Component Of"
      },
      {
        "ProductReference": "python3-ecdsa-0.13.3-3.3.1",
        "RelatesToProductReference": "Image SLES15-SP1-CHOST-BYOS-EC2",
        "RelationType": "Default Component Of"
      },
      {
        "ProductReference": "python3-ecdsa-0.13.3-3.3.1",
        "RelatesToProductReference": "Image SLES15-SP1-CHOST-BYOS-OpenStack",
        "RelationType": "Default Component Of"
      },
      {
        "ProductReference": "python3-ecdsa-0.13.3-3.3.1",
        "RelatesToProductReference": "Image SLES15-SP2-CHOST-BYOS-Ali",
        "RelationType": "Default Component Of"
      },
      {
        "ProductReference": "python3-ecdsa-0.13.3-3.3.1",
        "RelatesToProductReference": "Image SLES15-SP2-CHOST-BYOS-Azure",
        "RelationType": "Default Component Of"
      },
      {
        "ProductReference": "python3-ecdsa-0.13.3-3.3.1",
        "RelatesToProductReference": "Image SLES15-SP2-CHOST-BYOS-EC2",
        "RelationType": "Default Component Of"
      },
      {
        "ProductReference": "python3-ecdsa-0.13.3-3.3.1",
        "RelatesToProductReference": "Image SLES15-SP2-CHOST-BYOS-OpenStack",
        "RelationType": "Default Component Of"
      },
      {
        "ProductReference": "python3-ecdsa-0.13.3-3.3.1",
        "RelatesToProductReference": "Image caasp4/caasp-k8s-sidecar-image",
        "RelationType": "Default Component Of"
      },
      {
        "ProductReference": "python3-ecdsa-0.13.3-3.3.1",
        "RelatesToProductReference": "Image caasp45/caasp-k8s-sidecar-image",
        "RelationType": "Default Component Of"
      },
      {
        "ProductReference": "python-ecdsa-0.13.3-3.3.1",
        "RelatesToProductReference": "SUSE Linux Enterprise Module for Basesystem 15 SP2",
        "RelationType": "Default Component Of"
      },
      {
        "ProductReference": "python3-ecdsa-0.13.3-3.3.1",
        "RelatesToProductReference": "SUSE Linux Enterprise Module for Basesystem 15 SP2",
        "RelationType": "Default Component Of"
      },
      {
        "ProductReference": "python-ecdsa-0.13.3-3.3.1",
        "RelatesToProductReference": "SUSE Linux Enterprise Module for additional PackageHub packages 15 SP1",
        "RelationType": "Default Component Of"
      },
      {
        "ProductReference": "python2-ecdsa-0.13.3-3.3.1",
        "RelatesToProductReference": "SUSE Linux Enterprise Module for additional PackageHub packages 15 SP1",
        "RelationType": "Default Component Of"
      },
      {
        "ProductReference": "python-ecdsa-0.13.3-3.3.1",
        "RelatesToProductReference": "SUSE Linux Enterprise Module for additional PackageHub packages 15 SP2",
        "RelationType": "Default Component Of"
      },
      {
        "ProductReference": "python2-ecdsa-0.13.3-3.3.1",
        "RelatesToProductReference": "SUSE Linux Enterprise Module for additional PackageHub packages 15 SP2",
        "RelationType": "Default Component Of"
      }
    ]
  },
  "References": [
    {
      "URL": "https://www.suse.com/support/update/announcement/2019/suse-su-20192891-2/",
      "Description": "Link for SUSE-SU-2019:2891-2"
    },
    {
      "URL": "http://lists.suse.com/pipermail/sle-security-updates/2020-July/007100.html",
      "Description": "E-Mail link for SUSE-SU-2019:2891-2"
    },
    {
      "URL": "https://www.suse.com/support/security/rating/",
      "Description": "SUSE Security Ratings"
    }
  ],
  "Vulnerabilities": [
    {
      "CVE": "CVE-2019-14853",
      "Description": "An error-handling flaw was found in python-ecdsa before version 0.13.3. During signature decoding, malformed DER signatures could raise unexpected exceptions (or no exceptions at all), which could lead to a denial of service.",
      "Threats": [
        {
          "Type": "Impact",
          "Severity": "moderate"
        }
      ],
      "References": [
        {
          "URL": "https://www.suse.com/security/cve/CVE-2019-14853.html",
          "Description": "CVE-2019-14853"
        },
        {
          "URL": "https://bugzilla.suse.com/1153165",
          "Description": "SUSE Bug 1153165"
        }
      ],
      "ProductStatuses": [
        {
          "Type": "Fixed",
          "ProductID": [
            "Container caasp/v4.5/k8s-sidecar:0.1.75:python3-ecdsa-0.13.3-3.3.1",
            "Container caasp/v4/k8s-sidecar:0.1.75:python3-ecdsa-0.13.3-3.3.1",
            "Image SLES15-EC2-CHOST-HVM-BYOS:python3-ecdsa-0.13.3-3.3.1",
            "Image SLES15-SP1-CHOST-BYOS-Ali:python3-ecdsa-0.13.3-3.3.1",
            "Image SLES15-SP1-CHOST-BYOS-EC2:python3-ecdsa-0.13.3-3.3.1",
            "Image SLES15-SP1-CHOST-BYOS-OpenStack:python3-ecdsa-0.13.3-3.3.1",
            "Image SLES15-SP2-CHOST-BYOS-Ali:python3-ecdsa-0.13.3-3.3.1",
            "Image SLES15-SP2-CHOST-BYOS-Azure:python3-ecdsa-0.13.3-3.3.1",
            "Image SLES15-SP2-CHOST-BYOS-EC2:python3-ecdsa-0.13.3-3.3.1",
            "Image SLES15-SP2-CHOST-BYOS-OpenStack:python3-ecdsa-0.13.3-3.3.1",
            "Image caasp4/caasp-k8s-sidecar-image:python3-ecdsa-0.13.3-3.3.1",
            "Image caasp45/caasp-k8s-sidecar-image:python3-ecdsa-0.13.3-3.3.1",
            "SUSE Linux Enterprise Module for Basesystem 15 SP2:python-ecdsa-0.13.3-3.3.1",
            "SUSE Linux Enterprise Module for Basesystem 15 SP2:python3-ecdsa-0.13.3-3.3.1",
            "SUSE Linux Enterprise Module for additional PackageHub packages 15 SP1:python-ecdsa-0.13.3-3.3.1",
            "SUSE Linux Enterprise Module for additional PackageHub packages 15 SP1:python2-ecdsa-0.13.3-3.3.1",
            "SUSE Linux Enterprise Module for additional PackageHub packages 15 SP2:python-ecdsa-0.13.3-3.3.1",
            "SUSE Linux Enterprise Module for additional PackageHub packages 15 SP2:python2-ecdsa-0.13.3-3.3.1"
          ]
        }
      ],
      "CVSSScoreSets": {}
    },
    {
      "CVE": "CVE-2019-14859",
      "Description": "A flaw was found in all python-ecdsa versions before 0.13.3, where it did not correctly verify whether signatures used DER encoding. Without this verification, a malformed signature could be accepted, making the signature malleable. Without proper verification, an attacker could use a malleable signature to create false transactions.",
      "Threats": [
        {
          "Type": "Impact",
          "Severity": "moderate"
        }
      ],
      "References": [
        {
          "URL": "https://www.suse.com/security/cve/CVE-2019-14859.html",
          "Description": "CVE-2019-14859"
        },
        {
          "URL": "https://bugzilla.suse.com/1154217",
          "Description": "SUSE Bug 1154217"
        }
      ],
      "ProductStatuses": [
        {
          "Type": "Fixed",
          "ProductID": [
            "Container caasp/v4.5/k8s-sidecar:0.1.75:python3-ecdsa-0.13.3-3.3.1",
            "Container caasp/v4/k8s-sidecar:0.1.75:python3-ecdsa-0.13.3-3.3.1",
            "Image SLES15-EC2-CHOST-HVM-BYOS:python3-ecdsa-0.13.3-3.3.1",
            "Image SLES15-SP1-CHOST-BYOS-Ali:python3-ecdsa-0.13.3-3.3.1",
            "Image SLES15-SP1-CHOST-BYOS-EC2:python3-ecdsa-0.13.3-3.3.1",
            "Image SLES15-SP1-CHOST-BYOS-OpenStack:python3-ecdsa-0.13.3-3.3.1",
            "Image SLES15-SP2-CHOST-BYOS-Ali:python3-ecdsa-0.13.3-3.3.1",
            "Image SLES15-SP2-CHOST-BYOS-Azure:python3-ecdsa-0.13.3-3.3.1",
            "Image SLES15-SP2-CHOST-BYOS-EC2:python3-ecdsa-0.13.3-3.3.1",
            "Image SLES15-SP2-CHOST-BYOS-OpenStack:python3-ecdsa-0.13.3-3.3.1",
            "Image caasp4/caasp-k8s-sidecar-image:python3-ecdsa-0.13.3-3.3.1",
            "Image caasp45/caasp-k8s-sidecar-image:python3-ecdsa-0.13.3-3.3.1",
            "SUSE Linux Enterprise Module for Basesystem 15 SP2:python-ecdsa-0.13.3-3.3.1",
            "SUSE Linux Enterprise Module for Basesystem 15 SP2:python3-ecdsa-0.13.3-3.3.1",
            "SUSE Linux Enterprise Module for additional PackageHub packages 15 SP1:python-ecdsa-0.13.3-3.3.1",
            "SUSE Linux Enterprise Module for additional PackageHub packages 15 SP1:python2-ecdsa-0.13.3-3.3.1",
            "SUSE Linux Enterprise Module for additional PackageHub packages 15 SP2:python-ecdsa-0.13.3-3.3.1",
            "SUSE Linux Enterprise Module for additional PackageHub packages 15 SP2:python2-ecdsa-0.13.3-3.3.1"
          ]
        }
      ],
      "CVSSScoreSets": {}
    }
  ]
}