{
  "Title": "Security update for kernel-firmware",
  "Tracking": {
    "ID": "SUSE-SU-2019:1802-1",
    "Status": "Final",
    "Version": "1",
    "InitialReleaseDate": "2019-07-10T07:39:46Z",
    "CurrentReleaseDate": "2019-07-10T07:39:46Z",
    "RevisionHistory": [
      {
        "Number": "1",
        "Date": "2019-07-10T07:39:46Z",
        "Description": "current"
      }
    ]
  },
  "Notes": [
    {
      "Text": "Security update for kernel-firmware",
      "Title": "Topic",
      "Type": "Summary"
    },
    {
      "Text": "This update for kernel-firmware aligns the firmware code with\nSUSE Linux Enterprise Server 15. The version is now at 20190618.\n  \nPlease refer to the kernel-firmware rpm changelog file to see the full history of changes.",
      "Title": "Details",
      "Type": "General"
    },
    {
      "Text": "The CVRF data is provided by SUSE under the Creative Commons License 4.0 with Attribution for Non-Commercial usage (CC-BY-NC-4.0).",
      "Title": "Terms of Use",
      "Type": "Legal Disclaimer"
    }
  ],
  "ProductTree": {
    "Relationships": [
      {
        "ProductReference": "kernel-firmware-20190618-5.8.1",
        "RelatesToProductReference": "SUSE Linux Enterprise Desktop 12 SP4",
        "RelationType": "Default Component Of"
      },
      {
        "ProductReference": "ucode-amd-20190618-5.8.1",
        "RelatesToProductReference": "SUSE Linux Enterprise Desktop 12 SP4",
        "RelationType": "Default Component Of"
      },
      {
        "ProductReference": "kernel-firmware-20190618-5.8.1",
        "RelatesToProductReference": "SUSE Linux Enterprise Server 12 SP4",
        "RelationType": "Default Component Of"
      },
      {
        "ProductReference": "ucode-amd-20190618-5.8.1",
        "RelatesToProductReference": "SUSE Linux Enterprise Server 12 SP4",
        "RelationType": "Default Component Of"
      },
      {
        "ProductReference": "kernel-firmware-20190618-5.8.1",
        "RelatesToProductReference": "SUSE Linux Enterprise Server for SAP Applications 12 SP4",
        "RelationType": "Default Component Of"
      },
      {
        "ProductReference": "ucode-amd-20190618-5.8.1",
        "RelatesToProductReference": "SUSE Linux Enterprise Server for SAP Applications 12 SP4",
        "RelationType": "Default Component Of"
      }
    ]
  },
  "References": [
    {
      "URL": "https://www.suse.com/support/update/announcement/2019/suse-su-20191802-1/",
      "Description": "Link for SUSE-SU-2019:1802-1"
    },
    {
      "URL": "http://lists.suse.com/pipermail/sle-security-updates/2019-July/005686.html",
      "Description": "E-Mail link for SUSE-SU-2019:1802-1"
    },
    {
      "URL": "https://www.suse.com/support/security/rating/",
      "Description": "SUSE Security Ratings"
    }
  ],
  "Vulnerabilities": [
    {
      "CVE": "CVE-2019-9836",
      "Description": "Secure Encrypted Virtualization (SEV) on Advanced Micro Devices (AMD) Platform Security Processor (PSP; aka AMD Secure Processor or AMD-SP) 0.17 build 11 and earlier has an insecure cryptographic implementation.",
      "Threats": [
        {
          "Type": "Impact",
          "Severity": "moderate"
        }
      ],
      "References": [
        {
          "URL": "https://www.suse.com/security/cve/CVE-2019-9836.html",
          "Description": "CVE-2019-9836"
        },
        {
          "URL": "https://bugzilla.suse.com/1139383",
          "Description": "SUSE Bug 1139383"
        }
      ],
      "ProductStatuses": [
        {
          "Type": "Fixed",
          "ProductID": [
            "SUSE Linux Enterprise Desktop 12 SP4:kernel-firmware-20190618-5.8.1",
            "SUSE Linux Enterprise Desktop 12 SP4:ucode-amd-20190618-5.8.1",
            "SUSE Linux Enterprise Server 12 SP4:kernel-firmware-20190618-5.8.1",
            "SUSE Linux Enterprise Server 12 SP4:ucode-amd-20190618-5.8.1",
            "SUSE Linux Enterprise Server for SAP Applications 12 SP4:kernel-firmware-20190618-5.8.1",
            "SUSE Linux Enterprise Server for SAP Applications 12 SP4:ucode-amd-20190618-5.8.1"
          ]
        }
      ],
      "CVSSScoreSets": {}
    }
  ]
}