{
  "Severity": "MODERATE",
  "UpdatedAt": "2020-10-29T16:25:49Z",
  "Package": {
    "Ecosystem": "NPM",
    "Name": "strapi-plugin-content-type-builder"
  },
  "Advisory": {
    "DatabaseId": 3160,
    "Id": "MDE2OlNlY3VyaXR5QWR2aXNvcnlHSFNBLTRwNTUteGozNy1meDdn",
    "GhsaId": "GHSA-4p55-xj37-fx7g",
    "References": [
      {
        "Url": "https://nvd.nist.gov/vuln/detail/CVE-2020-27665"
      },
      {
        "Url": "https://github.com/advisories/GHSA-4p55-xj37-fx7g"
      }
    ],
    "Identifiers": [
      {
        "Type": "GHSA",
        "Value": "GHSA-4p55-xj37-fx7g"
      },
      {
        "Type": "CVE",
        "Value": "CVE-2020-27665"
      }
    ],
    "Description": "In Strapi before 3.2.5, there is no admin::hasPermissions restriction for CTB (aka content-type-builder) routes.",
    "Origin": "UNSPECIFIED",
    "PublishedAt": "2020-10-29T18:29:31Z",
    "Severity": "MODERATE",
    "Summary": "Improper Authorization in Strapi",
    "UpdatedAt": "2020-10-29T18:29:31Z",
    "WithdrawnAt": ""
  },
  "Versions": [
    {
      "FirstPatchedVersion": {
        "Identifier": "3.2.5"
      },
      "VulnerableVersionRange": "\u003c 3.2.5"
    }
  ]
}