{
  "XMLName": {
    "Space": "http://oval.mitre.org/XMLSchema/oval-definitions-5",
    "Local": "definition"
  },
  "ID": "oval:com.redhat.rhsa:def:20140136",
  "Class": "patch",
  "Title": "RHSA-2014:0136: java-1.5.0-ibm security update (Important)",
  "Affecteds": [
    {
      "XMLName": {
        "Space": "http://oval.mitre.org/XMLSchema/oval-definitions-5",
        "Local": "affected"
      },
      "Family": "unix",
      "Platforms": [
        "Supplementary for Red Hat Enterprise Linux 6"
      ]
    }
  ],
  "References": [
    {
      "XMLName": {
        "Space": "http://oval.mitre.org/XMLSchema/oval-definitions-5",
        "Local": "reference"
      },
      "Source": "RHSA",
      "RefID": "RHSA-2014:0136",
      "RefURL": "https://access.redhat.com/errata/RHSA-2014:0136"
    },
    {
      "XMLName": {
        "Space": "http://oval.mitre.org/XMLSchema/oval-definitions-5",
        "Local": "reference"
      },
      "Source": "CVE",
      "RefID": "CVE-2013-4578",
      "RefURL": "https://access.redhat.com/security/cve/CVE-2013-4578"
    },
    {
      "XMLName": {
        "Space": "http://oval.mitre.org/XMLSchema/oval-definitions-5",
        "Local": "reference"
      },
      "Source": "CVE",
      "RefID": "CVE-2013-5907",
      "RefURL": "https://access.redhat.com/security/cve/CVE-2013-5907"
    },
    {
      "XMLName": {
        "Space": "http://oval.mitre.org/XMLSchema/oval-definitions-5",
        "Local": "reference"
      },
      "Source": "CVE",
      "RefID": "CVE-2014-0368",
      "RefURL": "https://access.redhat.com/security/cve/CVE-2014-0368"
    },
    {
      "XMLName": {
        "Space": "http://oval.mitre.org/XMLSchema/oval-definitions-5",
        "Local": "reference"
      },
      "Source": "CVE",
      "RefID": "CVE-2014-0373",
      "RefURL": "https://access.redhat.com/security/cve/CVE-2014-0373"
    },
    {
      "XMLName": {
        "Space": "http://oval.mitre.org/XMLSchema/oval-definitions-5",
        "Local": "reference"
      },
      "Source": "CVE",
      "RefID": "CVE-2014-0376",
      "RefURL": "https://access.redhat.com/security/cve/CVE-2014-0376"
    },
    {
      "XMLName": {
        "Space": "http://oval.mitre.org/XMLSchema/oval-definitions-5",
        "Local": "reference"
      },
      "Source": "CVE",
      "RefID": "CVE-2014-0411",
      "RefURL": "https://access.redhat.com/security/cve/CVE-2014-0411"
    },
    {
      "XMLName": {
        "Space": "http://oval.mitre.org/XMLSchema/oval-definitions-5",
        "Local": "reference"
      },
      "Source": "CVE",
      "RefID": "CVE-2014-0416",
      "RefURL": "https://access.redhat.com/security/cve/CVE-2014-0416"
    },
    {
      "XMLName": {
        "Space": "http://oval.mitre.org/XMLSchema/oval-definitions-5",
        "Local": "reference"
      },
      "Source": "CVE",
      "RefID": "CVE-2014-0417",
      "RefURL": "https://access.redhat.com/security/cve/CVE-2014-0417"
    },
    {
      "XMLName": {
        "Space": "http://oval.mitre.org/XMLSchema/oval-definitions-5",
        "Local": "reference"
      },
      "Source": "CVE",
      "RefID": "CVE-2014-0422",
      "RefURL": "https://access.redhat.com/security/cve/CVE-2014-0422"
    },
    {
      "XMLName": {
        "Space": "http://oval.mitre.org/XMLSchema/oval-definitions-5",
        "Local": "reference"
      },
      "Source": "CVE",
      "RefID": "CVE-2014-0423",
      "RefURL": "https://access.redhat.com/security/cve/CVE-2014-0423"
    },
    {
      "XMLName": {
        "Space": "http://oval.mitre.org/XMLSchema/oval-definitions-5",
        "Local": "reference"
      },
      "Source": "CVE",
      "RefID": "CVE-2014-0428",
      "RefURL": "https://access.redhat.com/security/cve/CVE-2014-0428"
    }
  ],
  "Description": "IBM J2SE version 5.0 includes the IBM Java Runtime Environment and the IBM\nJava Software Development Kit.\n\nThis update fixes several vulnerabilities in the IBM Java Runtime\nEnvironment and the IBM Java Software Development Kit. Detailed\nvulnerability descriptions are linked from the IBM Security alerts\npage, listed in the References section. (CVE-2013-5907, CVE-2014-0368,\nCVE-2014-0373, CVE-2014-0376, CVE-2014-0411, CVE-2014-0416, CVE-2014-0417,\nCVE-2014-0422, CVE-2014-0423, CVE-2014-0428)\n\nAll users of java-1.5.0-ibm are advised to upgrade to these updated\npackages, containing the IBM J2SE 5.0 SR16-FP5 release. All running\ninstances of IBM Java must be restarted for this update to take effect.",
  "Advisory": {
    "XMLName": {
      "Space": "http://oval.mitre.org/XMLSchema/oval-definitions-5",
      "Local": "advisory"
    },
    "Severity": "Important",
    "Cves": [
      {
        "XMLName": {
          "Space": "http://oval.mitre.org/XMLSchema/oval-definitions-5",
          "Local": "cve"
        },
        "CveID": "CVE-2013-4578",
        "Cvss2": "5.0/AV:N/AC:L/Au:N/C:N/I:P/A:N",
        "Cvss3": "",
        "Cwe": "",
        "Impact": "low",
        "Href": "https://access.redhat.com/security/cve/CVE-2013-4578",
        "Public": "20140114"
      },
      {
        "XMLName": {
          "Space": "http://oval.mitre.org/XMLSchema/oval-definitions-5",
          "Local": "cve"
        },
        "CveID": "CVE-2013-5907",
        "Cvss2": "6.8/AV:N/AC:M/Au:N/C:P/I:P/A:P",
        "Cvss3": "",
        "Cwe": "",
        "Impact": "critical",
        "Href": "https://access.redhat.com/security/cve/CVE-2013-5907",
        "Public": "20140114"
      },
      {
        "XMLName": {
          "Space": "http://oval.mitre.org/XMLSchema/oval-definitions-5",
          "Local": "cve"
        },
        "CveID": "CVE-2014-0368",
        "Cvss2": "4.3/AV:N/AC:M/Au:N/C:P/I:N/A:N",
        "Cvss3": "",
        "Cwe": "",
        "Impact": "moderate",
        "Href": "https://access.redhat.com/security/cve/CVE-2014-0368",
        "Public": "20140114"
      },
      {
        "XMLName": {
          "Space": "http://oval.mitre.org/XMLSchema/oval-definitions-5",
          "Local": "cve"
        },
        "CveID": "CVE-2014-0373",
        "Cvss2": "6.8/AV:N/AC:M/Au:N/C:P/I:P/A:P",
        "Cvss3": "",
        "Cwe": "",
        "Impact": "",
        "Href": "https://access.redhat.com/security/cve/CVE-2014-0373",
        "Public": "20140114"
      },
      {
        "XMLName": {
          "Space": "http://oval.mitre.org/XMLSchema/oval-definitions-5",
          "Local": "cve"
        },
        "CveID": "CVE-2014-0376",
        "Cvss2": "4.3/AV:N/AC:M/Au:N/C:N/I:P/A:N",
        "Cvss3": "",
        "Cwe": "",
        "Impact": "moderate",
        "Href": "https://access.redhat.com/security/cve/CVE-2014-0376",
        "Public": "20140114"
      },
      {
        "XMLName": {
          "Space": "http://oval.mitre.org/XMLSchema/oval-definitions-5",
          "Local": "cve"
        },
        "CveID": "CVE-2014-0411",
        "Cvss2": "4.0/AV:N/AC:H/Au:N/C:P/I:P/A:N",
        "Cvss3": "",
        "Cwe": "",
        "Impact": "moderate",
        "Href": "https://access.redhat.com/security/cve/CVE-2014-0411",
        "Public": "20140114"
      },
      {
        "XMLName": {
          "Space": "http://oval.mitre.org/XMLSchema/oval-definitions-5",
          "Local": "cve"
        },
        "CveID": "CVE-2014-0416",
        "Cvss2": "4.3/AV:N/AC:M/Au:N/C:N/I:P/A:N",
        "Cvss3": "",
        "Cwe": "",
        "Impact": "moderate",
        "Href": "https://access.redhat.com/security/cve/CVE-2014-0416",
        "Public": "20140114"
      },
      {
        "XMLName": {
          "Space": "http://oval.mitre.org/XMLSchema/oval-definitions-5",
          "Local": "cve"
        },
        "CveID": "CVE-2014-0417",
        "Cvss2": "6.8/AV:N/AC:M/Au:N/C:P/I:P/A:P",
        "Cvss3": "",
        "Cwe": "",
        "Impact": "critical",
        "Href": "https://access.redhat.com/security/cve/CVE-2014-0417",
        "Public": "20140114"
      },
      {
        "XMLName": {
          "Space": "http://oval.mitre.org/XMLSchema/oval-definitions-5",
          "Local": "cve"
        },
        "CveID": "CVE-2014-0422",
        "Cvss2": "6.8/AV:N/AC:M/Au:N/C:P/I:P/A:P",
        "Cvss3": "",
        "Cwe": "",
        "Impact": "critical",
        "Href": "https://access.redhat.com/security/cve/CVE-2014-0422",
        "Public": "20140114"
      },
      {
        "XMLName": {
          "Space": "http://oval.mitre.org/XMLSchema/oval-definitions-5",
          "Local": "cve"
        },
        "CveID": "CVE-2014-0423",
        "Cvss2": "5.5/AV:N/AC:L/Au:S/C:P/I:N/A:P",
        "Cvss3": "",
        "Cwe": "",
        "Impact": "moderate",
        "Href": "https://access.redhat.com/security/cve/CVE-2014-0423",
        "Public": "20140114"
      },
      {
        "XMLName": {
          "Space": "http://oval.mitre.org/XMLSchema/oval-definitions-5",
          "Local": "cve"
        },
        "CveID": "CVE-2014-0428",
        "Cvss2": "6.8/AV:N/AC:M/Au:N/C:P/I:P/A:P",
        "Cvss3": "",
        "Cwe": "",
        "Impact": "critical",
        "Href": "https://access.redhat.com/security/cve/CVE-2014-0428",
        "Public": "20140114"
      }
    ],
    "Bugzillas": [
      {
        "XMLName": {
          "Space": "http://oval.mitre.org/XMLSchema/oval-definitions-5",
          "Local": "bugzilla"
        },
        "ID": "1051519",
        "URL": "https://bugzilla.redhat.com/1051519",
        "Title": "CVE-2014-0428 OpenJDK: insufficient security checks in IIOP streams (CORBA, 8025767)"
      },
      {
        "XMLName": {
          "Space": "http://oval.mitre.org/XMLSchema/oval-definitions-5",
          "Local": "bugzilla"
        },
        "ID": "1051528",
        "URL": "https://bugzilla.redhat.com/1051528",
        "Title": "CVE-2014-0422 OpenJDK: insufficient package access checks in the Naming component (JNDI, 8025758)"
      },
      {
        "XMLName": {
          "Space": "http://oval.mitre.org/XMLSchema/oval-definitions-5",
          "Local": "bugzilla"
        },
        "ID": "1051699",
        "URL": "https://bugzilla.redhat.com/1051699",
        "Title": "CVE-2014-0373 OpenJDK: SnmpStatusException handling issues (Serviceability, 7068126)"
      },
      {
        "XMLName": {
          "Space": "http://oval.mitre.org/XMLSchema/oval-definitions-5",
          "Local": "bugzilla"
        },
        "ID": "1051912",
        "URL": "https://bugzilla.redhat.com/1051912",
        "Title": "CVE-2014-0416 OpenJDK: insecure subject principals set handling (JAAS, 8024306)"
      },
      {
        "XMLName": {
          "Space": "http://oval.mitre.org/XMLSchema/oval-definitions-5",
          "Local": "bugzilla"
        },
        "ID": "1051923",
        "URL": "https://bugzilla.redhat.com/1051923",
        "Title": "CVE-2014-0376 OpenJDK: document builder missing security checks (JAXP, 8027201, 8025018)"
      },
      {
        "XMLName": {
          "Space": "http://oval.mitre.org/XMLSchema/oval-definitions-5",
          "Local": "bugzilla"
        },
        "ID": "1052915",
        "URL": "https://bugzilla.redhat.com/1052915",
        "Title": "CVE-2013-5907 ICU: Layout Engine LookupProcessor insufficient input checks (JDK 2D, 8025034)"
      },
      {
        "XMLName": {
          "Space": "http://oval.mitre.org/XMLSchema/oval-definitions-5",
          "Local": "bugzilla"
        },
        "ID": "1052919",
        "URL": "https://bugzilla.redhat.com/1052919",
        "Title": "CVE-2014-0368 OpenJDK: insufficient Socket checkListen checks (Networking, 8011786)"
      },
      {
        "XMLName": {
          "Space": "http://oval.mitre.org/XMLSchema/oval-definitions-5",
          "Local": "bugzilla"
        },
        "ID": "1053010",
        "URL": "https://bugzilla.redhat.com/1053010",
        "Title": "CVE-2014-0411 OpenJDK: TLS/SSL handshake timing issues (JSSE, 8023069)"
      },
      {
        "XMLName": {
          "Space": "http://oval.mitre.org/XMLSchema/oval-definitions-5",
          "Local": "bugzilla"
        },
        "ID": "1053066",
        "URL": "https://bugzilla.redhat.com/1053066",
        "Title": "CVE-2014-0423 OpenJDK: XXE issue in decoder (Beans, 8023245)"
      },
      {
        "XMLName": {
          "Space": "http://oval.mitre.org/XMLSchema/oval-definitions-5",
          "Local": "bugzilla"
        },
        "ID": "1053501",
        "URL": "https://bugzilla.redhat.com/1053501",
        "Title": "CVE-2014-0417 Oracle JDK: unspecified vulnerability fixed in 5.0u71, 6u71 and 7u51 (2D)"
      }
    ],
    "AffectedCPEList": [
      "cpe:/a:redhat:rhel_extras:6",
      "cpe:/a:redhat:rhel_extras:6"
    ],
    "Issued": {
      "Date": "2014-02-04"
    },
    "Updated": {
      "Date": "2014-02-04"
    }
  },
  "Criteria": {
    "XMLName": {
      "Space": "http://oval.mitre.org/XMLSchema/oval-definitions-5",
      "Local": "criteria"
    },
    "Operator": "OR",
    "Criterias": [
      {
        "XMLName": {
          "Space": "http://oval.mitre.org/XMLSchema/oval-definitions-5",
          "Local": "criteria"
        },
        "Operator": "AND",
        "Criterias": [
          {
            "XMLName": {
              "Space": "http://oval.mitre.org/XMLSchema/oval-definitions-5",
              "Local": "criteria"
            },
            "Operator": "OR",
            "Criterias": [
              {
                "XMLName": {
                  "Space": "http://oval.mitre.org/XMLSchema/oval-definitions-5",
                  "Local": "criteria"
                },
                "Operator": "AND",
                "Criterias": null,
                "Criterions": [
                  {
                    "XMLName": {
                      "Space": "http://oval.mitre.org/XMLSchema/oval-definitions-5",
                      "Local": "criterion"
                    },
                    "Negate": false,
                    "TestRef": "oval:com.redhat.rhsa:tst:20140136001",
                    "Comment": "java-1.5.0-ibm is earlier than 1:1.5.0.16.5-1jpp.1.el6_5"
                  },
                  {
                    "XMLName": {
                      "Space": "http://oval.mitre.org/XMLSchema/oval-definitions-5",
                      "Local": "criterion"
                    },
                    "Negate": false,
                    "TestRef": "oval:com.redhat.rhsa:tst:20100873002",
                    "Comment": "java-1.5.0-ibm is signed with Red Hat redhatrelease2 key"
                  }
                ]
              },
              {
                "XMLName": {
                  "Space": "http://oval.mitre.org/XMLSchema/oval-definitions-5",
                  "Local": "criteria"
                },
                "Operator": "AND",
                "Criterias": null,
                "Criterions": [
                  {
                    "XMLName": {
                      "Space": "http://oval.mitre.org/XMLSchema/oval-definitions-5",
                      "Local": "criterion"
                    },
                    "Negate": false,
                    "TestRef": "oval:com.redhat.rhsa:tst:20140136003",
                    "Comment": "java-1.5.0-ibm-demo is earlier than 1:1.5.0.16.5-1jpp.1.el6_5"
                  },
                  {
                    "XMLName": {
                      "Space": "http://oval.mitre.org/XMLSchema/oval-definitions-5",
                      "Local": "criterion"
                    },
                    "Negate": false,
                    "TestRef": "oval:com.redhat.rhsa:tst:20100873004",
                    "Comment": "java-1.5.0-ibm-demo is signed with Red Hat redhatrelease2 key"
                  }
                ]
              },
              {
                "XMLName": {
                  "Space": "http://oval.mitre.org/XMLSchema/oval-definitions-5",
                  "Local": "criteria"
                },
                "Operator": "AND",
                "Criterias": null,
                "Criterions": [
                  {
                    "XMLName": {
                      "Space": "http://oval.mitre.org/XMLSchema/oval-definitions-5",
                      "Local": "criterion"
                    },
                    "Negate": false,
                    "TestRef": "oval:com.redhat.rhsa:tst:20140136005",
                    "Comment": "java-1.5.0-ibm-devel is earlier than 1:1.5.0.16.5-1jpp.1.el6_5"
                  },
                  {
                    "XMLName": {
                      "Space": "http://oval.mitre.org/XMLSchema/oval-definitions-5",
                      "Local": "criterion"
                    },
                    "Negate": false,
                    "TestRef": "oval:com.redhat.rhsa:tst:20100873006",
                    "Comment": "java-1.5.0-ibm-devel is signed with Red Hat redhatrelease2 key"
                  }
                ]
              },
              {
                "XMLName": {
                  "Space": "http://oval.mitre.org/XMLSchema/oval-definitions-5",
                  "Local": "criteria"
                },
                "Operator": "AND",
                "Criterias": null,
                "Criterions": [
                  {
                    "XMLName": {
                      "Space": "http://oval.mitre.org/XMLSchema/oval-definitions-5",
                      "Local": "criterion"
                    },
                    "Negate": false,
                    "TestRef": "oval:com.redhat.rhsa:tst:20140136007",
                    "Comment": "java-1.5.0-ibm-javacomm is earlier than 1:1.5.0.16.5-1jpp.1.el6_5"
                  },
                  {
                    "XMLName": {
                      "Space": "http://oval.mitre.org/XMLSchema/oval-definitions-5",
                      "Local": "criterion"
                    },
                    "Negate": false,
                    "TestRef": "oval:com.redhat.rhsa:tst:20100873008",
                    "Comment": "java-1.5.0-ibm-javacomm is signed with Red Hat redhatrelease2 key"
                  }
                ]
              },
              {
                "XMLName": {
                  "Space": "http://oval.mitre.org/XMLSchema/oval-definitions-5",
                  "Local": "criteria"
                },
                "Operator": "AND",
                "Criterias": null,
                "Criterions": [
                  {
                    "XMLName": {
                      "Space": "http://oval.mitre.org/XMLSchema/oval-definitions-5",
                      "Local": "criterion"
                    },
                    "Negate": false,
                    "TestRef": "oval:com.redhat.rhsa:tst:20140136009",
                    "Comment": "java-1.5.0-ibm-jdbc is earlier than 1:1.5.0.16.5-1jpp.1.el6_5"
                  },
                  {
                    "XMLName": {
                      "Space": "http://oval.mitre.org/XMLSchema/oval-definitions-5",
                      "Local": "criterion"
                    },
                    "Negate": false,
                    "TestRef": "oval:com.redhat.rhsa:tst:20110169010",
                    "Comment": "java-1.5.0-ibm-jdbc is signed with Red Hat redhatrelease2 key"
                  }
                ]
              },
              {
                "XMLName": {
                  "Space": "http://oval.mitre.org/XMLSchema/oval-definitions-5",
                  "Local": "criteria"
                },
                "Operator": "AND",
                "Criterias": null,
                "Criterions": [
                  {
                    "XMLName": {
                      "Space": "http://oval.mitre.org/XMLSchema/oval-definitions-5",
                      "Local": "criterion"
                    },
                    "Negate": false,
                    "TestRef": "oval:com.redhat.rhsa:tst:20140136011",
                    "Comment": "java-1.5.0-ibm-plugin is earlier than 1:1.5.0.16.5-1jpp.1.el6_5"
                  },
                  {
                    "XMLName": {
                      "Space": "http://oval.mitre.org/XMLSchema/oval-definitions-5",
                      "Local": "criterion"
                    },
                    "Negate": false,
                    "TestRef": "oval:com.redhat.rhsa:tst:20110169012",
                    "Comment": "java-1.5.0-ibm-plugin is signed with Red Hat redhatrelease2 key"
                  }
                ]
              },
              {
                "XMLName": {
                  "Space": "http://oval.mitre.org/XMLSchema/oval-definitions-5",
                  "Local": "criteria"
                },
                "Operator": "AND",
                "Criterias": null,
                "Criterions": [
                  {
                    "XMLName": {
                      "Space": "http://oval.mitre.org/XMLSchema/oval-definitions-5",
                      "Local": "criterion"
                    },
                    "Negate": false,
                    "TestRef": "oval:com.redhat.rhsa:tst:20140136013",
                    "Comment": "java-1.5.0-ibm-src is earlier than 1:1.5.0.16.5-1jpp.1.el6_5"
                  },
                  {
                    "XMLName": {
                      "Space": "http://oval.mitre.org/XMLSchema/oval-definitions-5",
                      "Local": "criterion"
                    },
                    "Negate": false,
                    "TestRef": "oval:com.redhat.rhsa:tst:20100873010",
                    "Comment": "java-1.5.0-ibm-src is signed with Red Hat redhatrelease2 key"
                  }
                ]
              }
            ],
            "Criterions": null
          }
        ],
        "Criterions": [
          {
            "XMLName": {
              "Space": "http://oval.mitre.org/XMLSchema/oval-definitions-5",
              "Local": "criterion"
            },
            "Negate": false,
            "TestRef": "oval:com.redhat.rhba:tst:20111656003",
            "Comment": "Red Hat Enterprise Linux 6 is installed"
          }
        ]
      }
    ],
    "Criterions": [
      {
        "XMLName": {
          "Space": "http://oval.mitre.org/XMLSchema/oval-definitions-5",
          "Local": "criterion"
        },
        "Negate": false,
        "TestRef": "oval:com.redhat.rhba:tst:20111656004",
        "Comment": "Red Hat Enterprise Linux must be installed"
      }
    ]
  }
}