{
  "XMLName": {
    "Space": "http://oval.mitre.org/XMLSchema/oval-definitions-5",
    "Local": "definition"
  },
  "ID": "oval:com.redhat.rhsa:def:20140134",
  "Class": "patch",
  "Title": "RHSA-2014:0134: java-1.7.0-ibm security update (Critical)",
  "Affecteds": [
    {
      "XMLName": {
        "Space": "http://oval.mitre.org/XMLSchema/oval-definitions-5",
        "Local": "affected"
      },
      "Family": "unix",
      "Platforms": [
        "Supplementary for Red Hat Enterprise Linux 6"
      ]
    }
  ],
  "References": [
    {
      "XMLName": {
        "Space": "http://oval.mitre.org/XMLSchema/oval-definitions-5",
        "Local": "reference"
      },
      "Source": "RHSA",
      "RefID": "RHSA-2014:0134",
      "RefURL": "https://access.redhat.com/errata/RHSA-2014:0134"
    },
    {
      "XMLName": {
        "Space": "http://oval.mitre.org/XMLSchema/oval-definitions-5",
        "Local": "reference"
      },
      "Source": "CVE",
      "RefID": "CVE-2013-4578",
      "RefURL": "https://access.redhat.com/security/cve/CVE-2013-4578"
    },
    {
      "XMLName": {
        "Space": "http://oval.mitre.org/XMLSchema/oval-definitions-5",
        "Local": "reference"
      },
      "Source": "CVE",
      "RefID": "CVE-2013-5878",
      "RefURL": "https://access.redhat.com/security/cve/CVE-2013-5878"
    },
    {
      "XMLName": {
        "Space": "http://oval.mitre.org/XMLSchema/oval-definitions-5",
        "Local": "reference"
      },
      "Source": "CVE",
      "RefID": "CVE-2013-5884",
      "RefURL": "https://access.redhat.com/security/cve/CVE-2013-5884"
    },
    {
      "XMLName": {
        "Space": "http://oval.mitre.org/XMLSchema/oval-definitions-5",
        "Local": "reference"
      },
      "Source": "CVE",
      "RefID": "CVE-2013-5887",
      "RefURL": "https://access.redhat.com/security/cve/CVE-2013-5887"
    },
    {
      "XMLName": {
        "Space": "http://oval.mitre.org/XMLSchema/oval-definitions-5",
        "Local": "reference"
      },
      "Source": "CVE",
      "RefID": "CVE-2013-5888",
      "RefURL": "https://access.redhat.com/security/cve/CVE-2013-5888"
    },
    {
      "XMLName": {
        "Space": "http://oval.mitre.org/XMLSchema/oval-definitions-5",
        "Local": "reference"
      },
      "Source": "CVE",
      "RefID": "CVE-2013-5889",
      "RefURL": "https://access.redhat.com/security/cve/CVE-2013-5889"
    },
    {
      "XMLName": {
        "Space": "http://oval.mitre.org/XMLSchema/oval-definitions-5",
        "Local": "reference"
      },
      "Source": "CVE",
      "RefID": "CVE-2013-5896",
      "RefURL": "https://access.redhat.com/security/cve/CVE-2013-5896"
    },
    {
      "XMLName": {
        "Space": "http://oval.mitre.org/XMLSchema/oval-definitions-5",
        "Local": "reference"
      },
      "Source": "CVE",
      "RefID": "CVE-2013-5898",
      "RefURL": "https://access.redhat.com/security/cve/CVE-2013-5898"
    },
    {
      "XMLName": {
        "Space": "http://oval.mitre.org/XMLSchema/oval-definitions-5",
        "Local": "reference"
      },
      "Source": "CVE",
      "RefID": "CVE-2013-5899",
      "RefURL": "https://access.redhat.com/security/cve/CVE-2013-5899"
    },
    {
      "XMLName": {
        "Space": "http://oval.mitre.org/XMLSchema/oval-definitions-5",
        "Local": "reference"
      },
      "Source": "CVE",
      "RefID": "CVE-2013-5907",
      "RefURL": "https://access.redhat.com/security/cve/CVE-2013-5907"
    },
    {
      "XMLName": {
        "Space": "http://oval.mitre.org/XMLSchema/oval-definitions-5",
        "Local": "reference"
      },
      "Source": "CVE",
      "RefID": "CVE-2013-5910",
      "RefURL": "https://access.redhat.com/security/cve/CVE-2013-5910"
    },
    {
      "XMLName": {
        "Space": "http://oval.mitre.org/XMLSchema/oval-definitions-5",
        "Local": "reference"
      },
      "Source": "CVE",
      "RefID": "CVE-2014-0368",
      "RefURL": "https://access.redhat.com/security/cve/CVE-2014-0368"
    },
    {
      "XMLName": {
        "Space": "http://oval.mitre.org/XMLSchema/oval-definitions-5",
        "Local": "reference"
      },
      "Source": "CVE",
      "RefID": "CVE-2014-0373",
      "RefURL": "https://access.redhat.com/security/cve/CVE-2014-0373"
    },
    {
      "XMLName": {
        "Space": "http://oval.mitre.org/XMLSchema/oval-definitions-5",
        "Local": "reference"
      },
      "Source": "CVE",
      "RefID": "CVE-2014-0375",
      "RefURL": "https://access.redhat.com/security/cve/CVE-2014-0375"
    },
    {
      "XMLName": {
        "Space": "http://oval.mitre.org/XMLSchema/oval-definitions-5",
        "Local": "reference"
      },
      "Source": "CVE",
      "RefID": "CVE-2014-0376",
      "RefURL": "https://access.redhat.com/security/cve/CVE-2014-0376"
    },
    {
      "XMLName": {
        "Space": "http://oval.mitre.org/XMLSchema/oval-definitions-5",
        "Local": "reference"
      },
      "Source": "CVE",
      "RefID": "CVE-2014-0387",
      "RefURL": "https://access.redhat.com/security/cve/CVE-2014-0387"
    },
    {
      "XMLName": {
        "Space": "http://oval.mitre.org/XMLSchema/oval-definitions-5",
        "Local": "reference"
      },
      "Source": "CVE",
      "RefID": "CVE-2014-0403",
      "RefURL": "https://access.redhat.com/security/cve/CVE-2014-0403"
    },
    {
      "XMLName": {
        "Space": "http://oval.mitre.org/XMLSchema/oval-definitions-5",
        "Local": "reference"
      },
      "Source": "CVE",
      "RefID": "CVE-2014-0410",
      "RefURL": "https://access.redhat.com/security/cve/CVE-2014-0410"
    },
    {
      "XMLName": {
        "Space": "http://oval.mitre.org/XMLSchema/oval-definitions-5",
        "Local": "reference"
      },
      "Source": "CVE",
      "RefID": "CVE-2014-0411",
      "RefURL": "https://access.redhat.com/security/cve/CVE-2014-0411"
    },
    {
      "XMLName": {
        "Space": "http://oval.mitre.org/XMLSchema/oval-definitions-5",
        "Local": "reference"
      },
      "Source": "CVE",
      "RefID": "CVE-2014-0415",
      "RefURL": "https://access.redhat.com/security/cve/CVE-2014-0415"
    },
    {
      "XMLName": {
        "Space": "http://oval.mitre.org/XMLSchema/oval-definitions-5",
        "Local": "reference"
      },
      "Source": "CVE",
      "RefID": "CVE-2014-0416",
      "RefURL": "https://access.redhat.com/security/cve/CVE-2014-0416"
    },
    {
      "XMLName": {
        "Space": "http://oval.mitre.org/XMLSchema/oval-definitions-5",
        "Local": "reference"
      },
      "Source": "CVE",
      "RefID": "CVE-2014-0417",
      "RefURL": "https://access.redhat.com/security/cve/CVE-2014-0417"
    },
    {
      "XMLName": {
        "Space": "http://oval.mitre.org/XMLSchema/oval-definitions-5",
        "Local": "reference"
      },
      "Source": "CVE",
      "RefID": "CVE-2014-0422",
      "RefURL": "https://access.redhat.com/security/cve/CVE-2014-0422"
    },
    {
      "XMLName": {
        "Space": "http://oval.mitre.org/XMLSchema/oval-definitions-5",
        "Local": "reference"
      },
      "Source": "CVE",
      "RefID": "CVE-2014-0423",
      "RefURL": "https://access.redhat.com/security/cve/CVE-2014-0423"
    },
    {
      "XMLName": {
        "Space": "http://oval.mitre.org/XMLSchema/oval-definitions-5",
        "Local": "reference"
      },
      "Source": "CVE",
      "RefID": "CVE-2014-0424",
      "RefURL": "https://access.redhat.com/security/cve/CVE-2014-0424"
    },
    {
      "XMLName": {
        "Space": "http://oval.mitre.org/XMLSchema/oval-definitions-5",
        "Local": "reference"
      },
      "Source": "CVE",
      "RefID": "CVE-2014-0428",
      "RefURL": "https://access.redhat.com/security/cve/CVE-2014-0428"
    }
  ],
  "Description": "IBM Java SE version 7 includes the IBM Java Runtime Environment and the IBM\nJava Software Development Kit.\n\nThis update fixes several vulnerabilities in the IBM Java Runtime\nEnvironment and the IBM Java Software Development Kit. Detailed\nvulnerability descriptions are linked from the IBM Security alerts\npage, listed in the References section. (CVE-2013-5878, CVE-2013-5884,\nCVE-2013-5887, CVE-2013-5888, CVE-2013-5889, CVE-2013-5896, CVE-2013-5898,\nCVE-2013-5899, CVE-2013-5907, CVE-2013-5910, CVE-2014-0368, CVE-2014-0373,\nCVE-2014-0375, CVE-2014-0376, CVE-2014-0387, CVE-2014-0403, CVE-2014-0410,\nCVE-2014-0411, CVE-2014-0415, CVE-2014-0416, CVE-2014-0417, CVE-2014-0422,\nCVE-2014-0423, CVE-2014-0424, CVE-2014-0428)\n\nAll users of java-1.7.0-ibm are advised to upgrade to these updated\npackages, containing the IBM Java SE 7 SR6-FP1 release. All running\ninstances of IBM Java must be restarted for the update to take effect.",
  "Advisory": {
    "XMLName": {
      "Space": "http://oval.mitre.org/XMLSchema/oval-definitions-5",
      "Local": "advisory"
    },
    "Severity": "Critical",
    "Cves": [
      {
        "XMLName": {
          "Space": "http://oval.mitre.org/XMLSchema/oval-definitions-5",
          "Local": "cve"
        },
        "CveID": "CVE-2013-4578",
        "Cvss2": "5.0/AV:N/AC:L/Au:N/C:N/I:P/A:N",
        "Cvss3": "",
        "Cwe": "",
        "Impact": "low",
        "Href": "https://access.redhat.com/security/cve/CVE-2013-4578",
        "Public": "20140114"
      },
      {
        "XMLName": {
          "Space": "http://oval.mitre.org/XMLSchema/oval-definitions-5",
          "Local": "cve"
        },
        "CveID": "CVE-2013-5878",
        "Cvss2": "6.8/AV:N/AC:M/Au:N/C:P/I:P/A:P",
        "Cvss3": "",
        "Cwe": "",
        "Impact": "important",
        "Href": "https://access.redhat.com/security/cve/CVE-2013-5878",
        "Public": "20140114"
      },
      {
        "XMLName": {
          "Space": "http://oval.mitre.org/XMLSchema/oval-definitions-5",
          "Local": "cve"
        },
        "CveID": "CVE-2013-5884",
        "Cvss2": "4.3/AV:N/AC:M/Au:N/C:P/I:N/A:N",
        "Cvss3": "",
        "Cwe": "",
        "Impact": "moderate",
        "Href": "https://access.redhat.com/security/cve/CVE-2013-5884",
        "Public": "20140114"
      },
      {
        "XMLName": {
          "Space": "http://oval.mitre.org/XMLSchema/oval-definitions-5",
          "Local": "cve"
        },
        "CveID": "CVE-2013-5887",
        "Cvss2": "5.0/AV:N/AC:L/Au:N/C:N/I:N/A:P",
        "Cvss3": "",
        "Cwe": "",
        "Impact": "moderate",
        "Href": "https://access.redhat.com/security/cve/CVE-2013-5887",
        "Public": "20140114"
      },
      {
        "XMLName": {
          "Space": "http://oval.mitre.org/XMLSchema/oval-definitions-5",
          "Local": "cve"
        },
        "CveID": "CVE-2013-5888",
        "Cvss2": "4.6/AV:L/AC:L/Au:N/C:P/I:P/A:P",
        "Cvss3": "",
        "Cwe": "",
        "Impact": "moderate",
        "Href": "https://access.redhat.com/security/cve/CVE-2013-5888",
        "Public": "20140114"
      },
      {
        "XMLName": {
          "Space": "http://oval.mitre.org/XMLSchema/oval-definitions-5",
          "Local": "cve"
        },
        "CveID": "CVE-2013-5889",
        "Cvss2": "6.8/AV:N/AC:M/Au:N/C:P/I:P/A:P",
        "Cvss3": "",
        "Cwe": "",
        "Impact": "",
        "Href": "https://access.redhat.com/security/cve/CVE-2013-5889",
        "Public": "20140114"
      },
      {
        "XMLName": {
          "Space": "http://oval.mitre.org/XMLSchema/oval-definitions-5",
          "Local": "cve"
        },
        "CveID": "CVE-2013-5896",
        "Cvss2": "4.3/AV:N/AC:M/Au:N/C:N/I:N/A:P",
        "Cvss3": "",
        "Cwe": "",
        "Impact": "moderate",
        "Href": "https://access.redhat.com/security/cve/CVE-2013-5896",
        "Public": "20140114"
      },
      {
        "XMLName": {
          "Space": "http://oval.mitre.org/XMLSchema/oval-definitions-5",
          "Local": "cve"
        },
        "CveID": "CVE-2013-5898",
        "Cvss2": "4.0/AV:N/AC:H/Au:N/C:P/I:P/A:N",
        "Cvss3": "",
        "Cwe": "",
        "Impact": "moderate",
        "Href": "https://access.redhat.com/security/cve/CVE-2013-5898",
        "Public": "20140114"
      },
      {
        "XMLName": {
          "Space": "http://oval.mitre.org/XMLSchema/oval-definitions-5",
          "Local": "cve"
        },
        "CveID": "CVE-2013-5899",
        "Cvss2": "5.0/AV:N/AC:L/Au:N/C:P/I:N/A:N",
        "Cvss3": "",
        "Cwe": "",
        "Impact": "moderate",
        "Href": "https://access.redhat.com/security/cve/CVE-2013-5899",
        "Public": "20140114"
      },
      {
        "XMLName": {
          "Space": "http://oval.mitre.org/XMLSchema/oval-definitions-5",
          "Local": "cve"
        },
        "CveID": "CVE-2013-5907",
        "Cvss2": "6.8/AV:N/AC:M/Au:N/C:P/I:P/A:P",
        "Cvss3": "",
        "Cwe": "",
        "Impact": "",
        "Href": "https://access.redhat.com/security/cve/CVE-2013-5907",
        "Public": "20140114"
      },
      {
        "XMLName": {
          "Space": "http://oval.mitre.org/XMLSchema/oval-definitions-5",
          "Local": "cve"
        },
        "CveID": "CVE-2013-5910",
        "Cvss2": "4.3/AV:N/AC:M/Au:N/C:N/I:P/A:N",
        "Cvss3": "",
        "Cwe": "",
        "Impact": "moderate",
        "Href": "https://access.redhat.com/security/cve/CVE-2013-5910",
        "Public": "20140114"
      },
      {
        "XMLName": {
          "Space": "http://oval.mitre.org/XMLSchema/oval-definitions-5",
          "Local": "cve"
        },
        "CveID": "CVE-2014-0368",
        "Cvss2": "4.3/AV:N/AC:M/Au:N/C:P/I:N/A:N",
        "Cvss3": "",
        "Cwe": "",
        "Impact": "moderate",
        "Href": "https://access.redhat.com/security/cve/CVE-2014-0368",
        "Public": "20140114"
      },
      {
        "XMLName": {
          "Space": "http://oval.mitre.org/XMLSchema/oval-definitions-5",
          "Local": "cve"
        },
        "CveID": "CVE-2014-0373",
        "Cvss2": "6.8/AV:N/AC:M/Au:N/C:P/I:P/A:P",
        "Cvss3": "",
        "Cwe": "",
        "Impact": "important",
        "Href": "https://access.redhat.com/security/cve/CVE-2014-0373",
        "Public": "20140114"
      },
      {
        "XMLName": {
          "Space": "http://oval.mitre.org/XMLSchema/oval-definitions-5",
          "Local": "cve"
        },
        "CveID": "CVE-2014-0375",
        "Cvss2": "5.8/AV:N/AC:M/Au:N/C:P/I:P/A:N",
        "Cvss3": "",
        "Cwe": "",
        "Impact": "moderate",
        "Href": "https://access.redhat.com/security/cve/CVE-2014-0375",
        "Public": "20140114"
      },
      {
        "XMLName": {
          "Space": "http://oval.mitre.org/XMLSchema/oval-definitions-5",
          "Local": "cve"
        },
        "CveID": "CVE-2014-0376",
        "Cvss2": "4.3/AV:N/AC:M/Au:N/C:N/I:P/A:N",
        "Cvss3": "",
        "Cwe": "",
        "Impact": "moderate",
        "Href": "https://access.redhat.com/security/cve/CVE-2014-0376",
        "Public": "20140114"
      },
      {
        "XMLName": {
          "Space": "http://oval.mitre.org/XMLSchema/oval-definitions-5",
          "Local": "cve"
        },
        "CveID": "CVE-2014-0387",
        "Cvss2": "5.1/AV:N/AC:H/Au:N/C:P/I:P/A:P",
        "Cvss3": "",
        "Cwe": "",
        "Impact": "important",
        "Href": "https://access.redhat.com/security/cve/CVE-2014-0387",
        "Public": "20140114"
      },
      {
        "XMLName": {
          "Space": "http://oval.mitre.org/XMLSchema/oval-definitions-5",
          "Local": "cve"
        },
        "CveID": "CVE-2014-0403",
        "Cvss2": "5.8/AV:N/AC:M/Au:N/C:P/I:P/A:N",
        "Cvss3": "",
        "Cwe": "",
        "Impact": "moderate",
        "Href": "https://access.redhat.com/security/cve/CVE-2014-0403",
        "Public": "20140114"
      },
      {
        "XMLName": {
          "Space": "http://oval.mitre.org/XMLSchema/oval-definitions-5",
          "Local": "cve"
        },
        "CveID": "CVE-2014-0410",
        "Cvss2": "6.8/AV:N/AC:M/Au:N/C:P/I:P/A:P",
        "Cvss3": "",
        "Cwe": "",
        "Impact": "",
        "Href": "https://access.redhat.com/security/cve/CVE-2014-0410",
        "Public": "20140114"
      },
      {
        "XMLName": {
          "Space": "http://oval.mitre.org/XMLSchema/oval-definitions-5",
          "Local": "cve"
        },
        "CveID": "CVE-2014-0411",
        "Cvss2": "4.0/AV:N/AC:H/Au:N/C:P/I:P/A:N",
        "Cvss3": "",
        "Cwe": "",
        "Impact": "moderate",
        "Href": "https://access.redhat.com/security/cve/CVE-2014-0411",
        "Public": "20140114"
      },
      {
        "XMLName": {
          "Space": "http://oval.mitre.org/XMLSchema/oval-definitions-5",
          "Local": "cve"
        },
        "CveID": "CVE-2014-0415",
        "Cvss2": "6.8/AV:N/AC:M/Au:N/C:P/I:P/A:P",
        "Cvss3": "",
        "Cwe": "",
        "Impact": "",
        "Href": "https://access.redhat.com/security/cve/CVE-2014-0415",
        "Public": "20140114"
      },
      {
        "XMLName": {
          "Space": "http://oval.mitre.org/XMLSchema/oval-definitions-5",
          "Local": "cve"
        },
        "CveID": "CVE-2014-0416",
        "Cvss2": "4.3/AV:N/AC:M/Au:N/C:N/I:P/A:N",
        "Cvss3": "",
        "Cwe": "",
        "Impact": "moderate",
        "Href": "https://access.redhat.com/security/cve/CVE-2014-0416",
        "Public": "20140114"
      },
      {
        "XMLName": {
          "Space": "http://oval.mitre.org/XMLSchema/oval-definitions-5",
          "Local": "cve"
        },
        "CveID": "CVE-2014-0417",
        "Cvss2": "6.8/AV:N/AC:M/Au:N/C:P/I:P/A:P",
        "Cvss3": "",
        "Cwe": "",
        "Impact": "",
        "Href": "https://access.redhat.com/security/cve/CVE-2014-0417",
        "Public": "20140114"
      },
      {
        "XMLName": {
          "Space": "http://oval.mitre.org/XMLSchema/oval-definitions-5",
          "Local": "cve"
        },
        "CveID": "CVE-2014-0422",
        "Cvss2": "6.8/AV:N/AC:M/Au:N/C:P/I:P/A:P",
        "Cvss3": "",
        "Cwe": "",
        "Impact": "",
        "Href": "https://access.redhat.com/security/cve/CVE-2014-0422",
        "Public": "20140114"
      },
      {
        "XMLName": {
          "Space": "http://oval.mitre.org/XMLSchema/oval-definitions-5",
          "Local": "cve"
        },
        "CveID": "CVE-2014-0423",
        "Cvss2": "5.5/AV:N/AC:L/Au:S/C:P/I:N/A:P",
        "Cvss3": "",
        "Cwe": "",
        "Impact": "moderate",
        "Href": "https://access.redhat.com/security/cve/CVE-2014-0423",
        "Public": "20140114"
      },
      {
        "XMLName": {
          "Space": "http://oval.mitre.org/XMLSchema/oval-definitions-5",
          "Local": "cve"
        },
        "CveID": "CVE-2014-0424",
        "Cvss2": "6.8/AV:N/AC:M/Au:N/C:P/I:P/A:P",
        "Cvss3": "",
        "Cwe": "",
        "Impact": "important",
        "Href": "https://access.redhat.com/security/cve/CVE-2014-0424",
        "Public": "20140114"
      },
      {
        "XMLName": {
          "Space": "http://oval.mitre.org/XMLSchema/oval-definitions-5",
          "Local": "cve"
        },
        "CveID": "CVE-2014-0428",
        "Cvss2": "6.8/AV:N/AC:M/Au:N/C:P/I:P/A:P",
        "Cvss3": "",
        "Cwe": "",
        "Impact": "",
        "Href": "https://access.redhat.com/security/cve/CVE-2014-0428",
        "Public": "20140114"
      }
    ],
    "Bugzillas": [
      {
        "XMLName": {
          "Space": "http://oval.mitre.org/XMLSchema/oval-definitions-5",
          "Local": "bugzilla"
        },
        "ID": "1051519",
        "URL": "https://bugzilla.redhat.com/1051519",
        "Title": "CVE-2014-0428 OpenJDK: insufficient security checks in IIOP streams (CORBA, 8025767)"
      },
      {
        "XMLName": {
          "Space": "http://oval.mitre.org/XMLSchema/oval-definitions-5",
          "Local": "bugzilla"
        },
        "ID": "1051528",
        "URL": "https://bugzilla.redhat.com/1051528",
        "Title": "CVE-2014-0422 OpenJDK: insufficient package access checks in the Naming component (JNDI, 8025758)"
      },
      {
        "XMLName": {
          "Space": "http://oval.mitre.org/XMLSchema/oval-definitions-5",
          "Local": "bugzilla"
        },
        "ID": "1051699",
        "URL": "https://bugzilla.redhat.com/1051699",
        "Title": "CVE-2014-0373 OpenJDK: SnmpStatusException handling issues (Serviceability, 7068126)"
      },
      {
        "XMLName": {
          "Space": "http://oval.mitre.org/XMLSchema/oval-definitions-5",
          "Local": "bugzilla"
        },
        "ID": "1051823",
        "URL": "https://bugzilla.redhat.com/1051823",
        "Title": "CVE-2013-5878 OpenJDK: null xmlns handling issue (Security, 8025026)"
      },
      {
        "XMLName": {
          "Space": "http://oval.mitre.org/XMLSchema/oval-definitions-5",
          "Local": "bugzilla"
        },
        "ID": "1051911",
        "URL": "https://bugzilla.redhat.com/1051911",
        "Title": "CVE-2013-5884 OpenJDK: insufficient security checks in CORBA stub factories (CORBA, 8026193)"
      },
      {
        "XMLName": {
          "Space": "http://oval.mitre.org/XMLSchema/oval-definitions-5",
          "Local": "bugzilla"
        },
        "ID": "1051912",
        "URL": "https://bugzilla.redhat.com/1051912",
        "Title": "CVE-2014-0416 OpenJDK: insecure subject principals set handling (JAAS, 8024306)"
      },
      {
        "XMLName": {
          "Space": "http://oval.mitre.org/XMLSchema/oval-definitions-5",
          "Local": "bugzilla"
        },
        "ID": "1051923",
        "URL": "https://bugzilla.redhat.com/1051923",
        "Title": "CVE-2014-0376 OpenJDK: document builder missing security checks (JAXP, 8027201, 8025018)"
      },
      {
        "XMLName": {
          "Space": "http://oval.mitre.org/XMLSchema/oval-definitions-5",
          "Local": "bugzilla"
        },
        "ID": "1052915",
        "URL": "https://bugzilla.redhat.com/1052915",
        "Title": "CVE-2013-5907 ICU: Layout Engine LookupProcessor insufficient input checks (JDK 2D, 8025034)"
      },
      {
        "XMLName": {
          "Space": "http://oval.mitre.org/XMLSchema/oval-definitions-5",
          "Local": "bugzilla"
        },
        "ID": "1052919",
        "URL": "https://bugzilla.redhat.com/1052919",
        "Title": "CVE-2014-0368 OpenJDK: insufficient Socket checkListen checks (Networking, 8011786)"
      },
      {
        "XMLName": {
          "Space": "http://oval.mitre.org/XMLSchema/oval-definitions-5",
          "Local": "bugzilla"
        },
        "ID": "1052942",
        "URL": "https://bugzilla.redhat.com/1052942",
        "Title": "CVE-2013-5910 OpenJDK: XML canonicalizer mutable strings passed to untrusted code (Security, 8026417)"
      },
      {
        "XMLName": {
          "Space": "http://oval.mitre.org/XMLSchema/oval-definitions-5",
          "Local": "bugzilla"
        },
        "ID": "1053010",
        "URL": "https://bugzilla.redhat.com/1053010",
        "Title": "CVE-2014-0411 OpenJDK: TLS/SSL handshake timing issues (JSSE, 8023069)"
      },
      {
        "XMLName": {
          "Space": "http://oval.mitre.org/XMLSchema/oval-definitions-5",
          "Local": "bugzilla"
        },
        "ID": "1053066",
        "URL": "https://bugzilla.redhat.com/1053066",
        "Title": "CVE-2014-0423 OpenJDK: XXE issue in decoder (Beans, 8023245)"
      },
      {
        "XMLName": {
          "Space": "http://oval.mitre.org/XMLSchema/oval-definitions-5",
          "Local": "bugzilla"
        },
        "ID": "1053266",
        "URL": "https://bugzilla.redhat.com/1053266",
        "Title": "CVE-2013-5896 OpenJDK: com.sun.corba.se. should be restricted package (CORBA, 8025022)"
      },
      {
        "XMLName": {
          "Space": "http://oval.mitre.org/XMLSchema/oval-definitions-5",
          "Local": "bugzilla"
        },
        "ID": "1053495",
        "URL": "https://bugzilla.redhat.com/1053495",
        "Title": "CVE-2014-0410 Oracle JDK: unspecified vulnerability fixed in 6u71 and 7u51 (Deployment)"
      },
      {
        "XMLName": {
          "Space": "http://oval.mitre.org/XMLSchema/oval-definitions-5",
          "Local": "bugzilla"
        },
        "ID": "1053496",
        "URL": "https://bugzilla.redhat.com/1053496",
        "Title": "CVE-2014-0415 Oracle JDK: unspecified vulnerability fixed in 6u71 and 7u51 (Deployment)"
      },
      {
        "XMLName": {
          "Space": "http://oval.mitre.org/XMLSchema/oval-definitions-5",
          "Local": "bugzilla"
        },
        "ID": "1053499",
        "URL": "https://bugzilla.redhat.com/1053499",
        "Title": "CVE-2013-5889 Oracle JDK: unspecified vulnerability fixed in 6u71 and 7u51 (Deployment)"
      },
      {
        "XMLName": {
          "Space": "http://oval.mitre.org/XMLSchema/oval-definitions-5",
          "Local": "bugzilla"
        },
        "ID": "1053501",
        "URL": "https://bugzilla.redhat.com/1053501",
        "Title": "CVE-2014-0417 Oracle JDK: unspecified vulnerability fixed in 5.0u71, 6u71 and 7u51 (2D)"
      },
      {
        "XMLName": {
          "Space": "http://oval.mitre.org/XMLSchema/oval-definitions-5",
          "Local": "bugzilla"
        },
        "ID": "1053502",
        "URL": "https://bugzilla.redhat.com/1053502",
        "Title": "CVE-2014-0387 Oracle JDK: unspecified vulnerability fixed in 6u71 and 7u51 (Deployment)"
      },
      {
        "XMLName": {
          "Space": "http://oval.mitre.org/XMLSchema/oval-definitions-5",
          "Local": "bugzilla"
        },
        "ID": "1053504",
        "URL": "https://bugzilla.redhat.com/1053504",
        "Title": "CVE-2014-0424 Oracle JDK: unspecified vulnerability fixed in 6u71 and 7u51 (Deployment)"
      },
      {
        "XMLName": {
          "Space": "http://oval.mitre.org/XMLSchema/oval-definitions-5",
          "Local": "bugzilla"
        },
        "ID": "1053507",
        "URL": "https://bugzilla.redhat.com/1053507",
        "Title": "CVE-2014-0403 Oracle JDK: unspecified vulnerability fixed in 6u71 and 7u51 (Deployment)"
      },
      {
        "XMLName": {
          "Space": "http://oval.mitre.org/XMLSchema/oval-definitions-5",
          "Local": "bugzilla"
        },
        "ID": "1053508",
        "URL": "https://bugzilla.redhat.com/1053508",
        "Title": "CVE-2014-0375 Oracle JDK: unspecified vulnerability fixed in 6u71 and 7u51 (Deployment)"
      },
      {
        "XMLName": {
          "Space": "http://oval.mitre.org/XMLSchema/oval-definitions-5",
          "Local": "bugzilla"
        },
        "ID": "1053515",
        "URL": "https://bugzilla.redhat.com/1053515",
        "Title": "CVE-2013-5887 Oracle JDK: unspecified vulnerability fixed in 6u71 and 7u51 (Deployment)"
      },
      {
        "XMLName": {
          "Space": "http://oval.mitre.org/XMLSchema/oval-definitions-5",
          "Local": "bugzilla"
        },
        "ID": "1053516",
        "URL": "https://bugzilla.redhat.com/1053516",
        "Title": "CVE-2013-5899 Oracle JDK: unspecified vulnerability fixed in 6u71 and 7u51 (Deployment)"
      },
      {
        "XMLName": {
          "Space": "http://oval.mitre.org/XMLSchema/oval-definitions-5",
          "Local": "bugzilla"
        },
        "ID": "1053517",
        "URL": "https://bugzilla.redhat.com/1053517",
        "Title": "CVE-2013-5888 Oracle JDK: unspecified vulnerability fixed in 6u71 and 7u51 (Deployment)"
      },
      {
        "XMLName": {
          "Space": "http://oval.mitre.org/XMLSchema/oval-definitions-5",
          "Local": "bugzilla"
        },
        "ID": "1053518",
        "URL": "https://bugzilla.redhat.com/1053518",
        "Title": "CVE-2013-5898 Oracle JDK: unspecified vulnerability fixed in 6u71 and 7u51 (Deployment)"
      }
    ],
    "AffectedCPEList": [
      "cpe:/a:redhat:rhel_extras:6",
      "cpe:/a:redhat:rhel_extras:6"
    ],
    "Issued": {
      "Date": "2014-02-04"
    },
    "Updated": {
      "Date": "2014-02-04"
    }
  },
  "Criteria": {
    "XMLName": {
      "Space": "http://oval.mitre.org/XMLSchema/oval-definitions-5",
      "Local": "criteria"
    },
    "Operator": "OR",
    "Criterias": [
      {
        "XMLName": {
          "Space": "http://oval.mitre.org/XMLSchema/oval-definitions-5",
          "Local": "criteria"
        },
        "Operator": "AND",
        "Criterias": [
          {
            "XMLName": {
              "Space": "http://oval.mitre.org/XMLSchema/oval-definitions-5",
              "Local": "criteria"
            },
            "Operator": "OR",
            "Criterias": [
              {
                "XMLName": {
                  "Space": "http://oval.mitre.org/XMLSchema/oval-definitions-5",
                  "Local": "criteria"
                },
                "Operator": "AND",
                "Criterias": null,
                "Criterions": [
                  {
                    "XMLName": {
                      "Space": "http://oval.mitre.org/XMLSchema/oval-definitions-5",
                      "Local": "criterion"
                    },
                    "Negate": false,
                    "TestRef": "oval:com.redhat.rhsa:tst:20140134001",
                    "Comment": "java-1.7.0-ibm is earlier than 1:1.7.0.6.1-1jpp.1.el6_5"
                  },
                  {
                    "XMLName": {
                      "Space": "http://oval.mitre.org/XMLSchema/oval-definitions-5",
                      "Local": "criterion"
                    },
                    "Negate": false,
                    "TestRef": "oval:com.redhat.rhsa:tst:20121289002",
                    "Comment": "java-1.7.0-ibm is signed with Red Hat redhatrelease2 key"
                  }
                ]
              },
              {
                "XMLName": {
                  "Space": "http://oval.mitre.org/XMLSchema/oval-definitions-5",
                  "Local": "criteria"
                },
                "Operator": "AND",
                "Criterias": null,
                "Criterions": [
                  {
                    "XMLName": {
                      "Space": "http://oval.mitre.org/XMLSchema/oval-definitions-5",
                      "Local": "criterion"
                    },
                    "Negate": false,
                    "TestRef": "oval:com.redhat.rhsa:tst:20140134003",
                    "Comment": "java-1.7.0-ibm-demo is earlier than 1:1.7.0.6.1-1jpp.1.el6_5"
                  },
                  {
                    "XMLName": {
                      "Space": "http://oval.mitre.org/XMLSchema/oval-definitions-5",
                      "Local": "criterion"
                    },
                    "Negate": false,
                    "TestRef": "oval:com.redhat.rhsa:tst:20121289004",
                    "Comment": "java-1.7.0-ibm-demo is signed with Red Hat redhatrelease2 key"
                  }
                ]
              },
              {
                "XMLName": {
                  "Space": "http://oval.mitre.org/XMLSchema/oval-definitions-5",
                  "Local": "criteria"
                },
                "Operator": "AND",
                "Criterias": null,
                "Criterions": [
                  {
                    "XMLName": {
                      "Space": "http://oval.mitre.org/XMLSchema/oval-definitions-5",
                      "Local": "criterion"
                    },
                    "Negate": false,
                    "TestRef": "oval:com.redhat.rhsa:tst:20140134005",
                    "Comment": "java-1.7.0-ibm-devel is earlier than 1:1.7.0.6.1-1jpp.1.el6_5"
                  },
                  {
                    "XMLName": {
                      "Space": "http://oval.mitre.org/XMLSchema/oval-definitions-5",
                      "Local": "criterion"
                    },
                    "Negate": false,
                    "TestRef": "oval:com.redhat.rhsa:tst:20121289006",
                    "Comment": "java-1.7.0-ibm-devel is signed with Red Hat redhatrelease2 key"
                  }
                ]
              },
              {
                "XMLName": {
                  "Space": "http://oval.mitre.org/XMLSchema/oval-definitions-5",
                  "Local": "criteria"
                },
                "Operator": "AND",
                "Criterias": null,
                "Criterions": [
                  {
                    "XMLName": {
                      "Space": "http://oval.mitre.org/XMLSchema/oval-definitions-5",
                      "Local": "criterion"
                    },
                    "Negate": false,
                    "TestRef": "oval:com.redhat.rhsa:tst:20140134007",
                    "Comment": "java-1.7.0-ibm-jdbc is earlier than 1:1.7.0.6.1-1jpp.1.el6_5"
                  },
                  {
                    "XMLName": {
                      "Space": "http://oval.mitre.org/XMLSchema/oval-definitions-5",
                      "Local": "criterion"
                    },
                    "Negate": false,
                    "TestRef": "oval:com.redhat.rhsa:tst:20121289008",
                    "Comment": "java-1.7.0-ibm-jdbc is signed with Red Hat redhatrelease2 key"
                  }
                ]
              },
              {
                "XMLName": {
                  "Space": "http://oval.mitre.org/XMLSchema/oval-definitions-5",
                  "Local": "criteria"
                },
                "Operator": "AND",
                "Criterias": null,
                "Criterions": [
                  {
                    "XMLName": {
                      "Space": "http://oval.mitre.org/XMLSchema/oval-definitions-5",
                      "Local": "criterion"
                    },
                    "Negate": false,
                    "TestRef": "oval:com.redhat.rhsa:tst:20140134009",
                    "Comment": "java-1.7.0-ibm-plugin is earlier than 1:1.7.0.6.1-1jpp.1.el6_5"
                  },
                  {
                    "XMLName": {
                      "Space": "http://oval.mitre.org/XMLSchema/oval-definitions-5",
                      "Local": "criterion"
                    },
                    "Negate": false,
                    "TestRef": "oval:com.redhat.rhsa:tst:20121289010",
                    "Comment": "java-1.7.0-ibm-plugin is signed with Red Hat redhatrelease2 key"
                  }
                ]
              },
              {
                "XMLName": {
                  "Space": "http://oval.mitre.org/XMLSchema/oval-definitions-5",
                  "Local": "criteria"
                },
                "Operator": "AND",
                "Criterias": null,
                "Criterions": [
                  {
                    "XMLName": {
                      "Space": "http://oval.mitre.org/XMLSchema/oval-definitions-5",
                      "Local": "criterion"
                    },
                    "Negate": false,
                    "TestRef": "oval:com.redhat.rhsa:tst:20140134011",
                    "Comment": "java-1.7.0-ibm-src is earlier than 1:1.7.0.6.1-1jpp.1.el6_5"
                  },
                  {
                    "XMLName": {
                      "Space": "http://oval.mitre.org/XMLSchema/oval-definitions-5",
                      "Local": "criterion"
                    },
                    "Negate": false,
                    "TestRef": "oval:com.redhat.rhsa:tst:20121289012",
                    "Comment": "java-1.7.0-ibm-src is signed with Red Hat redhatrelease2 key"
                  }
                ]
              }
            ],
            "Criterions": null
          }
        ],
        "Criterions": [
          {
            "XMLName": {
              "Space": "http://oval.mitre.org/XMLSchema/oval-definitions-5",
              "Local": "criterion"
            },
            "Negate": false,
            "TestRef": "oval:com.redhat.rhba:tst:20111656003",
            "Comment": "Red Hat Enterprise Linux 6 is installed"
          }
        ]
      }
    ],
    "Criterions": [
      {
        "XMLName": {
          "Space": "http://oval.mitre.org/XMLSchema/oval-definitions-5",
          "Local": "criterion"
        },
        "Negate": false,
        "TestRef": "oval:com.redhat.rhba:tst:20111656004",
        "Comment": "Red Hat Enterprise Linux must be installed"
      }
    ]
  }
}