{
  "XMLName": {
    "Space": "http://oval.mitre.org/XMLSchema/oval-definitions-5",
    "Local": "definition"
  },
  "ID": "oval:com.redhat.rhsa:def:20192694",
  "Class": "patch",
  "Title": "RHSA-2019:2694: firefox security update (Important)",
  "Affecteds": [
    {
      "XMLName": {
        "Space": "http://oval.mitre.org/XMLSchema/oval-definitions-5",
        "Local": "affected"
      },
      "Family": "unix",
      "Platforms": [
        "Red Hat Enterprise Linux 6"
      ]
    }
  ],
  "References": [
    {
      "XMLName": {
        "Space": "http://oval.mitre.org/XMLSchema/oval-definitions-5",
        "Local": "reference"
      },
      "Source": "RHSA",
      "RefID": "RHSA-2019:2694",
      "RefURL": "https://access.redhat.com/errata/RHSA-2019:2694"
    },
    {
      "XMLName": {
        "Space": "http://oval.mitre.org/XMLSchema/oval-definitions-5",
        "Local": "reference"
      },
      "Source": "CVE",
      "RefID": "CVE-2019-11733",
      "RefURL": "https://access.redhat.com/security/cve/CVE-2019-11733"
    },
    {
      "XMLName": {
        "Space": "http://oval.mitre.org/XMLSchema/oval-definitions-5",
        "Local": "reference"
      },
      "Source": "CVE",
      "RefID": "CVE-2019-11740",
      "RefURL": "https://access.redhat.com/security/cve/CVE-2019-11740"
    },
    {
      "XMLName": {
        "Space": "http://oval.mitre.org/XMLSchema/oval-definitions-5",
        "Local": "reference"
      },
      "Source": "CVE",
      "RefID": "CVE-2019-11742",
      "RefURL": "https://access.redhat.com/security/cve/CVE-2019-11742"
    },
    {
      "XMLName": {
        "Space": "http://oval.mitre.org/XMLSchema/oval-definitions-5",
        "Local": "reference"
      },
      "Source": "CVE",
      "RefID": "CVE-2019-11743",
      "RefURL": "https://access.redhat.com/security/cve/CVE-2019-11743"
    },
    {
      "XMLName": {
        "Space": "http://oval.mitre.org/XMLSchema/oval-definitions-5",
        "Local": "reference"
      },
      "Source": "CVE",
      "RefID": "CVE-2019-11744",
      "RefURL": "https://access.redhat.com/security/cve/CVE-2019-11744"
    },
    {
      "XMLName": {
        "Space": "http://oval.mitre.org/XMLSchema/oval-definitions-5",
        "Local": "reference"
      },
      "Source": "CVE",
      "RefID": "CVE-2019-11746",
      "RefURL": "https://access.redhat.com/security/cve/CVE-2019-11746"
    },
    {
      "XMLName": {
        "Space": "http://oval.mitre.org/XMLSchema/oval-definitions-5",
        "Local": "reference"
      },
      "Source": "CVE",
      "RefID": "CVE-2019-11752",
      "RefURL": "https://access.redhat.com/security/cve/CVE-2019-11752"
    },
    {
      "XMLName": {
        "Space": "http://oval.mitre.org/XMLSchema/oval-definitions-5",
        "Local": "reference"
      },
      "Source": "CVE",
      "RefID": "CVE-2019-9812",
      "RefURL": "https://access.redhat.com/security/cve/CVE-2019-9812"
    }
  ],
  "Description": "Mozilla Firefox is an open-source web browser, designed for standards compliance, performance, and portability.\n\nThis update upgrades Firefox to version 60.9.0 ESR.\n\nSecurity Fix(es):\n\n* Mozilla: Sandbox escape through Firefox Sync (CVE-2019-9812)\n\n* Mozilla: Memory safety bugs fixed in Firefox 69, Firefox ESR 68.1, and Firefox ESR 60.9 (CVE-2019-11740)\n\n* Mozilla: Same-origin policy violation with SVG filters and canvas to steal cross-origin images (CVE-2019-11742)\n\n* Mozilla: XSS by breaking out of title and textarea elements using innerHTML (CVE-2019-11744)\n\n* Mozilla: Use-after-free while manipulating video (CVE-2019-11746)\n\n* Mozilla: Use-after-free while extracting a key value in IndexedDB (CVE-2019-11752)\n\n* firefox: stored passwords in 'Saved Logins' can be copied without master password entry (CVE-2019-11733)\n\n* Mozilla: Cross-origin access to unload event attributes (CVE-2019-11743)\n\nFor more details about the security issue(s), including the impact, a CVSS score, acknowledgments, and other related information, refer to the CVE page(s) listed in the References section.",
  "Advisory": {
    "XMLName": {
      "Space": "http://oval.mitre.org/XMLSchema/oval-definitions-5",
      "Local": "advisory"
    },
    "Severity": "Important",
    "Cves": [
      {
        "XMLName": {
          "Space": "http://oval.mitre.org/XMLSchema/oval-definitions-5",
          "Local": "cve"
        },
        "CveID": "CVE-2019-11733",
        "Cvss2": "",
        "Cvss3": "5.0/CVSS:3.0/AV:L/AC:L/PR:L/UI:R/S:U/C:H/I:N/A:N",
        "Cwe": "CWE-862 CWE-306",
        "Impact": "moderate",
        "Href": "https://access.redhat.com/security/cve/CVE-2019-11733",
        "Public": "20190814"
      },
      {
        "XMLName": {
          "Space": "http://oval.mitre.org/XMLSchema/oval-definitions-5",
          "Local": "cve"
        },
        "CveID": "CVE-2019-11740",
        "Cvss2": "",
        "Cvss3": "7.5/CVSS:3.0/AV:N/AC:H/PR:N/UI:R/S:U/C:H/I:H/A:H",
        "Cwe": "CWE-120",
        "Impact": "",
        "Href": "https://access.redhat.com/security/cve/CVE-2019-11740",
        "Public": "20190903"
      },
      {
        "XMLName": {
          "Space": "http://oval.mitre.org/XMLSchema/oval-definitions-5",
          "Local": "cve"
        },
        "CveID": "CVE-2019-11742",
        "Cvss2": "",
        "Cvss3": "7.5/CVSS:3.0/AV:N/AC:H/PR:N/UI:R/S:U/C:H/I:H/A:H",
        "Cwe": "CWE-829",
        "Impact": "",
        "Href": "https://access.redhat.com/security/cve/CVE-2019-11742",
        "Public": "20190903"
      },
      {
        "XMLName": {
          "Space": "http://oval.mitre.org/XMLSchema/oval-definitions-5",
          "Local": "cve"
        },
        "CveID": "CVE-2019-11743",
        "Cvss2": "",
        "Cvss3": "6.1/CVSS:3.0/AV:N/AC:L/PR:N/UI:R/S:C/C:L/I:L/A:N",
        "Cwe": "CWE-829",
        "Impact": "moderate",
        "Href": "https://access.redhat.com/security/cve/CVE-2019-11743",
        "Public": "20190903"
      },
      {
        "XMLName": {
          "Space": "http://oval.mitre.org/XMLSchema/oval-definitions-5",
          "Local": "cve"
        },
        "CveID": "CVE-2019-11744",
        "Cvss2": "",
        "Cvss3": "7.5/CVSS:3.0/AV:N/AC:H/PR:N/UI:R/S:U/C:H/I:H/A:H",
        "Cwe": "CWE-79",
        "Impact": "",
        "Href": "https://access.redhat.com/security/cve/CVE-2019-11744",
        "Public": "20190903"
      },
      {
        "XMLName": {
          "Space": "http://oval.mitre.org/XMLSchema/oval-definitions-5",
          "Local": "cve"
        },
        "CveID": "CVE-2019-11746",
        "Cvss2": "",
        "Cvss3": "7.5/CVSS:3.0/AV:N/AC:H/PR:N/UI:R/S:U/C:H/I:H/A:H",
        "Cwe": "CWE-416",
        "Impact": "",
        "Href": "https://access.redhat.com/security/cve/CVE-2019-11746",
        "Public": "20190903"
      },
      {
        "XMLName": {
          "Space": "http://oval.mitre.org/XMLSchema/oval-definitions-5",
          "Local": "cve"
        },
        "CveID": "CVE-2019-11752",
        "Cvss2": "",
        "Cvss3": "7.5/CVSS:3.0/AV:N/AC:H/PR:N/UI:R/S:U/C:H/I:H/A:H",
        "Cwe": "CWE-416",
        "Impact": "",
        "Href": "https://access.redhat.com/security/cve/CVE-2019-11752",
        "Public": "20190903"
      },
      {
        "XMLName": {
          "Space": "http://oval.mitre.org/XMLSchema/oval-definitions-5",
          "Local": "cve"
        },
        "CveID": "CVE-2019-9812",
        "Cvss2": "",
        "Cvss3": "7.5/CVSS:3.0/AV:N/AC:H/PR:N/UI:R/S:U/C:H/I:H/A:H",
        "Cwe": "CWE-250",
        "Impact": "",
        "Href": "https://access.redhat.com/security/cve/CVE-2019-9812",
        "Public": "20190903"
      }
    ],
    "Bugzillas": [
      {
        "XMLName": {
          "Space": "http://oval.mitre.org/XMLSchema/oval-definitions-5",
          "Local": "bugzilla"
        },
        "ID": "1745687",
        "URL": "https://bugzilla.redhat.com/1745687",
        "Title": "CVE-2019-11733 firefox: stored passwords in 'Saved Logins' can be copied without master password entry"
      },
      {
        "XMLName": {
          "Space": "http://oval.mitre.org/XMLSchema/oval-definitions-5",
          "Local": "bugzilla"
        },
        "ID": "1748652",
        "URL": "https://bugzilla.redhat.com/1748652",
        "Title": "CVE-2019-11740 Mozilla: Memory safety bugs fixed in Firefox 69, Firefox ESR 68.1, Firefox ESR 60.9, Thunderbird 68.1, and Thunderbird 60.9"
      },
      {
        "XMLName": {
          "Space": "http://oval.mitre.org/XMLSchema/oval-definitions-5",
          "Local": "bugzilla"
        },
        "ID": "1748653",
        "URL": "https://bugzilla.redhat.com/1748653",
        "Title": "CVE-2019-11742 Mozilla: Same-origin policy violation with SVG filters and canvas to steal cross-origin images"
      },
      {
        "XMLName": {
          "Space": "http://oval.mitre.org/XMLSchema/oval-definitions-5",
          "Local": "bugzilla"
        },
        "ID": "1748654",
        "URL": "https://bugzilla.redhat.com/1748654",
        "Title": "CVE-2019-11743 Mozilla: Cross-origin access to unload event attributes"
      },
      {
        "XMLName": {
          "Space": "http://oval.mitre.org/XMLSchema/oval-definitions-5",
          "Local": "bugzilla"
        },
        "ID": "1748655",
        "URL": "https://bugzilla.redhat.com/1748655",
        "Title": "CVE-2019-11744 Mozilla: XSS by breaking out of title and textarea elements using innerHTML"
      },
      {
        "XMLName": {
          "Space": "http://oval.mitre.org/XMLSchema/oval-definitions-5",
          "Local": "bugzilla"
        },
        "ID": "1748656",
        "URL": "https://bugzilla.redhat.com/1748656",
        "Title": "CVE-2019-11746 Mozilla: Use-after-free while manipulating video"
      },
      {
        "XMLName": {
          "Space": "http://oval.mitre.org/XMLSchema/oval-definitions-5",
          "Local": "bugzilla"
        },
        "ID": "1748657",
        "URL": "https://bugzilla.redhat.com/1748657",
        "Title": "CVE-2019-11752 Mozilla: Use-after-free while extracting a key value in IndexedDB"
      },
      {
        "XMLName": {
          "Space": "http://oval.mitre.org/XMLSchema/oval-definitions-5",
          "Local": "bugzilla"
        },
        "ID": "1748660",
        "URL": "https://bugzilla.redhat.com/1748660",
        "Title": "CVE-2019-9812 Mozilla: Sandbox escape through Firefox Sync"
      }
    ],
    "AffectedCPEList": [
      "cpe:/o:redhat:enterprise_linux:6",
      "cpe:/o:redhat:enterprise_linux:6::client",
      "cpe:/o:redhat:enterprise_linux:6::computenode",
      "cpe:/o:redhat:enterprise_linux:6::server",
      "cpe:/o:redhat:enterprise_linux:6::workstation"
    ],
    "Issued": {
      "Date": "2019-09-12"
    },
    "Updated": {
      "Date": "2019-09-12"
    }
  },
  "Criteria": {
    "XMLName": {
      "Space": "http://oval.mitre.org/XMLSchema/oval-definitions-5",
      "Local": "criteria"
    },
    "Operator": "OR",
    "Criterias": [
      {
        "XMLName": {
          "Space": "http://oval.mitre.org/XMLSchema/oval-definitions-5",
          "Local": "criteria"
        },
        "Operator": "AND",
        "Criterias": null,
        "Criterions": [
          {
            "XMLName": {
              "Space": "http://oval.mitre.org/XMLSchema/oval-definitions-5",
              "Local": "criterion"
            },
            "Negate": false,
            "TestRef": "oval:com.redhat.rhba:tst:20111656003",
            "Comment": "Red Hat Enterprise Linux 6 is installed"
          },
          {
            "XMLName": {
              "Space": "http://oval.mitre.org/XMLSchema/oval-definitions-5",
              "Local": "criterion"
            },
            "Negate": false,
            "TestRef": "oval:com.redhat.rhsa:tst:20192694001",
            "Comment": "firefox is earlier than 0:60.9.0-1.el6_10"
          },
          {
            "XMLName": {
              "Space": "http://oval.mitre.org/XMLSchema/oval-definitions-5",
              "Local": "criterion"
            },
            "Negate": false,
            "TestRef": "oval:com.redhat.rhsa:tst:20100861006",
            "Comment": "firefox is signed with Red Hat redhatrelease2 key"
          }
        ]
      }
    ],
    "Criterions": [
      {
        "XMLName": {
          "Space": "http://oval.mitre.org/XMLSchema/oval-definitions-5",
          "Local": "criterion"
        },
        "Negate": false,
        "TestRef": "oval:com.redhat.rhba:tst:20111656004",
        "Comment": "Red Hat Enterprise Linux must be installed"
      }
    ]
  }
}