{
  "XMLName": {
    "Space": "http://oval.mitre.org/XMLSchema/oval-definitions-5",
    "Local": "definition"
  },
  "ID": "oval:com.redhat.rhsa:def:20170931",
  "Class": "patch",
  "Title": "RHSA-2017:0931: kernel-rt security and bug fix update (Important)",
  "Affecteds": [
    {
      "XMLName": {
        "Space": "http://oval.mitre.org/XMLSchema/oval-definitions-5",
        "Local": "affected"
      },
      "Family": "unix",
      "Platforms": [
        "Red Hat Enterprise Linux 7"
      ]
    }
  ],
  "References": [
    {
      "XMLName": {
        "Space": "http://oval.mitre.org/XMLSchema/oval-definitions-5",
        "Local": "reference"
      },
      "Source": "RHSA",
      "RefID": "RHSA-2017:0931",
      "RefURL": "https://access.redhat.com/errata/RHSA-2017:0931"
    },
    {
      "XMLName": {
        "Space": "http://oval.mitre.org/XMLSchema/oval-definitions-5",
        "Local": "reference"
      },
      "Source": "CVE",
      "RefID": "CVE-2016-8650",
      "RefURL": "https://access.redhat.com/security/cve/CVE-2016-8650"
    },
    {
      "XMLName": {
        "Space": "http://oval.mitre.org/XMLSchema/oval-definitions-5",
        "Local": "reference"
      },
      "Source": "CVE",
      "RefID": "CVE-2016-9793",
      "RefURL": "https://access.redhat.com/security/cve/CVE-2016-9793"
    },
    {
      "XMLName": {
        "Space": "http://oval.mitre.org/XMLSchema/oval-definitions-5",
        "Local": "reference"
      },
      "Source": "CVE",
      "RefID": "CVE-2017-2618",
      "RefURL": "https://access.redhat.com/security/cve/CVE-2017-2618"
    },
    {
      "XMLName": {
        "Space": "http://oval.mitre.org/XMLSchema/oval-definitions-5",
        "Local": "reference"
      },
      "Source": "CVE",
      "RefID": "CVE-2017-2636",
      "RefURL": "https://access.redhat.com/security/cve/CVE-2017-2636"
    }
  ],
  "Description": "The kernel-rt packages provide the Real Time Linux Kernel, which enables fine-tuning for systems with extremely high determinism requirements.\n\nSecurity Fix(es):\n\n* A race condition flaw was found in the N_HLDC Linux kernel driver when accessing n_hdlc.tbuf list that can lead to double free. A local, unprivileged user able to set the HDLC line discipline on the tty device could use this flaw to increase their privileges on the system. (CVE-2017-2636, Important)\n\n* A flaw was found in the Linux kernel key management subsystem in which a local attacker could crash the kernel or corrupt the stack and additional memory (denial of service) by supplying a specially crafted RSA key. This flaw panics the machine during the verification of the RSA key. (CVE-2016-8650, Moderate)\n\n* A flaw was found in the Linux kernel's implementation of setsockopt for the SO_{SND|RCV}BUFFORCE setsockopt() system call. Users with non-namespace CAP_NET_ADMIN are able to trigger this call and create a situation in which the sockets sendbuff data size could be negative. This could adversely affect memory allocations and create situations where the system could crash or cause memory corruption. (CVE-2016-9793, Moderate)\n\n* A flaw was found in the Linux kernel's handling of clearing SELinux attributes on /proc/pid/attr files. An empty (null) write to this file can crash the system by causing the system to attempt to access unmapped kernel memory. (CVE-2017-2618, Moderate)\n\nRed Hat would like to thank Alexander Popov for reporting CVE-2017-2636 and Ralf Spenneberg for reporting CVE-2016-8650. The CVE-2017-2618 issue was discovered by Paul Moore (Red Hat Engineering).\n\nBug Fix(es):\n\n* Previously, a cgroups data structure was sometimes corrupted due to a race condition in the kernel-rt cgroups code. Consequently, several system tasks were blocked, and the operating system became unresponsive. This update adds a lock that prevents the race condition. As a result, the cgroups data structure no longer gets corrupted and the operating system no longer hangs under the described circumstances. (BZ#1420784)\n\n* The kernel-rt packages have been upgraded to the 3.10.0-514.16.1 source tree, which provides a number of bug fixes over the previous version. (BZ#1430749)",
  "Advisory": {
    "XMLName": {
      "Space": "http://oval.mitre.org/XMLSchema/oval-definitions-5",
      "Local": "advisory"
    },
    "Severity": "Important",
    "Cves": [
      {
        "XMLName": {
          "Space": "http://oval.mitre.org/XMLSchema/oval-definitions-5",
          "Local": "cve"
        },
        "CveID": "CVE-2016-8650",
        "Cvss2": "4.9/AV:L/AC:L/Au:N/C:N/I:N/A:C",
        "Cvss3": "8.8/CVSS:3.0/AV:L/AC:L/PR:L/UI:N/S:C/C:H/I:H/A:H",
        "Cwe": "CWE-476",
        "Impact": "moderate",
        "Href": "https://access.redhat.com/security/cve/CVE-2016-8650",
        "Public": "20161115"
      },
      {
        "XMLName": {
          "Space": "http://oval.mitre.org/XMLSchema/oval-definitions-5",
          "Local": "cve"
        },
        "CveID": "CVE-2016-9793",
        "Cvss2": "6.9/AV:L/AC:M/Au:N/C:C/I:C/A:C",
        "Cvss3": "6.7/CVSS:3.0/AV:L/AC:L/PR:H/UI:N/S:U/C:H/I:H/A:H",
        "Cwe": "CWE-190",
        "Impact": "moderate",
        "Href": "https://access.redhat.com/security/cve/CVE-2016-9793",
        "Public": "20161202"
      },
      {
        "XMLName": {
          "Space": "http://oval.mitre.org/XMLSchema/oval-definitions-5",
          "Local": "cve"
        },
        "CveID": "CVE-2017-2618",
        "Cvss2": "",
        "Cvss3": "5.5/CVSS:3.0/AV:L/AC:L/PR:L/UI:N/S:U/C:N/I:N/A:H",
        "Cwe": "CWE-193",
        "Impact": "moderate",
        "Href": "https://access.redhat.com/security/cve/CVE-2017-2618",
        "Public": "20170216"
      },
      {
        "XMLName": {
          "Space": "http://oval.mitre.org/XMLSchema/oval-definitions-5",
          "Local": "cve"
        },
        "CveID": "CVE-2017-2636",
        "Cvss2": "",
        "Cvss3": "7.8/CVSS:3.0/AV:L/AC:L/PR:L/UI:N/S:U/C:H/I:H/A:H",
        "Cwe": "CWE-362",
        "Impact": "",
        "Href": "https://access.redhat.com/security/cve/CVE-2017-2636",
        "Public": "20170307"
      }
    ],
    "Bugzillas": [
      {
        "XMLName": {
          "Space": "http://oval.mitre.org/XMLSchema/oval-definitions-5",
          "Local": "bugzilla"
        },
        "ID": "1395187",
        "URL": "https://bugzilla.redhat.com/1395187",
        "Title": "CVE-2016-8650 kernel: Null pointer dereference via keyctl"
      },
      {
        "XMLName": {
          "Space": "http://oval.mitre.org/XMLSchema/oval-definitions-5",
          "Local": "bugzilla"
        },
        "ID": "1402013",
        "URL": "https://bugzilla.redhat.com/1402013",
        "Title": "CVE-2016-9793 kernel: Signed overflow for SO_{SND|RCV}BUFFORCE"
      },
      {
        "XMLName": {
          "Space": "http://oval.mitre.org/XMLSchema/oval-definitions-5",
          "Local": "bugzilla"
        },
        "ID": "1419916",
        "URL": "https://bugzilla.redhat.com/1419916",
        "Title": "CVE-2017-2618 kernel: Off-by-one error in selinux_setprocattr (/proc/self/attr/fscreate)"
      },
      {
        "XMLName": {
          "Space": "http://oval.mitre.org/XMLSchema/oval-definitions-5",
          "Local": "bugzilla"
        },
        "ID": "1428319",
        "URL": "https://bugzilla.redhat.com/1428319",
        "Title": "CVE-2017-2636 kernel: Race condition access to n_hdlc.tbuf causes double free in n_hdlc_release()"
      },
      {
        "XMLName": {
          "Space": "http://oval.mitre.org/XMLSchema/oval-definitions-5",
          "Local": "bugzilla"
        },
        "ID": "1430749",
        "URL": "https://bugzilla.redhat.com/1430749",
        "Title": "kernel-rt: update to the RHEL7.3.z batch#4 source tree [RT-7.3.z]"
      }
    ],
    "AffectedCPEList": [
      "cpe:/a:redhat:rhel_extras_rt:7",
      "cpe:/a:redhat:rhel_extras_rt:7"
    ],
    "Issued": {
      "Date": "2017-04-12"
    },
    "Updated": {
      "Date": "2017-04-12"
    }
  },
  "Criteria": {
    "XMLName": {
      "Space": "http://oval.mitre.org/XMLSchema/oval-definitions-5",
      "Local": "criteria"
    },
    "Operator": "OR",
    "Criterias": [
      {
        "XMLName": {
          "Space": "http://oval.mitre.org/XMLSchema/oval-definitions-5",
          "Local": "criteria"
        },
        "Operator": "AND",
        "Criterias": [
          {
            "XMLName": {
              "Space": "http://oval.mitre.org/XMLSchema/oval-definitions-5",
              "Local": "criteria"
            },
            "Operator": "OR",
            "Criterias": null,
            "Criterions": [
              {
                "XMLName": {
                  "Space": "http://oval.mitre.org/XMLSchema/oval-definitions-5",
                  "Local": "criterion"
                },
                "Negate": false,
                "TestRef": "oval:com.redhat.rhsa:tst:20170931021",
                "Comment": "kernel-rt earlier than 0:3.10.0-514.16.1.rt56.437.el7 is currently running"
              },
              {
                "XMLName": {
                  "Space": "http://oval.mitre.org/XMLSchema/oval-definitions-5",
                  "Local": "criterion"
                },
                "Negate": false,
                "TestRef": "oval:com.redhat.rhsa:tst:20170931022",
                "Comment": "kernel-rt earlier than 0:3.10.0-514.16.1.rt56.437.el7 is set to boot up on next boot"
              }
            ]
          },
          {
            "XMLName": {
              "Space": "http://oval.mitre.org/XMLSchema/oval-definitions-5",
              "Local": "criteria"
            },
            "Operator": "OR",
            "Criterias": [
              {
                "XMLName": {
                  "Space": "http://oval.mitre.org/XMLSchema/oval-definitions-5",
                  "Local": "criteria"
                },
                "Operator": "AND",
                "Criterias": null,
                "Criterions": [
                  {
                    "XMLName": {
                      "Space": "http://oval.mitre.org/XMLSchema/oval-definitions-5",
                      "Local": "criterion"
                    },
                    "Negate": false,
                    "TestRef": "oval:com.redhat.rhsa:tst:20170931001",
                    "Comment": "kernel-rt is earlier than 0:3.10.0-514.16.1.rt56.437.el7"
                  },
                  {
                    "XMLName": {
                      "Space": "http://oval.mitre.org/XMLSchema/oval-definitions-5",
                      "Local": "criterion"
                    },
                    "Negate": false,
                    "TestRef": "oval:com.redhat.rhsa:tst:20150727002",
                    "Comment": "kernel-rt is signed with Red Hat redhatrelease2 key"
                  }
                ]
              },
              {
                "XMLName": {
                  "Space": "http://oval.mitre.org/XMLSchema/oval-definitions-5",
                  "Local": "criteria"
                },
                "Operator": "AND",
                "Criterias": null,
                "Criterions": [
                  {
                    "XMLName": {
                      "Space": "http://oval.mitre.org/XMLSchema/oval-definitions-5",
                      "Local": "criterion"
                    },
                    "Negate": false,
                    "TestRef": "oval:com.redhat.rhsa:tst:20170931003",
                    "Comment": "kernel-rt-debug is earlier than 0:3.10.0-514.16.1.rt56.437.el7"
                  },
                  {
                    "XMLName": {
                      "Space": "http://oval.mitre.org/XMLSchema/oval-definitions-5",
                      "Local": "criterion"
                    },
                    "Negate": false,
                    "TestRef": "oval:com.redhat.rhsa:tst:20150727004",
                    "Comment": "kernel-rt-debug is signed with Red Hat redhatrelease2 key"
                  }
                ]
              },
              {
                "XMLName": {
                  "Space": "http://oval.mitre.org/XMLSchema/oval-definitions-5",
                  "Local": "criteria"
                },
                "Operator": "AND",
                "Criterias": null,
                "Criterions": [
                  {
                    "XMLName": {
                      "Space": "http://oval.mitre.org/XMLSchema/oval-definitions-5",
                      "Local": "criterion"
                    },
                    "Negate": false,
                    "TestRef": "oval:com.redhat.rhsa:tst:20170931005",
                    "Comment": "kernel-rt-debug-devel is earlier than 0:3.10.0-514.16.1.rt56.437.el7"
                  },
                  {
                    "XMLName": {
                      "Space": "http://oval.mitre.org/XMLSchema/oval-definitions-5",
                      "Local": "criterion"
                    },
                    "Negate": false,
                    "TestRef": "oval:com.redhat.rhsa:tst:20150727006",
                    "Comment": "kernel-rt-debug-devel is signed with Red Hat redhatrelease2 key"
                  }
                ]
              },
              {
                "XMLName": {
                  "Space": "http://oval.mitre.org/XMLSchema/oval-definitions-5",
                  "Local": "criteria"
                },
                "Operator": "AND",
                "Criterias": null,
                "Criterions": [
                  {
                    "XMLName": {
                      "Space": "http://oval.mitre.org/XMLSchema/oval-definitions-5",
                      "Local": "criterion"
                    },
                    "Negate": false,
                    "TestRef": "oval:com.redhat.rhsa:tst:20170931007",
                    "Comment": "kernel-rt-debug-kvm is earlier than 0:3.10.0-514.16.1.rt56.437.el7"
                  },
                  {
                    "XMLName": {
                      "Space": "http://oval.mitre.org/XMLSchema/oval-definitions-5",
                      "Local": "criterion"
                    },
                    "Negate": false,
                    "TestRef": "oval:com.redhat.rhsa:tst:20160212008",
                    "Comment": "kernel-rt-debug-kvm is signed with Red Hat redhatrelease2 key"
                  }
                ]
              },
              {
                "XMLName": {
                  "Space": "http://oval.mitre.org/XMLSchema/oval-definitions-5",
                  "Local": "criteria"
                },
                "Operator": "AND",
                "Criterias": null,
                "Criterions": [
                  {
                    "XMLName": {
                      "Space": "http://oval.mitre.org/XMLSchema/oval-definitions-5",
                      "Local": "criterion"
                    },
                    "Negate": false,
                    "TestRef": "oval:com.redhat.rhsa:tst:20170931009",
                    "Comment": "kernel-rt-devel is earlier than 0:3.10.0-514.16.1.rt56.437.el7"
                  },
                  {
                    "XMLName": {
                      "Space": "http://oval.mitre.org/XMLSchema/oval-definitions-5",
                      "Local": "criterion"
                    },
                    "Negate": false,
                    "TestRef": "oval:com.redhat.rhsa:tst:20150727008",
                    "Comment": "kernel-rt-devel is signed with Red Hat redhatrelease2 key"
                  }
                ]
              },
              {
                "XMLName": {
                  "Space": "http://oval.mitre.org/XMLSchema/oval-definitions-5",
                  "Local": "criteria"
                },
                "Operator": "AND",
                "Criterias": null,
                "Criterions": [
                  {
                    "XMLName": {
                      "Space": "http://oval.mitre.org/XMLSchema/oval-definitions-5",
                      "Local": "criterion"
                    },
                    "Negate": false,
                    "TestRef": "oval:com.redhat.rhsa:tst:20170931011",
                    "Comment": "kernel-rt-doc is earlier than 0:3.10.0-514.16.1.rt56.437.el7"
                  },
                  {
                    "XMLName": {
                      "Space": "http://oval.mitre.org/XMLSchema/oval-definitions-5",
                      "Local": "criterion"
                    },
                    "Negate": false,
                    "TestRef": "oval:com.redhat.rhsa:tst:20150727010",
                    "Comment": "kernel-rt-doc is signed with Red Hat redhatrelease2 key"
                  }
                ]
              },
              {
                "XMLName": {
                  "Space": "http://oval.mitre.org/XMLSchema/oval-definitions-5",
                  "Local": "criteria"
                },
                "Operator": "AND",
                "Criterias": null,
                "Criterions": [
                  {
                    "XMLName": {
                      "Space": "http://oval.mitre.org/XMLSchema/oval-definitions-5",
                      "Local": "criterion"
                    },
                    "Negate": false,
                    "TestRef": "oval:com.redhat.rhsa:tst:20170931013",
                    "Comment": "kernel-rt-kvm is earlier than 0:3.10.0-514.16.1.rt56.437.el7"
                  },
                  {
                    "XMLName": {
                      "Space": "http://oval.mitre.org/XMLSchema/oval-definitions-5",
                      "Local": "criterion"
                    },
                    "Negate": false,
                    "TestRef": "oval:com.redhat.rhsa:tst:20160212014",
                    "Comment": "kernel-rt-kvm is signed with Red Hat redhatrelease2 key"
                  }
                ]
              },
              {
                "XMLName": {
                  "Space": "http://oval.mitre.org/XMLSchema/oval-definitions-5",
                  "Local": "criteria"
                },
                "Operator": "AND",
                "Criterias": null,
                "Criterions": [
                  {
                    "XMLName": {
                      "Space": "http://oval.mitre.org/XMLSchema/oval-definitions-5",
                      "Local": "criterion"
                    },
                    "Negate": false,
                    "TestRef": "oval:com.redhat.rhsa:tst:20170931015",
                    "Comment": "kernel-rt-trace is earlier than 0:3.10.0-514.16.1.rt56.437.el7"
                  },
                  {
                    "XMLName": {
                      "Space": "http://oval.mitre.org/XMLSchema/oval-definitions-5",
                      "Local": "criterion"
                    },
                    "Negate": false,
                    "TestRef": "oval:com.redhat.rhsa:tst:20150727012",
                    "Comment": "kernel-rt-trace is signed with Red Hat redhatrelease2 key"
                  }
                ]
              },
              {
                "XMLName": {
                  "Space": "http://oval.mitre.org/XMLSchema/oval-definitions-5",
                  "Local": "criteria"
                },
                "Operator": "AND",
                "Criterias": null,
                "Criterions": [
                  {
                    "XMLName": {
                      "Space": "http://oval.mitre.org/XMLSchema/oval-definitions-5",
                      "Local": "criterion"
                    },
                    "Negate": false,
                    "TestRef": "oval:com.redhat.rhsa:tst:20170931017",
                    "Comment": "kernel-rt-trace-devel is earlier than 0:3.10.0-514.16.1.rt56.437.el7"
                  },
                  {
                    "XMLName": {
                      "Space": "http://oval.mitre.org/XMLSchema/oval-definitions-5",
                      "Local": "criterion"
                    },
                    "Negate": false,
                    "TestRef": "oval:com.redhat.rhsa:tst:20150727014",
                    "Comment": "kernel-rt-trace-devel is signed with Red Hat redhatrelease2 key"
                  }
                ]
              },
              {
                "XMLName": {
                  "Space": "http://oval.mitre.org/XMLSchema/oval-definitions-5",
                  "Local": "criteria"
                },
                "Operator": "AND",
                "Criterias": null,
                "Criterions": [
                  {
                    "XMLName": {
                      "Space": "http://oval.mitre.org/XMLSchema/oval-definitions-5",
                      "Local": "criterion"
                    },
                    "Negate": false,
                    "TestRef": "oval:com.redhat.rhsa:tst:20170931019",
                    "Comment": "kernel-rt-trace-kvm is earlier than 0:3.10.0-514.16.1.rt56.437.el7"
                  },
                  {
                    "XMLName": {
                      "Space": "http://oval.mitre.org/XMLSchema/oval-definitions-5",
                      "Local": "criterion"
                    },
                    "Negate": false,
                    "TestRef": "oval:com.redhat.rhsa:tst:20160212020",
                    "Comment": "kernel-rt-trace-kvm is signed with Red Hat redhatrelease2 key"
                  }
                ]
              }
            ],
            "Criterions": null
          }
        ],
        "Criterions": [
          {
            "XMLName": {
              "Space": "http://oval.mitre.org/XMLSchema/oval-definitions-5",
              "Local": "criterion"
            },
            "Negate": false,
            "TestRef": "oval:com.redhat.rhba:tst:20150364027",
            "Comment": "Red Hat Enterprise Linux 7 is installed"
          }
        ]
      }
    ],
    "Criterions": [
      {
        "XMLName": {
          "Space": "http://oval.mitre.org/XMLSchema/oval-definitions-5",
          "Local": "criterion"
        },
        "Negate": false,
        "TestRef": "oval:com.redhat.rhba:tst:20150364028",
        "Comment": "Red Hat Enterprise Linux must be installed"
      }
    ]
  }
}