{
  "id": "ALAS2-2020-1564",
  "title": "Amazon Linux 2 2017.12 - ALAS2-2020-1564: medium priority package update for bind",
  "issued": {
    "date": "2020-12-08 20:55"
  },
  "updated": {
    "date": "2020-12-08 20:55"
  },
  "severity": "medium",
  "description": "Package updates are available for Amazon Linux 2 that fix the following vulnerabilities:\nCVE-2020-8624:\n\t1869480: CVE-2020-8624 bind: incorrect enforcement of update-policy rules of type \"subdomain\"\nA flaw was found in bind. Updates to  \"Update-policy\" rules of type \"subdomain\" are treated as if they were of type \"zonesub\" which allows updates to all parts of the zone along with the intended subdomain. The highest threat from this vulnerability is to data integrity.\n\nCVE-2020-8623:\n\tA flaw was found in bind. An assertion failure can occur when a specially crafted query for a zone signed with an RSA key. BIND must be compiled with \"--enable-native-pkcs11\" for the system to be affected. The highest threat from this vulnerability is to system availability.\n1869477: CVE-2020-8623 bind: remotely triggerable assertion failure in pk11.c\n\nCVE-2020-8622:\n\t1869473: CVE-2020-8622 bind: truncated TSIG response can lead to an assertion failure\nA flaw was found in bind. An assertion failure can occur when trying to verify a truncated response to a TSIG-signed request. The highest threat from this vulnerability is to system availability.\n",
  "packages": [
    {
      "name": "bind",
      "epoch": "32",
      "version": "9.11.4",
      "release": "26.P2.amzn2.2",
      "arch": "aarch64",
      "filename": "Packages/bind-9.11.4-26.P2.amzn2.2.aarch64.rpm"
    },
    {
      "name": "bind-pkcs11",
      "epoch": "32",
      "version": "9.11.4",
      "release": "26.P2.amzn2.2",
      "arch": "aarch64",
      "filename": "Packages/bind-pkcs11-9.11.4-26.P2.amzn2.2.aarch64.rpm"
    },
    {
      "name": "bind-pkcs11-utils",
      "epoch": "32",
      "version": "9.11.4",
      "release": "26.P2.amzn2.2",
      "arch": "aarch64",
      "filename": "Packages/bind-pkcs11-utils-9.11.4-26.P2.amzn2.2.aarch64.rpm"
    },
    {
      "name": "bind-pkcs11-libs",
      "epoch": "32",
      "version": "9.11.4",
      "release": "26.P2.amzn2.2",
      "arch": "aarch64",
      "filename": "Packages/bind-pkcs11-libs-9.11.4-26.P2.amzn2.2.aarch64.rpm"
    },
    {
      "name": "bind-pkcs11-devel",
      "epoch": "32",
      "version": "9.11.4",
      "release": "26.P2.amzn2.2",
      "arch": "aarch64",
      "filename": "Packages/bind-pkcs11-devel-9.11.4-26.P2.amzn2.2.aarch64.rpm"
    },
    {
      "name": "bind-sdb",
      "epoch": "32",
      "version": "9.11.4",
      "release": "26.P2.amzn2.2",
      "arch": "aarch64",
      "filename": "Packages/bind-sdb-9.11.4-26.P2.amzn2.2.aarch64.rpm"
    },
    {
      "name": "bind-libs-lite",
      "epoch": "32",
      "version": "9.11.4",
      "release": "26.P2.amzn2.2",
      "arch": "aarch64",
      "filename": "Packages/bind-libs-lite-9.11.4-26.P2.amzn2.2.aarch64.rpm"
    },
    {
      "name": "bind-libs",
      "epoch": "32",
      "version": "9.11.4",
      "release": "26.P2.amzn2.2",
      "arch": "aarch64",
      "filename": "Packages/bind-libs-9.11.4-26.P2.amzn2.2.aarch64.rpm"
    },
    {
      "name": "bind-license",
      "epoch": "32",
      "version": "9.11.4",
      "release": "26.P2.amzn2.2",
      "arch": "noarch",
      "filename": "Packages/bind-license-9.11.4-26.P2.amzn2.2.noarch.rpm"
    },
    {
      "name": "bind-utils",
      "epoch": "32",
      "version": "9.11.4",
      "release": "26.P2.amzn2.2",
      "arch": "aarch64",
      "filename": "Packages/bind-utils-9.11.4-26.P2.amzn2.2.aarch64.rpm"
    },
    {
      "name": "bind-devel",
      "epoch": "32",
      "version": "9.11.4",
      "release": "26.P2.amzn2.2",
      "arch": "aarch64",
      "filename": "Packages/bind-devel-9.11.4-26.P2.amzn2.2.aarch64.rpm"
    },
    {
      "name": "bind-lite-devel",
      "epoch": "32",
      "version": "9.11.4",
      "release": "26.P2.amzn2.2",
      "arch": "aarch64",
      "filename": "Packages/bind-lite-devel-9.11.4-26.P2.amzn2.2.aarch64.rpm"
    },
    {
      "name": "bind-chroot",
      "epoch": "32",
      "version": "9.11.4",
      "release": "26.P2.amzn2.2",
      "arch": "aarch64",
      "filename": "Packages/bind-chroot-9.11.4-26.P2.amzn2.2.aarch64.rpm"
    },
    {
      "name": "bind-sdb-chroot",
      "epoch": "32",
      "version": "9.11.4",
      "release": "26.P2.amzn2.2",
      "arch": "aarch64",
      "filename": "Packages/bind-sdb-chroot-9.11.4-26.P2.amzn2.2.aarch64.rpm"
    },
    {
      "name": "bind-export-libs",
      "epoch": "32",
      "version": "9.11.4",
      "release": "26.P2.amzn2.2",
      "arch": "aarch64",
      "filename": "Packages/bind-export-libs-9.11.4-26.P2.amzn2.2.aarch64.rpm"
    },
    {
      "name": "bind-export-devel",
      "epoch": "32",
      "version": "9.11.4",
      "release": "26.P2.amzn2.2",
      "arch": "aarch64",
      "filename": "Packages/bind-export-devel-9.11.4-26.P2.amzn2.2.aarch64.rpm"
    },
    {
      "name": "bind-debuginfo",
      "epoch": "32",
      "version": "9.11.4",
      "release": "26.P2.amzn2.2",
      "arch": "aarch64",
      "filename": "Packages/bind-debuginfo-9.11.4-26.P2.amzn2.2.aarch64.rpm"
    },
    {
      "name": "bind",
      "epoch": "32",
      "version": "9.11.4",
      "release": "26.P2.amzn2.2",
      "arch": "x86_64",
      "filename": "Packages/bind-9.11.4-26.P2.amzn2.2.x86_64.rpm"
    },
    {
      "name": "bind-pkcs11",
      "epoch": "32",
      "version": "9.11.4",
      "release": "26.P2.amzn2.2",
      "arch": "x86_64",
      "filename": "Packages/bind-pkcs11-9.11.4-26.P2.amzn2.2.x86_64.rpm"
    },
    {
      "name": "bind-pkcs11-utils",
      "epoch": "32",
      "version": "9.11.4",
      "release": "26.P2.amzn2.2",
      "arch": "x86_64",
      "filename": "Packages/bind-pkcs11-utils-9.11.4-26.P2.amzn2.2.x86_64.rpm"
    },
    {
      "name": "bind-pkcs11-libs",
      "epoch": "32",
      "version": "9.11.4",
      "release": "26.P2.amzn2.2",
      "arch": "x86_64",
      "filename": "Packages/bind-pkcs11-libs-9.11.4-26.P2.amzn2.2.x86_64.rpm"
    },
    {
      "name": "bind-pkcs11-devel",
      "epoch": "32",
      "version": "9.11.4",
      "release": "26.P2.amzn2.2",
      "arch": "x86_64",
      "filename": "Packages/bind-pkcs11-devel-9.11.4-26.P2.amzn2.2.x86_64.rpm"
    },
    {
      "name": "bind-sdb",
      "epoch": "32",
      "version": "9.11.4",
      "release": "26.P2.amzn2.2",
      "arch": "x86_64",
      "filename": "Packages/bind-sdb-9.11.4-26.P2.amzn2.2.x86_64.rpm"
    },
    {
      "name": "bind-libs-lite",
      "epoch": "32",
      "version": "9.11.4",
      "release": "26.P2.amzn2.2",
      "arch": "x86_64",
      "filename": "Packages/bind-libs-lite-9.11.4-26.P2.amzn2.2.x86_64.rpm"
    },
    {
      "name": "bind-libs",
      "epoch": "32",
      "version": "9.11.4",
      "release": "26.P2.amzn2.2",
      "arch": "x86_64",
      "filename": "Packages/bind-libs-9.11.4-26.P2.amzn2.2.x86_64.rpm"
    },
    {
      "name": "bind-utils",
      "epoch": "32",
      "version": "9.11.4",
      "release": "26.P2.amzn2.2",
      "arch": "x86_64",
      "filename": "Packages/bind-utils-9.11.4-26.P2.amzn2.2.x86_64.rpm"
    },
    {
      "name": "bind-devel",
      "epoch": "32",
      "version": "9.11.4",
      "release": "26.P2.amzn2.2",
      "arch": "x86_64",
      "filename": "Packages/bind-devel-9.11.4-26.P2.amzn2.2.x86_64.rpm"
    },
    {
      "name": "bind-lite-devel",
      "epoch": "32",
      "version": "9.11.4",
      "release": "26.P2.amzn2.2",
      "arch": "x86_64",
      "filename": "Packages/bind-lite-devel-9.11.4-26.P2.amzn2.2.x86_64.rpm"
    },
    {
      "name": "bind-chroot",
      "epoch": "32",
      "version": "9.11.4",
      "release": "26.P2.amzn2.2",
      "arch": "x86_64",
      "filename": "Packages/bind-chroot-9.11.4-26.P2.amzn2.2.x86_64.rpm"
    },
    {
      "name": "bind-sdb-chroot",
      "epoch": "32",
      "version": "9.11.4",
      "release": "26.P2.amzn2.2",
      "arch": "x86_64",
      "filename": "Packages/bind-sdb-chroot-9.11.4-26.P2.amzn2.2.x86_64.rpm"
    },
    {
      "name": "bind-export-libs",
      "epoch": "32",
      "version": "9.11.4",
      "release": "26.P2.amzn2.2",
      "arch": "x86_64",
      "filename": "Packages/bind-export-libs-9.11.4-26.P2.amzn2.2.x86_64.rpm"
    },
    {
      "name": "bind-export-devel",
      "epoch": "32",
      "version": "9.11.4",
      "release": "26.P2.amzn2.2",
      "arch": "x86_64",
      "filename": "Packages/bind-export-devel-9.11.4-26.P2.amzn2.2.x86_64.rpm"
    },
    {
      "name": "bind-debuginfo",
      "epoch": "32",
      "version": "9.11.4",
      "release": "26.P2.amzn2.2",
      "arch": "x86_64",
      "filename": "Packages/bind-debuginfo-9.11.4-26.P2.amzn2.2.x86_64.rpm"
    },
    {
      "name": "bind",
      "epoch": "32",
      "version": "9.11.4",
      "release": "26.P2.amzn2.2",
      "arch": "i686",
      "filename": "Packages/bind-9.11.4-26.P2.amzn2.2.i686.rpm"
    },
    {
      "name": "bind-pkcs11",
      "epoch": "32",
      "version": "9.11.4",
      "release": "26.P2.amzn2.2",
      "arch": "i686",
      "filename": "Packages/bind-pkcs11-9.11.4-26.P2.amzn2.2.i686.rpm"
    },
    {
      "name": "bind-pkcs11-utils",
      "epoch": "32",
      "version": "9.11.4",
      "release": "26.P2.amzn2.2",
      "arch": "i686",
      "filename": "Packages/bind-pkcs11-utils-9.11.4-26.P2.amzn2.2.i686.rpm"
    },
    {
      "name": "bind-pkcs11-libs",
      "epoch": "32",
      "version": "9.11.4",
      "release": "26.P2.amzn2.2",
      "arch": "i686",
      "filename": "Packages/bind-pkcs11-libs-9.11.4-26.P2.amzn2.2.i686.rpm"
    },
    {
      "name": "bind-pkcs11-devel",
      "epoch": "32",
      "version": "9.11.4",
      "release": "26.P2.amzn2.2",
      "arch": "i686",
      "filename": "Packages/bind-pkcs11-devel-9.11.4-26.P2.amzn2.2.i686.rpm"
    },
    {
      "name": "bind-sdb",
      "epoch": "32",
      "version": "9.11.4",
      "release": "26.P2.amzn2.2",
      "arch": "i686",
      "filename": "Packages/bind-sdb-9.11.4-26.P2.amzn2.2.i686.rpm"
    },
    {
      "name": "bind-libs-lite",
      "epoch": "32",
      "version": "9.11.4",
      "release": "26.P2.amzn2.2",
      "arch": "i686",
      "filename": "Packages/bind-libs-lite-9.11.4-26.P2.amzn2.2.i686.rpm"
    },
    {
      "name": "bind-libs",
      "epoch": "32",
      "version": "9.11.4",
      "release": "26.P2.amzn2.2",
      "arch": "i686",
      "filename": "Packages/bind-libs-9.11.4-26.P2.amzn2.2.i686.rpm"
    },
    {
      "name": "bind-utils",
      "epoch": "32",
      "version": "9.11.4",
      "release": "26.P2.amzn2.2",
      "arch": "i686",
      "filename": "Packages/bind-utils-9.11.4-26.P2.amzn2.2.i686.rpm"
    },
    {
      "name": "bind-devel",
      "epoch": "32",
      "version": "9.11.4",
      "release": "26.P2.amzn2.2",
      "arch": "i686",
      "filename": "Packages/bind-devel-9.11.4-26.P2.amzn2.2.i686.rpm"
    },
    {
      "name": "bind-lite-devel",
      "epoch": "32",
      "version": "9.11.4",
      "release": "26.P2.amzn2.2",
      "arch": "i686",
      "filename": "Packages/bind-lite-devel-9.11.4-26.P2.amzn2.2.i686.rpm"
    },
    {
      "name": "bind-chroot",
      "epoch": "32",
      "version": "9.11.4",
      "release": "26.P2.amzn2.2",
      "arch": "i686",
      "filename": "Packages/bind-chroot-9.11.4-26.P2.amzn2.2.i686.rpm"
    },
    {
      "name": "bind-sdb-chroot",
      "epoch": "32",
      "version": "9.11.4",
      "release": "26.P2.amzn2.2",
      "arch": "i686",
      "filename": "Packages/bind-sdb-chroot-9.11.4-26.P2.amzn2.2.i686.rpm"
    },
    {
      "name": "bind-export-libs",
      "epoch": "32",
      "version": "9.11.4",
      "release": "26.P2.amzn2.2",
      "arch": "i686",
      "filename": "Packages/bind-export-libs-9.11.4-26.P2.amzn2.2.i686.rpm"
    },
    {
      "name": "bind-export-devel",
      "epoch": "32",
      "version": "9.11.4",
      "release": "26.P2.amzn2.2",
      "arch": "i686",
      "filename": "Packages/bind-export-devel-9.11.4-26.P2.amzn2.2.i686.rpm"
    },
    {
      "name": "bind-debuginfo",
      "epoch": "32",
      "version": "9.11.4",
      "release": "26.P2.amzn2.2",
      "arch": "i686",
      "filename": "Packages/bind-debuginfo-9.11.4-26.P2.amzn2.2.i686.rpm"
    }
  ],
  "references": [
    {
      "href": "http://cve.mitre.org/cgi-bin/cvename.cgi?name=CVE-2020-8624",
      "id": "CVE-2020-8624",
      "type": "cve"
    },
    {
      "href": "http://cve.mitre.org/cgi-bin/cvename.cgi?name=CVE-2020-8623",
      "id": "CVE-2020-8623",
      "type": "cve"
    },
    {
      "href": "http://cve.mitre.org/cgi-bin/cvename.cgi?name=CVE-2020-8622",
      "id": "CVE-2020-8622",
      "type": "cve"
    }
  ],
  "cveids": [
    "CVE-2020-8624",
    "CVE-2020-8623",
    "CVE-2020-8622"
  ]
}