{
  "id": "ALAS2-2020-1565",
  "title": "Amazon Linux 2 2017.12 - ALAS2-2020-1565: low priority package update for freetype",
  "issued": {
    "date": "2020-12-08 20:55"
  },
  "updated": {
    "date": "2020-12-08 20:55"
  },
  "severity": "low",
  "description": "Package updates are available for Amazon Linux 2 that fix the following vulnerabilities:\nCVE-2020-15999:\n\t1890210: CVE-2020-15999 freetype: Heap-based buffer overflow due to integer truncation in Load_SBit_Png\nHeap buffer overflow in Freetype in Google Chrome prior to 86.0.4240.111 allowed a remote attacker to potentially exploit heap corruption via a crafted HTML page.\n",
  "packages": [
    {
      "name": "freetype",
      "epoch": "0",
      "version": "2.8",
      "release": "14.amzn2.1",
      "arch": "aarch64",
      "filename": "Packages/freetype-2.8-14.amzn2.1.aarch64.rpm"
    },
    {
      "name": "freetype-demos",
      "epoch": "0",
      "version": "2.8",
      "release": "14.amzn2.1",
      "arch": "aarch64",
      "filename": "Packages/freetype-demos-2.8-14.amzn2.1.aarch64.rpm"
    },
    {
      "name": "freetype-devel",
      "epoch": "0",
      "version": "2.8",
      "release": "14.amzn2.1",
      "arch": "aarch64",
      "filename": "Packages/freetype-devel-2.8-14.amzn2.1.aarch64.rpm"
    },
    {
      "name": "freetype-debuginfo",
      "epoch": "0",
      "version": "2.8",
      "release": "14.amzn2.1",
      "arch": "aarch64",
      "filename": "Packages/freetype-debuginfo-2.8-14.amzn2.1.aarch64.rpm"
    },
    {
      "name": "freetype",
      "epoch": "0",
      "version": "2.8",
      "release": "14.amzn2.1",
      "arch": "x86_64",
      "filename": "Packages/freetype-2.8-14.amzn2.1.x86_64.rpm"
    },
    {
      "name": "freetype-demos",
      "epoch": "0",
      "version": "2.8",
      "release": "14.amzn2.1",
      "arch": "x86_64",
      "filename": "Packages/freetype-demos-2.8-14.amzn2.1.x86_64.rpm"
    },
    {
      "name": "freetype-devel",
      "epoch": "0",
      "version": "2.8",
      "release": "14.amzn2.1",
      "arch": "x86_64",
      "filename": "Packages/freetype-devel-2.8-14.amzn2.1.x86_64.rpm"
    },
    {
      "name": "freetype-debuginfo",
      "epoch": "0",
      "version": "2.8",
      "release": "14.amzn2.1",
      "arch": "x86_64",
      "filename": "Packages/freetype-debuginfo-2.8-14.amzn2.1.x86_64.rpm"
    },
    {
      "name": "freetype",
      "epoch": "0",
      "version": "2.8",
      "release": "14.amzn2.1",
      "arch": "i686",
      "filename": "Packages/freetype-2.8-14.amzn2.1.i686.rpm"
    },
    {
      "name": "freetype-demos",
      "epoch": "0",
      "version": "2.8",
      "release": "14.amzn2.1",
      "arch": "i686",
      "filename": "Packages/freetype-demos-2.8-14.amzn2.1.i686.rpm"
    },
    {
      "name": "freetype-devel",
      "epoch": "0",
      "version": "2.8",
      "release": "14.amzn2.1",
      "arch": "i686",
      "filename": "Packages/freetype-devel-2.8-14.amzn2.1.i686.rpm"
    },
    {
      "name": "freetype-debuginfo",
      "epoch": "0",
      "version": "2.8",
      "release": "14.amzn2.1",
      "arch": "i686",
      "filename": "Packages/freetype-debuginfo-2.8-14.amzn2.1.i686.rpm"
    }
  ],
  "references": [
    {
      "href": "http://cve.mitre.org/cgi-bin/cvename.cgi?name=CVE-2020-15999",
      "id": "CVE-2020-15999",
      "type": "cve"
    }
  ],
  "cveids": [
    "CVE-2020-15999"
  ]
}