{
  "id": "ALAS2-2020-1569",
  "title": "Amazon Linux 2 2017.12 - ALAS2-2020-1569: medium priority package update for libvirt",
  "issued": {
    "date": "2020-12-08 21:30"
  },
  "updated": {
    "date": "2020-12-08 21:30"
  },
  "severity": "medium",
  "description": "Package updates are available for Amazon Linux 2 that fix the following vulnerabilities:\nCVE-2020-25637:\n\tA double free memory issue was found to occur in the libvirt API responsible for requesting information about network interfaces of a running QEMU domain. This flaw affects the polkit access control driver. Specifically, clients connecting to the read-write socket with limited ACL permissions could use this flaw to crash the libvirt daemon, resulting in a denial of service, or potentially escalate their privileges on the system. The highest threat from this vulnerability is to data confidentiality and integrity as well as system availability.\n1881037: CVE-2020-25637 libvirt: double free in qemuAgentGetInterfaces() in qemu_agent.c\n",
  "packages": [
    {
      "name": "libvirt",
      "epoch": "0",
      "version": "4.5.0",
      "release": "36.amzn2.3",
      "arch": "aarch64",
      "filename": "Packages/libvirt-4.5.0-36.amzn2.3.aarch64.rpm"
    },
    {
      "name": "libvirt-docs",
      "epoch": "0",
      "version": "4.5.0",
      "release": "36.amzn2.3",
      "arch": "aarch64",
      "filename": "Packages/libvirt-docs-4.5.0-36.amzn2.3.aarch64.rpm"
    },
    {
      "name": "libvirt-daemon",
      "epoch": "0",
      "version": "4.5.0",
      "release": "36.amzn2.3",
      "arch": "aarch64",
      "filename": "Packages/libvirt-daemon-4.5.0-36.amzn2.3.aarch64.rpm"
    },
    {
      "name": "libvirt-daemon-config-network",
      "epoch": "0",
      "version": "4.5.0",
      "release": "36.amzn2.3",
      "arch": "aarch64",
      "filename": "Packages/libvirt-daemon-config-network-4.5.0-36.amzn2.3.aarch64.rpm"
    },
    {
      "name": "libvirt-daemon-config-nwfilter",
      "epoch": "0",
      "version": "4.5.0",
      "release": "36.amzn2.3",
      "arch": "aarch64",
      "filename": "Packages/libvirt-daemon-config-nwfilter-4.5.0-36.amzn2.3.aarch64.rpm"
    },
    {
      "name": "libvirt-daemon-driver-network",
      "epoch": "0",
      "version": "4.5.0",
      "release": "36.amzn2.3",
      "arch": "aarch64",
      "filename": "Packages/libvirt-daemon-driver-network-4.5.0-36.amzn2.3.aarch64.rpm"
    },
    {
      "name": "libvirt-daemon-driver-nwfilter",
      "epoch": "0",
      "version": "4.5.0",
      "release": "36.amzn2.3",
      "arch": "aarch64",
      "filename": "Packages/libvirt-daemon-driver-nwfilter-4.5.0-36.amzn2.3.aarch64.rpm"
    },
    {
      "name": "libvirt-daemon-driver-nodedev",
      "epoch": "0",
      "version": "4.5.0",
      "release": "36.amzn2.3",
      "arch": "aarch64",
      "filename": "Packages/libvirt-daemon-driver-nodedev-4.5.0-36.amzn2.3.aarch64.rpm"
    },
    {
      "name": "libvirt-daemon-driver-interface",
      "epoch": "0",
      "version": "4.5.0",
      "release": "36.amzn2.3",
      "arch": "aarch64",
      "filename": "Packages/libvirt-daemon-driver-interface-4.5.0-36.amzn2.3.aarch64.rpm"
    },
    {
      "name": "libvirt-daemon-driver-secret",
      "epoch": "0",
      "version": "4.5.0",
      "release": "36.amzn2.3",
      "arch": "aarch64",
      "filename": "Packages/libvirt-daemon-driver-secret-4.5.0-36.amzn2.3.aarch64.rpm"
    },
    {
      "name": "libvirt-daemon-driver-storage-core",
      "epoch": "0",
      "version": "4.5.0",
      "release": "36.amzn2.3",
      "arch": "aarch64",
      "filename": "Packages/libvirt-daemon-driver-storage-core-4.5.0-36.amzn2.3.aarch64.rpm"
    },
    {
      "name": "libvirt-daemon-driver-storage-logical",
      "epoch": "0",
      "version": "4.5.0",
      "release": "36.amzn2.3",
      "arch": "aarch64",
      "filename": "Packages/libvirt-daemon-driver-storage-logical-4.5.0-36.amzn2.3.aarch64.rpm"
    },
    {
      "name": "libvirt-daemon-driver-storage-disk",
      "epoch": "0",
      "version": "4.5.0",
      "release": "36.amzn2.3",
      "arch": "aarch64",
      "filename": "Packages/libvirt-daemon-driver-storage-disk-4.5.0-36.amzn2.3.aarch64.rpm"
    },
    {
      "name": "libvirt-daemon-driver-storage-scsi",
      "epoch": "0",
      "version": "4.5.0",
      "release": "36.amzn2.3",
      "arch": "aarch64",
      "filename": "Packages/libvirt-daemon-driver-storage-scsi-4.5.0-36.amzn2.3.aarch64.rpm"
    },
    {
      "name": "libvirt-daemon-driver-storage-iscsi",
      "epoch": "0",
      "version": "4.5.0",
      "release": "36.amzn2.3",
      "arch": "aarch64",
      "filename": "Packages/libvirt-daemon-driver-storage-iscsi-4.5.0-36.amzn2.3.aarch64.rpm"
    },
    {
      "name": "libvirt-daemon-driver-storage-mpath",
      "epoch": "0",
      "version": "4.5.0",
      "release": "36.amzn2.3",
      "arch": "aarch64",
      "filename": "Packages/libvirt-daemon-driver-storage-mpath-4.5.0-36.amzn2.3.aarch64.rpm"
    },
    {
      "name": "libvirt-daemon-driver-storage",
      "epoch": "0",
      "version": "4.5.0",
      "release": "36.amzn2.3",
      "arch": "aarch64",
      "filename": "Packages/libvirt-daemon-driver-storage-4.5.0-36.amzn2.3.aarch64.rpm"
    },
    {
      "name": "libvirt-daemon-driver-qemu",
      "epoch": "0",
      "version": "4.5.0",
      "release": "36.amzn2.3",
      "arch": "aarch64",
      "filename": "Packages/libvirt-daemon-driver-qemu-4.5.0-36.amzn2.3.aarch64.rpm"
    },
    {
      "name": "libvirt-daemon-driver-lxc",
      "epoch": "0",
      "version": "4.5.0",
      "release": "36.amzn2.3",
      "arch": "aarch64",
      "filename": "Packages/libvirt-daemon-driver-lxc-4.5.0-36.amzn2.3.aarch64.rpm"
    },
    {
      "name": "libvirt-daemon-kvm",
      "epoch": "0",
      "version": "4.5.0",
      "release": "36.amzn2.3",
      "arch": "aarch64",
      "filename": "Packages/libvirt-daemon-kvm-4.5.0-36.amzn2.3.aarch64.rpm"
    },
    {
      "name": "libvirt-daemon-lxc",
      "epoch": "0",
      "version": "4.5.0",
      "release": "36.amzn2.3",
      "arch": "aarch64",
      "filename": "Packages/libvirt-daemon-lxc-4.5.0-36.amzn2.3.aarch64.rpm"
    },
    {
      "name": "libvirt-client",
      "epoch": "0",
      "version": "4.5.0",
      "release": "36.amzn2.3",
      "arch": "aarch64",
      "filename": "Packages/libvirt-client-4.5.0-36.amzn2.3.aarch64.rpm"
    },
    {
      "name": "libvirt-libs",
      "epoch": "0",
      "version": "4.5.0",
      "release": "36.amzn2.3",
      "arch": "aarch64",
      "filename": "Packages/libvirt-libs-4.5.0-36.amzn2.3.aarch64.rpm"
    },
    {
      "name": "libvirt-admin",
      "epoch": "0",
      "version": "4.5.0",
      "release": "36.amzn2.3",
      "arch": "aarch64",
      "filename": "Packages/libvirt-admin-4.5.0-36.amzn2.3.aarch64.rpm"
    },
    {
      "name": "libvirt-bash-completion",
      "epoch": "0",
      "version": "4.5.0",
      "release": "36.amzn2.3",
      "arch": "aarch64",
      "filename": "Packages/libvirt-bash-completion-4.5.0-36.amzn2.3.aarch64.rpm"
    },
    {
      "name": "libvirt-login-shell",
      "epoch": "0",
      "version": "4.5.0",
      "release": "36.amzn2.3",
      "arch": "aarch64",
      "filename": "Packages/libvirt-login-shell-4.5.0-36.amzn2.3.aarch64.rpm"
    },
    {
      "name": "libvirt-devel",
      "epoch": "0",
      "version": "4.5.0",
      "release": "36.amzn2.3",
      "arch": "aarch64",
      "filename": "Packages/libvirt-devel-4.5.0-36.amzn2.3.aarch64.rpm"
    },
    {
      "name": "libvirt-lock-sanlock",
      "epoch": "0",
      "version": "4.5.0",
      "release": "36.amzn2.3",
      "arch": "aarch64",
      "filename": "Packages/libvirt-lock-sanlock-4.5.0-36.amzn2.3.aarch64.rpm"
    },
    {
      "name": "libvirt-nss",
      "epoch": "0",
      "version": "4.5.0",
      "release": "36.amzn2.3",
      "arch": "aarch64",
      "filename": "Packages/libvirt-nss-4.5.0-36.amzn2.3.aarch64.rpm"
    },
    {
      "name": "libvirt-debuginfo",
      "epoch": "0",
      "version": "4.5.0",
      "release": "36.amzn2.3",
      "arch": "aarch64",
      "filename": "Packages/libvirt-debuginfo-4.5.0-36.amzn2.3.aarch64.rpm"
    },
    {
      "name": "libvirt",
      "epoch": "0",
      "version": "4.5.0",
      "release": "36.amzn2.3",
      "arch": "x86_64",
      "filename": "Packages/libvirt-4.5.0-36.amzn2.3.x86_64.rpm"
    },
    {
      "name": "libvirt-docs",
      "epoch": "0",
      "version": "4.5.0",
      "release": "36.amzn2.3",
      "arch": "x86_64",
      "filename": "Packages/libvirt-docs-4.5.0-36.amzn2.3.x86_64.rpm"
    },
    {
      "name": "libvirt-daemon",
      "epoch": "0",
      "version": "4.5.0",
      "release": "36.amzn2.3",
      "arch": "x86_64",
      "filename": "Packages/libvirt-daemon-4.5.0-36.amzn2.3.x86_64.rpm"
    },
    {
      "name": "libvirt-daemon-config-network",
      "epoch": "0",
      "version": "4.5.0",
      "release": "36.amzn2.3",
      "arch": "x86_64",
      "filename": "Packages/libvirt-daemon-config-network-4.5.0-36.amzn2.3.x86_64.rpm"
    },
    {
      "name": "libvirt-daemon-config-nwfilter",
      "epoch": "0",
      "version": "4.5.0",
      "release": "36.amzn2.3",
      "arch": "x86_64",
      "filename": "Packages/libvirt-daemon-config-nwfilter-4.5.0-36.amzn2.3.x86_64.rpm"
    },
    {
      "name": "libvirt-daemon-driver-network",
      "epoch": "0",
      "version": "4.5.0",
      "release": "36.amzn2.3",
      "arch": "x86_64",
      "filename": "Packages/libvirt-daemon-driver-network-4.5.0-36.amzn2.3.x86_64.rpm"
    },
    {
      "name": "libvirt-daemon-driver-nwfilter",
      "epoch": "0",
      "version": "4.5.0",
      "release": "36.amzn2.3",
      "arch": "x86_64",
      "filename": "Packages/libvirt-daemon-driver-nwfilter-4.5.0-36.amzn2.3.x86_64.rpm"
    },
    {
      "name": "libvirt-daemon-driver-nodedev",
      "epoch": "0",
      "version": "4.5.0",
      "release": "36.amzn2.3",
      "arch": "x86_64",
      "filename": "Packages/libvirt-daemon-driver-nodedev-4.5.0-36.amzn2.3.x86_64.rpm"
    },
    {
      "name": "libvirt-daemon-driver-interface",
      "epoch": "0",
      "version": "4.5.0",
      "release": "36.amzn2.3",
      "arch": "x86_64",
      "filename": "Packages/libvirt-daemon-driver-interface-4.5.0-36.amzn2.3.x86_64.rpm"
    },
    {
      "name": "libvirt-daemon-driver-secret",
      "epoch": "0",
      "version": "4.5.0",
      "release": "36.amzn2.3",
      "arch": "x86_64",
      "filename": "Packages/libvirt-daemon-driver-secret-4.5.0-36.amzn2.3.x86_64.rpm"
    },
    {
      "name": "libvirt-daemon-driver-storage-core",
      "epoch": "0",
      "version": "4.5.0",
      "release": "36.amzn2.3",
      "arch": "x86_64",
      "filename": "Packages/libvirt-daemon-driver-storage-core-4.5.0-36.amzn2.3.x86_64.rpm"
    },
    {
      "name": "libvirt-daemon-driver-storage-logical",
      "epoch": "0",
      "version": "4.5.0",
      "release": "36.amzn2.3",
      "arch": "x86_64",
      "filename": "Packages/libvirt-daemon-driver-storage-logical-4.5.0-36.amzn2.3.x86_64.rpm"
    },
    {
      "name": "libvirt-daemon-driver-storage-disk",
      "epoch": "0",
      "version": "4.5.0",
      "release": "36.amzn2.3",
      "arch": "x86_64",
      "filename": "Packages/libvirt-daemon-driver-storage-disk-4.5.0-36.amzn2.3.x86_64.rpm"
    },
    {
      "name": "libvirt-daemon-driver-storage-scsi",
      "epoch": "0",
      "version": "4.5.0",
      "release": "36.amzn2.3",
      "arch": "x86_64",
      "filename": "Packages/libvirt-daemon-driver-storage-scsi-4.5.0-36.amzn2.3.x86_64.rpm"
    },
    {
      "name": "libvirt-daemon-driver-storage-iscsi",
      "epoch": "0",
      "version": "4.5.0",
      "release": "36.amzn2.3",
      "arch": "x86_64",
      "filename": "Packages/libvirt-daemon-driver-storage-iscsi-4.5.0-36.amzn2.3.x86_64.rpm"
    },
    {
      "name": "libvirt-daemon-driver-storage-mpath",
      "epoch": "0",
      "version": "4.5.0",
      "release": "36.amzn2.3",
      "arch": "x86_64",
      "filename": "Packages/libvirt-daemon-driver-storage-mpath-4.5.0-36.amzn2.3.x86_64.rpm"
    },
    {
      "name": "libvirt-daemon-driver-storage-gluster",
      "epoch": "0",
      "version": "4.5.0",
      "release": "36.amzn2.3",
      "arch": "x86_64",
      "filename": "Packages/libvirt-daemon-driver-storage-gluster-4.5.0-36.amzn2.3.x86_64.rpm"
    },
    {
      "name": "libvirt-daemon-driver-storage-rbd",
      "epoch": "0",
      "version": "4.5.0",
      "release": "36.amzn2.3",
      "arch": "x86_64",
      "filename": "Packages/libvirt-daemon-driver-storage-rbd-4.5.0-36.amzn2.3.x86_64.rpm"
    },
    {
      "name": "libvirt-daemon-driver-storage",
      "epoch": "0",
      "version": "4.5.0",
      "release": "36.amzn2.3",
      "arch": "x86_64",
      "filename": "Packages/libvirt-daemon-driver-storage-4.5.0-36.amzn2.3.x86_64.rpm"
    },
    {
      "name": "libvirt-daemon-driver-qemu",
      "epoch": "0",
      "version": "4.5.0",
      "release": "36.amzn2.3",
      "arch": "x86_64",
      "filename": "Packages/libvirt-daemon-driver-qemu-4.5.0-36.amzn2.3.x86_64.rpm"
    },
    {
      "name": "libvirt-daemon-driver-lxc",
      "epoch": "0",
      "version": "4.5.0",
      "release": "36.amzn2.3",
      "arch": "x86_64",
      "filename": "Packages/libvirt-daemon-driver-lxc-4.5.0-36.amzn2.3.x86_64.rpm"
    },
    {
      "name": "libvirt-daemon-kvm",
      "epoch": "0",
      "version": "4.5.0",
      "release": "36.amzn2.3",
      "arch": "x86_64",
      "filename": "Packages/libvirt-daemon-kvm-4.5.0-36.amzn2.3.x86_64.rpm"
    },
    {
      "name": "libvirt-daemon-lxc",
      "epoch": "0",
      "version": "4.5.0",
      "release": "36.amzn2.3",
      "arch": "x86_64",
      "filename": "Packages/libvirt-daemon-lxc-4.5.0-36.amzn2.3.x86_64.rpm"
    },
    {
      "name": "libvirt-client",
      "epoch": "0",
      "version": "4.5.0",
      "release": "36.amzn2.3",
      "arch": "x86_64",
      "filename": "Packages/libvirt-client-4.5.0-36.amzn2.3.x86_64.rpm"
    },
    {
      "name": "libvirt-libs",
      "epoch": "0",
      "version": "4.5.0",
      "release": "36.amzn2.3",
      "arch": "x86_64",
      "filename": "Packages/libvirt-libs-4.5.0-36.amzn2.3.x86_64.rpm"
    },
    {
      "name": "libvirt-admin",
      "epoch": "0",
      "version": "4.5.0",
      "release": "36.amzn2.3",
      "arch": "x86_64",
      "filename": "Packages/libvirt-admin-4.5.0-36.amzn2.3.x86_64.rpm"
    },
    {
      "name": "libvirt-bash-completion",
      "epoch": "0",
      "version": "4.5.0",
      "release": "36.amzn2.3",
      "arch": "x86_64",
      "filename": "Packages/libvirt-bash-completion-4.5.0-36.amzn2.3.x86_64.rpm"
    },
    {
      "name": "libvirt-login-shell",
      "epoch": "0",
      "version": "4.5.0",
      "release": "36.amzn2.3",
      "arch": "x86_64",
      "filename": "Packages/libvirt-login-shell-4.5.0-36.amzn2.3.x86_64.rpm"
    },
    {
      "name": "libvirt-devel",
      "epoch": "0",
      "version": "4.5.0",
      "release": "36.amzn2.3",
      "arch": "x86_64",
      "filename": "Packages/libvirt-devel-4.5.0-36.amzn2.3.x86_64.rpm"
    },
    {
      "name": "libvirt-lock-sanlock",
      "epoch": "0",
      "version": "4.5.0",
      "release": "36.amzn2.3",
      "arch": "x86_64",
      "filename": "Packages/libvirt-lock-sanlock-4.5.0-36.amzn2.3.x86_64.rpm"
    },
    {
      "name": "libvirt-nss",
      "epoch": "0",
      "version": "4.5.0",
      "release": "36.amzn2.3",
      "arch": "x86_64",
      "filename": "Packages/libvirt-nss-4.5.0-36.amzn2.3.x86_64.rpm"
    },
    {
      "name": "libvirt-debuginfo",
      "epoch": "0",
      "version": "4.5.0",
      "release": "36.amzn2.3",
      "arch": "x86_64",
      "filename": "Packages/libvirt-debuginfo-4.5.0-36.amzn2.3.x86_64.rpm"
    },
    {
      "name": "libvirt",
      "epoch": "0",
      "version": "4.5.0",
      "release": "36.amzn2.3",
      "arch": "i686",
      "filename": "Packages/libvirt-4.5.0-36.amzn2.3.i686.rpm"
    },
    {
      "name": "libvirt-docs",
      "epoch": "0",
      "version": "4.5.0",
      "release": "36.amzn2.3",
      "arch": "i686",
      "filename": "Packages/libvirt-docs-4.5.0-36.amzn2.3.i686.rpm"
    },
    {
      "name": "libvirt-daemon",
      "epoch": "0",
      "version": "4.5.0",
      "release": "36.amzn2.3",
      "arch": "i686",
      "filename": "Packages/libvirt-daemon-4.5.0-36.amzn2.3.i686.rpm"
    },
    {
      "name": "libvirt-daemon-config-network",
      "epoch": "0",
      "version": "4.5.0",
      "release": "36.amzn2.3",
      "arch": "i686",
      "filename": "Packages/libvirt-daemon-config-network-4.5.0-36.amzn2.3.i686.rpm"
    },
    {
      "name": "libvirt-daemon-config-nwfilter",
      "epoch": "0",
      "version": "4.5.0",
      "release": "36.amzn2.3",
      "arch": "i686",
      "filename": "Packages/libvirt-daemon-config-nwfilter-4.5.0-36.amzn2.3.i686.rpm"
    },
    {
      "name": "libvirt-daemon-driver-network",
      "epoch": "0",
      "version": "4.5.0",
      "release": "36.amzn2.3",
      "arch": "i686",
      "filename": "Packages/libvirt-daemon-driver-network-4.5.0-36.amzn2.3.i686.rpm"
    },
    {
      "name": "libvirt-daemon-driver-nwfilter",
      "epoch": "0",
      "version": "4.5.0",
      "release": "36.amzn2.3",
      "arch": "i686",
      "filename": "Packages/libvirt-daemon-driver-nwfilter-4.5.0-36.amzn2.3.i686.rpm"
    },
    {
      "name": "libvirt-daemon-driver-nodedev",
      "epoch": "0",
      "version": "4.5.0",
      "release": "36.amzn2.3",
      "arch": "i686",
      "filename": "Packages/libvirt-daemon-driver-nodedev-4.5.0-36.amzn2.3.i686.rpm"
    },
    {
      "name": "libvirt-daemon-driver-interface",
      "epoch": "0",
      "version": "4.5.0",
      "release": "36.amzn2.3",
      "arch": "i686",
      "filename": "Packages/libvirt-daemon-driver-interface-4.5.0-36.amzn2.3.i686.rpm"
    },
    {
      "name": "libvirt-daemon-driver-secret",
      "epoch": "0",
      "version": "4.5.0",
      "release": "36.amzn2.3",
      "arch": "i686",
      "filename": "Packages/libvirt-daemon-driver-secret-4.5.0-36.amzn2.3.i686.rpm"
    },
    {
      "name": "libvirt-daemon-driver-storage-core",
      "epoch": "0",
      "version": "4.5.0",
      "release": "36.amzn2.3",
      "arch": "i686",
      "filename": "Packages/libvirt-daemon-driver-storage-core-4.5.0-36.amzn2.3.i686.rpm"
    },
    {
      "name": "libvirt-daemon-driver-storage-logical",
      "epoch": "0",
      "version": "4.5.0",
      "release": "36.amzn2.3",
      "arch": "i686",
      "filename": "Packages/libvirt-daemon-driver-storage-logical-4.5.0-36.amzn2.3.i686.rpm"
    },
    {
      "name": "libvirt-daemon-driver-storage-disk",
      "epoch": "0",
      "version": "4.5.0",
      "release": "36.amzn2.3",
      "arch": "i686",
      "filename": "Packages/libvirt-daemon-driver-storage-disk-4.5.0-36.amzn2.3.i686.rpm"
    },
    {
      "name": "libvirt-daemon-driver-storage-scsi",
      "epoch": "0",
      "version": "4.5.0",
      "release": "36.amzn2.3",
      "arch": "i686",
      "filename": "Packages/libvirt-daemon-driver-storage-scsi-4.5.0-36.amzn2.3.i686.rpm"
    },
    {
      "name": "libvirt-daemon-driver-storage-iscsi",
      "epoch": "0",
      "version": "4.5.0",
      "release": "36.amzn2.3",
      "arch": "i686",
      "filename": "Packages/libvirt-daemon-driver-storage-iscsi-4.5.0-36.amzn2.3.i686.rpm"
    },
    {
      "name": "libvirt-daemon-driver-storage-mpath",
      "epoch": "0",
      "version": "4.5.0",
      "release": "36.amzn2.3",
      "arch": "i686",
      "filename": "Packages/libvirt-daemon-driver-storage-mpath-4.5.0-36.amzn2.3.i686.rpm"
    },
    {
      "name": "libvirt-daemon-driver-storage",
      "epoch": "0",
      "version": "4.5.0",
      "release": "36.amzn2.3",
      "arch": "i686",
      "filename": "Packages/libvirt-daemon-driver-storage-4.5.0-36.amzn2.3.i686.rpm"
    },
    {
      "name": "libvirt-daemon-driver-lxc",
      "epoch": "0",
      "version": "4.5.0",
      "release": "36.amzn2.3",
      "arch": "i686",
      "filename": "Packages/libvirt-daemon-driver-lxc-4.5.0-36.amzn2.3.i686.rpm"
    },
    {
      "name": "libvirt-daemon-lxc",
      "epoch": "0",
      "version": "4.5.0",
      "release": "36.amzn2.3",
      "arch": "i686",
      "filename": "Packages/libvirt-daemon-lxc-4.5.0-36.amzn2.3.i686.rpm"
    },
    {
      "name": "libvirt-client",
      "epoch": "0",
      "version": "4.5.0",
      "release": "36.amzn2.3",
      "arch": "i686",
      "filename": "Packages/libvirt-client-4.5.0-36.amzn2.3.i686.rpm"
    },
    {
      "name": "libvirt-libs",
      "epoch": "0",
      "version": "4.5.0",
      "release": "36.amzn2.3",
      "arch": "i686",
      "filename": "Packages/libvirt-libs-4.5.0-36.amzn2.3.i686.rpm"
    },
    {
      "name": "libvirt-admin",
      "epoch": "0",
      "version": "4.5.0",
      "release": "36.amzn2.3",
      "arch": "i686",
      "filename": "Packages/libvirt-admin-4.5.0-36.amzn2.3.i686.rpm"
    },
    {
      "name": "libvirt-bash-completion",
      "epoch": "0",
      "version": "4.5.0",
      "release": "36.amzn2.3",
      "arch": "i686",
      "filename": "Packages/libvirt-bash-completion-4.5.0-36.amzn2.3.i686.rpm"
    },
    {
      "name": "libvirt-login-shell",
      "epoch": "0",
      "version": "4.5.0",
      "release": "36.amzn2.3",
      "arch": "i686",
      "filename": "Packages/libvirt-login-shell-4.5.0-36.amzn2.3.i686.rpm"
    },
    {
      "name": "libvirt-devel",
      "epoch": "0",
      "version": "4.5.0",
      "release": "36.amzn2.3",
      "arch": "i686",
      "filename": "Packages/libvirt-devel-4.5.0-36.amzn2.3.i686.rpm"
    },
    {
      "name": "libvirt-nss",
      "epoch": "0",
      "version": "4.5.0",
      "release": "36.amzn2.3",
      "arch": "i686",
      "filename": "Packages/libvirt-nss-4.5.0-36.amzn2.3.i686.rpm"
    },
    {
      "name": "libvirt-debuginfo",
      "epoch": "0",
      "version": "4.5.0",
      "release": "36.amzn2.3",
      "arch": "i686",
      "filename": "Packages/libvirt-debuginfo-4.5.0-36.amzn2.3.i686.rpm"
    }
  ],
  "references": [
    {
      "href": "http://cve.mitre.org/cgi-bin/cvename.cgi?name=CVE-2020-25637",
      "id": "CVE-2020-25637",
      "type": "cve"
    }
  ],
  "cveids": [
    "CVE-2020-25637"
  ]
}