{
  "id": "ALAS2-2020-1568",
  "title": "Amazon Linux 2 2017.12 - ALAS2-2020-1568: important priority package update for librepo",
  "issued": {
    "date": "2020-12-08 20:55"
  },
  "updated": {
    "date": "2020-12-08 20:55"
  },
  "severity": "important",
  "description": "Package updates are available for Amazon Linux 2 that fix the following vulnerabilities:\nCVE-2020-14352:\n\tA flaw was found in librepo. A directory traversal vulnerability was found where it failed to sanitize paths in remote repository metadata. An attacker controlling a remote repository may be able to copy files outside of the destination directory on the targeted system via path traversal. This flaw could potentially result in system compromise via the overwriting of critical system files. The highest threat from this flaw is to users that make use of untrusted third-party repositories.\n1866498: CVE-2020-14352 librepo: missing path validation in repomd.xml may lead to directory traversal\n",
  "packages": [
    {
      "name": "librepo",
      "epoch": "0",
      "version": "1.8.1",
      "release": "8.amzn2",
      "arch": "aarch64",
      "filename": "Packages/librepo-1.8.1-8.amzn2.aarch64.rpm"
    },
    {
      "name": "librepo-devel",
      "epoch": "0",
      "version": "1.8.1",
      "release": "8.amzn2",
      "arch": "aarch64",
      "filename": "Packages/librepo-devel-1.8.1-8.amzn2.aarch64.rpm"
    },
    {
      "name": "python-librepo",
      "epoch": "0",
      "version": "1.8.1",
      "release": "8.amzn2",
      "arch": "aarch64",
      "filename": "Packages/python-librepo-1.8.1-8.amzn2.aarch64.rpm"
    },
    {
      "name": "librepo-debuginfo",
      "epoch": "0",
      "version": "1.8.1",
      "release": "8.amzn2",
      "arch": "aarch64",
      "filename": "Packages/librepo-debuginfo-1.8.1-8.amzn2.aarch64.rpm"
    },
    {
      "name": "librepo",
      "epoch": "0",
      "version": "1.8.1",
      "release": "8.amzn2",
      "arch": "x86_64",
      "filename": "Packages/librepo-1.8.1-8.amzn2.x86_64.rpm"
    },
    {
      "name": "librepo-devel",
      "epoch": "0",
      "version": "1.8.1",
      "release": "8.amzn2",
      "arch": "x86_64",
      "filename": "Packages/librepo-devel-1.8.1-8.amzn2.x86_64.rpm"
    },
    {
      "name": "python-librepo",
      "epoch": "0",
      "version": "1.8.1",
      "release": "8.amzn2",
      "arch": "x86_64",
      "filename": "Packages/python-librepo-1.8.1-8.amzn2.x86_64.rpm"
    },
    {
      "name": "librepo-debuginfo",
      "epoch": "0",
      "version": "1.8.1",
      "release": "8.amzn2",
      "arch": "x86_64",
      "filename": "Packages/librepo-debuginfo-1.8.1-8.amzn2.x86_64.rpm"
    },
    {
      "name": "librepo",
      "epoch": "0",
      "version": "1.8.1",
      "release": "8.amzn2",
      "arch": "i686",
      "filename": "Packages/librepo-1.8.1-8.amzn2.i686.rpm"
    },
    {
      "name": "librepo-devel",
      "epoch": "0",
      "version": "1.8.1",
      "release": "8.amzn2",
      "arch": "i686",
      "filename": "Packages/librepo-devel-1.8.1-8.amzn2.i686.rpm"
    },
    {
      "name": "python-librepo",
      "epoch": "0",
      "version": "1.8.1",
      "release": "8.amzn2",
      "arch": "i686",
      "filename": "Packages/python-librepo-1.8.1-8.amzn2.i686.rpm"
    },
    {
      "name": "librepo-debuginfo",
      "epoch": "0",
      "version": "1.8.1",
      "release": "8.amzn2",
      "arch": "i686",
      "filename": "Packages/librepo-debuginfo-1.8.1-8.amzn2.i686.rpm"
    }
  ],
  "references": [
    {
      "href": "http://cve.mitre.org/cgi-bin/cvename.cgi?name=CVE-2020-14352",
      "id": "CVE-2020-14352",
      "type": "cve"
    }
  ],
  "cveids": [
    "CVE-2020-14352"
  ]
}