{
  "Severity": "HIGH",
  "UpdatedAt": "2020-11-06T18:02:25Z",
  "Package": {
    "Ecosystem": "NPM",
    "Name": "phantom-html-to-pdf"
  },
  "Advisory": {
    "DatabaseId": 3170,
    "Id": "MDE2OlNlY3VyaXR5QWR2aXNvcnlHSFNBLTZoN2YtcXdxbS0zNXBw",
    "GhsaId": "GHSA-6h7f-qwqm-35pp",
    "References": [
      {
        "Url": "https://nvd.nist.gov/vuln/detail/CVE-2020-7763"
      },
      {
        "Url": "https://github.com/advisories/GHSA-6h7f-qwqm-35pp"
      }
    ],
    "Identifiers": [
      {
        "Type": "GHSA",
        "Value": "GHSA-6h7f-qwqm-35pp"
      },
      {
        "Type": "CVE",
        "Value": "CVE-2020-7763"
      }
    ],
    "Description": "This affects the package phantom-html-to-pdf before 0.6.1.",
    "Origin": "UNSPECIFIED",
    "PublishedAt": "2020-11-06T18:06:16Z",
    "Severity": "HIGH",
    "Summary": "Arbitrary File Read in phantom-html-to-pdf",
    "UpdatedAt": "2020-11-06T18:06:16Z",
    "WithdrawnAt": ""
  },
  "Versions": [
    {
      "FirstPatchedVersion": {
        "Identifier": ""
      },
      "VulnerableVersionRange": "\u003c 0.6.1"
    }
  ]
}