{
  "XMLName": {
    "Space": "http://oval.mitre.org/XMLSchema/oval-definitions-5",
    "Local": "definition"
  },
  "ID": "oval:com.redhat.rhsa:def:20182576",
  "Class": "patch",
  "Title": "RHSA-2018:2576: java-1.7.1-ibm security update (Important)",
  "Affecteds": [
    {
      "XMLName": {
        "Space": "http://oval.mitre.org/XMLSchema/oval-definitions-5",
        "Local": "affected"
      },
      "Family": "unix",
      "Platforms": [
        "Red Hat Enterprise Linux 6 Supplementary"
      ]
    }
  ],
  "References": [
    {
      "XMLName": {
        "Space": "http://oval.mitre.org/XMLSchema/oval-definitions-5",
        "Local": "reference"
      },
      "Source": "RHSA",
      "RefID": "RHSA-2018:2576",
      "RefURL": "https://access.redhat.com/errata/RHSA-2018:2576"
    },
    {
      "XMLName": {
        "Space": "http://oval.mitre.org/XMLSchema/oval-definitions-5",
        "Local": "reference"
      },
      "Source": "CVE",
      "RefID": "CVE-2018-12539",
      "RefURL": "https://access.redhat.com/security/cve/CVE-2018-12539"
    },
    {
      "XMLName": {
        "Space": "http://oval.mitre.org/XMLSchema/oval-definitions-5",
        "Local": "reference"
      },
      "Source": "CVE",
      "RefID": "CVE-2018-1517",
      "RefURL": "https://access.redhat.com/security/cve/CVE-2018-1517"
    },
    {
      "XMLName": {
        "Space": "http://oval.mitre.org/XMLSchema/oval-definitions-5",
        "Local": "reference"
      },
      "Source": "CVE",
      "RefID": "CVE-2018-1656",
      "RefURL": "https://access.redhat.com/security/cve/CVE-2018-1656"
    },
    {
      "XMLName": {
        "Space": "http://oval.mitre.org/XMLSchema/oval-definitions-5",
        "Local": "reference"
      },
      "Source": "CVE",
      "RefID": "CVE-2018-2940",
      "RefURL": "https://access.redhat.com/security/cve/CVE-2018-2940"
    },
    {
      "XMLName": {
        "Space": "http://oval.mitre.org/XMLSchema/oval-definitions-5",
        "Local": "reference"
      },
      "Source": "CVE",
      "RefID": "CVE-2018-2952",
      "RefURL": "https://access.redhat.com/security/cve/CVE-2018-2952"
    },
    {
      "XMLName": {
        "Space": "http://oval.mitre.org/XMLSchema/oval-definitions-5",
        "Local": "reference"
      },
      "Source": "CVE",
      "RefID": "CVE-2018-2973",
      "RefURL": "https://access.redhat.com/security/cve/CVE-2018-2973"
    }
  ],
  "Description": "IBM Java SE version 7 Release 1 includes the IBM Java Runtime Environment and the IBM Java Software Development Kit.\n\nThis update upgrades IBM Java SE 7 to version 7R1 SR4-FP30.\n\nSecurity Fix(es):\n\n* IBM JDK: privilege escalation via insufficiently restricted access to Attach API (CVE-2018-12539)\n\n* IBM JDK: DoS in the java.math component (CVE-2018-1517)\n\n* IBM JDK: path traversal flaw in the Diagnostic Tooling Framework (CVE-2018-1656)\n\n* Oracle JDK: unspecified vulnerability fixed in 6u201, 7u191, 8u181, and 10.0.2 (Libraries) (CVE-2018-2940)\n\n* OpenJDK: insufficient index validation in PatternSyntaxException getMessage() (Concurrency, 8199547) (CVE-2018-2952)\n\n* Oracle JDK: unspecified vulnerability fixed in 6u201, 7u191, 8u181, and 10.0.2 (JSSE) (CVE-2018-2973)\n\nFor more details about the security issue(s), including the impact, a CVSS score, and other related information, refer to the CVE page(s) listed in the References section.",
  "Advisory": {
    "XMLName": {
      "Space": "http://oval.mitre.org/XMLSchema/oval-definitions-5",
      "Local": "advisory"
    },
    "Severity": "Important",
    "Cves": [
      {
        "XMLName": {
          "Space": "http://oval.mitre.org/XMLSchema/oval-definitions-5",
          "Local": "cve"
        },
        "CveID": "CVE-2018-12539",
        "Cvss2": "",
        "Cvss3": "8.4/CVSS:3.0/AV:L/AC:L/PR:N/UI:N/S:U/C:H/I:H/A:H",
        "Cwe": "CWE-287",
        "Impact": "",
        "Href": "https://access.redhat.com/security/cve/CVE-2018-12539",
        "Public": "20180511"
      },
      {
        "XMLName": {
          "Space": "http://oval.mitre.org/XMLSchema/oval-definitions-5",
          "Local": "cve"
        },
        "CveID": "CVE-2018-1517",
        "Cvss2": "",
        "Cvss3": "5.9/CVSS:3.0/AV:N/AC:H/PR:N/UI:N/S:U/C:N/I:N/A:H",
        "Cwe": "",
        "Impact": "moderate",
        "Href": "https://access.redhat.com/security/cve/CVE-2018-1517",
        "Public": "20180816"
      },
      {
        "XMLName": {
          "Space": "http://oval.mitre.org/XMLSchema/oval-definitions-5",
          "Local": "cve"
        },
        "CveID": "CVE-2018-1656",
        "Cvss2": "",
        "Cvss3": "6.5/CVSS:3.0/AV:N/AC:L/PR:N/UI:R/S:U/C:N/I:H/A:N",
        "Cwe": "CWE-22",
        "Impact": "moderate",
        "Href": "https://access.redhat.com/security/cve/CVE-2018-1656",
        "Public": "20180816"
      },
      {
        "XMLName": {
          "Space": "http://oval.mitre.org/XMLSchema/oval-definitions-5",
          "Local": "cve"
        },
        "CveID": "CVE-2018-2940",
        "Cvss2": "",
        "Cvss3": "4.3/CVSS:3.0/AV:N/AC:L/PR:N/UI:R/S:U/C:L/I:N/A:N",
        "Cwe": "",
        "Impact": "moderate",
        "Href": "https://access.redhat.com/security/cve/CVE-2018-2940",
        "Public": "20180717"
      },
      {
        "XMLName": {
          "Space": "http://oval.mitre.org/XMLSchema/oval-definitions-5",
          "Local": "cve"
        },
        "CveID": "CVE-2018-2952",
        "Cvss2": "",
        "Cvss3": "5.3/CVSS:3.0/AV:N/AC:L/PR:N/UI:N/S:U/C:N/I:N/A:L",
        "Cwe": "CWE-770",
        "Impact": "moderate",
        "Href": "https://access.redhat.com/security/cve/CVE-2018-2952",
        "Public": "20180717"
      },
      {
        "XMLName": {
          "Space": "http://oval.mitre.org/XMLSchema/oval-definitions-5",
          "Local": "cve"
        },
        "CveID": "CVE-2018-2973",
        "Cvss2": "",
        "Cvss3": "5.9/CVSS:3.0/AV:N/AC:H/PR:N/UI:N/S:U/C:N/I:H/A:N",
        "Cwe": "",
        "Impact": "moderate",
        "Href": "https://access.redhat.com/security/cve/CVE-2018-2973",
        "Public": "20180717"
      }
    ],
    "Bugzillas": [
      {
        "XMLName": {
          "Space": "http://oval.mitre.org/XMLSchema/oval-definitions-5",
          "Local": "bugzilla"
        },
        "ID": "1600925",
        "URL": "https://bugzilla.redhat.com/1600925",
        "Title": "CVE-2018-2952 OpenJDK: insufficient index validation in PatternSyntaxException getMessage() (Concurrency, 8199547)"
      },
      {
        "XMLName": {
          "Space": "http://oval.mitre.org/XMLSchema/oval-definitions-5",
          "Local": "bugzilla"
        },
        "ID": "1602145",
        "URL": "https://bugzilla.redhat.com/1602145",
        "Title": "CVE-2018-2973 Oracle JDK: unspecified vulnerability fixed in 6u201, 7u191, 8u181, and 10.0.2 (JSSE)"
      },
      {
        "XMLName": {
          "Space": "http://oval.mitre.org/XMLSchema/oval-definitions-5",
          "Local": "bugzilla"
        },
        "ID": "1602146",
        "URL": "https://bugzilla.redhat.com/1602146",
        "Title": "CVE-2018-2940 Oracle JDK: unspecified vulnerability fixed in 6u201, 7u191, 8u181, and 10.0.2 (Libraries)"
      },
      {
        "XMLName": {
          "Space": "http://oval.mitre.org/XMLSchema/oval-definitions-5",
          "Local": "bugzilla"
        },
        "ID": "1618767",
        "URL": "https://bugzilla.redhat.com/1618767",
        "Title": "CVE-2018-12539 IBM JDK: privilege escalation via insufficiently restricted access to Attach API"
      },
      {
        "XMLName": {
          "Space": "http://oval.mitre.org/XMLSchema/oval-definitions-5",
          "Local": "bugzilla"
        },
        "ID": "1618869",
        "URL": "https://bugzilla.redhat.com/1618869",
        "Title": "CVE-2018-1656 IBM JDK: path traversal flaw in the Diagnostic Tooling Framework"
      },
      {
        "XMLName": {
          "Space": "http://oval.mitre.org/XMLSchema/oval-definitions-5",
          "Local": "bugzilla"
        },
        "ID": "1618871",
        "URL": "https://bugzilla.redhat.com/1618871",
        "Title": "CVE-2018-1517 IBM JDK: DoS in the java.math component"
      }
    ],
    "AffectedCPEList": [
      "cpe:/a:redhat:rhel_extras:6",
      "cpe:/a:redhat:rhel_extras:6"
    ],
    "Issued": {
      "Date": "2018-08-28"
    },
    "Updated": {
      "Date": "2018-08-28"
    }
  },
  "Criteria": {
    "XMLName": {
      "Space": "http://oval.mitre.org/XMLSchema/oval-definitions-5",
      "Local": "criteria"
    },
    "Operator": "OR",
    "Criterias": [
      {
        "XMLName": {
          "Space": "http://oval.mitre.org/XMLSchema/oval-definitions-5",
          "Local": "criteria"
        },
        "Operator": "AND",
        "Criterias": [
          {
            "XMLName": {
              "Space": "http://oval.mitre.org/XMLSchema/oval-definitions-5",
              "Local": "criteria"
            },
            "Operator": "OR",
            "Criterias": [
              {
                "XMLName": {
                  "Space": "http://oval.mitre.org/XMLSchema/oval-definitions-5",
                  "Local": "criteria"
                },
                "Operator": "AND",
                "Criterias": null,
                "Criterions": [
                  {
                    "XMLName": {
                      "Space": "http://oval.mitre.org/XMLSchema/oval-definitions-5",
                      "Local": "criterion"
                    },
                    "Negate": false,
                    "TestRef": "oval:com.redhat.rhsa:tst:20182576001",
                    "Comment": "java-1.7.1-ibm is earlier than 1:1.7.1.4.30-1jpp.2.el6_10"
                  },
                  {
                    "XMLName": {
                      "Space": "http://oval.mitre.org/XMLSchema/oval-definitions-5",
                      "Local": "criterion"
                    },
                    "Negate": false,
                    "TestRef": "oval:com.redhat.rhsa:tst:20141880002",
                    "Comment": "java-1.7.1-ibm is signed with Red Hat redhatrelease2 key"
                  }
                ]
              },
              {
                "XMLName": {
                  "Space": "http://oval.mitre.org/XMLSchema/oval-definitions-5",
                  "Local": "criteria"
                },
                "Operator": "AND",
                "Criterias": null,
                "Criterions": [
                  {
                    "XMLName": {
                      "Space": "http://oval.mitre.org/XMLSchema/oval-definitions-5",
                      "Local": "criterion"
                    },
                    "Negate": false,
                    "TestRef": "oval:com.redhat.rhsa:tst:20182576003",
                    "Comment": "java-1.7.1-ibm-demo is earlier than 1:1.7.1.4.30-1jpp.2.el6_10"
                  },
                  {
                    "XMLName": {
                      "Space": "http://oval.mitre.org/XMLSchema/oval-definitions-5",
                      "Local": "criterion"
                    },
                    "Negate": false,
                    "TestRef": "oval:com.redhat.rhsa:tst:20141880004",
                    "Comment": "java-1.7.1-ibm-demo is signed with Red Hat redhatrelease2 key"
                  }
                ]
              },
              {
                "XMLName": {
                  "Space": "http://oval.mitre.org/XMLSchema/oval-definitions-5",
                  "Local": "criteria"
                },
                "Operator": "AND",
                "Criterias": null,
                "Criterions": [
                  {
                    "XMLName": {
                      "Space": "http://oval.mitre.org/XMLSchema/oval-definitions-5",
                      "Local": "criterion"
                    },
                    "Negate": false,
                    "TestRef": "oval:com.redhat.rhsa:tst:20182576005",
                    "Comment": "java-1.7.1-ibm-devel is earlier than 1:1.7.1.4.30-1jpp.2.el6_10"
                  },
                  {
                    "XMLName": {
                      "Space": "http://oval.mitre.org/XMLSchema/oval-definitions-5",
                      "Local": "criterion"
                    },
                    "Negate": false,
                    "TestRef": "oval:com.redhat.rhsa:tst:20141880006",
                    "Comment": "java-1.7.1-ibm-devel is signed with Red Hat redhatrelease2 key"
                  }
                ]
              },
              {
                "XMLName": {
                  "Space": "http://oval.mitre.org/XMLSchema/oval-definitions-5",
                  "Local": "criteria"
                },
                "Operator": "AND",
                "Criterias": null,
                "Criterions": [
                  {
                    "XMLName": {
                      "Space": "http://oval.mitre.org/XMLSchema/oval-definitions-5",
                      "Local": "criterion"
                    },
                    "Negate": false,
                    "TestRef": "oval:com.redhat.rhsa:tst:20182576007",
                    "Comment": "java-1.7.1-ibm-jdbc is earlier than 1:1.7.1.4.30-1jpp.2.el6_10"
                  },
                  {
                    "XMLName": {
                      "Space": "http://oval.mitre.org/XMLSchema/oval-definitions-5",
                      "Local": "criterion"
                    },
                    "Negate": false,
                    "TestRef": "oval:com.redhat.rhsa:tst:20141880008",
                    "Comment": "java-1.7.1-ibm-jdbc is signed with Red Hat redhatrelease2 key"
                  }
                ]
              },
              {
                "XMLName": {
                  "Space": "http://oval.mitre.org/XMLSchema/oval-definitions-5",
                  "Local": "criteria"
                },
                "Operator": "AND",
                "Criterias": null,
                "Criterions": [
                  {
                    "XMLName": {
                      "Space": "http://oval.mitre.org/XMLSchema/oval-definitions-5",
                      "Local": "criterion"
                    },
                    "Negate": false,
                    "TestRef": "oval:com.redhat.rhsa:tst:20182576009",
                    "Comment": "java-1.7.1-ibm-plugin is earlier than 1:1.7.1.4.30-1jpp.2.el6_10"
                  },
                  {
                    "XMLName": {
                      "Space": "http://oval.mitre.org/XMLSchema/oval-definitions-5",
                      "Local": "criterion"
                    },
                    "Negate": false,
                    "TestRef": "oval:com.redhat.rhsa:tst:20141880010",
                    "Comment": "java-1.7.1-ibm-plugin is signed with Red Hat redhatrelease2 key"
                  }
                ]
              },
              {
                "XMLName": {
                  "Space": "http://oval.mitre.org/XMLSchema/oval-definitions-5",
                  "Local": "criteria"
                },
                "Operator": "AND",
                "Criterias": null,
                "Criterions": [
                  {
                    "XMLName": {
                      "Space": "http://oval.mitre.org/XMLSchema/oval-definitions-5",
                      "Local": "criterion"
                    },
                    "Negate": false,
                    "TestRef": "oval:com.redhat.rhsa:tst:20182576011",
                    "Comment": "java-1.7.1-ibm-src is earlier than 1:1.7.1.4.30-1jpp.2.el6_10"
                  },
                  {
                    "XMLName": {
                      "Space": "http://oval.mitre.org/XMLSchema/oval-definitions-5",
                      "Local": "criterion"
                    },
                    "Negate": false,
                    "TestRef": "oval:com.redhat.rhsa:tst:20141880012",
                    "Comment": "java-1.7.1-ibm-src is signed with Red Hat redhatrelease2 key"
                  }
                ]
              }
            ],
            "Criterions": null
          }
        ],
        "Criterions": [
          {
            "XMLName": {
              "Space": "http://oval.mitre.org/XMLSchema/oval-definitions-5",
              "Local": "criterion"
            },
            "Negate": false,
            "TestRef": "oval:com.redhat.rhba:tst:20111656003",
            "Comment": "Red Hat Enterprise Linux 6 is installed"
          }
        ]
      }
    ],
    "Criterions": [
      {
        "XMLName": {
          "Space": "http://oval.mitre.org/XMLSchema/oval-definitions-5",
          "Local": "criterion"
        },
        "Negate": false,
        "TestRef": "oval:com.redhat.rhba:tst:20111656004",
        "Comment": "Red Hat Enterprise Linux must be installed"
      }
    ]
  }
}