{
  "XMLName": {
    "Space": "http://oval.mitre.org/XMLSchema/oval-definitions-5",
    "Local": "definition"
  },
  "ID": "oval:com.redhat.rhsa:def:20161238",
  "Class": "patch",
  "Title": "RHSA-2016:1238: flash-plugin security update (Critical)",
  "Affecteds": [
    {
      "XMLName": {
        "Space": "http://oval.mitre.org/XMLSchema/oval-definitions-5",
        "Local": "affected"
      },
      "Family": "unix",
      "Platforms": [
        "Red Hat Enterprise Linux 6 Supplementary"
      ]
    }
  ],
  "References": [
    {
      "XMLName": {
        "Space": "http://oval.mitre.org/XMLSchema/oval-definitions-5",
        "Local": "reference"
      },
      "Source": "RHSA",
      "RefID": "RHSA-2016:1238",
      "RefURL": "https://access.redhat.com/errata/RHSA-2016:1238"
    },
    {
      "XMLName": {
        "Space": "http://oval.mitre.org/XMLSchema/oval-definitions-5",
        "Local": "reference"
      },
      "Source": "CVE",
      "RefID": "CVE-2016-4122",
      "RefURL": "https://access.redhat.com/security/cve/CVE-2016-4122"
    },
    {
      "XMLName": {
        "Space": "http://oval.mitre.org/XMLSchema/oval-definitions-5",
        "Local": "reference"
      },
      "Source": "CVE",
      "RefID": "CVE-2016-4123",
      "RefURL": "https://access.redhat.com/security/cve/CVE-2016-4123"
    },
    {
      "XMLName": {
        "Space": "http://oval.mitre.org/XMLSchema/oval-definitions-5",
        "Local": "reference"
      },
      "Source": "CVE",
      "RefID": "CVE-2016-4124",
      "RefURL": "https://access.redhat.com/security/cve/CVE-2016-4124"
    },
    {
      "XMLName": {
        "Space": "http://oval.mitre.org/XMLSchema/oval-definitions-5",
        "Local": "reference"
      },
      "Source": "CVE",
      "RefID": "CVE-2016-4125",
      "RefURL": "https://access.redhat.com/security/cve/CVE-2016-4125"
    },
    {
      "XMLName": {
        "Space": "http://oval.mitre.org/XMLSchema/oval-definitions-5",
        "Local": "reference"
      },
      "Source": "CVE",
      "RefID": "CVE-2016-4127",
      "RefURL": "https://access.redhat.com/security/cve/CVE-2016-4127"
    },
    {
      "XMLName": {
        "Space": "http://oval.mitre.org/XMLSchema/oval-definitions-5",
        "Local": "reference"
      },
      "Source": "CVE",
      "RefID": "CVE-2016-4128",
      "RefURL": "https://access.redhat.com/security/cve/CVE-2016-4128"
    },
    {
      "XMLName": {
        "Space": "http://oval.mitre.org/XMLSchema/oval-definitions-5",
        "Local": "reference"
      },
      "Source": "CVE",
      "RefID": "CVE-2016-4129",
      "RefURL": "https://access.redhat.com/security/cve/CVE-2016-4129"
    },
    {
      "XMLName": {
        "Space": "http://oval.mitre.org/XMLSchema/oval-definitions-5",
        "Local": "reference"
      },
      "Source": "CVE",
      "RefID": "CVE-2016-4130",
      "RefURL": "https://access.redhat.com/security/cve/CVE-2016-4130"
    },
    {
      "XMLName": {
        "Space": "http://oval.mitre.org/XMLSchema/oval-definitions-5",
        "Local": "reference"
      },
      "Source": "CVE",
      "RefID": "CVE-2016-4131",
      "RefURL": "https://access.redhat.com/security/cve/CVE-2016-4131"
    },
    {
      "XMLName": {
        "Space": "http://oval.mitre.org/XMLSchema/oval-definitions-5",
        "Local": "reference"
      },
      "Source": "CVE",
      "RefID": "CVE-2016-4132",
      "RefURL": "https://access.redhat.com/security/cve/CVE-2016-4132"
    },
    {
      "XMLName": {
        "Space": "http://oval.mitre.org/XMLSchema/oval-definitions-5",
        "Local": "reference"
      },
      "Source": "CVE",
      "RefID": "CVE-2016-4133",
      "RefURL": "https://access.redhat.com/security/cve/CVE-2016-4133"
    },
    {
      "XMLName": {
        "Space": "http://oval.mitre.org/XMLSchema/oval-definitions-5",
        "Local": "reference"
      },
      "Source": "CVE",
      "RefID": "CVE-2016-4134",
      "RefURL": "https://access.redhat.com/security/cve/CVE-2016-4134"
    },
    {
      "XMLName": {
        "Space": "http://oval.mitre.org/XMLSchema/oval-definitions-5",
        "Local": "reference"
      },
      "Source": "CVE",
      "RefID": "CVE-2016-4135",
      "RefURL": "https://access.redhat.com/security/cve/CVE-2016-4135"
    },
    {
      "XMLName": {
        "Space": "http://oval.mitre.org/XMLSchema/oval-definitions-5",
        "Local": "reference"
      },
      "Source": "CVE",
      "RefID": "CVE-2016-4136",
      "RefURL": "https://access.redhat.com/security/cve/CVE-2016-4136"
    },
    {
      "XMLName": {
        "Space": "http://oval.mitre.org/XMLSchema/oval-definitions-5",
        "Local": "reference"
      },
      "Source": "CVE",
      "RefID": "CVE-2016-4137",
      "RefURL": "https://access.redhat.com/security/cve/CVE-2016-4137"
    },
    {
      "XMLName": {
        "Space": "http://oval.mitre.org/XMLSchema/oval-definitions-5",
        "Local": "reference"
      },
      "Source": "CVE",
      "RefID": "CVE-2016-4138",
      "RefURL": "https://access.redhat.com/security/cve/CVE-2016-4138"
    },
    {
      "XMLName": {
        "Space": "http://oval.mitre.org/XMLSchema/oval-definitions-5",
        "Local": "reference"
      },
      "Source": "CVE",
      "RefID": "CVE-2016-4139",
      "RefURL": "https://access.redhat.com/security/cve/CVE-2016-4139"
    },
    {
      "XMLName": {
        "Space": "http://oval.mitre.org/XMLSchema/oval-definitions-5",
        "Local": "reference"
      },
      "Source": "CVE",
      "RefID": "CVE-2016-4140",
      "RefURL": "https://access.redhat.com/security/cve/CVE-2016-4140"
    },
    {
      "XMLName": {
        "Space": "http://oval.mitre.org/XMLSchema/oval-definitions-5",
        "Local": "reference"
      },
      "Source": "CVE",
      "RefID": "CVE-2016-4141",
      "RefURL": "https://access.redhat.com/security/cve/CVE-2016-4141"
    },
    {
      "XMLName": {
        "Space": "http://oval.mitre.org/XMLSchema/oval-definitions-5",
        "Local": "reference"
      },
      "Source": "CVE",
      "RefID": "CVE-2016-4142",
      "RefURL": "https://access.redhat.com/security/cve/CVE-2016-4142"
    },
    {
      "XMLName": {
        "Space": "http://oval.mitre.org/XMLSchema/oval-definitions-5",
        "Local": "reference"
      },
      "Source": "CVE",
      "RefID": "CVE-2016-4143",
      "RefURL": "https://access.redhat.com/security/cve/CVE-2016-4143"
    },
    {
      "XMLName": {
        "Space": "http://oval.mitre.org/XMLSchema/oval-definitions-5",
        "Local": "reference"
      },
      "Source": "CVE",
      "RefID": "CVE-2016-4144",
      "RefURL": "https://access.redhat.com/security/cve/CVE-2016-4144"
    },
    {
      "XMLName": {
        "Space": "http://oval.mitre.org/XMLSchema/oval-definitions-5",
        "Local": "reference"
      },
      "Source": "CVE",
      "RefID": "CVE-2016-4145",
      "RefURL": "https://access.redhat.com/security/cve/CVE-2016-4145"
    },
    {
      "XMLName": {
        "Space": "http://oval.mitre.org/XMLSchema/oval-definitions-5",
        "Local": "reference"
      },
      "Source": "CVE",
      "RefID": "CVE-2016-4146",
      "RefURL": "https://access.redhat.com/security/cve/CVE-2016-4146"
    },
    {
      "XMLName": {
        "Space": "http://oval.mitre.org/XMLSchema/oval-definitions-5",
        "Local": "reference"
      },
      "Source": "CVE",
      "RefID": "CVE-2016-4147",
      "RefURL": "https://access.redhat.com/security/cve/CVE-2016-4147"
    },
    {
      "XMLName": {
        "Space": "http://oval.mitre.org/XMLSchema/oval-definitions-5",
        "Local": "reference"
      },
      "Source": "CVE",
      "RefID": "CVE-2016-4148",
      "RefURL": "https://access.redhat.com/security/cve/CVE-2016-4148"
    },
    {
      "XMLName": {
        "Space": "http://oval.mitre.org/XMLSchema/oval-definitions-5",
        "Local": "reference"
      },
      "Source": "CVE",
      "RefID": "CVE-2016-4149",
      "RefURL": "https://access.redhat.com/security/cve/CVE-2016-4149"
    },
    {
      "XMLName": {
        "Space": "http://oval.mitre.org/XMLSchema/oval-definitions-5",
        "Local": "reference"
      },
      "Source": "CVE",
      "RefID": "CVE-2016-4150",
      "RefURL": "https://access.redhat.com/security/cve/CVE-2016-4150"
    },
    {
      "XMLName": {
        "Space": "http://oval.mitre.org/XMLSchema/oval-definitions-5",
        "Local": "reference"
      },
      "Source": "CVE",
      "RefID": "CVE-2016-4151",
      "RefURL": "https://access.redhat.com/security/cve/CVE-2016-4151"
    },
    {
      "XMLName": {
        "Space": "http://oval.mitre.org/XMLSchema/oval-definitions-5",
        "Local": "reference"
      },
      "Source": "CVE",
      "RefID": "CVE-2016-4152",
      "RefURL": "https://access.redhat.com/security/cve/CVE-2016-4152"
    },
    {
      "XMLName": {
        "Space": "http://oval.mitre.org/XMLSchema/oval-definitions-5",
        "Local": "reference"
      },
      "Source": "CVE",
      "RefID": "CVE-2016-4153",
      "RefURL": "https://access.redhat.com/security/cve/CVE-2016-4153"
    },
    {
      "XMLName": {
        "Space": "http://oval.mitre.org/XMLSchema/oval-definitions-5",
        "Local": "reference"
      },
      "Source": "CVE",
      "RefID": "CVE-2016-4154",
      "RefURL": "https://access.redhat.com/security/cve/CVE-2016-4154"
    },
    {
      "XMLName": {
        "Space": "http://oval.mitre.org/XMLSchema/oval-definitions-5",
        "Local": "reference"
      },
      "Source": "CVE",
      "RefID": "CVE-2016-4155",
      "RefURL": "https://access.redhat.com/security/cve/CVE-2016-4155"
    },
    {
      "XMLName": {
        "Space": "http://oval.mitre.org/XMLSchema/oval-definitions-5",
        "Local": "reference"
      },
      "Source": "CVE",
      "RefID": "CVE-2016-4156",
      "RefURL": "https://access.redhat.com/security/cve/CVE-2016-4156"
    },
    {
      "XMLName": {
        "Space": "http://oval.mitre.org/XMLSchema/oval-definitions-5",
        "Local": "reference"
      },
      "Source": "CVE",
      "RefID": "CVE-2016-4166",
      "RefURL": "https://access.redhat.com/security/cve/CVE-2016-4166"
    },
    {
      "XMLName": {
        "Space": "http://oval.mitre.org/XMLSchema/oval-definitions-5",
        "Local": "reference"
      },
      "Source": "CVE",
      "RefID": "CVE-2016-4171",
      "RefURL": "https://access.redhat.com/security/cve/CVE-2016-4171"
    }
  ],
  "Description": "The flash-plugin package contains a Mozilla Firefox compatible Adobe Flash Player web browser plug-in.\n\nThis update upgrades Flash Player to version 11.2.202.626.\n\nSecurity Fix(es):\n\n* This update fixes multiple vulnerabilities in Adobe Flash Player. These vulnerabilities, detailed in the Adobe Security Bulletin listed in the References section, could allow an attacker to create a specially crafted SWF file that would cause flash-plugin to crash, execute arbitrary code, or disclose sensitive information when the victim loaded a page containing the malicious SWF content. (CVE-2016-4122, CVE-2016-4123, CVE-2016-4124, CVE-2016-4125, CVE-2016-4127, CVE-2016-4128, CVE-2016-4129, CVE-2016-4130, CVE-2016-4131, CVE-2016-4132, CVE-2016-4133, CVE-2016-4134, CVE-2016-4135, CVE-2016-4136, CVE-2016-4137, CVE-2016-4138, CVE-2016-4139, CVE-2016-4140, CVE-2016-4141, CVE-2016-4142, CVE-2016-4143, CVE-2016-4144, CVE-2016-4145, CVE-2016-4146, CVE-2016-4147, CVE-2016-4148, CVE-2016-4149, CVE-2016-4150, CVE-2016-4151, CVE-2016-4152, CVE-2016-4153, CVE-2016-4154, CVE-2016-4155, CVE-2016-4156, CVE-2016-4166, CVE-2016-4171)",
  "Advisory": {
    "XMLName": {
      "Space": "http://oval.mitre.org/XMLSchema/oval-definitions-5",
      "Local": "advisory"
    },
    "Severity": "Critical",
    "Cves": [
      {
        "XMLName": {
          "Space": "http://oval.mitre.org/XMLSchema/oval-definitions-5",
          "Local": "cve"
        },
        "CveID": "CVE-2016-4122",
        "Cvss2": "6.8/AV:N/AC:M/Au:N/C:P/I:P/A:P",
        "Cvss3": "",
        "Cwe": "",
        "Impact": "",
        "Href": "https://access.redhat.com/security/cve/CVE-2016-4122",
        "Public": "20160614"
      },
      {
        "XMLName": {
          "Space": "http://oval.mitre.org/XMLSchema/oval-definitions-5",
          "Local": "cve"
        },
        "CveID": "CVE-2016-4123",
        "Cvss2": "6.8/AV:N/AC:M/Au:N/C:P/I:P/A:P",
        "Cvss3": "",
        "Cwe": "",
        "Impact": "",
        "Href": "https://access.redhat.com/security/cve/CVE-2016-4123",
        "Public": "20160614"
      },
      {
        "XMLName": {
          "Space": "http://oval.mitre.org/XMLSchema/oval-definitions-5",
          "Local": "cve"
        },
        "CveID": "CVE-2016-4124",
        "Cvss2": "6.8/AV:N/AC:M/Au:N/C:P/I:P/A:P",
        "Cvss3": "",
        "Cwe": "",
        "Impact": "",
        "Href": "https://access.redhat.com/security/cve/CVE-2016-4124",
        "Public": "20160614"
      },
      {
        "XMLName": {
          "Space": "http://oval.mitre.org/XMLSchema/oval-definitions-5",
          "Local": "cve"
        },
        "CveID": "CVE-2016-4125",
        "Cvss2": "6.8/AV:N/AC:M/Au:N/C:P/I:P/A:P",
        "Cvss3": "",
        "Cwe": "",
        "Impact": "",
        "Href": "https://access.redhat.com/security/cve/CVE-2016-4125",
        "Public": "20160614"
      },
      {
        "XMLName": {
          "Space": "http://oval.mitre.org/XMLSchema/oval-definitions-5",
          "Local": "cve"
        },
        "CveID": "CVE-2016-4127",
        "Cvss2": "6.8/AV:N/AC:M/Au:N/C:P/I:P/A:P",
        "Cvss3": "",
        "Cwe": "",
        "Impact": "",
        "Href": "https://access.redhat.com/security/cve/CVE-2016-4127",
        "Public": "20160614"
      },
      {
        "XMLName": {
          "Space": "http://oval.mitre.org/XMLSchema/oval-definitions-5",
          "Local": "cve"
        },
        "CveID": "CVE-2016-4128",
        "Cvss2": "6.8/AV:N/AC:M/Au:N/C:P/I:P/A:P",
        "Cvss3": "",
        "Cwe": "",
        "Impact": "",
        "Href": "https://access.redhat.com/security/cve/CVE-2016-4128",
        "Public": "20160614"
      },
      {
        "XMLName": {
          "Space": "http://oval.mitre.org/XMLSchema/oval-definitions-5",
          "Local": "cve"
        },
        "CveID": "CVE-2016-4129",
        "Cvss2": "6.8/AV:N/AC:M/Au:N/C:P/I:P/A:P",
        "Cvss3": "",
        "Cwe": "",
        "Impact": "",
        "Href": "https://access.redhat.com/security/cve/CVE-2016-4129",
        "Public": "20160614"
      },
      {
        "XMLName": {
          "Space": "http://oval.mitre.org/XMLSchema/oval-definitions-5",
          "Local": "cve"
        },
        "CveID": "CVE-2016-4130",
        "Cvss2": "6.8/AV:N/AC:M/Au:N/C:P/I:P/A:P",
        "Cvss3": "",
        "Cwe": "",
        "Impact": "",
        "Href": "https://access.redhat.com/security/cve/CVE-2016-4130",
        "Public": "20160614"
      },
      {
        "XMLName": {
          "Space": "http://oval.mitre.org/XMLSchema/oval-definitions-5",
          "Local": "cve"
        },
        "CveID": "CVE-2016-4131",
        "Cvss2": "6.8/AV:N/AC:M/Au:N/C:P/I:P/A:P",
        "Cvss3": "",
        "Cwe": "",
        "Impact": "",
        "Href": "https://access.redhat.com/security/cve/CVE-2016-4131",
        "Public": "20160614"
      },
      {
        "XMLName": {
          "Space": "http://oval.mitre.org/XMLSchema/oval-definitions-5",
          "Local": "cve"
        },
        "CveID": "CVE-2016-4132",
        "Cvss2": "6.8/AV:N/AC:M/Au:N/C:P/I:P/A:P",
        "Cvss3": "",
        "Cwe": "",
        "Impact": "",
        "Href": "https://access.redhat.com/security/cve/CVE-2016-4132",
        "Public": "20160614"
      },
      {
        "XMLName": {
          "Space": "http://oval.mitre.org/XMLSchema/oval-definitions-5",
          "Local": "cve"
        },
        "CveID": "CVE-2016-4133",
        "Cvss2": "6.8/AV:N/AC:M/Au:N/C:P/I:P/A:P",
        "Cvss3": "",
        "Cwe": "",
        "Impact": "",
        "Href": "https://access.redhat.com/security/cve/CVE-2016-4133",
        "Public": "20160614"
      },
      {
        "XMLName": {
          "Space": "http://oval.mitre.org/XMLSchema/oval-definitions-5",
          "Local": "cve"
        },
        "CveID": "CVE-2016-4134",
        "Cvss2": "6.8/AV:N/AC:M/Au:N/C:P/I:P/A:P",
        "Cvss3": "",
        "Cwe": "",
        "Impact": "",
        "Href": "https://access.redhat.com/security/cve/CVE-2016-4134",
        "Public": "20160614"
      },
      {
        "XMLName": {
          "Space": "http://oval.mitre.org/XMLSchema/oval-definitions-5",
          "Local": "cve"
        },
        "CveID": "CVE-2016-4135",
        "Cvss2": "6.8/AV:N/AC:M/Au:N/C:P/I:P/A:P",
        "Cvss3": "",
        "Cwe": "",
        "Impact": "",
        "Href": "https://access.redhat.com/security/cve/CVE-2016-4135",
        "Public": "20160614"
      },
      {
        "XMLName": {
          "Space": "http://oval.mitre.org/XMLSchema/oval-definitions-5",
          "Local": "cve"
        },
        "CveID": "CVE-2016-4136",
        "Cvss2": "6.8/AV:N/AC:M/Au:N/C:P/I:P/A:P",
        "Cvss3": "",
        "Cwe": "",
        "Impact": "",
        "Href": "https://access.redhat.com/security/cve/CVE-2016-4136",
        "Public": "20160614"
      },
      {
        "XMLName": {
          "Space": "http://oval.mitre.org/XMLSchema/oval-definitions-5",
          "Local": "cve"
        },
        "CveID": "CVE-2016-4137",
        "Cvss2": "6.8/AV:N/AC:M/Au:N/C:P/I:P/A:P",
        "Cvss3": "",
        "Cwe": "",
        "Impact": "",
        "Href": "https://access.redhat.com/security/cve/CVE-2016-4137",
        "Public": "20160614"
      },
      {
        "XMLName": {
          "Space": "http://oval.mitre.org/XMLSchema/oval-definitions-5",
          "Local": "cve"
        },
        "CveID": "CVE-2016-4138",
        "Cvss2": "6.8/AV:N/AC:M/Au:N/C:P/I:P/A:P",
        "Cvss3": "",
        "Cwe": "",
        "Impact": "",
        "Href": "https://access.redhat.com/security/cve/CVE-2016-4138",
        "Public": "20160614"
      },
      {
        "XMLName": {
          "Space": "http://oval.mitre.org/XMLSchema/oval-definitions-5",
          "Local": "cve"
        },
        "CveID": "CVE-2016-4139",
        "Cvss2": "6.8/AV:N/AC:M/Au:N/C:P/I:P/A:P",
        "Cvss3": "",
        "Cwe": "",
        "Impact": "",
        "Href": "https://access.redhat.com/security/cve/CVE-2016-4139",
        "Public": "20160614"
      },
      {
        "XMLName": {
          "Space": "http://oval.mitre.org/XMLSchema/oval-definitions-5",
          "Local": "cve"
        },
        "CveID": "CVE-2016-4140",
        "Cvss2": "6.8/AV:N/AC:M/Au:N/C:P/I:P/A:P",
        "Cvss3": "",
        "Cwe": "",
        "Impact": "",
        "Href": "https://access.redhat.com/security/cve/CVE-2016-4140",
        "Public": "20160614"
      },
      {
        "XMLName": {
          "Space": "http://oval.mitre.org/XMLSchema/oval-definitions-5",
          "Local": "cve"
        },
        "CveID": "CVE-2016-4141",
        "Cvss2": "6.8/AV:N/AC:M/Au:N/C:P/I:P/A:P",
        "Cvss3": "",
        "Cwe": "",
        "Impact": "",
        "Href": "https://access.redhat.com/security/cve/CVE-2016-4141",
        "Public": "20160614"
      },
      {
        "XMLName": {
          "Space": "http://oval.mitre.org/XMLSchema/oval-definitions-5",
          "Local": "cve"
        },
        "CveID": "CVE-2016-4142",
        "Cvss2": "6.8/AV:N/AC:M/Au:N/C:P/I:P/A:P",
        "Cvss3": "",
        "Cwe": "",
        "Impact": "",
        "Href": "https://access.redhat.com/security/cve/CVE-2016-4142",
        "Public": "20160614"
      },
      {
        "XMLName": {
          "Space": "http://oval.mitre.org/XMLSchema/oval-definitions-5",
          "Local": "cve"
        },
        "CveID": "CVE-2016-4143",
        "Cvss2": "6.8/AV:N/AC:M/Au:N/C:P/I:P/A:P",
        "Cvss3": "",
        "Cwe": "",
        "Impact": "",
        "Href": "https://access.redhat.com/security/cve/CVE-2016-4143",
        "Public": "20160614"
      },
      {
        "XMLName": {
          "Space": "http://oval.mitre.org/XMLSchema/oval-definitions-5",
          "Local": "cve"
        },
        "CveID": "CVE-2016-4144",
        "Cvss2": "6.8/AV:N/AC:M/Au:N/C:P/I:P/A:P",
        "Cvss3": "",
        "Cwe": "",
        "Impact": "",
        "Href": "https://access.redhat.com/security/cve/CVE-2016-4144",
        "Public": "20160614"
      },
      {
        "XMLName": {
          "Space": "http://oval.mitre.org/XMLSchema/oval-definitions-5",
          "Local": "cve"
        },
        "CveID": "CVE-2016-4145",
        "Cvss2": "6.8/AV:N/AC:M/Au:N/C:P/I:P/A:P",
        "Cvss3": "",
        "Cwe": "",
        "Impact": "",
        "Href": "https://access.redhat.com/security/cve/CVE-2016-4145",
        "Public": "20160614"
      },
      {
        "XMLName": {
          "Space": "http://oval.mitre.org/XMLSchema/oval-definitions-5",
          "Local": "cve"
        },
        "CveID": "CVE-2016-4146",
        "Cvss2": "6.8/AV:N/AC:M/Au:N/C:P/I:P/A:P",
        "Cvss3": "",
        "Cwe": "",
        "Impact": "",
        "Href": "https://access.redhat.com/security/cve/CVE-2016-4146",
        "Public": "20160614"
      },
      {
        "XMLName": {
          "Space": "http://oval.mitre.org/XMLSchema/oval-definitions-5",
          "Local": "cve"
        },
        "CveID": "CVE-2016-4147",
        "Cvss2": "6.8/AV:N/AC:M/Au:N/C:P/I:P/A:P",
        "Cvss3": "",
        "Cwe": "",
        "Impact": "",
        "Href": "https://access.redhat.com/security/cve/CVE-2016-4147",
        "Public": "20160614"
      },
      {
        "XMLName": {
          "Space": "http://oval.mitre.org/XMLSchema/oval-definitions-5",
          "Local": "cve"
        },
        "CveID": "CVE-2016-4148",
        "Cvss2": "6.8/AV:N/AC:M/Au:N/C:P/I:P/A:P",
        "Cvss3": "",
        "Cwe": "",
        "Impact": "",
        "Href": "https://access.redhat.com/security/cve/CVE-2016-4148",
        "Public": "20160614"
      },
      {
        "XMLName": {
          "Space": "http://oval.mitre.org/XMLSchema/oval-definitions-5",
          "Local": "cve"
        },
        "CveID": "CVE-2016-4149",
        "Cvss2": "6.8/AV:N/AC:M/Au:N/C:P/I:P/A:P",
        "Cvss3": "",
        "Cwe": "",
        "Impact": "",
        "Href": "https://access.redhat.com/security/cve/CVE-2016-4149",
        "Public": "20160614"
      },
      {
        "XMLName": {
          "Space": "http://oval.mitre.org/XMLSchema/oval-definitions-5",
          "Local": "cve"
        },
        "CveID": "CVE-2016-4150",
        "Cvss2": "6.8/AV:N/AC:M/Au:N/C:P/I:P/A:P",
        "Cvss3": "",
        "Cwe": "",
        "Impact": "",
        "Href": "https://access.redhat.com/security/cve/CVE-2016-4150",
        "Public": "20160614"
      },
      {
        "XMLName": {
          "Space": "http://oval.mitre.org/XMLSchema/oval-definitions-5",
          "Local": "cve"
        },
        "CveID": "CVE-2016-4151",
        "Cvss2": "6.8/AV:N/AC:M/Au:N/C:P/I:P/A:P",
        "Cvss3": "",
        "Cwe": "",
        "Impact": "",
        "Href": "https://access.redhat.com/security/cve/CVE-2016-4151",
        "Public": "20160614"
      },
      {
        "XMLName": {
          "Space": "http://oval.mitre.org/XMLSchema/oval-definitions-5",
          "Local": "cve"
        },
        "CveID": "CVE-2016-4152",
        "Cvss2": "6.8/AV:N/AC:M/Au:N/C:P/I:P/A:P",
        "Cvss3": "",
        "Cwe": "",
        "Impact": "",
        "Href": "https://access.redhat.com/security/cve/CVE-2016-4152",
        "Public": "20160614"
      },
      {
        "XMLName": {
          "Space": "http://oval.mitre.org/XMLSchema/oval-definitions-5",
          "Local": "cve"
        },
        "CveID": "CVE-2016-4153",
        "Cvss2": "6.8/AV:N/AC:M/Au:N/C:P/I:P/A:P",
        "Cvss3": "",
        "Cwe": "",
        "Impact": "",
        "Href": "https://access.redhat.com/security/cve/CVE-2016-4153",
        "Public": "20160614"
      },
      {
        "XMLName": {
          "Space": "http://oval.mitre.org/XMLSchema/oval-definitions-5",
          "Local": "cve"
        },
        "CveID": "CVE-2016-4154",
        "Cvss2": "6.8/AV:N/AC:M/Au:N/C:P/I:P/A:P",
        "Cvss3": "",
        "Cwe": "",
        "Impact": "",
        "Href": "https://access.redhat.com/security/cve/CVE-2016-4154",
        "Public": "20160614"
      },
      {
        "XMLName": {
          "Space": "http://oval.mitre.org/XMLSchema/oval-definitions-5",
          "Local": "cve"
        },
        "CveID": "CVE-2016-4155",
        "Cvss2": "6.8/AV:N/AC:M/Au:N/C:P/I:P/A:P",
        "Cvss3": "",
        "Cwe": "",
        "Impact": "",
        "Href": "https://access.redhat.com/security/cve/CVE-2016-4155",
        "Public": "20160614"
      },
      {
        "XMLName": {
          "Space": "http://oval.mitre.org/XMLSchema/oval-definitions-5",
          "Local": "cve"
        },
        "CveID": "CVE-2016-4156",
        "Cvss2": "6.8/AV:N/AC:M/Au:N/C:P/I:P/A:P",
        "Cvss3": "",
        "Cwe": "",
        "Impact": "",
        "Href": "https://access.redhat.com/security/cve/CVE-2016-4156",
        "Public": "20160614"
      },
      {
        "XMLName": {
          "Space": "http://oval.mitre.org/XMLSchema/oval-definitions-5",
          "Local": "cve"
        },
        "CveID": "CVE-2016-4166",
        "Cvss2": "6.8/AV:N/AC:M/Au:N/C:P/I:P/A:P",
        "Cvss3": "",
        "Cwe": "",
        "Impact": "",
        "Href": "https://access.redhat.com/security/cve/CVE-2016-4166",
        "Public": "20160614"
      },
      {
        "XMLName": {
          "Space": "http://oval.mitre.org/XMLSchema/oval-definitions-5",
          "Local": "cve"
        },
        "CveID": "CVE-2016-4171",
        "Cvss2": "6.8/AV:N/AC:M/Au:N/C:P/I:P/A:P",
        "Cvss3": "",
        "Cwe": "",
        "Impact": "",
        "Href": "https://access.redhat.com/security/cve/CVE-2016-4171",
        "Public": "20160614"
      }
    ],
    "Bugzillas": [
      {
        "XMLName": {
          "Space": "http://oval.mitre.org/XMLSchema/oval-definitions-5",
          "Local": "bugzilla"
        },
        "ID": "1346665",
        "URL": "https://bugzilla.redhat.com/1346665",
        "Title": "flash-plugin: multiple code execution issues fixed in APSB16-18"
      }
    ],
    "AffectedCPEList": [
      "cpe:/a:redhat:rhel_extras:6",
      "cpe:/a:redhat:rhel_extras:6"
    ],
    "Issued": {
      "Date": "2016-06-17"
    },
    "Updated": {
      "Date": "2016-06-17"
    }
  },
  "Criteria": {
    "XMLName": {
      "Space": "http://oval.mitre.org/XMLSchema/oval-definitions-5",
      "Local": "criteria"
    },
    "Operator": "OR",
    "Criterias": [
      {
        "XMLName": {
          "Space": "http://oval.mitre.org/XMLSchema/oval-definitions-5",
          "Local": "criteria"
        },
        "Operator": "AND",
        "Criterias": null,
        "Criterions": [
          {
            "XMLName": {
              "Space": "http://oval.mitre.org/XMLSchema/oval-definitions-5",
              "Local": "criterion"
            },
            "Negate": false,
            "TestRef": "oval:com.redhat.rhba:tst:20111656003",
            "Comment": "Red Hat Enterprise Linux 6 is installed"
          },
          {
            "XMLName": {
              "Space": "http://oval.mitre.org/XMLSchema/oval-definitions-5",
              "Local": "criterion"
            },
            "Negate": false,
            "TestRef": "oval:com.redhat.rhsa:tst:20161238001",
            "Comment": "flash-plugin is earlier than 0:11.2.202.626-1.el6_8"
          },
          {
            "XMLName": {
              "Space": "http://oval.mitre.org/XMLSchema/oval-definitions-5",
              "Local": "criterion"
            },
            "Negate": false,
            "TestRef": "oval:com.redhat.rhsa:tst:20100867002",
            "Comment": "flash-plugin is signed with Red Hat redhatrelease2 key"
          }
        ]
      }
    ],
    "Criterions": [
      {
        "XMLName": {
          "Space": "http://oval.mitre.org/XMLSchema/oval-definitions-5",
          "Local": "criterion"
        },
        "Negate": false,
        "TestRef": "oval:com.redhat.rhba:tst:20111656004",
        "Comment": "Red Hat Enterprise Linux must be installed"
      }
    ]
  }
}