{
  "Severity": "LOW",
  "UpdatedAt": "2020-11-24T22:56:52Z",
  "Package": {
    "Ecosystem": "NPM",
    "Name": "highlight.js"
  },
  "Advisory": {
    "DatabaseId": 3202,
    "Id": "MDE2OlNlY3VyaXR5QWR2aXNvcnlHSFNBLXZmcmMtN3I3Yy13OW14",
    "GhsaId": "GHSA-vfrc-7r7c-w9mx",
    "References": [
      {
        "Url": "https://github.com/highlightjs/highlight.js/security/advisories/GHSA-vfrc-7r7c-w9mx"
      },
      {
        "Url": "https://nvd.nist.gov/vuln/detail/CVE-2020-26237"
      },
      {
        "Url": "https://github.com/advisories/GHSA-vfrc-7r7c-w9mx"
      }
    ],
    "Identifiers": [
      {
        "Type": "GHSA",
        "Value": "GHSA-vfrc-7r7c-w9mx"
      },
      {
        "Type": "CVE",
        "Value": "CVE-2020-26237"
      }
    ],
    "Description": "### Impact\n\nAffected versions of this package are vulnerable to Prototype Pollution.  A malicious HTML code block can be crafted that will result in prototype pollution of the base object's prototype during highlighting.  If you allow users to insert custom HTML code blocks into your page/app via parsing Markdown code blocks (or similar) and do not filter the language names the user can provide you may be vulnerable. \n\nThe pollution should just be harmless data but this can cause problems for applications not expecting these properties to exist and can result in strange behavior or application crashes, i.e. a potential DOS vector. \n\n_If your website or application does not render user provided data it should be unaffected._\n\n### Patches\n\nVersions 9.18.2 and 10.1.2 and newer include fixes for this vulnerability.  If you are using version 7 or 8 you are encouraged to upgrade to a newer release.\n\n### Workarounds\n\n#### Patch your library\n\nManually patch your library to create null objects for both `languages` and `aliases`:\n\n```js\nconst HLJS = function(hljs) {\n  // ...\n  var languages = Object.create(null);\n  var aliases = Object.create(null);\n```\n\n#### Filter out bad data from end users\n\nFilter the language names that users are allowed to inject into your HTML to guarantee they are valid.\n\n### References\n\n* [What is Prototype Pollution?](https://codeburst.io/what-is-prototype-pollution-49482fc4b638)\n* https://github.com/highlightjs/highlight.js/pull/2636\n\n### For more information\n\nIf you have any questions or comments about this advisory:\n\n* Please file an issue against [highlight.js](https://github.com/highlightjs/highlight.js/issues/)",
    "Origin": "UNSPECIFIED",
    "PublishedAt": "2020-11-24T22:58:41Z",
    "Severity": "LOW",
    "Summary": "Prototype Pollution in highlight.js",
    "UpdatedAt": "2020-11-24T22:58:41Z",
    "WithdrawnAt": ""
  },
  "Versions": [
    {
      "FirstPatchedVersion": {
        "Identifier": "10.1.2"
      },
      "VulnerableVersionRange": "\u003e= 10.0.0, \u003c 10.1.2"
    },
    {
      "FirstPatchedVersion": {
        "Identifier": "9.18.2"
      },
      "VulnerableVersionRange": "\u003c 9.18.2"
    }
  ]
}