{
  "XMLName": {
    "Space": "http://oval.mitre.org/XMLSchema/oval-definitions-5",
    "Local": "definition"
  },
  "ID": "oval:com.redhat.rhsa:def:20130983",
  "Class": "patch",
  "Title": "RHSA-2013:0983: curl security update (Moderate)",
  "Affecteds": [
    {
      "XMLName": {
        "Space": "http://oval.mitre.org/XMLSchema/oval-definitions-5",
        "Local": "affected"
      },
      "Family": "unix",
      "Platforms": [
        "Red Hat Enterprise Linux 6"
      ]
    }
  ],
  "References": [
    {
      "XMLName": {
        "Space": "http://oval.mitre.org/XMLSchema/oval-definitions-5",
        "Local": "reference"
      },
      "Source": "RHSA",
      "RefID": "RHSA-2013:0983",
      "RefURL": "https://access.redhat.com/errata/RHSA-2013:0983"
    },
    {
      "XMLName": {
        "Space": "http://oval.mitre.org/XMLSchema/oval-definitions-5",
        "Local": "reference"
      },
      "Source": "CVE",
      "RefID": "CVE-2013-2174",
      "RefURL": "https://access.redhat.com/security/cve/CVE-2013-2174"
    }
  ],
  "Description": "cURL provides the libcurl library and a command line tool for downloading\nfiles from servers using various protocols, including HTTP, FTP, and LDAP.\n\nA heap-based buffer overflow flaw was found in the way libcurl unescaped\nURLs. A remote attacker could provide a specially-crafted URL that, when\nprocessed by an application using libcurl that handles untrusted URLs,\nwould possibly cause it to crash or, potentially, execute arbitrary code.\n(CVE-2013-2174)\n\nRed Hat would like to thank the cURL project for reporting this issue.\nUpstream acknowledges Timo Sirainen as the original reporter.\n\nUsers of curl should upgrade to these updated packages, which contain a\nbackported patch to correct this issue. All running applications using\nlibcurl must be restarted for the update to take effect.",
  "Advisory": {
    "XMLName": {
      "Space": "http://oval.mitre.org/XMLSchema/oval-definitions-5",
      "Local": "advisory"
    },
    "Severity": "Moderate",
    "Cves": [
      {
        "XMLName": {
          "Space": "http://oval.mitre.org/XMLSchema/oval-definitions-5",
          "Local": "cve"
        },
        "CveID": "CVE-2013-2174",
        "Cvss2": "6.8/AV:N/AC:M/Au:N/C:P/I:P/A:P",
        "Cvss3": "",
        "Cwe": "CWE-122",
        "Impact": "",
        "Href": "https://access.redhat.com/security/cve/CVE-2013-2174",
        "Public": "20130622"
      }
    ],
    "Bugzillas": [
      {
        "XMLName": {
          "Space": "http://oval.mitre.org/XMLSchema/oval-definitions-5",
          "Local": "bugzilla"
        },
        "ID": "965640",
        "URL": "https://bugzilla.redhat.com/965640",
        "Title": "CVE-2013-2174 curl: Loop counter error, leading to heap-based buffer overflow when decoding certain URLs"
      }
    ],
    "AffectedCPEList": [
      "cpe:/o:redhat:enterprise_linux:6",
      "cpe:/o:redhat:enterprise_linux:6::client",
      "cpe:/o:redhat:enterprise_linux:6::computenode",
      "cpe:/o:redhat:enterprise_linux:6::server",
      "cpe:/o:redhat:enterprise_linux:6::workstation"
    ],
    "Issued": {
      "Date": "2013-06-25"
    },
    "Updated": {
      "Date": "2013-06-25"
    }
  },
  "Criteria": {
    "XMLName": {
      "Space": "http://oval.mitre.org/XMLSchema/oval-definitions-5",
      "Local": "criteria"
    },
    "Operator": "OR",
    "Criterias": [
      {
        "XMLName": {
          "Space": "http://oval.mitre.org/XMLSchema/oval-definitions-5",
          "Local": "criteria"
        },
        "Operator": "AND",
        "Criterias": [
          {
            "XMLName": {
              "Space": "http://oval.mitre.org/XMLSchema/oval-definitions-5",
              "Local": "criteria"
            },
            "Operator": "OR",
            "Criterias": [
              {
                "XMLName": {
                  "Space": "http://oval.mitre.org/XMLSchema/oval-definitions-5",
                  "Local": "criteria"
                },
                "Operator": "AND",
                "Criterias": null,
                "Criterions": [
                  {
                    "XMLName": {
                      "Space": "http://oval.mitre.org/XMLSchema/oval-definitions-5",
                      "Local": "criterion"
                    },
                    "Negate": false,
                    "TestRef": "oval:com.redhat.rhsa:tst:20130983001",
                    "Comment": "curl is earlier than 0:7.19.7-37.el6_4"
                  },
                  {
                    "XMLName": {
                      "Space": "http://oval.mitre.org/XMLSchema/oval-definitions-5",
                      "Local": "criterion"
                    },
                    "Negate": false,
                    "TestRef": "oval:com.redhat.rhsa:tst:20110918002",
                    "Comment": "curl is signed with Red Hat redhatrelease2 key"
                  }
                ]
              },
              {
                "XMLName": {
                  "Space": "http://oval.mitre.org/XMLSchema/oval-definitions-5",
                  "Local": "criteria"
                },
                "Operator": "AND",
                "Criterias": null,
                "Criterions": [
                  {
                    "XMLName": {
                      "Space": "http://oval.mitre.org/XMLSchema/oval-definitions-5",
                      "Local": "criterion"
                    },
                    "Negate": false,
                    "TestRef": "oval:com.redhat.rhsa:tst:20130983003",
                    "Comment": "libcurl is earlier than 0:7.19.7-37.el6_4"
                  },
                  {
                    "XMLName": {
                      "Space": "http://oval.mitre.org/XMLSchema/oval-definitions-5",
                      "Local": "criterion"
                    },
                    "Negate": false,
                    "TestRef": "oval:com.redhat.rhsa:tst:20110918004",
                    "Comment": "libcurl is signed with Red Hat redhatrelease2 key"
                  }
                ]
              },
              {
                "XMLName": {
                  "Space": "http://oval.mitre.org/XMLSchema/oval-definitions-5",
                  "Local": "criteria"
                },
                "Operator": "AND",
                "Criterias": null,
                "Criterions": [
                  {
                    "XMLName": {
                      "Space": "http://oval.mitre.org/XMLSchema/oval-definitions-5",
                      "Local": "criterion"
                    },
                    "Negate": false,
                    "TestRef": "oval:com.redhat.rhsa:tst:20130983005",
                    "Comment": "libcurl-devel is earlier than 0:7.19.7-37.el6_4"
                  },
                  {
                    "XMLName": {
                      "Space": "http://oval.mitre.org/XMLSchema/oval-definitions-5",
                      "Local": "criterion"
                    },
                    "Negate": false,
                    "TestRef": "oval:com.redhat.rhsa:tst:20110918006",
                    "Comment": "libcurl-devel is signed with Red Hat redhatrelease2 key"
                  }
                ]
              }
            ],
            "Criterions": null
          }
        ],
        "Criterions": [
          {
            "XMLName": {
              "Space": "http://oval.mitre.org/XMLSchema/oval-definitions-5",
              "Local": "criterion"
            },
            "Negate": false,
            "TestRef": "oval:com.redhat.rhba:tst:20111656003",
            "Comment": "Red Hat Enterprise Linux 6 is installed"
          }
        ]
      }
    ],
    "Criterions": [
      {
        "XMLName": {
          "Space": "http://oval.mitre.org/XMLSchema/oval-definitions-5",
          "Local": "criterion"
        },
        "Negate": false,
        "TestRef": "oval:com.redhat.rhba:tst:20111656004",
        "Comment": "Red Hat Enterprise Linux must be installed"
      }
    ]
  }
}