{
  "Severity": "HIGH",
  "UpdatedAt": "2020-08-31T18:22:08Z",
  "Package": {
    "Ecosystem": "NPM",
    "Name": "looppake"
  },
  "Advisory": {
    "DatabaseId": 405,
    "Id": "MDE2OlNlY3VyaXR5QWR2aXNvcnlHSFNBLTR2ZmotYzJ4Zi04cjQ4",
    "GhsaId": "GHSA-4vfj-c2xf-8r48",
    "References": [
      {
        "Url": "https://nvd.nist.gov/vuln/detail/CVE-2017-16169"
      },
      {
        "Url": "https://github.com/advisories/GHSA-4vfj-c2xf-8r48"
      }
    ],
    "Identifiers": [
      {
        "Type": "GHSA",
        "Value": "GHSA-4vfj-c2xf-8r48"
      },
      {
        "Type": "CVE",
        "Value": "CVE-2017-16169"
      }
    ],
    "Description": "Affected versions of `looppake` resolve relative file paths, resulting in a directory traversal vulnerability. A malicious actor can use this vulnerability to access files outside of the intended directory root, which may result in the disclosure of private files on the vulnerable system.\n\nExample request:\n```\nGET /../../../../../../../../../../etc/passwd HTTP/1.1\nhost:foo\n```\n\n\n## Recommendation\n\nNo patch is available for this vulnerability.\n\nIt is recommended that the package is only used for local development, and if the functionality is needed for production, a different package is used instead.",
    "Origin": "UNSPECIFIED",
    "PublishedAt": "2018-07-23T20:45:20Z",
    "Severity": "HIGH",
    "Summary": "Directory Traversal in looppake",
    "UpdatedAt": "2020-08-31T18:22:08Z",
    "WithdrawnAt": ""
  },
  "Versions": [
    {
      "FirstPatchedVersion": {
        "Identifier": ""
      },
      "VulnerableVersionRange": "\u003c= 3.0.0"
    }
  ]
}