{
  "Severity": "MODERATE",
  "UpdatedAt": "2020-04-29T22:18:38Z",
  "Package": {
    "Ecosystem": "NPM",
    "Name": "jquery"
  },
  "Advisory": {
    "DatabaseId": 2075,
    "Id": "MDE2OlNlY3VyaXR5QWR2aXNvcnlHSFNBLWd4cjQteGpqNS01cHgy",
    "GhsaId": "GHSA-gxr4-xjj5-5px2",
    "References": [
      {
        "Url": "https://github.com/jquery/jquery/security/advisories/GHSA-gxr4-xjj5-5px2"
      },
      {
        "Url": "https://nvd.nist.gov/vuln/detail/CVE-2020-11022"
      },
      {
        "Url": "https://github.com/advisories/GHSA-gxr4-xjj5-5px2"
      }
    ],
    "Identifiers": [
      {
        "Type": "GHSA",
        "Value": "GHSA-gxr4-xjj5-5px2"
      },
      {
        "Type": "CVE",
        "Value": "CVE-2020-11022"
      }
    ],
    "Description": "### Impact\nPassing HTML from untrusted sources - even after sanitizing it - to one of jQuery's DOM manipulation methods (i.e. `.html()`, `.append()`, and others) may execute untrusted code.\n\n### Patches\nThis problem is patched in jQuery 3.5.0.\n\n### Workarounds\nTo workaround the issue without upgrading, adding the following to your code:\n\n```js\njQuery.htmlPrefilter = function( html ) {\n\treturn html;\n};\n```\n\nYou need to use at least jQuery 1.12/2.2 or newer to be able to apply this workaround.\n\n### References\nhttps://blog.jquery.com/2020/04/10/jquery-3-5-0-released/\nhttps://jquery.com/upgrade-guide/3.5/\n\n### For more information\nIf you have any questions or comments about this advisory, search for a relevant issue in [the jQuery repo](https://github.com/jquery/jquery/issues). If you don't find an answer, open a new issue.",
    "Origin": "UNSPECIFIED",
    "PublishedAt": "2020-04-29T22:18:55Z",
    "Severity": "MODERATE",
    "Summary": "Potential XSS vulnerability in jQuery",
    "UpdatedAt": "2020-11-11T16:00:23Z",
    "WithdrawnAt": ""
  },
  "Versions": [
    {
      "FirstPatchedVersion": {
        "Identifier": "3.5.0"
      },
      "VulnerableVersionRange": "\u003e= 1.2, \u003c 3.5.0"
    }
  ]
}