{
  "Severity": "LOW",
  "UpdatedAt": "2020-11-23T21:16:33Z",
  "Package": {
    "Ecosystem": "COMPOSER",
    "Name": "typo3/cms-core"
  },
  "Advisory": {
    "DatabaseId": 3197,
    "Id": "MDE2OlNlY3VyaXR5QWR2aXNvcnlHSFNBLXE5Y3AtbWM5Ni1tNHcy",
    "GhsaId": "GHSA-q9cp-mc96-m4w2",
    "References": [
      {
        "Url": "https://github.com/TYPO3/TYPO3.CMS/security/advisories/GHSA-q9cp-mc96-m4w2"
      },
      {
        "Url": "https://nvd.nist.gov/vuln/detail/CVE-2020-26229"
      },
      {
        "Url": "https://github.com/advisories/GHSA-q9cp-mc96-m4w2"
      }
    ],
    "Identifiers": [
      {
        "Type": "GHSA",
        "Value": "GHSA-q9cp-mc96-m4w2"
      },
      {
        "Type": "CVE",
        "Value": "CVE-2020-26229"
      }
    ],
    "Description": "### Problem\nIt has been discovered that RSS widgets are susceptible to XML external entity processing.\nThis vulnerability is reasonable, but is theoretical - it was not possible to actually reproduce the vulnerability with current PHP versions of supported and maintained system distributions.\n\nAt least with _libxml2_ version 2.9, the processing of XML external entities is disabled per default - and cannot be exploited. Besides that, a valid backend user account is needed.\n\n### Solution\nUpdate to TYPO3 version 10.4.10 that fixes the problem described.",
    "Origin": "UNSPECIFIED",
    "PublishedAt": "2020-11-23T21:18:44Z",
    "Severity": "LOW",
    "Summary": "XML External Entity in Dashboard Widget",
    "UpdatedAt": "2020-11-23T21:18:44Z",
    "WithdrawnAt": ""
  },
  "Versions": [
    {
      "FirstPatchedVersion": {
        "Identifier": "10.4.10"
      },
      "VulnerableVersionRange": "\u003e= 10.4.0, \u003c 10.4.10"
    }
  ]
}