{
  "XMLName": {
    "Space": "http://oval.mitre.org/XMLSchema/oval-definitions-5",
    "Local": "definition"
  },
  "ID": "oval:com.redhat.rhsa:def:20151455",
  "Class": "patch",
  "Title": "RHSA-2015:1455: thunderbird security update (Important)",
  "Affecteds": [
    {
      "XMLName": {
        "Space": "http://oval.mitre.org/XMLSchema/oval-definitions-5",
        "Local": "affected"
      },
      "Family": "unix",
      "Platforms": [
        "Red Hat Enterprise Linux 6"
      ]
    }
  ],
  "References": [
    {
      "XMLName": {
        "Space": "http://oval.mitre.org/XMLSchema/oval-definitions-5",
        "Local": "reference"
      },
      "Source": "RHSA",
      "RefID": "RHSA-2015:1455",
      "RefURL": "https://access.redhat.com/errata/RHSA-2015:1455"
    },
    {
      "XMLName": {
        "Space": "http://oval.mitre.org/XMLSchema/oval-definitions-5",
        "Local": "reference"
      },
      "Source": "CVE",
      "RefID": "CVE-2015-2724",
      "RefURL": "https://access.redhat.com/security/cve/CVE-2015-2724"
    },
    {
      "XMLName": {
        "Space": "http://oval.mitre.org/XMLSchema/oval-definitions-5",
        "Local": "reference"
      },
      "Source": "CVE",
      "RefID": "CVE-2015-2725",
      "RefURL": "https://access.redhat.com/security/cve/CVE-2015-2725"
    },
    {
      "XMLName": {
        "Space": "http://oval.mitre.org/XMLSchema/oval-definitions-5",
        "Local": "reference"
      },
      "Source": "CVE",
      "RefID": "CVE-2015-2731",
      "RefURL": "https://access.redhat.com/security/cve/CVE-2015-2731"
    },
    {
      "XMLName": {
        "Space": "http://oval.mitre.org/XMLSchema/oval-definitions-5",
        "Local": "reference"
      },
      "Source": "CVE",
      "RefID": "CVE-2015-2734",
      "RefURL": "https://access.redhat.com/security/cve/CVE-2015-2734"
    },
    {
      "XMLName": {
        "Space": "http://oval.mitre.org/XMLSchema/oval-definitions-5",
        "Local": "reference"
      },
      "Source": "CVE",
      "RefID": "CVE-2015-2735",
      "RefURL": "https://access.redhat.com/security/cve/CVE-2015-2735"
    },
    {
      "XMLName": {
        "Space": "http://oval.mitre.org/XMLSchema/oval-definitions-5",
        "Local": "reference"
      },
      "Source": "CVE",
      "RefID": "CVE-2015-2736",
      "RefURL": "https://access.redhat.com/security/cve/CVE-2015-2736"
    },
    {
      "XMLName": {
        "Space": "http://oval.mitre.org/XMLSchema/oval-definitions-5",
        "Local": "reference"
      },
      "Source": "CVE",
      "RefID": "CVE-2015-2737",
      "RefURL": "https://access.redhat.com/security/cve/CVE-2015-2737"
    },
    {
      "XMLName": {
        "Space": "http://oval.mitre.org/XMLSchema/oval-definitions-5",
        "Local": "reference"
      },
      "Source": "CVE",
      "RefID": "CVE-2015-2738",
      "RefURL": "https://access.redhat.com/security/cve/CVE-2015-2738"
    },
    {
      "XMLName": {
        "Space": "http://oval.mitre.org/XMLSchema/oval-definitions-5",
        "Local": "reference"
      },
      "Source": "CVE",
      "RefID": "CVE-2015-2739",
      "RefURL": "https://access.redhat.com/security/cve/CVE-2015-2739"
    },
    {
      "XMLName": {
        "Space": "http://oval.mitre.org/XMLSchema/oval-definitions-5",
        "Local": "reference"
      },
      "Source": "CVE",
      "RefID": "CVE-2015-2740",
      "RefURL": "https://access.redhat.com/security/cve/CVE-2015-2740"
    },
    {
      "XMLName": {
        "Space": "http://oval.mitre.org/XMLSchema/oval-definitions-5",
        "Local": "reference"
      },
      "Source": "CVE",
      "RefID": "CVE-2015-2741",
      "RefURL": "https://access.redhat.com/security/cve/CVE-2015-2741"
    }
  ],
  "Description": "Mozilla Thunderbird is a standalone mail and newsgroup client.\n\nSeveral flaws were found in the processing of malformed web content. A web\npage containing malicious content could cause Thunderbird to crash or,\npotentially, execute arbitrary code with the privileges of the user running\nThunderbird. (CVE-2015-2724, CVE-2015-2725, CVE-2015-2731, CVE-2015-2734,\nCVE-2015-2735, CVE-2015-2736, CVE-2015-2737, CVE-2015-2738, CVE-2015-2739,\nCVE-2015-2740)\n\nIt was found that Thunderbird skipped key-pinning checks when handling an\nerror that could be overridden by the user (for example an expired\ncertificate error). This flaw allowed a user to override a pinned\ncertificate, which is an action the user should not be able to perform.\n(CVE-2015-2741)\n\nNote: All of the above issues cannot be exploited by a specially crafted\nHTML mail message as JavaScript is disabled by default for mail messages.\nThey could be exploited another way in Thunderbird, for example, when\nviewing the full remote content of an RSS feed.\n\nRed Hat would like to thank the Mozilla project for reporting these issues.\nUpstream acknowledges Bob Clary, Christian Holler, Bobby Holley, Andrew\nMcCreight, Herre, Ronald Crane, and David Keeler as the original reporters\nof these issues.\n\nFor technical details regarding these flaws, refer to the Mozilla security\nadvisories for Thunderbird 31.8. You can find a link to the Mozilla\nadvisories in the References section of this erratum.\n\nAll Thunderbird users should upgrade to this updated package, which\ncontains Thunderbird version 31.8, which corrects these issues.\nAfter installing the update, Thunderbird must be restarted for the changes\nto take effect.",
  "Advisory": {
    "XMLName": {
      "Space": "http://oval.mitre.org/XMLSchema/oval-definitions-5",
      "Local": "advisory"
    },
    "Severity": "Important",
    "Cves": [
      {
        "XMLName": {
          "Space": "http://oval.mitre.org/XMLSchema/oval-definitions-5",
          "Local": "cve"
        },
        "CveID": "CVE-2015-2724",
        "Cvss2": "6.8/AV:N/AC:M/Au:N/C:P/I:P/A:P",
        "Cvss3": "",
        "Cwe": "",
        "Impact": "critical",
        "Href": "https://access.redhat.com/security/cve/CVE-2015-2724",
        "Public": "20150702"
      },
      {
        "XMLName": {
          "Space": "http://oval.mitre.org/XMLSchema/oval-definitions-5",
          "Local": "cve"
        },
        "CveID": "CVE-2015-2725",
        "Cvss2": "6.8/AV:N/AC:M/Au:N/C:P/I:P/A:P",
        "Cvss3": "",
        "Cwe": "",
        "Impact": "critical",
        "Href": "https://access.redhat.com/security/cve/CVE-2015-2725",
        "Public": "20150702"
      },
      {
        "XMLName": {
          "Space": "http://oval.mitre.org/XMLSchema/oval-definitions-5",
          "Local": "cve"
        },
        "CveID": "CVE-2015-2731",
        "Cvss2": "6.8/AV:N/AC:M/Au:N/C:P/I:P/A:P",
        "Cvss3": "",
        "Cwe": "CWE-416",
        "Impact": "critical",
        "Href": "https://access.redhat.com/security/cve/CVE-2015-2731",
        "Public": "20150702"
      },
      {
        "XMLName": {
          "Space": "http://oval.mitre.org/XMLSchema/oval-definitions-5",
          "Local": "cve"
        },
        "CveID": "CVE-2015-2734",
        "Cvss2": "6.8/AV:N/AC:M/Au:N/C:P/I:P/A:P",
        "Cvss3": "",
        "Cwe": "",
        "Impact": "critical",
        "Href": "https://access.redhat.com/security/cve/CVE-2015-2734",
        "Public": "20150702"
      },
      {
        "XMLName": {
          "Space": "http://oval.mitre.org/XMLSchema/oval-definitions-5",
          "Local": "cve"
        },
        "CveID": "CVE-2015-2735",
        "Cvss2": "6.8/AV:N/AC:M/Au:N/C:P/I:P/A:P",
        "Cvss3": "",
        "Cwe": "",
        "Impact": "critical",
        "Href": "https://access.redhat.com/security/cve/CVE-2015-2735",
        "Public": "20150702"
      },
      {
        "XMLName": {
          "Space": "http://oval.mitre.org/XMLSchema/oval-definitions-5",
          "Local": "cve"
        },
        "CveID": "CVE-2015-2736",
        "Cvss2": "6.8/AV:N/AC:M/Au:N/C:P/I:P/A:P",
        "Cvss3": "",
        "Cwe": "",
        "Impact": "critical",
        "Href": "https://access.redhat.com/security/cve/CVE-2015-2736",
        "Public": "20150702"
      },
      {
        "XMLName": {
          "Space": "http://oval.mitre.org/XMLSchema/oval-definitions-5",
          "Local": "cve"
        },
        "CveID": "CVE-2015-2737",
        "Cvss2": "6.8/AV:N/AC:M/Au:N/C:P/I:P/A:P",
        "Cvss3": "",
        "Cwe": "",
        "Impact": "critical",
        "Href": "https://access.redhat.com/security/cve/CVE-2015-2737",
        "Public": "20150702"
      },
      {
        "XMLName": {
          "Space": "http://oval.mitre.org/XMLSchema/oval-definitions-5",
          "Local": "cve"
        },
        "CveID": "CVE-2015-2738",
        "Cvss2": "6.8/AV:N/AC:M/Au:N/C:P/I:P/A:P",
        "Cvss3": "",
        "Cwe": "",
        "Impact": "critical",
        "Href": "https://access.redhat.com/security/cve/CVE-2015-2738",
        "Public": "20150702"
      },
      {
        "XMLName": {
          "Space": "http://oval.mitre.org/XMLSchema/oval-definitions-5",
          "Local": "cve"
        },
        "CveID": "CVE-2015-2739",
        "Cvss2": "6.8/AV:N/AC:M/Au:N/C:P/I:P/A:P",
        "Cvss3": "",
        "Cwe": "",
        "Impact": "critical",
        "Href": "https://access.redhat.com/security/cve/CVE-2015-2739",
        "Public": "20150702"
      },
      {
        "XMLName": {
          "Space": "http://oval.mitre.org/XMLSchema/oval-definitions-5",
          "Local": "cve"
        },
        "CveID": "CVE-2015-2740",
        "Cvss2": "6.8/AV:N/AC:M/Au:N/C:P/I:P/A:P",
        "Cvss3": "",
        "Cwe": "",
        "Impact": "critical",
        "Href": "https://access.redhat.com/security/cve/CVE-2015-2740",
        "Public": "20150702"
      },
      {
        "XMLName": {
          "Space": "http://oval.mitre.org/XMLSchema/oval-definitions-5",
          "Local": "cve"
        },
        "CveID": "CVE-2015-2741",
        "Cvss2": "4.3/AV:N/AC:M/Au:N/C:P/I:N/A:N",
        "Cvss3": "",
        "Cwe": "",
        "Impact": "moderate",
        "Href": "https://access.redhat.com/security/cve/CVE-2015-2741",
        "Public": "20150702"
      }
    ],
    "Bugzillas": [
      {
        "XMLName": {
          "Space": "http://oval.mitre.org/XMLSchema/oval-definitions-5",
          "Local": "bugzilla"
        },
        "ID": "1236947",
        "URL": "https://bugzilla.redhat.com/1236947",
        "Title": "CVE-2015-2724 CVE-2015-2725 Mozilla: Miscellaneous memory safety hazards (rv:31.8 / rv:38.1) (MFSA 2015-59)"
      },
      {
        "XMLName": {
          "Space": "http://oval.mitre.org/XMLSchema/oval-definitions-5",
          "Local": "bugzilla"
        },
        "ID": "1236953",
        "URL": "https://bugzilla.redhat.com/1236953",
        "Title": "CVE-2015-2731 Mozilla: Use-after-free in Content Policy due to microtask execution error (MFSA 2015-63)"
      },
      {
        "XMLName": {
          "Space": "http://oval.mitre.org/XMLSchema/oval-definitions-5",
          "Local": "bugzilla"
        },
        "ID": "1236956",
        "URL": "https://bugzilla.redhat.com/1236956",
        "Title": "CVE-2015-2734 CVE-2015-2735 CVE-2015-2736 CVE-2015-2737 CVE-2015-2738 CVE-2015-2739 CVE-2015-2740 Mozilla: Vulnerabilities found through code inspection (MFSA 2015-66)"
      },
      {
        "XMLName": {
          "Space": "http://oval.mitre.org/XMLSchema/oval-definitions-5",
          "Local": "bugzilla"
        },
        "ID": "1236963",
        "URL": "https://bugzilla.redhat.com/1236963",
        "Title": "CVE-2015-2741 Mozilla: Key pinning is ignored when overridable errors are encountered (MFSA 2015-67)"
      }
    ],
    "AffectedCPEList": [
      "cpe:/o:redhat:enterprise_linux:6",
      "cpe:/o:redhat:enterprise_linux:6::client",
      "cpe:/o:redhat:enterprise_linux:6::server",
      "cpe:/o:redhat:enterprise_linux:6::workstation"
    ],
    "Issued": {
      "Date": "2015-07-20"
    },
    "Updated": {
      "Date": "2015-07-20"
    }
  },
  "Criteria": {
    "XMLName": {
      "Space": "http://oval.mitre.org/XMLSchema/oval-definitions-5",
      "Local": "criteria"
    },
    "Operator": "OR",
    "Criterias": [
      {
        "XMLName": {
          "Space": "http://oval.mitre.org/XMLSchema/oval-definitions-5",
          "Local": "criteria"
        },
        "Operator": "AND",
        "Criterias": null,
        "Criterions": [
          {
            "XMLName": {
              "Space": "http://oval.mitre.org/XMLSchema/oval-definitions-5",
              "Local": "criterion"
            },
            "Negate": false,
            "TestRef": "oval:com.redhat.rhba:tst:20111656003",
            "Comment": "Red Hat Enterprise Linux 6 is installed"
          },
          {
            "XMLName": {
              "Space": "http://oval.mitre.org/XMLSchema/oval-definitions-5",
              "Local": "criterion"
            },
            "Negate": false,
            "TestRef": "oval:com.redhat.rhsa:tst:20151455001",
            "Comment": "thunderbird is earlier than 0:31.8.0-1.el6_6"
          },
          {
            "XMLName": {
              "Space": "http://oval.mitre.org/XMLSchema/oval-definitions-5",
              "Local": "criterion"
            },
            "Negate": false,
            "TestRef": "oval:com.redhat.rhsa:tst:20100896002",
            "Comment": "thunderbird is signed with Red Hat redhatrelease2 key"
          }
        ]
      }
    ],
    "Criterions": [
      {
        "XMLName": {
          "Space": "http://oval.mitre.org/XMLSchema/oval-definitions-5",
          "Local": "criterion"
        },
        "Negate": false,
        "TestRef": "oval:com.redhat.rhba:tst:20111656004",
        "Comment": "Red Hat Enterprise Linux must be installed"
      }
    ]
  }
}