{
  "Severity": "HIGH",
  "UpdatedAt": "2020-11-27T20:12:37Z",
  "Package": {
    "Ecosystem": "NUGET",
    "Name": "CefSharp.WinForms"
  },
  "Advisory": {
    "DatabaseId": 3207,
    "Id": "MDE2OlNlY3VyaXR5QWR2aXNvcnlHSFNBLXg3ZngtbWNjOS0yN2o3",
    "GhsaId": "GHSA-x7fx-mcc9-27j7",
    "References": [
      {
        "Url": "https://github.com/cefsharp/CefSharp/security/advisories/GHSA-x7fx-mcc9-27j7"
      },
      {
        "Url": "https://nvd.nist.gov/vuln/detail/CVE-2020-16013"
      },
      {
        "Url": "https://github.com/advisories/GHSA-x7fx-mcc9-27j7"
      }
    ],
    "Identifiers": [
      {
        "Type": "GHSA",
        "Value": "GHSA-x7fx-mcc9-27j7"
      },
      {
        "Type": "CVE",
        "Value": "CVE-2020-16013"
      }
    ],
    "Description": "High CVE-2020-16013: Inappropriate implementation in V8. \n\n- https://chromereleases.googleblog.com/2020/11/stable-channel-update-for-desktop_11.html\n- https://cve.mitre.org/cgi-bin/cvename.cgi?name=CVE-2020-16013\n\nGoogle is aware of reports that exploits for CVE-2020-16013 and CVE-2020-16017 exist in the wild.\n\nThere is currently little to no public information on the issue other than it has been flagged as `High` severity.",
    "Origin": "UNSPECIFIED",
    "PublishedAt": "2020-11-27T20:12:55Z",
    "Severity": "HIGH",
    "Summary": "Inappropriate implementation in V8 in CefSharp",
    "UpdatedAt": "2020-11-27T20:12:55Z",
    "WithdrawnAt": ""
  },
  "Versions": [
    {
      "FirstPatchedVersion": {
        "Identifier": "86.0.241"
      },
      "VulnerableVersionRange": "\u003c 86.0.241"
    }
  ]
}