{
  "Severity": "HIGH",
  "UpdatedAt": "2020-10-06T14:12:18Z",
  "Package": {
    "Ecosystem": "NPM",
    "Name": "electron"
  },
  "Advisory": {
    "DatabaseId": 3125,
    "Id": "MDE2OlNlY3VyaXR5QWR2aXNvcnlHSFNBLTJxNGctdzQ3Yy00Njc0",
    "GhsaId": "GHSA-2q4g-w47c-4674",
    "References": [
      {
        "Url": "https://github.com/electron/electron/security/advisories/GHSA-2q4g-w47c-4674"
      },
      {
        "Url": "https://nvd.nist.gov/vuln/detail/CVE-2020-15174"
      },
      {
        "Url": "https://github.com/advisories/GHSA-2q4g-w47c-4674"
      }
    ],
    "Identifiers": [
      {
        "Type": "GHSA",
        "Value": "GHSA-2q4g-w47c-4674"
      },
      {
        "Type": "CVE",
        "Value": "CVE-2020-15174"
      }
    ],
    "Description": "### Impact\nThe `will-navigate` event that apps use to prevent navigations to unexpected destinations [as per our security recommendations](https://www.electronjs.org/docs/tutorial/security) can be bypassed when a sub-frame performs a top-frame navigation across sites.\n\n### Patches\n\n* `11.0.0-beta.1`\n* `10.0.1`\n* `9.3.0`\n* `8.5.1`\n\n### Workarounds\nSandbox all your iframes using the [`sandbox` attribute](https://developer.mozilla.org/en-US/docs/Web/HTML/Element/iframe#attr-sandbox).  This will prevent them creating top-frame navigations and is good practice anyway.\n\n### For more information\nIf you have any questions or comments about this advisory:\n\n* Email us at security@electronjs.org",
    "Origin": "UNSPECIFIED",
    "PublishedAt": "2020-10-06T14:24:04Z",
    "Severity": "HIGH",
    "Summary": "Unpreventable top-level navigation",
    "UpdatedAt": "2020-10-06T14:24:04Z",
    "WithdrawnAt": ""
  },
  "Versions": [
    {
      "FirstPatchedVersion": {
        "Identifier": "10.0.1"
      },
      "VulnerableVersionRange": "\u003e= 10.0.0-beta.0, \u003c 10.0.1"
    },
    {
      "FirstPatchedVersion": {
        "Identifier": "9.3.0"
      },
      "VulnerableVersionRange": "\u003e= 9.0.0-beta.0, \u003c 9.3.0"
    },
    {
      "FirstPatchedVersion": {
        "Identifier": "8.5.1"
      },
      "VulnerableVersionRange": "\u003e= 8.0.0-beta.0, \u003c 8.5.1"
    }
  ]
}