{
  "Severity": "LOW",
  "UpdatedAt": "2020-10-14T17:07:12Z",
  "Package": {
    "Ecosystem": "MAVEN",
    "Name": "junit:junit"
  },
  "Advisory": {
    "DatabaseId": 3134,
    "Id": "MDE2OlNlY3VyaXR5QWR2aXNvcnlHSFNBLTI2OWctcHdwNS04N3Bw",
    "GhsaId": "GHSA-269g-pwp5-87pp",
    "References": [
      {
        "Url": "https://github.com/junit-team/junit4/security/advisories/GHSA-269g-pwp5-87pp"
      },
      {
        "Url": "https://nvd.nist.gov/vuln/detail/CVE-2020-15250"
      },
      {
        "Url": "https://github.com/advisories/GHSA-269g-pwp5-87pp"
      }
    ],
    "Identifiers": [
      {
        "Type": "GHSA",
        "Value": "GHSA-269g-pwp5-87pp"
      },
      {
        "Type": "CVE",
        "Value": "CVE-2020-15250"
      }
    ],
    "Description": "### Vulnerability\n\nThe JUnit4 test rule [TemporaryFolder](https://junit.org/junit4/javadoc/4.13/org/junit/rules/TemporaryFolder.html) contains a local information disclosure vulnerability.\n\nExample of vulnerable code:\n```java\npublic static class HasTempFolder {\n    @Rule\n    public TemporaryFolder folder = new TemporaryFolder();\n\n    @Test\n    public void testUsingTempFolder() throws IOException {\n        folder.getRoot(); // Previous file permissions: `drwxr-xr-x`; After fix:`drwx------`\n        File createdFile= folder.newFile(\"myfile.txt\"); // unchanged/irrelevant file permissions\n        File createdFolder= folder.newFolder(\"subfolder\"); // unchanged/irrelevant file permissions\n        // ...\n    }\n}\n```\n\n### Impact\n\nOn Unix like systems, the system's temporary directory is shared between all users on that system. Because of this, when files and directories are written into this directory they are, by default, readable by other users on that same system.\n\nThis vulnerability **does not** allow other users to overwrite the contents of these directories or files. This is purely an information disclosure vulnerability.\n\nWhen analyzing the impact of this vulnerability, here are the important questions to ask:\n\n1. Do the JUnit tests write sensitive information, like API keys or passwords, into the temporary folder?\n    - If yes, this vulnerability impacts you, but only if you also answer 'yes' to question 2.\n    - If no, this vulnerability does not impact you.\n2. Do the JUnit tests ever execute in an environment where the OS has other untrusted users. \n    _This may apply in CI/CD environments but normally won't be 'yes' for personal developer machines._\n    - If yes, and you answered 'yes' to question 1, this vulnerability impacts you.\n    - If no, this vulnerability does not impact you.\n\n### Patches\n\nBecause certain JDK file system APIs were only added in JDK 1.7, this this fix is dependent upon the version of the JDK you are using.\n - Java 1.7 and higher users: this vulnerability is fixed in 4.13.1.\n - Java 1.6 and lower users: **no patch is available, you must use the workaround below.**\n\n### Workarounds\n\nIf you are unable to patch, or are stuck running on Java 1.6, specifying the `java.io.tmpdir` system environment variable to a directory that is exclusively owned by the executing user will fix this vulnerability.\n\n### References\n- [CWE-200: Exposure of Sensitive Information to an Unauthorized Actor](https://cwe.mitre.org/data/definitions/200.html)\n- Fix commit https://github.com/junit-team/junit4/commit/610155b8c22138329f0723eec22521627dbc52ae\n\n#### Similar Vulnerabilities\n - Google Guava - https://github.com/google/guava/issues/4011\n - Apache Ant - https://nvd.nist.gov/vuln/detail/CVE-2020-1945\n - JetBrains Kotlin Compiler - https://nvd.nist.gov/vuln/detail/CVE-2020-15824\n\n### For more information\nIf you have any questions or comments about this advisory, please pen an issue in [junit-team/junit4](https://github.com/junit-team/junit4/issues).",
    "Origin": "UNSPECIFIED",
    "PublishedAt": "2020-10-12T17:33:00Z",
    "Severity": "LOW",
    "Summary": "TemporaryFolder on unix-like systems does not limit access to created files",
    "UpdatedAt": "2020-10-14T17:07:12Z",
    "WithdrawnAt": ""
  },
  "Versions": [
    {
      "FirstPatchedVersion": {
        "Identifier": "4.13.1"
      },
      "VulnerableVersionRange": "\u003e= 4.7, \u003c 4.13.1"
    }
  ]
}