{
  "XMLName": {
    "Space": "http://oval.mitre.org/XMLSchema/oval-definitions-5",
    "Local": "definition"
  },
  "ID": "oval:com.redhat.rhsa:def:20204847",
  "Class": "patch",
  "Title": "RHSA-2020:4847: pki-core:10.6 and pki-deps:10.6 security, bug fix, and enhancement update (Moderate)",
  "Affecteds": [
    {
      "XMLName": {
        "Space": "http://oval.mitre.org/XMLSchema/oval-definitions-5",
        "Local": "affected"
      },
      "Family": "unix",
      "Platforms": [
        "Red Hat Enterprise Linux 8"
      ]
    }
  ],
  "References": [
    {
      "XMLName": {
        "Space": "http://oval.mitre.org/XMLSchema/oval-definitions-5",
        "Local": "reference"
      },
      "Source": "RHSA",
      "RefID": "RHSA-2020:4847",
      "RefURL": "https://access.redhat.com/errata/RHSA-2020:4847"
    },
    {
      "XMLName": {
        "Space": "http://oval.mitre.org/XMLSchema/oval-definitions-5",
        "Local": "reference"
      },
      "Source": "CVE",
      "RefID": "CVE-2015-9251",
      "RefURL": "https://access.redhat.com/security/cve/CVE-2015-9251"
    },
    {
      "XMLName": {
        "Space": "http://oval.mitre.org/XMLSchema/oval-definitions-5",
        "Local": "reference"
      },
      "Source": "CVE",
      "RefID": "CVE-2016-10735",
      "RefURL": "https://access.redhat.com/security/cve/CVE-2016-10735"
    },
    {
      "XMLName": {
        "Space": "http://oval.mitre.org/XMLSchema/oval-definitions-5",
        "Local": "reference"
      },
      "Source": "CVE",
      "RefID": "CVE-2018-14040",
      "RefURL": "https://access.redhat.com/security/cve/CVE-2018-14040"
    },
    {
      "XMLName": {
        "Space": "http://oval.mitre.org/XMLSchema/oval-definitions-5",
        "Local": "reference"
      },
      "Source": "CVE",
      "RefID": "CVE-2018-14042",
      "RefURL": "https://access.redhat.com/security/cve/CVE-2018-14042"
    },
    {
      "XMLName": {
        "Space": "http://oval.mitre.org/XMLSchema/oval-definitions-5",
        "Local": "reference"
      },
      "Source": "CVE",
      "RefID": "CVE-2019-10146",
      "RefURL": "https://access.redhat.com/security/cve/CVE-2019-10146"
    },
    {
      "XMLName": {
        "Space": "http://oval.mitre.org/XMLSchema/oval-definitions-5",
        "Local": "reference"
      },
      "Source": "CVE",
      "RefID": "CVE-2019-10179",
      "RefURL": "https://access.redhat.com/security/cve/CVE-2019-10179"
    },
    {
      "XMLName": {
        "Space": "http://oval.mitre.org/XMLSchema/oval-definitions-5",
        "Local": "reference"
      },
      "Source": "CVE",
      "RefID": "CVE-2019-10221",
      "RefURL": "https://access.redhat.com/security/cve/CVE-2019-10221"
    },
    {
      "XMLName": {
        "Space": "http://oval.mitre.org/XMLSchema/oval-definitions-5",
        "Local": "reference"
      },
      "Source": "CVE",
      "RefID": "CVE-2019-11358",
      "RefURL": "https://access.redhat.com/security/cve/CVE-2019-11358"
    },
    {
      "XMLName": {
        "Space": "http://oval.mitre.org/XMLSchema/oval-definitions-5",
        "Local": "reference"
      },
      "Source": "CVE",
      "RefID": "CVE-2019-8331",
      "RefURL": "https://access.redhat.com/security/cve/CVE-2019-8331"
    },
    {
      "XMLName": {
        "Space": "http://oval.mitre.org/XMLSchema/oval-definitions-5",
        "Local": "reference"
      },
      "Source": "CVE",
      "RefID": "CVE-2020-11022",
      "RefURL": "https://access.redhat.com/security/cve/CVE-2020-11022"
    },
    {
      "XMLName": {
        "Space": "http://oval.mitre.org/XMLSchema/oval-definitions-5",
        "Local": "reference"
      },
      "Source": "CVE",
      "RefID": "CVE-2020-11023",
      "RefURL": "https://access.redhat.com/security/cve/CVE-2020-11023"
    },
    {
      "XMLName": {
        "Space": "http://oval.mitre.org/XMLSchema/oval-definitions-5",
        "Local": "reference"
      },
      "Source": "CVE",
      "RefID": "CVE-2020-15720",
      "RefURL": "https://access.redhat.com/security/cve/CVE-2020-15720"
    },
    {
      "XMLName": {
        "Space": "http://oval.mitre.org/XMLSchema/oval-definitions-5",
        "Local": "reference"
      },
      "Source": "CVE",
      "RefID": "CVE-2020-1721",
      "RefURL": "https://access.redhat.com/security/cve/CVE-2020-1721"
    }
  ],
  "Description": "The Public Key Infrastructure (PKI) Core contains fundamental packages required by Red Hat Certificate System.\n\nSecurity Fix(es):\n\n* jquery: Cross-site scripting via cross-domain ajax requests (CVE-2015-9251)\n\n* bootstrap: XSS in the data-target attribute (CVE-2016-10735)\n\n* bootstrap: Cross-site Scripting (XSS) in the collapse data-parent attribute (CVE-2018-14040)\n\n* bootstrap: Cross-site Scripting (XSS) in the data-container property of tooltip (CVE-2018-14042)\n\n* bootstrap: XSS in the tooltip or popover data-template attribute (CVE-2019-8331)\n\n* jquery: Prototype pollution in object's prototype leading to denial of service, remote code execution, or property injection (CVE-2019-11358)\n\n* jquery: Cross-site scripting due to improper injQuery.htmlPrefilter method (CVE-2020-11022)\n\n* jquery: Passing HTML containing \u003coption\u003e elements to manipulation methods could result in untrusted code execution (CVE-2020-11023)\n\n* pki: Dogtag's python client does not validate certificates (CVE-2020-15720)\n\n* pki-core: Reflected XSS in 'path length' constraint field in CA's Agent page (CVE-2019-10146)\n\n* pki-core/pki-kra: Reflected XSS in recoveryID search field at KRA's DRM agent page in authorize recovery tab (CVE-2019-10179)\n\n* pki-core: Reflected XSS in getcookies?url= endpoint in CA (CVE-2019-10221)\n\n* pki-core: KRA vulnerable to reflected XSS via the getPk12 page (CVE-2020-1721)\n\nFor more details about the security issue(s), including the impact, a CVSS score, acknowledgments, and other related information, refer to the CVE page(s) listed in the References section.\n\nAdditional Changes:\n\nFor detailed information on changes in this release, see the Red Hat Enterprise Linux 8.3 Release Notes linked from the References section.",
  "Advisory": {
    "XMLName": {
      "Space": "http://oval.mitre.org/XMLSchema/oval-definitions-5",
      "Local": "advisory"
    },
    "Severity": "Moderate",
    "Cves": [
      {
        "XMLName": {
          "Space": "http://oval.mitre.org/XMLSchema/oval-definitions-5",
          "Local": "cve"
        },
        "CveID": "CVE-2015-9251",
        "Cvss2": "4.3/AV:N/AC:M/Au:N/C:N/I:P/A:N",
        "Cvss3": "6.1/CVSS:3.0/AV:N/AC:L/PR:N/UI:R/S:C/C:L/I:L/A:N",
        "Cwe": "CWE-79",
        "Impact": "",
        "Href": "https://access.redhat.com/security/cve/CVE-2015-9251",
        "Public": "20150627"
      },
      {
        "XMLName": {
          "Space": "http://oval.mitre.org/XMLSchema/oval-definitions-5",
          "Local": "cve"
        },
        "CveID": "CVE-2016-10735",
        "Cvss2": "",
        "Cvss3": "6.1/CVSS:3.0/AV:N/AC:L/PR:N/UI:R/S:C/C:L/I:L/A:N",
        "Cwe": "CWE-79",
        "Impact": "",
        "Href": "https://access.redhat.com/security/cve/CVE-2016-10735",
        "Public": "20160627"
      },
      {
        "XMLName": {
          "Space": "http://oval.mitre.org/XMLSchema/oval-definitions-5",
          "Local": "cve"
        },
        "CveID": "CVE-2018-14040",
        "Cvss2": "",
        "Cvss3": "6.1/CVSS:3.0/AV:N/AC:L/PR:N/UI:R/S:C/C:L/I:L/A:N",
        "Cwe": "CWE-79",
        "Impact": "",
        "Href": "https://access.redhat.com/security/cve/CVE-2018-14040",
        "Public": "20180529"
      },
      {
        "XMLName": {
          "Space": "http://oval.mitre.org/XMLSchema/oval-definitions-5",
          "Local": "cve"
        },
        "CveID": "CVE-2018-14042",
        "Cvss2": "",
        "Cvss3": "6.1/CVSS:3.0/AV:N/AC:L/PR:N/UI:R/S:C/C:L/I:L/A:N",
        "Cwe": "CWE-79",
        "Impact": "",
        "Href": "https://access.redhat.com/security/cve/CVE-2018-14042",
        "Public": "20180529"
      },
      {
        "XMLName": {
          "Space": "http://oval.mitre.org/XMLSchema/oval-definitions-5",
          "Local": "cve"
        },
        "CveID": "CVE-2019-10146",
        "Cvss2": "",
        "Cvss3": "4.7/CVSS:3.0/AV:N/AC:H/PR:N/UI:R/S:C/C:L/I:L/A:N",
        "Cwe": "CWE-79",
        "Impact": "low",
        "Href": "https://access.redhat.com/security/cve/CVE-2019-10146",
        "Public": "20200203"
      },
      {
        "XMLName": {
          "Space": "http://oval.mitre.org/XMLSchema/oval-definitions-5",
          "Local": "cve"
        },
        "CveID": "CVE-2019-10179",
        "Cvss2": "",
        "Cvss3": "4.3/CVSS:3.1/AV:N/AC:L/PR:N/UI:R/S:U/C:N/I:L/A:N",
        "Cwe": "CWE-79",
        "Impact": "low",
        "Href": "https://access.redhat.com/security/cve/CVE-2019-10179",
        "Public": "20200203"
      },
      {
        "XMLName": {
          "Space": "http://oval.mitre.org/XMLSchema/oval-definitions-5",
          "Local": "cve"
        },
        "CveID": "CVE-2019-10221",
        "Cvss2": "",
        "Cvss3": "4.3/CVSS:3.1/AV:N/AC:L/PR:N/UI:R/S:U/C:L/I:N/A:N",
        "Cwe": "CWE-79",
        "Impact": "low",
        "Href": "https://access.redhat.com/security/cve/CVE-2019-10221",
        "Public": "20200203"
      },
      {
        "XMLName": {
          "Space": "http://oval.mitre.org/XMLSchema/oval-definitions-5",
          "Local": "cve"
        },
        "CveID": "CVE-2019-11358",
        "Cvss2": "",
        "Cvss3": "5.6/CVSS:3.0/AV:N/AC:H/PR:N/UI:N/S:U/C:L/I:L/A:L",
        "Cwe": "CWE-79",
        "Impact": "",
        "Href": "https://access.redhat.com/security/cve/CVE-2019-11358",
        "Public": "20190327"
      },
      {
        "XMLName": {
          "Space": "http://oval.mitre.org/XMLSchema/oval-definitions-5",
          "Local": "cve"
        },
        "CveID": "CVE-2019-8331",
        "Cvss2": "",
        "Cvss3": "6.1/CVSS:3.0/AV:N/AC:L/PR:N/UI:R/S:C/C:L/I:L/A:N",
        "Cwe": "CWE-79",
        "Impact": "",
        "Href": "https://access.redhat.com/security/cve/CVE-2019-8331",
        "Public": "20190211"
      },
      {
        "XMLName": {
          "Space": "http://oval.mitre.org/XMLSchema/oval-definitions-5",
          "Local": "cve"
        },
        "CveID": "CVE-2020-11022",
        "Cvss2": "",
        "Cvss3": "6.1/CVSS:3.1/AV:N/AC:L/PR:N/UI:R/S:C/C:L/I:L/A:N",
        "Cwe": "CWE-79",
        "Impact": "",
        "Href": "https://access.redhat.com/security/cve/CVE-2020-11022",
        "Public": "20200423"
      },
      {
        "XMLName": {
          "Space": "http://oval.mitre.org/XMLSchema/oval-definitions-5",
          "Local": "cve"
        },
        "CveID": "CVE-2020-11023",
        "Cvss2": "",
        "Cvss3": "6.1/CVSS:3.1/AV:N/AC:L/PR:N/UI:R/S:C/C:L/I:L/A:N",
        "Cwe": "CWE-79",
        "Impact": "",
        "Href": "https://access.redhat.com/security/cve/CVE-2020-11023",
        "Public": "20200429"
      },
      {
        "XMLName": {
          "Space": "http://oval.mitre.org/XMLSchema/oval-definitions-5",
          "Local": "cve"
        },
        "CveID": "CVE-2020-15720",
        "Cvss2": "",
        "Cvss3": "6.8/CVSS:3.1/AV:N/AC:H/PR:N/UI:R/S:U/C:H/I:H/A:N",
        "Cwe": "CWE-295",
        "Impact": "",
        "Href": "https://access.redhat.com/security/cve/CVE-2020-15720",
        "Public": "20200623"
      },
      {
        "XMLName": {
          "Space": "http://oval.mitre.org/XMLSchema/oval-definitions-5",
          "Local": "cve"
        },
        "CveID": "CVE-2020-1721",
        "Cvss2": "",
        "Cvss3": "4.3/CVSS:3.1/AV:N/AC:L/PR:N/UI:R/S:U/C:L/I:N/A:N",
        "Cwe": "CWE-79",
        "Impact": "low",
        "Href": "https://access.redhat.com/security/cve/CVE-2020-1721",
        "Public": "20200203"
      }
    ],
    "Bugzillas": [
      {
        "XMLName": {
          "Space": "http://oval.mitre.org/XMLSchema/oval-definitions-5",
          "Local": "bugzilla"
        },
        "ID": "1376706",
        "URL": "https://bugzilla.redhat.com/1376706",
        "Title": "restore SerialNumber tag in caManualRenewal xml"
      },
      {
        "XMLName": {
          "Space": "http://oval.mitre.org/XMLSchema/oval-definitions-5",
          "Local": "bugzilla"
        },
        "ID": "1399546",
        "URL": "https://bugzilla.redhat.com/1399546",
        "Title": "CVE-2015-9251 jquery: Cross-site scripting via cross-domain ajax requests"
      },
      {
        "XMLName": {
          "Space": "http://oval.mitre.org/XMLSchema/oval-definitions-5",
          "Local": "bugzilla"
        },
        "ID": "1406505",
        "URL": "https://bugzilla.redhat.com/1406505",
        "Title": "KRA ECC installation failed with shared tomcat"
      },
      {
        "XMLName": {
          "Space": "http://oval.mitre.org/XMLSchema/oval-definitions-5",
          "Local": "bugzilla"
        },
        "ID": "1601614",
        "URL": "https://bugzilla.redhat.com/1601614",
        "Title": "CVE-2018-14040 bootstrap: Cross-site Scripting (XSS) in the collapse data-parent attribute"
      },
      {
        "XMLName": {
          "Space": "http://oval.mitre.org/XMLSchema/oval-definitions-5",
          "Local": "bugzilla"
        },
        "ID": "1601617",
        "URL": "https://bugzilla.redhat.com/1601617",
        "Title": "CVE-2018-14042 bootstrap: Cross-site Scripting (XSS) in the data-container property of tooltip"
      },
      {
        "XMLName": {
          "Space": "http://oval.mitre.org/XMLSchema/oval-definitions-5",
          "Local": "bugzilla"
        },
        "ID": "1666907",
        "URL": "https://bugzilla.redhat.com/1666907",
        "Title": "CC: Enable AIA OCSP cert checking for entire cert chain"
      },
      {
        "XMLName": {
          "Space": "http://oval.mitre.org/XMLSchema/oval-definitions-5",
          "Local": "bugzilla"
        },
        "ID": "1668097",
        "URL": "https://bugzilla.redhat.com/1668097",
        "Title": "CVE-2016-10735 bootstrap: XSS in the data-target attribute"
      },
      {
        "XMLName": {
          "Space": "http://oval.mitre.org/XMLSchema/oval-definitions-5",
          "Local": "bugzilla"
        },
        "ID": "1686454",
        "URL": "https://bugzilla.redhat.com/1686454",
        "Title": "CVE-2019-8331 bootstrap: XSS in the tooltip or popover data-template attribute"
      },
      {
        "XMLName": {
          "Space": "http://oval.mitre.org/XMLSchema/oval-definitions-5",
          "Local": "bugzilla"
        },
        "ID": "1695901",
        "URL": "https://bugzilla.redhat.com/1695901",
        "Title": "CVE-2019-10179 pki-core/pki-kra: Reflected XSS in recoveryID search field at KRA's DRM agent page in authorize recovery tab"
      },
      {
        "XMLName": {
          "Space": "http://oval.mitre.org/XMLSchema/oval-definitions-5",
          "Local": "bugzilla"
        },
        "ID": "1701972",
        "URL": "https://bugzilla.redhat.com/1701972",
        "Title": "CVE-2019-11358 jquery: Prototype pollution in object's prototype leading to denial of service, remote code execution, or property injection"
      },
      {
        "XMLName": {
          "Space": "http://oval.mitre.org/XMLSchema/oval-definitions-5",
          "Local": "bugzilla"
        },
        "ID": "1706521",
        "URL": "https://bugzilla.redhat.com/1706521",
        "Title": "CA - SubjectAltNameExtInput does not display text fields to the enrollment page"
      },
      {
        "XMLName": {
          "Space": "http://oval.mitre.org/XMLSchema/oval-definitions-5",
          "Local": "bugzilla"
        },
        "ID": "1710171",
        "URL": "https://bugzilla.redhat.com/1710171",
        "Title": "CVE-2019-10146 pki-core: Reflected XSS in 'path length' constraint field in CA's Agent page"
      },
      {
        "XMLName": {
          "Space": "http://oval.mitre.org/XMLSchema/oval-definitions-5",
          "Local": "bugzilla"
        },
        "ID": "1721684",
        "URL": "https://bugzilla.redhat.com/1721684",
        "Title": "Rebase pki-servlet-engine to 9.0.30"
      },
      {
        "XMLName": {
          "Space": "http://oval.mitre.org/XMLSchema/oval-definitions-5",
          "Local": "bugzilla"
        },
        "ID": "1724433",
        "URL": "https://bugzilla.redhat.com/1724433",
        "Title": "caTransportCert.cfg  contains MD2/MD5withRSA as signingAlgsAllowed."
      },
      {
        "XMLName": {
          "Space": "http://oval.mitre.org/XMLSchema/oval-definitions-5",
          "Local": "bugzilla"
        },
        "ID": "1732565",
        "URL": "https://bugzilla.redhat.com/1732565",
        "Title": "CVE-2019-10221 pki-core: Reflected XSS in getcookies?url= endpoint in CA"
      },
      {
        "XMLName": {
          "Space": "http://oval.mitre.org/XMLSchema/oval-definitions-5",
          "Local": "bugzilla"
        },
        "ID": "1732981",
        "URL": "https://bugzilla.redhat.com/1732981",
        "Title": "When nuxwdog is enabled pkidaemon status shows instances as stopped."
      },
      {
        "XMLName": {
          "Space": "http://oval.mitre.org/XMLSchema/oval-definitions-5",
          "Local": "bugzilla"
        },
        "ID": "1777579",
        "URL": "https://bugzilla.redhat.com/1777579",
        "Title": "CVE-2020-1721 pki-core: KRA vulnerable to reflected XSS via the getPk12 page"
      },
      {
        "XMLName": {
          "Space": "http://oval.mitre.org/XMLSchema/oval-definitions-5",
          "Local": "bugzilla"
        },
        "ID": "1805541",
        "URL": "https://bugzilla.redhat.com/1805541",
        "Title": "[RFE] CA Certificate Transparency with Embedded Signed Certificate Time stamp"
      },
      {
        "XMLName": {
          "Space": "http://oval.mitre.org/XMLSchema/oval-definitions-5",
          "Local": "bugzilla"
        },
        "ID": "1817247",
        "URL": "https://bugzilla.redhat.com/1817247",
        "Title": "Upgrade to 10.8.3 breaks PKI Tomcat Server"
      },
      {
        "XMLName": {
          "Space": "http://oval.mitre.org/XMLSchema/oval-definitions-5",
          "Local": "bugzilla"
        },
        "ID": "1821851",
        "URL": "https://bugzilla.redhat.com/1821851",
        "Title": "[RFE] Provide SSLEngine via JSSProvider for use with PKI"
      },
      {
        "XMLName": {
          "Space": "http://oval.mitre.org/XMLSchema/oval-definitions-5",
          "Local": "bugzilla"
        },
        "ID": "1822246",
        "URL": "https://bugzilla.redhat.com/1822246",
        "Title": "JSS - NativeProxy never calls releaseNativeResources - Memory Leak"
      },
      {
        "XMLName": {
          "Space": "http://oval.mitre.org/XMLSchema/oval-definitions-5",
          "Local": "bugzilla"
        },
        "ID": "1824939",
        "URL": "https://bugzilla.redhat.com/1824939",
        "Title": "JSS: add RSA PSS support - RHEL 8.3"
      },
      {
        "XMLName": {
          "Space": "http://oval.mitre.org/XMLSchema/oval-definitions-5",
          "Local": "bugzilla"
        },
        "ID": "1824948",
        "URL": "https://bugzilla.redhat.com/1824948",
        "Title": "add RSA PSS support - RHEL 8.3"
      },
      {
        "XMLName": {
          "Space": "http://oval.mitre.org/XMLSchema/oval-definitions-5",
          "Local": "bugzilla"
        },
        "ID": "1825998",
        "URL": "https://bugzilla.redhat.com/1825998",
        "Title": "CertificatePoliciesExtDefault MAX_NUM_POLICIES hardcoded limit"
      },
      {
        "XMLName": {
          "Space": "http://oval.mitre.org/XMLSchema/oval-definitions-5",
          "Local": "bugzilla"
        },
        "ID": "1828406",
        "URL": "https://bugzilla.redhat.com/1828406",
        "Title": "CVE-2020-11022 jquery: Cross-site scripting due to improper injQuery.htmlPrefilter method"
      },
      {
        "XMLName": {
          "Space": "http://oval.mitre.org/XMLSchema/oval-definitions-5",
          "Local": "bugzilla"
        },
        "ID": "1842734",
        "URL": "https://bugzilla.redhat.com/1842734",
        "Title": "CVE-2019-10179 pki-core: pki-core/pki-kra: Reflected XSS in recoveryID search field at KRA's DRM agent page in authorize recovery tab [rhel-8]"
      },
      {
        "XMLName": {
          "Space": "http://oval.mitre.org/XMLSchema/oval-definitions-5",
          "Local": "bugzilla"
        },
        "ID": "1842736",
        "URL": "https://bugzilla.redhat.com/1842736",
        "Title": "CVE-2019-10146 pki-core: Reflected Cross-Site Scripting in 'path length' constraint field in CA's Agent page [rhel-8]"
      },
      {
        "XMLName": {
          "Space": "http://oval.mitre.org/XMLSchema/oval-definitions-5",
          "Local": "bugzilla"
        },
        "ID": "1843537",
        "URL": "https://bugzilla.redhat.com/1843537",
        "Title": "Able to Perform PKI CLI operations like cert request and approval without nssdb password"
      },
      {
        "XMLName": {
          "Space": "http://oval.mitre.org/XMLSchema/oval-definitions-5",
          "Local": "bugzilla"
        },
        "ID": "1845447",
        "URL": "https://bugzilla.redhat.com/1845447",
        "Title": "pkispawn fails in FIPS mode: AJP connector has secretRequired=\"true\" but no secret"
      },
      {
        "XMLName": {
          "Space": "http://oval.mitre.org/XMLSchema/oval-definitions-5",
          "Local": "bugzilla"
        },
        "ID": "1850004",
        "URL": "https://bugzilla.redhat.com/1850004",
        "Title": "CVE-2020-11023 jquery: Passing HTML containing \u003coption\u003e elements to manipulation methods could result in untrusted code execution"
      },
      {
        "XMLName": {
          "Space": "http://oval.mitre.org/XMLSchema/oval-definitions-5",
          "Local": "bugzilla"
        },
        "ID": "1854043",
        "URL": "https://bugzilla.redhat.com/1854043",
        "Title": "/usr/bin/PrettyPrintCert is failing with a ClassNotFoundException"
      },
      {
        "XMLName": {
          "Space": "http://oval.mitre.org/XMLSchema/oval-definitions-5",
          "Local": "bugzilla"
        },
        "ID": "1854959",
        "URL": "https://bugzilla.redhat.com/1854959",
        "Title": "ca-profile-add with Netscape extensions nsCertSSLClient and nsCertEmail in the profile gets stuck in processing"
      },
      {
        "XMLName": {
          "Space": "http://oval.mitre.org/XMLSchema/oval-definitions-5",
          "Local": "bugzilla"
        },
        "ID": "1855273",
        "URL": "https://bugzilla.redhat.com/1855273",
        "Title": "CVE-2020-15720 pki: Dogtag's python client does not validate certificates"
      },
      {
        "XMLName": {
          "Space": "http://oval.mitre.org/XMLSchema/oval-definitions-5",
          "Local": "bugzilla"
        },
        "ID": "1855319",
        "URL": "https://bugzilla.redhat.com/1855319",
        "Title": "Not able to launch pkiconsole"
      },
      {
        "XMLName": {
          "Space": "http://oval.mitre.org/XMLSchema/oval-definitions-5",
          "Local": "bugzilla"
        },
        "ID": "1856368",
        "URL": "https://bugzilla.redhat.com/1856368",
        "Title": "kra-key-generate request is failing"
      },
      {
        "XMLName": {
          "Space": "http://oval.mitre.org/XMLSchema/oval-definitions-5",
          "Local": "bugzilla"
        },
        "ID": "1857933",
        "URL": "https://bugzilla.redhat.com/1857933",
        "Title": "CA Installation is failing with ncipher v12.30 HSM"
      },
      {
        "XMLName": {
          "Space": "http://oval.mitre.org/XMLSchema/oval-definitions-5",
          "Local": "bugzilla"
        },
        "ID": "1861911",
        "URL": "https://bugzilla.redhat.com/1861911",
        "Title": "pki cli ca-cert-request-approve hangs over crmf request from client-cert-request"
      },
      {
        "XMLName": {
          "Space": "http://oval.mitre.org/XMLSchema/oval-definitions-5",
          "Local": "bugzilla"
        },
        "ID": "1869893",
        "URL": "https://bugzilla.redhat.com/1869893",
        "Title": "Common certificates are missing in CS.cfg on shared PKI instance"
      },
      {
        "XMLName": {
          "Space": "http://oval.mitre.org/XMLSchema/oval-definitions-5",
          "Local": "bugzilla"
        },
        "ID": "1871064",
        "URL": "https://bugzilla.redhat.com/1871064",
        "Title": "replica install failing during pki-ca component configuration"
      },
      {
        "XMLName": {
          "Space": "http://oval.mitre.org/XMLSchema/oval-definitions-5",
          "Local": "bugzilla"
        },
        "ID": "1873235",
        "URL": "https://bugzilla.redhat.com/1873235",
        "Title": "pki ca-user-cert-add with secure port failed with 'SSL_ERROR_INAPPROPRIATE_FALLBACK_ALERT'"
      }
    ],
    "AffectedCPEList": [
      "cpe:/a:redhat:enterprise_linux:8",
      "cpe:/a:redhat:enterprise_linux:8::appstream"
    ],
    "Issued": {
      "Date": "2020-11-04"
    },
    "Updated": {
      "Date": "2020-11-04"
    }
  },
  "Criteria": {
    "XMLName": {
      "Space": "http://oval.mitre.org/XMLSchema/oval-definitions-5",
      "Local": "criteria"
    },
    "Operator": "OR",
    "Criterias": [
      {
        "XMLName": {
          "Space": "http://oval.mitre.org/XMLSchema/oval-definitions-5",
          "Local": "criteria"
        },
        "Operator": "AND",
        "Criterias": [
          {
            "XMLName": {
              "Space": "http://oval.mitre.org/XMLSchema/oval-definitions-5",
              "Local": "criteria"
            },
            "Operator": "OR",
            "Criterias": [
              {
                "XMLName": {
                  "Space": "http://oval.mitre.org/XMLSchema/oval-definitions-5",
                  "Local": "criteria"
                },
                "Operator": "AND",
                "Criterias": [
                  {
                    "XMLName": {
                      "Space": "http://oval.mitre.org/XMLSchema/oval-definitions-5",
                      "Local": "criteria"
                    },
                    "Operator": "OR",
                    "Criterias": [
                      {
                        "XMLName": {
                          "Space": "http://oval.mitre.org/XMLSchema/oval-definitions-5",
                          "Local": "criteria"
                        },
                        "Operator": "AND",
                        "Criterias": null,
                        "Criterions": [
                          {
                            "XMLName": {
                              "Space": "http://oval.mitre.org/XMLSchema/oval-definitions-5",
                              "Local": "criterion"
                            },
                            "Negate": false,
                            "TestRef": "oval:com.redhat.rhsa:tst:20201644001",
                            "Comment": "apache-commons-collections is earlier than 0:3.2.2-10.module+el8.1.0+3366+6dfb954c"
                          },
                          {
                            "XMLName": {
                              "Space": "http://oval.mitre.org/XMLSchema/oval-definitions-5",
                              "Local": "criterion"
                            },
                            "Negate": false,
                            "TestRef": "oval:com.redhat.rhsa:tst:20191529002",
                            "Comment": "apache-commons-collections is signed with Red Hat redhatrelease2 key"
                          }
                        ]
                      },
                      {
                        "XMLName": {
                          "Space": "http://oval.mitre.org/XMLSchema/oval-definitions-5",
                          "Local": "criteria"
                        },
                        "Operator": "AND",
                        "Criterias": null,
                        "Criterions": [
                          {
                            "XMLName": {
                              "Space": "http://oval.mitre.org/XMLSchema/oval-definitions-5",
                              "Local": "criterion"
                            },
                            "Negate": false,
                            "TestRef": "oval:com.redhat.rhsa:tst:20201644003",
                            "Comment": "apache-commons-lang is earlier than 0:2.6-21.module+el8.1.0+3366+6dfb954c"
                          },
                          {
                            "XMLName": {
                              "Space": "http://oval.mitre.org/XMLSchema/oval-definitions-5",
                              "Local": "criterion"
                            },
                            "Negate": false,
                            "TestRef": "oval:com.redhat.rhsa:tst:20191529004",
                            "Comment": "apache-commons-lang is signed with Red Hat redhatrelease2 key"
                          }
                        ]
                      },
                      {
                        "XMLName": {
                          "Space": "http://oval.mitre.org/XMLSchema/oval-definitions-5",
                          "Local": "criteria"
                        },
                        "Operator": "AND",
                        "Criterias": null,
                        "Criterions": [
                          {
                            "XMLName": {
                              "Space": "http://oval.mitre.org/XMLSchema/oval-definitions-5",
                              "Local": "criterion"
                            },
                            "Negate": false,
                            "TestRef": "oval:com.redhat.rhsa:tst:20204847005",
                            "Comment": "apache-commons-net is earlier than 0:3.6-3.module+el8.3.0+6805+72837426"
                          },
                          {
                            "XMLName": {
                              "Space": "http://oval.mitre.org/XMLSchema/oval-definitions-5",
                              "Local": "criterion"
                            },
                            "Negate": false,
                            "TestRef": "oval:com.redhat.rhsa:tst:20204847006",
                            "Comment": "apache-commons-net is signed with Red Hat redhatrelease2 key"
                          }
                        ]
                      },
                      {
                        "XMLName": {
                          "Space": "http://oval.mitre.org/XMLSchema/oval-definitions-5",
                          "Local": "criteria"
                        },
                        "Operator": "AND",
                        "Criterias": null,
                        "Criterions": [
                          {
                            "XMLName": {
                              "Space": "http://oval.mitre.org/XMLSchema/oval-definitions-5",
                              "Local": "criterion"
                            },
                            "Negate": false,
                            "TestRef": "oval:com.redhat.rhsa:tst:20201644005",
                            "Comment": "bea-stax-api is earlier than 0:1.2.0-16.module+el8.1.0+3366+6dfb954c"
                          },
                          {
                            "XMLName": {
                              "Space": "http://oval.mitre.org/XMLSchema/oval-definitions-5",
                              "Local": "criterion"
                            },
                            "Negate": false,
                            "TestRef": "oval:com.redhat.rhsa:tst:20191529006",
                            "Comment": "bea-stax-api is signed with Red Hat redhatrelease2 key"
                          }
                        ]
                      },
                      {
                        "XMLName": {
                          "Space": "http://oval.mitre.org/XMLSchema/oval-definitions-5",
                          "Local": "criteria"
                        },
                        "Operator": "AND",
                        "Criterias": null,
                        "Criterions": [
                          {
                            "XMLName": {
                              "Space": "http://oval.mitre.org/XMLSchema/oval-definitions-5",
                              "Local": "criterion"
                            },
                            "Negate": false,
                            "TestRef": "oval:com.redhat.rhsa:tst:20201644007",
                            "Comment": "glassfish-fastinfoset is earlier than 0:1.2.13-9.module+el8.1.0+3366+6dfb954c"
                          },
                          {
                            "XMLName": {
                              "Space": "http://oval.mitre.org/XMLSchema/oval-definitions-5",
                              "Local": "criterion"
                            },
                            "Negate": false,
                            "TestRef": "oval:com.redhat.rhsa:tst:20191529008",
                            "Comment": "glassfish-fastinfoset is signed with Red Hat redhatrelease2 key"
                          }
                        ]
                      },
                      {
                        "XMLName": {
                          "Space": "http://oval.mitre.org/XMLSchema/oval-definitions-5",
                          "Local": "criteria"
                        },
                        "Operator": "AND",
                        "Criterias": null,
                        "Criterions": [
                          {
                            "XMLName": {
                              "Space": "http://oval.mitre.org/XMLSchema/oval-definitions-5",
                              "Local": "criterion"
                            },
                            "Negate": false,
                            "TestRef": "oval:com.redhat.rhsa:tst:20201644009",
                            "Comment": "glassfish-jaxb-api is earlier than 0:2.2.12-8.module+el8.1.0+3366+6dfb954c"
                          },
                          {
                            "XMLName": {
                              "Space": "http://oval.mitre.org/XMLSchema/oval-definitions-5",
                              "Local": "criterion"
                            },
                            "Negate": false,
                            "TestRef": "oval:com.redhat.rhsa:tst:20191529010",
                            "Comment": "glassfish-jaxb-api is signed with Red Hat redhatrelease2 key"
                          }
                        ]
                      },
                      {
                        "XMLName": {
                          "Space": "http://oval.mitre.org/XMLSchema/oval-definitions-5",
                          "Local": "criteria"
                        },
                        "Operator": "AND",
                        "Criterias": null,
                        "Criterions": [
                          {
                            "XMLName": {
                              "Space": "http://oval.mitre.org/XMLSchema/oval-definitions-5",
                              "Local": "criterion"
                            },
                            "Negate": false,
                            "TestRef": "oval:com.redhat.rhsa:tst:20201644011",
                            "Comment": "glassfish-jaxb-core is earlier than 0:2.2.11-11.module+el8.1.0+3366+6dfb954c"
                          },
                          {
                            "XMLName": {
                              "Space": "http://oval.mitre.org/XMLSchema/oval-definitions-5",
                              "Local": "criterion"
                            },
                            "Negate": false,
                            "TestRef": "oval:com.redhat.rhsa:tst:20191529012",
                            "Comment": "glassfish-jaxb-core is signed with Red Hat redhatrelease2 key"
                          }
                        ]
                      },
                      {
                        "XMLName": {
                          "Space": "http://oval.mitre.org/XMLSchema/oval-definitions-5",
                          "Local": "criteria"
                        },
                        "Operator": "AND",
                        "Criterias": null,
                        "Criterions": [
                          {
                            "XMLName": {
                              "Space": "http://oval.mitre.org/XMLSchema/oval-definitions-5",
                              "Local": "criterion"
                            },
                            "Negate": false,
                            "TestRef": "oval:com.redhat.rhsa:tst:20201644013",
                            "Comment": "glassfish-jaxb-runtime is earlier than 0:2.2.11-11.module+el8.1.0+3366+6dfb954c"
                          },
                          {
                            "XMLName": {
                              "Space": "http://oval.mitre.org/XMLSchema/oval-definitions-5",
                              "Local": "criterion"
                            },
                            "Negate": false,
                            "TestRef": "oval:com.redhat.rhsa:tst:20191529014",
                            "Comment": "glassfish-jaxb-runtime is signed with Red Hat redhatrelease2 key"
                          }
                        ]
                      },
                      {
                        "XMLName": {
                          "Space": "http://oval.mitre.org/XMLSchema/oval-definitions-5",
                          "Local": "criteria"
                        },
                        "Operator": "AND",
                        "Criterias": null,
                        "Criterions": [
                          {
                            "XMLName": {
                              "Space": "http://oval.mitre.org/XMLSchema/oval-definitions-5",
                              "Local": "criterion"
                            },
                            "Negate": false,
                            "TestRef": "oval:com.redhat.rhsa:tst:20201644015",
                            "Comment": "glassfish-jaxb-txw2 is earlier than 0:2.2.11-11.module+el8.1.0+3366+6dfb954c"
                          },
                          {
                            "XMLName": {
                              "Space": "http://oval.mitre.org/XMLSchema/oval-definitions-5",
                              "Local": "criterion"
                            },
                            "Negate": false,
                            "TestRef": "oval:com.redhat.rhsa:tst:20191529016",
                            "Comment": "glassfish-jaxb-txw2 is signed with Red Hat redhatrelease2 key"
                          }
                        ]
                      },
                      {
                        "XMLName": {
                          "Space": "http://oval.mitre.org/XMLSchema/oval-definitions-5",
                          "Local": "criteria"
                        },
                        "Operator": "AND",
                        "Criterias": null,
                        "Criterions": [
                          {
                            "XMLName": {
                              "Space": "http://oval.mitre.org/XMLSchema/oval-definitions-5",
                              "Local": "criterion"
                            },
                            "Negate": false,
                            "TestRef": "oval:com.redhat.rhsa:tst:20201644017",
                            "Comment": "jackson-annotations is earlier than 0:2.10.0-1.module+el8.2.0+5059+3eb3af25"
                          },
                          {
                            "XMLName": {
                              "Space": "http://oval.mitre.org/XMLSchema/oval-definitions-5",
                              "Local": "criterion"
                            },
                            "Negate": false,
                            "TestRef": "oval:com.redhat.rhsa:tst:20191529018",
                            "Comment": "jackson-annotations is signed with Red Hat redhatrelease2 key"
                          }
                        ]
                      },
                      {
                        "XMLName": {
                          "Space": "http://oval.mitre.org/XMLSchema/oval-definitions-5",
                          "Local": "criteria"
                        },
                        "Operator": "AND",
                        "Criterias": null,
                        "Criterions": [
                          {
                            "XMLName": {
                              "Space": "http://oval.mitre.org/XMLSchema/oval-definitions-5",
                              "Local": "criterion"
                            },
                            "Negate": false,
                            "TestRef": "oval:com.redhat.rhsa:tst:20201644019",
                            "Comment": "jackson-core is earlier than 0:2.10.0-1.module+el8.2.0+5059+3eb3af25"
                          },
                          {
                            "XMLName": {
                              "Space": "http://oval.mitre.org/XMLSchema/oval-definitions-5",
                              "Local": "criterion"
                            },
                            "Negate": false,
                            "TestRef": "oval:com.redhat.rhsa:tst:20191529020",
                            "Comment": "jackson-core is signed with Red Hat redhatrelease2 key"
                          }
                        ]
                      },
                      {
                        "XMLName": {
                          "Space": "http://oval.mitre.org/XMLSchema/oval-definitions-5",
                          "Local": "criteria"
                        },
                        "Operator": "AND",
                        "Criterias": null,
                        "Criterions": [
                          {
                            "XMLName": {
                              "Space": "http://oval.mitre.org/XMLSchema/oval-definitions-5",
                              "Local": "criterion"
                            },
                            "Negate": false,
                            "TestRef": "oval:com.redhat.rhsa:tst:20201644021",
                            "Comment": "jackson-databind is earlier than 0:2.10.0-1.module+el8.2.0+5059+3eb3af25"
                          },
                          {
                            "XMLName": {
                              "Space": "http://oval.mitre.org/XMLSchema/oval-definitions-5",
                              "Local": "criterion"
                            },
                            "Negate": false,
                            "TestRef": "oval:com.redhat.rhsa:tst:20191529022",
                            "Comment": "jackson-databind is signed with Red Hat redhatrelease2 key"
                          }
                        ]
                      },
                      {
                        "XMLName": {
                          "Space": "http://oval.mitre.org/XMLSchema/oval-definitions-5",
                          "Local": "criteria"
                        },
                        "Operator": "AND",
                        "Criterias": null,
                        "Criterions": [
                          {
                            "XMLName": {
                              "Space": "http://oval.mitre.org/XMLSchema/oval-definitions-5",
                              "Local": "criterion"
                            },
                            "Negate": false,
                            "TestRef": "oval:com.redhat.rhsa:tst:20201644023",
                            "Comment": "jackson-jaxrs-json-provider is earlier than 0:2.9.9-1.module+el8.1.0+3832+9784644d"
                          },
                          {
                            "XMLName": {
                              "Space": "http://oval.mitre.org/XMLSchema/oval-definitions-5",
                              "Local": "criterion"
                            },
                            "Negate": false,
                            "TestRef": "oval:com.redhat.rhsa:tst:20191529024",
                            "Comment": "jackson-jaxrs-json-provider is signed with Red Hat redhatrelease2 key"
                          }
                        ]
                      },
                      {
                        "XMLName": {
                          "Space": "http://oval.mitre.org/XMLSchema/oval-definitions-5",
                          "Local": "criteria"
                        },
                        "Operator": "AND",
                        "Criterias": null,
                        "Criterions": [
                          {
                            "XMLName": {
                              "Space": "http://oval.mitre.org/XMLSchema/oval-definitions-5",
                              "Local": "criterion"
                            },
                            "Negate": false,
                            "TestRef": "oval:com.redhat.rhsa:tst:20201644025",
                            "Comment": "jackson-jaxrs-providers is earlier than 0:2.9.9-1.module+el8.1.0+3832+9784644d"
                          },
                          {
                            "XMLName": {
                              "Space": "http://oval.mitre.org/XMLSchema/oval-definitions-5",
                              "Local": "criterion"
                            },
                            "Negate": false,
                            "TestRef": "oval:com.redhat.rhsa:tst:20191529026",
                            "Comment": "jackson-jaxrs-providers is signed with Red Hat redhatrelease2 key"
                          }
                        ]
                      },
                      {
                        "XMLName": {
                          "Space": "http://oval.mitre.org/XMLSchema/oval-definitions-5",
                          "Local": "criteria"
                        },
                        "Operator": "AND",
                        "Criterias": null,
                        "Criterions": [
                          {
                            "XMLName": {
                              "Space": "http://oval.mitre.org/XMLSchema/oval-definitions-5",
                              "Local": "criterion"
                            },
                            "Negate": false,
                            "TestRef": "oval:com.redhat.rhsa:tst:20201644027",
                            "Comment": "jackson-module-jaxb-annotations is earlier than 0:2.7.6-4.module+el8.1.0+3366+6dfb954c"
                          },
                          {
                            "XMLName": {
                              "Space": "http://oval.mitre.org/XMLSchema/oval-definitions-5",
                              "Local": "criterion"
                            },
                            "Negate": false,
                            "TestRef": "oval:com.redhat.rhsa:tst:20191529028",
                            "Comment": "jackson-module-jaxb-annotations is signed with Red Hat redhatrelease2 key"
                          }
                        ]
                      },
                      {
                        "XMLName": {
                          "Space": "http://oval.mitre.org/XMLSchema/oval-definitions-5",
                          "Local": "criteria"
                        },
                        "Operator": "AND",
                        "Criterias": null,
                        "Criterions": [
                          {
                            "XMLName": {
                              "Space": "http://oval.mitre.org/XMLSchema/oval-definitions-5",
                              "Local": "criterion"
                            },
                            "Negate": false,
                            "TestRef": "oval:com.redhat.rhsa:tst:20201644029",
                            "Comment": "jakarta-commons-httpclient is earlier than 1:3.1-28.module+el8.1.0+3366+6dfb954c"
                          },
                          {
                            "XMLName": {
                              "Space": "http://oval.mitre.org/XMLSchema/oval-definitions-5",
                              "Local": "criterion"
                            },
                            "Negate": false,
                            "TestRef": "oval:com.redhat.rhsa:tst:20191529030",
                            "Comment": "jakarta-commons-httpclient is signed with Red Hat redhatrelease2 key"
                          }
                        ]
                      },
                      {
                        "XMLName": {
                          "Space": "http://oval.mitre.org/XMLSchema/oval-definitions-5",
                          "Local": "criteria"
                        },
                        "Operator": "AND",
                        "Criterias": null,
                        "Criterions": [
                          {
                            "XMLName": {
                              "Space": "http://oval.mitre.org/XMLSchema/oval-definitions-5",
                              "Local": "criterion"
                            },
                            "Negate": false,
                            "TestRef": "oval:com.redhat.rhsa:tst:20201644031",
                            "Comment": "javassist is earlier than 0:3.18.1-8.module+el8.1.0+3366+6dfb954c"
                          },
                          {
                            "XMLName": {
                              "Space": "http://oval.mitre.org/XMLSchema/oval-definitions-5",
                              "Local": "criterion"
                            },
                            "Negate": false,
                            "TestRef": "oval:com.redhat.rhsa:tst:20191529032",
                            "Comment": "javassist is signed with Red Hat redhatrelease2 key"
                          }
                        ]
                      },
                      {
                        "XMLName": {
                          "Space": "http://oval.mitre.org/XMLSchema/oval-definitions-5",
                          "Local": "criteria"
                        },
                        "Operator": "AND",
                        "Criterias": null,
                        "Criterions": [
                          {
                            "XMLName": {
                              "Space": "http://oval.mitre.org/XMLSchema/oval-definitions-5",
                              "Local": "criterion"
                            },
                            "Negate": false,
                            "TestRef": "oval:com.redhat.rhsa:tst:20201644033",
                            "Comment": "javassist-javadoc is earlier than 0:3.18.1-8.module+el8.1.0+3366+6dfb954c"
                          },
                          {
                            "XMLName": {
                              "Space": "http://oval.mitre.org/XMLSchema/oval-definitions-5",
                              "Local": "criterion"
                            },
                            "Negate": false,
                            "TestRef": "oval:com.redhat.rhsa:tst:20191529034",
                            "Comment": "javassist-javadoc is signed with Red Hat redhatrelease2 key"
                          }
                        ]
                      },
                      {
                        "XMLName": {
                          "Space": "http://oval.mitre.org/XMLSchema/oval-definitions-5",
                          "Local": "criteria"
                        },
                        "Operator": "AND",
                        "Criterias": null,
                        "Criterions": [
                          {
                            "XMLName": {
                              "Space": "http://oval.mitre.org/XMLSchema/oval-definitions-5",
                              "Local": "criterion"
                            },
                            "Negate": false,
                            "TestRef": "oval:com.redhat.rhsa:tst:20204847037",
                            "Comment": "pki-servlet-4.0-api is earlier than 1:9.0.30-1.module+el8.3.0+6730+8f9c6254"
                          },
                          {
                            "XMLName": {
                              "Space": "http://oval.mitre.org/XMLSchema/oval-definitions-5",
                              "Local": "criterion"
                            },
                            "Negate": false,
                            "TestRef": "oval:com.redhat.rhsa:tst:20191529036",
                            "Comment": "pki-servlet-4.0-api is signed with Red Hat redhatrelease2 key"
                          }
                        ]
                      },
                      {
                        "XMLName": {
                          "Space": "http://oval.mitre.org/XMLSchema/oval-definitions-5",
                          "Local": "criteria"
                        },
                        "Operator": "AND",
                        "Criterias": null,
                        "Criterions": [
                          {
                            "XMLName": {
                              "Space": "http://oval.mitre.org/XMLSchema/oval-definitions-5",
                              "Local": "criterion"
                            },
                            "Negate": false,
                            "TestRef": "oval:com.redhat.rhsa:tst:20204847039",
                            "Comment": "pki-servlet-engine is earlier than 1:9.0.30-1.module+el8.3.0+6730+8f9c6254"
                          },
                          {
                            "XMLName": {
                              "Space": "http://oval.mitre.org/XMLSchema/oval-definitions-5",
                              "Local": "criterion"
                            },
                            "Negate": false,
                            "TestRef": "oval:com.redhat.rhsa:tst:20201644038",
                            "Comment": "pki-servlet-engine is signed with Red Hat redhatrelease2 key"
                          }
                        ]
                      },
                      {
                        "XMLName": {
                          "Space": "http://oval.mitre.org/XMLSchema/oval-definitions-5",
                          "Local": "criteria"
                        },
                        "Operator": "AND",
                        "Criterias": null,
                        "Criterions": [
                          {
                            "XMLName": {
                              "Space": "http://oval.mitre.org/XMLSchema/oval-definitions-5",
                              "Local": "criterion"
                            },
                            "Negate": false,
                            "TestRef": "oval:com.redhat.rhsa:tst:20201644039",
                            "Comment": "python-nss-debugsource is earlier than 0:1.0.1-10.module+el8.1.0+3366+6dfb954c"
                          },
                          {
                            "XMLName": {
                              "Space": "http://oval.mitre.org/XMLSchema/oval-definitions-5",
                              "Local": "criterion"
                            },
                            "Negate": false,
                            "TestRef": "oval:com.redhat.rhsa:tst:20191529040",
                            "Comment": "python-nss-debugsource is signed with Red Hat redhatrelease2 key"
                          }
                        ]
                      },
                      {
                        "XMLName": {
                          "Space": "http://oval.mitre.org/XMLSchema/oval-definitions-5",
                          "Local": "criteria"
                        },
                        "Operator": "AND",
                        "Criterias": null,
                        "Criterions": [
                          {
                            "XMLName": {
                              "Space": "http://oval.mitre.org/XMLSchema/oval-definitions-5",
                              "Local": "criterion"
                            },
                            "Negate": false,
                            "TestRef": "oval:com.redhat.rhsa:tst:20201644041",
                            "Comment": "python-nss-doc is earlier than 0:1.0.1-10.module+el8.1.0+3366+6dfb954c"
                          },
                          {
                            "XMLName": {
                              "Space": "http://oval.mitre.org/XMLSchema/oval-definitions-5",
                              "Local": "criterion"
                            },
                            "Negate": false,
                            "TestRef": "oval:com.redhat.rhsa:tst:20191529042",
                            "Comment": "python-nss-doc is signed with Red Hat redhatrelease2 key"
                          }
                        ]
                      },
                      {
                        "XMLName": {
                          "Space": "http://oval.mitre.org/XMLSchema/oval-definitions-5",
                          "Local": "criteria"
                        },
                        "Operator": "AND",
                        "Criterias": null,
                        "Criterions": [
                          {
                            "XMLName": {
                              "Space": "http://oval.mitre.org/XMLSchema/oval-definitions-5",
                              "Local": "criterion"
                            },
                            "Negate": false,
                            "TestRef": "oval:com.redhat.rhsa:tst:20201644043",
                            "Comment": "python3-nss is earlier than 0:1.0.1-10.module+el8.1.0+3366+6dfb954c"
                          },
                          {
                            "XMLName": {
                              "Space": "http://oval.mitre.org/XMLSchema/oval-definitions-5",
                              "Local": "criterion"
                            },
                            "Negate": false,
                            "TestRef": "oval:com.redhat.rhsa:tst:20191529044",
                            "Comment": "python3-nss is signed with Red Hat redhatrelease2 key"
                          }
                        ]
                      },
                      {
                        "XMLName": {
                          "Space": "http://oval.mitre.org/XMLSchema/oval-definitions-5",
                          "Local": "criteria"
                        },
                        "Operator": "AND",
                        "Criterias": null,
                        "Criterions": [
                          {
                            "XMLName": {
                              "Space": "http://oval.mitre.org/XMLSchema/oval-definitions-5",
                              "Local": "criterion"
                            },
                            "Negate": false,
                            "TestRef": "oval:com.redhat.rhsa:tst:20201644045",
                            "Comment": "relaxngDatatype is earlier than 0:2011.1-7.module+el8.1.0+3366+6dfb954c"
                          },
                          {
                            "XMLName": {
                              "Space": "http://oval.mitre.org/XMLSchema/oval-definitions-5",
                              "Local": "criterion"
                            },
                            "Negate": false,
                            "TestRef": "oval:com.redhat.rhsa:tst:20191529046",
                            "Comment": "relaxngDatatype is signed with Red Hat redhatrelease2 key"
                          }
                        ]
                      },
                      {
                        "XMLName": {
                          "Space": "http://oval.mitre.org/XMLSchema/oval-definitions-5",
                          "Local": "criteria"
                        },
                        "Operator": "AND",
                        "Criterias": null,
                        "Criterions": [
                          {
                            "XMLName": {
                              "Space": "http://oval.mitre.org/XMLSchema/oval-definitions-5",
                              "Local": "criterion"
                            },
                            "Negate": false,
                            "TestRef": "oval:com.redhat.rhsa:tst:20204847049",
                            "Comment": "resteasy is earlier than 0:3.0.26-3.module+el8.2.0+5723+4574fbff"
                          },
                          {
                            "XMLName": {
                              "Space": "http://oval.mitre.org/XMLSchema/oval-definitions-5",
                              "Local": "criterion"
                            },
                            "Negate": false,
                            "TestRef": "oval:com.redhat.rhsa:tst:20191529048",
                            "Comment": "resteasy is signed with Red Hat redhatrelease2 key"
                          }
                        ]
                      },
                      {
                        "XMLName": {
                          "Space": "http://oval.mitre.org/XMLSchema/oval-definitions-5",
                          "Local": "criteria"
                        },
                        "Operator": "AND",
                        "Criterias": null,
                        "Criterions": [
                          {
                            "XMLName": {
                              "Space": "http://oval.mitre.org/XMLSchema/oval-definitions-5",
                              "Local": "criterion"
                            },
                            "Negate": false,
                            "TestRef": "oval:com.redhat.rhsa:tst:20201644049",
                            "Comment": "slf4j is earlier than 0:1.7.25-4.module+el8.1.0+3366+6dfb954c"
                          },
                          {
                            "XMLName": {
                              "Space": "http://oval.mitre.org/XMLSchema/oval-definitions-5",
                              "Local": "criterion"
                            },
                            "Negate": false,
                            "TestRef": "oval:com.redhat.rhsa:tst:20191529050",
                            "Comment": "slf4j is signed with Red Hat redhatrelease2 key"
                          }
                        ]
                      },
                      {
                        "XMLName": {
                          "Space": "http://oval.mitre.org/XMLSchema/oval-definitions-5",
                          "Local": "criteria"
                        },
                        "Operator": "AND",
                        "Criterias": null,
                        "Criterions": [
                          {
                            "XMLName": {
                              "Space": "http://oval.mitre.org/XMLSchema/oval-definitions-5",
                              "Local": "criterion"
                            },
                            "Negate": false,
                            "TestRef": "oval:com.redhat.rhsa:tst:20201644051",
                            "Comment": "slf4j-jdk14 is earlier than 0:1.7.25-4.module+el8.1.0+3366+6dfb954c"
                          },
                          {
                            "XMLName": {
                              "Space": "http://oval.mitre.org/XMLSchema/oval-definitions-5",
                              "Local": "criterion"
                            },
                            "Negate": false,
                            "TestRef": "oval:com.redhat.rhsa:tst:20191529052",
                            "Comment": "slf4j-jdk14 is signed with Red Hat redhatrelease2 key"
                          }
                        ]
                      },
                      {
                        "XMLName": {
                          "Space": "http://oval.mitre.org/XMLSchema/oval-definitions-5",
                          "Local": "criteria"
                        },
                        "Operator": "AND",
                        "Criterias": null,
                        "Criterions": [
                          {
                            "XMLName": {
                              "Space": "http://oval.mitre.org/XMLSchema/oval-definitions-5",
                              "Local": "criterion"
                            },
                            "Negate": false,
                            "TestRef": "oval:com.redhat.rhsa:tst:20204847055",
                            "Comment": "stax-ex is earlier than 0:1.7.7-8.module+el8.2.0+5723+4574fbff"
                          },
                          {
                            "XMLName": {
                              "Space": "http://oval.mitre.org/XMLSchema/oval-definitions-5",
                              "Local": "criterion"
                            },
                            "Negate": false,
                            "TestRef": "oval:com.redhat.rhsa:tst:20191529054",
                            "Comment": "stax-ex is signed with Red Hat redhatrelease2 key"
                          }
                        ]
                      },
                      {
                        "XMLName": {
                          "Space": "http://oval.mitre.org/XMLSchema/oval-definitions-5",
                          "Local": "criteria"
                        },
                        "Operator": "AND",
                        "Criterias": null,
                        "Criterions": [
                          {
                            "XMLName": {
                              "Space": "http://oval.mitre.org/XMLSchema/oval-definitions-5",
                              "Local": "criterion"
                            },
                            "Negate": false,
                            "TestRef": "oval:com.redhat.rhsa:tst:20201644055",
                            "Comment": "velocity is earlier than 0:1.7-24.module+el8.1.0+3366+6dfb954c"
                          },
                          {
                            "XMLName": {
                              "Space": "http://oval.mitre.org/XMLSchema/oval-definitions-5",
                              "Local": "criterion"
                            },
                            "Negate": false,
                            "TestRef": "oval:com.redhat.rhsa:tst:20191529056",
                            "Comment": "velocity is signed with Red Hat redhatrelease2 key"
                          }
                        ]
                      },
                      {
                        "XMLName": {
                          "Space": "http://oval.mitre.org/XMLSchema/oval-definitions-5",
                          "Local": "criteria"
                        },
                        "Operator": "AND",
                        "Criterias": null,
                        "Criterions": [
                          {
                            "XMLName": {
                              "Space": "http://oval.mitre.org/XMLSchema/oval-definitions-5",
                              "Local": "criterion"
                            },
                            "Negate": false,
                            "TestRef": "oval:com.redhat.rhsa:tst:20201644057",
                            "Comment": "xalan-j2 is earlier than 0:2.7.1-38.module+el8.1.0+3366+6dfb954c"
                          },
                          {
                            "XMLName": {
                              "Space": "http://oval.mitre.org/XMLSchema/oval-definitions-5",
                              "Local": "criterion"
                            },
                            "Negate": false,
                            "TestRef": "oval:com.redhat.rhsa:tst:20191529058",
                            "Comment": "xalan-j2 is signed with Red Hat redhatrelease2 key"
                          }
                        ]
                      },
                      {
                        "XMLName": {
                          "Space": "http://oval.mitre.org/XMLSchema/oval-definitions-5",
                          "Local": "criteria"
                        },
                        "Operator": "AND",
                        "Criterias": null,
                        "Criterions": [
                          {
                            "XMLName": {
                              "Space": "http://oval.mitre.org/XMLSchema/oval-definitions-5",
                              "Local": "criterion"
                            },
                            "Negate": false,
                            "TestRef": "oval:com.redhat.rhsa:tst:20201644059",
                            "Comment": "xerces-j2 is earlier than 0:2.11.0-34.module+el8.1.0+3366+6dfb954c"
                          },
                          {
                            "XMLName": {
                              "Space": "http://oval.mitre.org/XMLSchema/oval-definitions-5",
                              "Local": "criterion"
                            },
                            "Negate": false,
                            "TestRef": "oval:com.redhat.rhsa:tst:20191529060",
                            "Comment": "xerces-j2 is signed with Red Hat redhatrelease2 key"
                          }
                        ]
                      },
                      {
                        "XMLName": {
                          "Space": "http://oval.mitre.org/XMLSchema/oval-definitions-5",
                          "Local": "criteria"
                        },
                        "Operator": "AND",
                        "Criterias": null,
                        "Criterions": [
                          {
                            "XMLName": {
                              "Space": "http://oval.mitre.org/XMLSchema/oval-definitions-5",
                              "Local": "criterion"
                            },
                            "Negate": false,
                            "TestRef": "oval:com.redhat.rhsa:tst:20201644061",
                            "Comment": "xml-commons-apis is earlier than 0:1.4.01-25.module+el8.1.0+3366+6dfb954c"
                          },
                          {
                            "XMLName": {
                              "Space": "http://oval.mitre.org/XMLSchema/oval-definitions-5",
                              "Local": "criterion"
                            },
                            "Negate": false,
                            "TestRef": "oval:com.redhat.rhsa:tst:20191529062",
                            "Comment": "xml-commons-apis is signed with Red Hat redhatrelease2 key"
                          }
                        ]
                      },
                      {
                        "XMLName": {
                          "Space": "http://oval.mitre.org/XMLSchema/oval-definitions-5",
                          "Local": "criteria"
                        },
                        "Operator": "AND",
                        "Criterias": null,
                        "Criterions": [
                          {
                            "XMLName": {
                              "Space": "http://oval.mitre.org/XMLSchema/oval-definitions-5",
                              "Local": "criterion"
                            },
                            "Negate": false,
                            "TestRef": "oval:com.redhat.rhsa:tst:20201644063",
                            "Comment": "xml-commons-resolver is earlier than 0:1.2-26.module+el8.1.0+3366+6dfb954c"
                          },
                          {
                            "XMLName": {
                              "Space": "http://oval.mitre.org/XMLSchema/oval-definitions-5",
                              "Local": "criterion"
                            },
                            "Negate": false,
                            "TestRef": "oval:com.redhat.rhsa:tst:20191529064",
                            "Comment": "xml-commons-resolver is signed with Red Hat redhatrelease2 key"
                          }
                        ]
                      },
                      {
                        "XMLName": {
                          "Space": "http://oval.mitre.org/XMLSchema/oval-definitions-5",
                          "Local": "criteria"
                        },
                        "Operator": "AND",
                        "Criterias": null,
                        "Criterions": [
                          {
                            "XMLName": {
                              "Space": "http://oval.mitre.org/XMLSchema/oval-definitions-5",
                              "Local": "criterion"
                            },
                            "Negate": false,
                            "TestRef": "oval:com.redhat.rhsa:tst:20204847067",
                            "Comment": "xmlstreambuffer is earlier than 0:1.5.4-8.module+el8.2.0+5723+4574fbff"
                          },
                          {
                            "XMLName": {
                              "Space": "http://oval.mitre.org/XMLSchema/oval-definitions-5",
                              "Local": "criterion"
                            },
                            "Negate": false,
                            "TestRef": "oval:com.redhat.rhsa:tst:20191529066",
                            "Comment": "xmlstreambuffer is signed with Red Hat redhatrelease2 key"
                          }
                        ]
                      },
                      {
                        "XMLName": {
                          "Space": "http://oval.mitre.org/XMLSchema/oval-definitions-5",
                          "Local": "criteria"
                        },
                        "Operator": "AND",
                        "Criterias": null,
                        "Criterions": [
                          {
                            "XMLName": {
                              "Space": "http://oval.mitre.org/XMLSchema/oval-definitions-5",
                              "Local": "criterion"
                            },
                            "Negate": false,
                            "TestRef": "oval:com.redhat.rhsa:tst:20201644067",
                            "Comment": "xsom is earlier than 0:0-19.20110809svn.module+el8.1.0+3366+6dfb954c"
                          },
                          {
                            "XMLName": {
                              "Space": "http://oval.mitre.org/XMLSchema/oval-definitions-5",
                              "Local": "criterion"
                            },
                            "Negate": false,
                            "TestRef": "oval:com.redhat.rhsa:tst:20191529068",
                            "Comment": "xsom is signed with Red Hat redhatrelease2 key"
                          }
                        ]
                      }
                    ],
                    "Criterions": null
                  }
                ],
                "Criterions": [
                  {
                    "XMLName": {
                      "Space": "http://oval.mitre.org/XMLSchema/oval-definitions-5",
                      "Local": "criterion"
                    },
                    "Negate": false,
                    "TestRef": "oval:com.redhat.rhsa:tst:20191529069",
                    "Comment": "Module pki-deps:10.6 is enabled"
                  }
                ]
              },
              {
                "XMLName": {
                  "Space": "http://oval.mitre.org/XMLSchema/oval-definitions-5",
                  "Local": "criteria"
                },
                "Operator": "AND",
                "Criterias": [
                  {
                    "XMLName": {
                      "Space": "http://oval.mitre.org/XMLSchema/oval-definitions-5",
                      "Local": "criteria"
                    },
                    "Operator": "OR",
                    "Criterias": [
                      {
                        "XMLName": {
                          "Space": "http://oval.mitre.org/XMLSchema/oval-definitions-5",
                          "Local": "criteria"
                        },
                        "Operator": "AND",
                        "Criterias": null,
                        "Criterions": [
                          {
                            "XMLName": {
                              "Space": "http://oval.mitre.org/XMLSchema/oval-definitions-5",
                              "Local": "criterion"
                            },
                            "Negate": false,
                            "TestRef": "oval:com.redhat.rhsa:tst:20204847072",
                            "Comment": "jss is earlier than 0:4.7.3-1.module+el8.3.0+8058+d5cd4219"
                          },
                          {
                            "XMLName": {
                              "Space": "http://oval.mitre.org/XMLSchema/oval-definitions-5",
                              "Local": "criterion"
                            },
                            "Negate": false,
                            "TestRef": "oval:com.redhat.rhsa:tst:20201644071",
                            "Comment": "jss is signed with Red Hat redhatrelease2 key"
                          }
                        ]
                      },
                      {
                        "XMLName": {
                          "Space": "http://oval.mitre.org/XMLSchema/oval-definitions-5",
                          "Local": "criteria"
                        },
                        "Operator": "AND",
                        "Criterias": null,
                        "Criterions": [
                          {
                            "XMLName": {
                              "Space": "http://oval.mitre.org/XMLSchema/oval-definitions-5",
                              "Local": "criterion"
                            },
                            "Negate": false,
                            "TestRef": "oval:com.redhat.rhsa:tst:20204847074",
                            "Comment": "jss-debugsource is earlier than 0:4.7.3-1.module+el8.3.0+8058+d5cd4219"
                          },
                          {
                            "XMLName": {
                              "Space": "http://oval.mitre.org/XMLSchema/oval-definitions-5",
                              "Local": "criterion"
                            },
                            "Negate": false,
                            "TestRef": "oval:com.redhat.rhsa:tst:20201644073",
                            "Comment": "jss-debugsource is signed with Red Hat redhatrelease2 key"
                          }
                        ]
                      },
                      {
                        "XMLName": {
                          "Space": "http://oval.mitre.org/XMLSchema/oval-definitions-5",
                          "Local": "criteria"
                        },
                        "Operator": "AND",
                        "Criterias": null,
                        "Criterions": [
                          {
                            "XMLName": {
                              "Space": "http://oval.mitre.org/XMLSchema/oval-definitions-5",
                              "Local": "criterion"
                            },
                            "Negate": false,
                            "TestRef": "oval:com.redhat.rhsa:tst:20204847076",
                            "Comment": "jss-javadoc is earlier than 0:4.7.3-1.module+el8.3.0+8058+d5cd4219"
                          },
                          {
                            "XMLName": {
                              "Space": "http://oval.mitre.org/XMLSchema/oval-definitions-5",
                              "Local": "criterion"
                            },
                            "Negate": false,
                            "TestRef": "oval:com.redhat.rhsa:tst:20201644075",
                            "Comment": "jss-javadoc is signed with Red Hat redhatrelease2 key"
                          }
                        ]
                      },
                      {
                        "XMLName": {
                          "Space": "http://oval.mitre.org/XMLSchema/oval-definitions-5",
                          "Local": "criteria"
                        },
                        "Operator": "AND",
                        "Criterias": null,
                        "Criterions": [
                          {
                            "XMLName": {
                              "Space": "http://oval.mitre.org/XMLSchema/oval-definitions-5",
                              "Local": "criterion"
                            },
                            "Negate": false,
                            "TestRef": "oval:com.redhat.rhsa:tst:20204847078",
                            "Comment": "ldapjdk is earlier than 0:4.22.0-1.module+el8.3.0+6784+6e1e4c62"
                          },
                          {
                            "XMLName": {
                              "Space": "http://oval.mitre.org/XMLSchema/oval-definitions-5",
                              "Local": "criterion"
                            },
                            "Negate": false,
                            "TestRef": "oval:com.redhat.rhsa:tst:20201644077",
                            "Comment": "ldapjdk is signed with Red Hat redhatrelease2 key"
                          }
                        ]
                      },
                      {
                        "XMLName": {
                          "Space": "http://oval.mitre.org/XMLSchema/oval-definitions-5",
                          "Local": "criteria"
                        },
                        "Operator": "AND",
                        "Criterias": null,
                        "Criterions": [
                          {
                            "XMLName": {
                              "Space": "http://oval.mitre.org/XMLSchema/oval-definitions-5",
                              "Local": "criterion"
                            },
                            "Negate": false,
                            "TestRef": "oval:com.redhat.rhsa:tst:20204847080",
                            "Comment": "ldapjdk-javadoc is earlier than 0:4.22.0-1.module+el8.3.0+6784+6e1e4c62"
                          },
                          {
                            "XMLName": {
                              "Space": "http://oval.mitre.org/XMLSchema/oval-definitions-5",
                              "Local": "criterion"
                            },
                            "Negate": false,
                            "TestRef": "oval:com.redhat.rhsa:tst:20201644079",
                            "Comment": "ldapjdk-javadoc is signed with Red Hat redhatrelease2 key"
                          }
                        ]
                      },
                      {
                        "XMLName": {
                          "Space": "http://oval.mitre.org/XMLSchema/oval-definitions-5",
                          "Local": "criteria"
                        },
                        "Operator": "AND",
                        "Criterias": null,
                        "Criterions": [
                          {
                            "XMLName": {
                              "Space": "http://oval.mitre.org/XMLSchema/oval-definitions-5",
                              "Local": "criterion"
                            },
                            "Negate": false,
                            "TestRef": "oval:com.redhat.rhsa:tst:20204847082",
                            "Comment": "pki-base is earlier than 0:10.9.4-1.module+el8.3.0+8058+d5cd4219"
                          },
                          {
                            "XMLName": {
                              "Space": "http://oval.mitre.org/XMLSchema/oval-definitions-5",
                              "Local": "criterion"
                            },
                            "Negate": false,
                            "TestRef": "oval:com.redhat.rhsa:tst:20201644081",
                            "Comment": "pki-base is signed with Red Hat redhatrelease2 key"
                          }
                        ]
                      },
                      {
                        "XMLName": {
                          "Space": "http://oval.mitre.org/XMLSchema/oval-definitions-5",
                          "Local": "criteria"
                        },
                        "Operator": "AND",
                        "Criterias": null,
                        "Criterions": [
                          {
                            "XMLName": {
                              "Space": "http://oval.mitre.org/XMLSchema/oval-definitions-5",
                              "Local": "criterion"
                            },
                            "Negate": false,
                            "TestRef": "oval:com.redhat.rhsa:tst:20204847084",
                            "Comment": "pki-base-java is earlier than 0:10.9.4-1.module+el8.3.0+8058+d5cd4219"
                          },
                          {
                            "XMLName": {
                              "Space": "http://oval.mitre.org/XMLSchema/oval-definitions-5",
                              "Local": "criterion"
                            },
                            "Negate": false,
                            "TestRef": "oval:com.redhat.rhsa:tst:20201644083",
                            "Comment": "pki-base-java is signed with Red Hat redhatrelease2 key"
                          }
                        ]
                      },
                      {
                        "XMLName": {
                          "Space": "http://oval.mitre.org/XMLSchema/oval-definitions-5",
                          "Local": "criteria"
                        },
                        "Operator": "AND",
                        "Criterias": null,
                        "Criterions": [
                          {
                            "XMLName": {
                              "Space": "http://oval.mitre.org/XMLSchema/oval-definitions-5",
                              "Local": "criterion"
                            },
                            "Negate": false,
                            "TestRef": "oval:com.redhat.rhsa:tst:20204847086",
                            "Comment": "pki-ca is earlier than 0:10.9.4-1.module+el8.3.0+8058+d5cd4219"
                          },
                          {
                            "XMLName": {
                              "Space": "http://oval.mitre.org/XMLSchema/oval-definitions-5",
                              "Local": "criterion"
                            },
                            "Negate": false,
                            "TestRef": "oval:com.redhat.rhsa:tst:20201644085",
                            "Comment": "pki-ca is signed with Red Hat redhatrelease2 key"
                          }
                        ]
                      },
                      {
                        "XMLName": {
                          "Space": "http://oval.mitre.org/XMLSchema/oval-definitions-5",
                          "Local": "criteria"
                        },
                        "Operator": "AND",
                        "Criterias": null,
                        "Criterions": [
                          {
                            "XMLName": {
                              "Space": "http://oval.mitre.org/XMLSchema/oval-definitions-5",
                              "Local": "criterion"
                            },
                            "Negate": false,
                            "TestRef": "oval:com.redhat.rhsa:tst:20204847088",
                            "Comment": "pki-core-debugsource is earlier than 0:10.9.4-1.module+el8.3.0+8058+d5cd4219"
                          },
                          {
                            "XMLName": {
                              "Space": "http://oval.mitre.org/XMLSchema/oval-definitions-5",
                              "Local": "criterion"
                            },
                            "Negate": false,
                            "TestRef": "oval:com.redhat.rhsa:tst:20201644087",
                            "Comment": "pki-core-debugsource is signed with Red Hat redhatrelease2 key"
                          }
                        ]
                      },
                      {
                        "XMLName": {
                          "Space": "http://oval.mitre.org/XMLSchema/oval-definitions-5",
                          "Local": "criteria"
                        },
                        "Operator": "AND",
                        "Criterias": null,
                        "Criterions": [
                          {
                            "XMLName": {
                              "Space": "http://oval.mitre.org/XMLSchema/oval-definitions-5",
                              "Local": "criterion"
                            },
                            "Negate": false,
                            "TestRef": "oval:com.redhat.rhsa:tst:20204847090",
                            "Comment": "pki-kra is earlier than 0:10.9.4-1.module+el8.3.0+8058+d5cd4219"
                          },
                          {
                            "XMLName": {
                              "Space": "http://oval.mitre.org/XMLSchema/oval-definitions-5",
                              "Local": "criterion"
                            },
                            "Negate": false,
                            "TestRef": "oval:com.redhat.rhsa:tst:20201644089",
                            "Comment": "pki-kra is signed with Red Hat redhatrelease2 key"
                          }
                        ]
                      },
                      {
                        "XMLName": {
                          "Space": "http://oval.mitre.org/XMLSchema/oval-definitions-5",
                          "Local": "criteria"
                        },
                        "Operator": "AND",
                        "Criterias": null,
                        "Criterions": [
                          {
                            "XMLName": {
                              "Space": "http://oval.mitre.org/XMLSchema/oval-definitions-5",
                              "Local": "criterion"
                            },
                            "Negate": false,
                            "TestRef": "oval:com.redhat.rhsa:tst:20204847092",
                            "Comment": "pki-server is earlier than 0:10.9.4-1.module+el8.3.0+8058+d5cd4219"
                          },
                          {
                            "XMLName": {
                              "Space": "http://oval.mitre.org/XMLSchema/oval-definitions-5",
                              "Local": "criterion"
                            },
                            "Negate": false,
                            "TestRef": "oval:com.redhat.rhsa:tst:20201644091",
                            "Comment": "pki-server is signed with Red Hat redhatrelease2 key"
                          }
                        ]
                      },
                      {
                        "XMLName": {
                          "Space": "http://oval.mitre.org/XMLSchema/oval-definitions-5",
                          "Local": "criteria"
                        },
                        "Operator": "AND",
                        "Criterias": null,
                        "Criterions": [
                          {
                            "XMLName": {
                              "Space": "http://oval.mitre.org/XMLSchema/oval-definitions-5",
                              "Local": "criterion"
                            },
                            "Negate": false,
                            "TestRef": "oval:com.redhat.rhsa:tst:20204847094",
                            "Comment": "pki-symkey is earlier than 0:10.9.4-1.module+el8.3.0+8058+d5cd4219"
                          },
                          {
                            "XMLName": {
                              "Space": "http://oval.mitre.org/XMLSchema/oval-definitions-5",
                              "Local": "criterion"
                            },
                            "Negate": false,
                            "TestRef": "oval:com.redhat.rhsa:tst:20201644093",
                            "Comment": "pki-symkey is signed with Red Hat redhatrelease2 key"
                          }
                        ]
                      },
                      {
                        "XMLName": {
                          "Space": "http://oval.mitre.org/XMLSchema/oval-definitions-5",
                          "Local": "criteria"
                        },
                        "Operator": "AND",
                        "Criterias": null,
                        "Criterions": [
                          {
                            "XMLName": {
                              "Space": "http://oval.mitre.org/XMLSchema/oval-definitions-5",
                              "Local": "criterion"
                            },
                            "Negate": false,
                            "TestRef": "oval:com.redhat.rhsa:tst:20204847096",
                            "Comment": "pki-tools is earlier than 0:10.9.4-1.module+el8.3.0+8058+d5cd4219"
                          },
                          {
                            "XMLName": {
                              "Space": "http://oval.mitre.org/XMLSchema/oval-definitions-5",
                              "Local": "criterion"
                            },
                            "Negate": false,
                            "TestRef": "oval:com.redhat.rhsa:tst:20201644095",
                            "Comment": "pki-tools is signed with Red Hat redhatrelease2 key"
                          }
                        ]
                      },
                      {
                        "XMLName": {
                          "Space": "http://oval.mitre.org/XMLSchema/oval-definitions-5",
                          "Local": "criteria"
                        },
                        "Operator": "AND",
                        "Criterias": null,
                        "Criterions": [
                          {
                            "XMLName": {
                              "Space": "http://oval.mitre.org/XMLSchema/oval-definitions-5",
                              "Local": "criterion"
                            },
                            "Negate": false,
                            "TestRef": "oval:com.redhat.rhsa:tst:20204847098",
                            "Comment": "python3-pki is earlier than 0:10.9.4-1.module+el8.3.0+8058+d5cd4219"
                          },
                          {
                            "XMLName": {
                              "Space": "http://oval.mitre.org/XMLSchema/oval-definitions-5",
                              "Local": "criterion"
                            },
                            "Negate": false,
                            "TestRef": "oval:com.redhat.rhsa:tst:20201644097",
                            "Comment": "python3-pki is signed with Red Hat redhatrelease2 key"
                          }
                        ]
                      },
                      {
                        "XMLName": {
                          "Space": "http://oval.mitre.org/XMLSchema/oval-definitions-5",
                          "Local": "criteria"
                        },
                        "Operator": "AND",
                        "Criterias": null,
                        "Criterions": [
                          {
                            "XMLName": {
                              "Space": "http://oval.mitre.org/XMLSchema/oval-definitions-5",
                              "Local": "criterion"
                            },
                            "Negate": false,
                            "TestRef": "oval:com.redhat.rhsa:tst:20204847100",
                            "Comment": "tomcatjss is earlier than 0:7.5.0-1.module+el8.3.0+7355+c59bcbd9"
                          },
                          {
                            "XMLName": {
                              "Space": "http://oval.mitre.org/XMLSchema/oval-definitions-5",
                              "Local": "criterion"
                            },
                            "Negate": false,
                            "TestRef": "oval:com.redhat.rhsa:tst:20201644099",
                            "Comment": "tomcatjss is signed with Red Hat redhatrelease2 key"
                          }
                        ]
                      }
                    ],
                    "Criterions": null
                  }
                ],
                "Criterions": [
                  {
                    "XMLName": {
                      "Space": "http://oval.mitre.org/XMLSchema/oval-definitions-5",
                      "Local": "criterion"
                    },
                    "Negate": false,
                    "TestRef": "oval:com.redhat.rhsa:tst:20201644100",
                    "Comment": "Module pki-core:10.6 is enabled"
                  }
                ]
              }
            ],
            "Criterions": null
          }
        ],
        "Criterions": [
          {
            "XMLName": {
              "Space": "http://oval.mitre.org/XMLSchema/oval-definitions-5",
              "Local": "criterion"
            },
            "Negate": false,
            "TestRef": "oval:com.redhat.rhba:tst:20193384074",
            "Comment": "Red Hat Enterprise Linux 8 is installed"
          }
        ]
      }
    ],
    "Criterions": [
      {
        "XMLName": {
          "Space": "http://oval.mitre.org/XMLSchema/oval-definitions-5",
          "Local": "criterion"
        },
        "Negate": false,
        "TestRef": "oval:com.redhat.rhba:tst:20193384075",
        "Comment": "Red Hat Enterprise Linux must be installed"
      }
    ]
  }
}