{
  "XMLName": {
    "Space": "http://oval.mitre.org/XMLSchema/oval-definitions-5",
    "Local": "definition"
  },
  "ID": "oval:com.redhat.rhsa:def:20204712",
  "Class": "patch",
  "Title": "RHSA-2020:4712: subversion:1.10 security update (Moderate)",
  "Affecteds": [
    {
      "XMLName": {
        "Space": "http://oval.mitre.org/XMLSchema/oval-definitions-5",
        "Local": "affected"
      },
      "Family": "unix",
      "Platforms": [
        "Red Hat Enterprise Linux 8"
      ]
    }
  ],
  "References": [
    {
      "XMLName": {
        "Space": "http://oval.mitre.org/XMLSchema/oval-definitions-5",
        "Local": "reference"
      },
      "Source": "RHSA",
      "RefID": "RHSA-2020:4712",
      "RefURL": "https://access.redhat.com/errata/RHSA-2020:4712"
    },
    {
      "XMLName": {
        "Space": "http://oval.mitre.org/XMLSchema/oval-definitions-5",
        "Local": "reference"
      },
      "Source": "CVE",
      "RefID": "CVE-2018-11782",
      "RefURL": "https://access.redhat.com/security/cve/CVE-2018-11782"
    }
  ],
  "Description": "Subversion (SVN) is a concurrent version control system which enables one or more users to collaborate in developing and maintaining a hierarchy of files and directories while keeping a history of all changes.\n\nSecurity Fix(es):\n\n* subversion: remotely triggerable DoS vulnerability in svnserve 'get-deleted-rev' (CVE-2018-11782)\n\nFor more details about the security issue(s), including the impact, a CVSS score, acknowledgments, and other related information, refer to the CVE page(s) listed in the References section.\n\nAdditional Changes:\n\nFor detailed information on changes in this release, see the Red Hat Enterprise Linux 8.3 Release Notes linked from the References section.",
  "Advisory": {
    "XMLName": {
      "Space": "http://oval.mitre.org/XMLSchema/oval-definitions-5",
      "Local": "advisory"
    },
    "Severity": "Moderate",
    "Cves": [
      {
        "XMLName": {
          "Space": "http://oval.mitre.org/XMLSchema/oval-definitions-5",
          "Local": "cve"
        },
        "CveID": "CVE-2018-11782",
        "Cvss2": "",
        "Cvss3": "6.5/CVSS:3.0/AV:N/AC:L/PR:L/UI:N/S:U/C:N/I:N/A:H",
        "Cwe": "CWE-617",
        "Impact": "",
        "Href": "https://access.redhat.com/security/cve/CVE-2018-11782",
        "Public": "20190731:1200"
      }
    ],
    "Bugzillas": [
      {
        "XMLName": {
          "Space": "http://oval.mitre.org/XMLSchema/oval-definitions-5",
          "Local": "bugzilla"
        },
        "ID": "1733088",
        "URL": "https://bugzilla.redhat.com/1733088",
        "Title": "CVE-2018-11782 subversion: remotely triggerable DoS vulnerability in svnserve 'get-deleted-rev'"
      }
    ],
    "AffectedCPEList": [
      "cpe:/a:redhat:enterprise_linux:8",
      "cpe:/a:redhat:enterprise_linux:8::appstream"
    ],
    "Issued": {
      "Date": "2020-11-04"
    },
    "Updated": {
      "Date": "2020-11-04"
    }
  },
  "Criteria": {
    "XMLName": {
      "Space": "http://oval.mitre.org/XMLSchema/oval-definitions-5",
      "Local": "criteria"
    },
    "Operator": "OR",
    "Criterias": [
      {
        "XMLName": {
          "Space": "http://oval.mitre.org/XMLSchema/oval-definitions-5",
          "Local": "criteria"
        },
        "Operator": "AND",
        "Criterias": [
          {
            "XMLName": {
              "Space": "http://oval.mitre.org/XMLSchema/oval-definitions-5",
              "Local": "criteria"
            },
            "Operator": "OR",
            "Criterias": [
              {
                "XMLName": {
                  "Space": "http://oval.mitre.org/XMLSchema/oval-definitions-5",
                  "Local": "criteria"
                },
                "Operator": "AND",
                "Criterias": null,
                "Criterions": [
                  {
                    "XMLName": {
                      "Space": "http://oval.mitre.org/XMLSchema/oval-definitions-5",
                      "Local": "criterion"
                    },
                    "Negate": false,
                    "TestRef": "oval:com.redhat.rhsa:tst:20204712001",
                    "Comment": "libserf is earlier than 0:1.3.9-9.module+el8.3.0+6671+2675c974"
                  },
                  {
                    "XMLName": {
                      "Space": "http://oval.mitre.org/XMLSchema/oval-definitions-5",
                      "Local": "criterion"
                    },
                    "Negate": false,
                    "TestRef": "oval:com.redhat.rhsa:tst:20192512002",
                    "Comment": "libserf is signed with Red Hat redhatrelease2 key"
                  }
                ]
              },
              {
                "XMLName": {
                  "Space": "http://oval.mitre.org/XMLSchema/oval-definitions-5",
                  "Local": "criteria"
                },
                "Operator": "AND",
                "Criterias": null,
                "Criterions": [
                  {
                    "XMLName": {
                      "Space": "http://oval.mitre.org/XMLSchema/oval-definitions-5",
                      "Local": "criterion"
                    },
                    "Negate": false,
                    "TestRef": "oval:com.redhat.rhsa:tst:20204712003",
                    "Comment": "libserf-debugsource is earlier than 0:1.3.9-9.module+el8.3.0+6671+2675c974"
                  },
                  {
                    "XMLName": {
                      "Space": "http://oval.mitre.org/XMLSchema/oval-definitions-5",
                      "Local": "criterion"
                    },
                    "Negate": false,
                    "TestRef": "oval:com.redhat.rhsa:tst:20192512004",
                    "Comment": "libserf-debugsource is signed with Red Hat redhatrelease2 key"
                  }
                ]
              },
              {
                "XMLName": {
                  "Space": "http://oval.mitre.org/XMLSchema/oval-definitions-5",
                  "Local": "criteria"
                },
                "Operator": "AND",
                "Criterias": null,
                "Criterions": [
                  {
                    "XMLName": {
                      "Space": "http://oval.mitre.org/XMLSchema/oval-definitions-5",
                      "Local": "criterion"
                    },
                    "Negate": false,
                    "TestRef": "oval:com.redhat.rhsa:tst:20204712005",
                    "Comment": "mod_dav_svn is earlier than 0:1.10.2-3.module+el8.3.0+6671+2675c974"
                  },
                  {
                    "XMLName": {
                      "Space": "http://oval.mitre.org/XMLSchema/oval-definitions-5",
                      "Local": "criterion"
                    },
                    "Negate": false,
                    "TestRef": "oval:com.redhat.rhsa:tst:20192512006",
                    "Comment": "mod_dav_svn is signed with Red Hat redhatrelease2 key"
                  }
                ]
              },
              {
                "XMLName": {
                  "Space": "http://oval.mitre.org/XMLSchema/oval-definitions-5",
                  "Local": "criteria"
                },
                "Operator": "AND",
                "Criterias": null,
                "Criterions": [
                  {
                    "XMLName": {
                      "Space": "http://oval.mitre.org/XMLSchema/oval-definitions-5",
                      "Local": "criterion"
                    },
                    "Negate": false,
                    "TestRef": "oval:com.redhat.rhsa:tst:20204712007",
                    "Comment": "subversion is earlier than 0:1.10.2-3.module+el8.3.0+6671+2675c974"
                  },
                  {
                    "XMLName": {
                      "Space": "http://oval.mitre.org/XMLSchema/oval-definitions-5",
                      "Local": "criterion"
                    },
                    "Negate": false,
                    "TestRef": "oval:com.redhat.rhsa:tst:20192512008",
                    "Comment": "subversion is signed with Red Hat redhatrelease2 key"
                  }
                ]
              },
              {
                "XMLName": {
                  "Space": "http://oval.mitre.org/XMLSchema/oval-definitions-5",
                  "Local": "criteria"
                },
                "Operator": "AND",
                "Criterias": null,
                "Criterions": [
                  {
                    "XMLName": {
                      "Space": "http://oval.mitre.org/XMLSchema/oval-definitions-5",
                      "Local": "criterion"
                    },
                    "Negate": false,
                    "TestRef": "oval:com.redhat.rhsa:tst:20204712009",
                    "Comment": "subversion-debugsource is earlier than 0:1.10.2-3.module+el8.3.0+6671+2675c974"
                  },
                  {
                    "XMLName": {
                      "Space": "http://oval.mitre.org/XMLSchema/oval-definitions-5",
                      "Local": "criterion"
                    },
                    "Negate": false,
                    "TestRef": "oval:com.redhat.rhsa:tst:20192512010",
                    "Comment": "subversion-debugsource is signed with Red Hat redhatrelease2 key"
                  }
                ]
              },
              {
                "XMLName": {
                  "Space": "http://oval.mitre.org/XMLSchema/oval-definitions-5",
                  "Local": "criteria"
                },
                "Operator": "AND",
                "Criterias": null,
                "Criterions": [
                  {
                    "XMLName": {
                      "Space": "http://oval.mitre.org/XMLSchema/oval-definitions-5",
                      "Local": "criterion"
                    },
                    "Negate": false,
                    "TestRef": "oval:com.redhat.rhsa:tst:20204712011",
                    "Comment": "subversion-devel is earlier than 0:1.10.2-3.module+el8.3.0+6671+2675c974"
                  },
                  {
                    "XMLName": {
                      "Space": "http://oval.mitre.org/XMLSchema/oval-definitions-5",
                      "Local": "criterion"
                    },
                    "Negate": false,
                    "TestRef": "oval:com.redhat.rhsa:tst:20192512012",
                    "Comment": "subversion-devel is signed with Red Hat redhatrelease2 key"
                  }
                ]
              },
              {
                "XMLName": {
                  "Space": "http://oval.mitre.org/XMLSchema/oval-definitions-5",
                  "Local": "criteria"
                },
                "Operator": "AND",
                "Criterias": null,
                "Criterions": [
                  {
                    "XMLName": {
                      "Space": "http://oval.mitre.org/XMLSchema/oval-definitions-5",
                      "Local": "criterion"
                    },
                    "Negate": false,
                    "TestRef": "oval:com.redhat.rhsa:tst:20204712013",
                    "Comment": "subversion-gnome is earlier than 0:1.10.2-3.module+el8.3.0+6671+2675c974"
                  },
                  {
                    "XMLName": {
                      "Space": "http://oval.mitre.org/XMLSchema/oval-definitions-5",
                      "Local": "criterion"
                    },
                    "Negate": false,
                    "TestRef": "oval:com.redhat.rhsa:tst:20192512014",
                    "Comment": "subversion-gnome is signed with Red Hat redhatrelease2 key"
                  }
                ]
              },
              {
                "XMLName": {
                  "Space": "http://oval.mitre.org/XMLSchema/oval-definitions-5",
                  "Local": "criteria"
                },
                "Operator": "AND",
                "Criterias": null,
                "Criterions": [
                  {
                    "XMLName": {
                      "Space": "http://oval.mitre.org/XMLSchema/oval-definitions-5",
                      "Local": "criterion"
                    },
                    "Negate": false,
                    "TestRef": "oval:com.redhat.rhsa:tst:20204712015",
                    "Comment": "subversion-javahl is earlier than 0:1.10.2-3.module+el8.3.0+6671+2675c974"
                  },
                  {
                    "XMLName": {
                      "Space": "http://oval.mitre.org/XMLSchema/oval-definitions-5",
                      "Local": "criterion"
                    },
                    "Negate": false,
                    "TestRef": "oval:com.redhat.rhsa:tst:20192512016",
                    "Comment": "subversion-javahl is signed with Red Hat redhatrelease2 key"
                  }
                ]
              },
              {
                "XMLName": {
                  "Space": "http://oval.mitre.org/XMLSchema/oval-definitions-5",
                  "Local": "criteria"
                },
                "Operator": "AND",
                "Criterias": null,
                "Criterions": [
                  {
                    "XMLName": {
                      "Space": "http://oval.mitre.org/XMLSchema/oval-definitions-5",
                      "Local": "criterion"
                    },
                    "Negate": false,
                    "TestRef": "oval:com.redhat.rhsa:tst:20204712017",
                    "Comment": "subversion-libs is earlier than 0:1.10.2-3.module+el8.3.0+6671+2675c974"
                  },
                  {
                    "XMLName": {
                      "Space": "http://oval.mitre.org/XMLSchema/oval-definitions-5",
                      "Local": "criterion"
                    },
                    "Negate": false,
                    "TestRef": "oval:com.redhat.rhsa:tst:20192512018",
                    "Comment": "subversion-libs is signed with Red Hat redhatrelease2 key"
                  }
                ]
              },
              {
                "XMLName": {
                  "Space": "http://oval.mitre.org/XMLSchema/oval-definitions-5",
                  "Local": "criteria"
                },
                "Operator": "AND",
                "Criterias": null,
                "Criterions": [
                  {
                    "XMLName": {
                      "Space": "http://oval.mitre.org/XMLSchema/oval-definitions-5",
                      "Local": "criterion"
                    },
                    "Negate": false,
                    "TestRef": "oval:com.redhat.rhsa:tst:20204712019",
                    "Comment": "subversion-perl is earlier than 0:1.10.2-3.module+el8.3.0+6671+2675c974"
                  },
                  {
                    "XMLName": {
                      "Space": "http://oval.mitre.org/XMLSchema/oval-definitions-5",
                      "Local": "criterion"
                    },
                    "Negate": false,
                    "TestRef": "oval:com.redhat.rhsa:tst:20192512020",
                    "Comment": "subversion-perl is signed with Red Hat redhatrelease2 key"
                  }
                ]
              },
              {
                "XMLName": {
                  "Space": "http://oval.mitre.org/XMLSchema/oval-definitions-5",
                  "Local": "criteria"
                },
                "Operator": "AND",
                "Criterias": null,
                "Criterions": [
                  {
                    "XMLName": {
                      "Space": "http://oval.mitre.org/XMLSchema/oval-definitions-5",
                      "Local": "criterion"
                    },
                    "Negate": false,
                    "TestRef": "oval:com.redhat.rhsa:tst:20204712021",
                    "Comment": "subversion-tools is earlier than 0:1.10.2-3.module+el8.3.0+6671+2675c974"
                  },
                  {
                    "XMLName": {
                      "Space": "http://oval.mitre.org/XMLSchema/oval-definitions-5",
                      "Local": "criterion"
                    },
                    "Negate": false,
                    "TestRef": "oval:com.redhat.rhsa:tst:20192512022",
                    "Comment": "subversion-tools is signed with Red Hat redhatrelease2 key"
                  }
                ]
              },
              {
                "XMLName": {
                  "Space": "http://oval.mitre.org/XMLSchema/oval-definitions-5",
                  "Local": "criteria"
                },
                "Operator": "AND",
                "Criterias": null,
                "Criterions": [
                  {
                    "XMLName": {
                      "Space": "http://oval.mitre.org/XMLSchema/oval-definitions-5",
                      "Local": "criterion"
                    },
                    "Negate": false,
                    "TestRef": "oval:com.redhat.rhsa:tst:20204712023",
                    "Comment": "utf8proc is earlier than 0:2.1.1-5.module+el8.3.0+6671+2675c974"
                  },
                  {
                    "XMLName": {
                      "Space": "http://oval.mitre.org/XMLSchema/oval-definitions-5",
                      "Local": "criterion"
                    },
                    "Negate": false,
                    "TestRef": "oval:com.redhat.rhsa:tst:20192512024",
                    "Comment": "utf8proc is signed with Red Hat redhatrelease2 key"
                  }
                ]
              },
              {
                "XMLName": {
                  "Space": "http://oval.mitre.org/XMLSchema/oval-definitions-5",
                  "Local": "criteria"
                },
                "Operator": "AND",
                "Criterias": null,
                "Criterions": [
                  {
                    "XMLName": {
                      "Space": "http://oval.mitre.org/XMLSchema/oval-definitions-5",
                      "Local": "criterion"
                    },
                    "Negate": false,
                    "TestRef": "oval:com.redhat.rhsa:tst:20204712025",
                    "Comment": "utf8proc-debugsource is earlier than 0:2.1.1-5.module+el8.3.0+6671+2675c974"
                  },
                  {
                    "XMLName": {
                      "Space": "http://oval.mitre.org/XMLSchema/oval-definitions-5",
                      "Local": "criterion"
                    },
                    "Negate": false,
                    "TestRef": "oval:com.redhat.rhsa:tst:20192512026",
                    "Comment": "utf8proc-debugsource is signed with Red Hat redhatrelease2 key"
                  }
                ]
              }
            ],
            "Criterions": null
          }
        ],
        "Criterions": [
          {
            "XMLName": {
              "Space": "http://oval.mitre.org/XMLSchema/oval-definitions-5",
              "Local": "criterion"
            },
            "Negate": false,
            "TestRef": "oval:com.redhat.rhba:tst:20193384074",
            "Comment": "Red Hat Enterprise Linux 8 is installed"
          },
          {
            "XMLName": {
              "Space": "http://oval.mitre.org/XMLSchema/oval-definitions-5",
              "Local": "criterion"
            },
            "Negate": false,
            "TestRef": "oval:com.redhat.rhsa:tst:20192512027",
            "Comment": "Module subversion:1.10 is enabled"
          }
        ]
      }
    ],
    "Criterions": [
      {
        "XMLName": {
          "Space": "http://oval.mitre.org/XMLSchema/oval-definitions-5",
          "Local": "criterion"
        },
        "Negate": false,
        "TestRef": "oval:com.redhat.rhba:tst:20193384075",
        "Comment": "Red Hat Enterprise Linux must be installed"
      }
    ]
  }
}