{
  "XMLName": {
    "Space": "http://oval.mitre.org/XMLSchema/oval-definitions-5",
    "Local": "definition"
  },
  "ID": "oval:com.redhat.rhsa:def:20204799",
  "Class": "patch",
  "Title": "RHSA-2020:4799: freeradius:3.0 security and bug fix update (Moderate)",
  "Affecteds": [
    {
      "XMLName": {
        "Space": "http://oval.mitre.org/XMLSchema/oval-definitions-5",
        "Local": "affected"
      },
      "Family": "unix",
      "Platforms": [
        "Red Hat Enterprise Linux 8"
      ]
    }
  ],
  "References": [
    {
      "XMLName": {
        "Space": "http://oval.mitre.org/XMLSchema/oval-definitions-5",
        "Local": "reference"
      },
      "Source": "RHSA",
      "RefID": "RHSA-2020:4799",
      "RefURL": "https://access.redhat.com/errata/RHSA-2020:4799"
    },
    {
      "XMLName": {
        "Space": "http://oval.mitre.org/XMLSchema/oval-definitions-5",
        "Local": "reference"
      },
      "Source": "CVE",
      "RefID": "CVE-2019-17185",
      "RefURL": "https://access.redhat.com/security/cve/CVE-2019-17185"
    }
  ],
  "Description": "FreeRADIUS is a high-performance and highly configurable free Remote Authentication Dial In User Service (RADIUS) server, designed to allow centralized authentication and authorization for a network.\n\nSecurity Fix(es):\n\n* freeradius: eap-pwd: DoS issues due to multithreaded BN_CTX access (CVE-2019-17185)\n\nFor more details about the security issue(s), including the impact, a CVSS score, acknowledgments, and other related information, refer to the CVE page(s) listed in the References section.\n\nAdditional Changes:\n\nFor detailed information on changes in this release, see the Red Hat Enterprise Linux 8.3 Release Notes linked from the References section.",
  "Advisory": {
    "XMLName": {
      "Space": "http://oval.mitre.org/XMLSchema/oval-definitions-5",
      "Local": "advisory"
    },
    "Severity": "Moderate",
    "Cves": [
      {
        "XMLName": {
          "Space": "http://oval.mitre.org/XMLSchema/oval-definitions-5",
          "Local": "cve"
        },
        "CveID": "CVE-2019-17185",
        "Cvss2": "",
        "Cvss3": "7.5/CVSS:3.1/AV:N/AC:L/PR:N/UI:N/S:U/C:N/I:N/A:H",
        "Cwe": "CWE-567",
        "Impact": "",
        "Href": "https://access.redhat.com/security/cve/CVE-2019-17185",
        "Public": "20191114"
      }
    ],
    "Bugzillas": [
      {
        "XMLName": {
          "Space": "http://oval.mitre.org/XMLSchema/oval-definitions-5",
          "Local": "bugzilla"
        },
        "ID": "1672285",
        "URL": "https://bugzilla.redhat.com/1672285",
        "Title": "FreeRADIUS should not generate certificates at package installation"
      },
      {
        "XMLName": {
          "Space": "http://oval.mitre.org/XMLSchema/oval-definitions-5",
          "Local": "bugzilla"
        },
        "ID": "1805975",
        "URL": "https://bugzilla.redhat.com/1805975",
        "Title": "Creating tmp files for systemd on behalf of freeradius references legacy directory /var/run/ instead of /run"
      },
      {
        "XMLName": {
          "Space": "http://oval.mitre.org/XMLSchema/oval-definitions-5",
          "Local": "bugzilla"
        },
        "ID": "1816680",
        "URL": "https://bugzilla.redhat.com/1816680",
        "Title": "CVE-2019-17185 freeradius: eap-pwd: DoS issues due to multithreaded BN_CTX access"
      },
      {
        "XMLName": {
          "Space": "http://oval.mitre.org/XMLSchema/oval-definitions-5",
          "Local": "bugzilla"
        },
        "ID": "1859527",
        "URL": "https://bugzilla.redhat.com/1859527",
        "Title": "freeradius can't generate dhparams with OpenSSL in FIPS"
      }
    ],
    "AffectedCPEList": [
      "cpe:/a:redhat:enterprise_linux:8",
      "cpe:/a:redhat:enterprise_linux:8::appstream"
    ],
    "Issued": {
      "Date": "2020-11-04"
    },
    "Updated": {
      "Date": "2020-11-04"
    }
  },
  "Criteria": {
    "XMLName": {
      "Space": "http://oval.mitre.org/XMLSchema/oval-definitions-5",
      "Local": "criteria"
    },
    "Operator": "OR",
    "Criterias": [
      {
        "XMLName": {
          "Space": "http://oval.mitre.org/XMLSchema/oval-definitions-5",
          "Local": "criteria"
        },
        "Operator": "AND",
        "Criterias": [
          {
            "XMLName": {
              "Space": "http://oval.mitre.org/XMLSchema/oval-definitions-5",
              "Local": "criteria"
            },
            "Operator": "OR",
            "Criterias": [
              {
                "XMLName": {
                  "Space": "http://oval.mitre.org/XMLSchema/oval-definitions-5",
                  "Local": "criteria"
                },
                "Operator": "AND",
                "Criterias": null,
                "Criterions": [
                  {
                    "XMLName": {
                      "Space": "http://oval.mitre.org/XMLSchema/oval-definitions-5",
                      "Local": "criterion"
                    },
                    "Negate": false,
                    "TestRef": "oval:com.redhat.rhsa:tst:20204799001",
                    "Comment": "freeradius is earlier than 0:3.0.20-3.module+el8.3.0+7597+67902674"
                  },
                  {
                    "XMLName": {
                      "Space": "http://oval.mitre.org/XMLSchema/oval-definitions-5",
                      "Local": "criterion"
                    },
                    "Negate": false,
                    "TestRef": "oval:com.redhat.rhsa:tst:20191142002",
                    "Comment": "freeradius is signed with Red Hat redhatrelease2 key"
                  }
                ]
              },
              {
                "XMLName": {
                  "Space": "http://oval.mitre.org/XMLSchema/oval-definitions-5",
                  "Local": "criteria"
                },
                "Operator": "AND",
                "Criterias": null,
                "Criterions": [
                  {
                    "XMLName": {
                      "Space": "http://oval.mitre.org/XMLSchema/oval-definitions-5",
                      "Local": "criterion"
                    },
                    "Negate": false,
                    "TestRef": "oval:com.redhat.rhsa:tst:20204799003",
                    "Comment": "freeradius-debugsource is earlier than 0:3.0.20-3.module+el8.3.0+7597+67902674"
                  },
                  {
                    "XMLName": {
                      "Space": "http://oval.mitre.org/XMLSchema/oval-definitions-5",
                      "Local": "criterion"
                    },
                    "Negate": false,
                    "TestRef": "oval:com.redhat.rhsa:tst:20191142004",
                    "Comment": "freeradius-debugsource is signed with Red Hat redhatrelease2 key"
                  }
                ]
              },
              {
                "XMLName": {
                  "Space": "http://oval.mitre.org/XMLSchema/oval-definitions-5",
                  "Local": "criteria"
                },
                "Operator": "AND",
                "Criterias": null,
                "Criterions": [
                  {
                    "XMLName": {
                      "Space": "http://oval.mitre.org/XMLSchema/oval-definitions-5",
                      "Local": "criterion"
                    },
                    "Negate": false,
                    "TestRef": "oval:com.redhat.rhsa:tst:20204799005",
                    "Comment": "freeradius-devel is earlier than 0:3.0.20-3.module+el8.3.0+7597+67902674"
                  },
                  {
                    "XMLName": {
                      "Space": "http://oval.mitre.org/XMLSchema/oval-definitions-5",
                      "Local": "criterion"
                    },
                    "Negate": false,
                    "TestRef": "oval:com.redhat.rhsa:tst:20191142006",
                    "Comment": "freeradius-devel is signed with Red Hat redhatrelease2 key"
                  }
                ]
              },
              {
                "XMLName": {
                  "Space": "http://oval.mitre.org/XMLSchema/oval-definitions-5",
                  "Local": "criteria"
                },
                "Operator": "AND",
                "Criterias": null,
                "Criterions": [
                  {
                    "XMLName": {
                      "Space": "http://oval.mitre.org/XMLSchema/oval-definitions-5",
                      "Local": "criterion"
                    },
                    "Negate": false,
                    "TestRef": "oval:com.redhat.rhsa:tst:20204799007",
                    "Comment": "freeradius-doc is earlier than 0:3.0.20-3.module+el8.3.0+7597+67902674"
                  },
                  {
                    "XMLName": {
                      "Space": "http://oval.mitre.org/XMLSchema/oval-definitions-5",
                      "Local": "criterion"
                    },
                    "Negate": false,
                    "TestRef": "oval:com.redhat.rhsa:tst:20191142008",
                    "Comment": "freeradius-doc is signed with Red Hat redhatrelease2 key"
                  }
                ]
              },
              {
                "XMLName": {
                  "Space": "http://oval.mitre.org/XMLSchema/oval-definitions-5",
                  "Local": "criteria"
                },
                "Operator": "AND",
                "Criterias": null,
                "Criterions": [
                  {
                    "XMLName": {
                      "Space": "http://oval.mitre.org/XMLSchema/oval-definitions-5",
                      "Local": "criterion"
                    },
                    "Negate": false,
                    "TestRef": "oval:com.redhat.rhsa:tst:20204799009",
                    "Comment": "freeradius-krb5 is earlier than 0:3.0.20-3.module+el8.3.0+7597+67902674"
                  },
                  {
                    "XMLName": {
                      "Space": "http://oval.mitre.org/XMLSchema/oval-definitions-5",
                      "Local": "criterion"
                    },
                    "Negate": false,
                    "TestRef": "oval:com.redhat.rhsa:tst:20191142010",
                    "Comment": "freeradius-krb5 is signed with Red Hat redhatrelease2 key"
                  }
                ]
              },
              {
                "XMLName": {
                  "Space": "http://oval.mitre.org/XMLSchema/oval-definitions-5",
                  "Local": "criteria"
                },
                "Operator": "AND",
                "Criterias": null,
                "Criterions": [
                  {
                    "XMLName": {
                      "Space": "http://oval.mitre.org/XMLSchema/oval-definitions-5",
                      "Local": "criterion"
                    },
                    "Negate": false,
                    "TestRef": "oval:com.redhat.rhsa:tst:20204799011",
                    "Comment": "freeradius-ldap is earlier than 0:3.0.20-3.module+el8.3.0+7597+67902674"
                  },
                  {
                    "XMLName": {
                      "Space": "http://oval.mitre.org/XMLSchema/oval-definitions-5",
                      "Local": "criterion"
                    },
                    "Negate": false,
                    "TestRef": "oval:com.redhat.rhsa:tst:20191142012",
                    "Comment": "freeradius-ldap is signed with Red Hat redhatrelease2 key"
                  }
                ]
              },
              {
                "XMLName": {
                  "Space": "http://oval.mitre.org/XMLSchema/oval-definitions-5",
                  "Local": "criteria"
                },
                "Operator": "AND",
                "Criterias": null,
                "Criterions": [
                  {
                    "XMLName": {
                      "Space": "http://oval.mitre.org/XMLSchema/oval-definitions-5",
                      "Local": "criterion"
                    },
                    "Negate": false,
                    "TestRef": "oval:com.redhat.rhsa:tst:20204799013",
                    "Comment": "freeradius-mysql is earlier than 0:3.0.20-3.module+el8.3.0+7597+67902674"
                  },
                  {
                    "XMLName": {
                      "Space": "http://oval.mitre.org/XMLSchema/oval-definitions-5",
                      "Local": "criterion"
                    },
                    "Negate": false,
                    "TestRef": "oval:com.redhat.rhsa:tst:20191142014",
                    "Comment": "freeradius-mysql is signed with Red Hat redhatrelease2 key"
                  }
                ]
              },
              {
                "XMLName": {
                  "Space": "http://oval.mitre.org/XMLSchema/oval-definitions-5",
                  "Local": "criteria"
                },
                "Operator": "AND",
                "Criterias": null,
                "Criterions": [
                  {
                    "XMLName": {
                      "Space": "http://oval.mitre.org/XMLSchema/oval-definitions-5",
                      "Local": "criterion"
                    },
                    "Negate": false,
                    "TestRef": "oval:com.redhat.rhsa:tst:20204799015",
                    "Comment": "freeradius-perl is earlier than 0:3.0.20-3.module+el8.3.0+7597+67902674"
                  },
                  {
                    "XMLName": {
                      "Space": "http://oval.mitre.org/XMLSchema/oval-definitions-5",
                      "Local": "criterion"
                    },
                    "Negate": false,
                    "TestRef": "oval:com.redhat.rhsa:tst:20191142016",
                    "Comment": "freeradius-perl is signed with Red Hat redhatrelease2 key"
                  }
                ]
              },
              {
                "XMLName": {
                  "Space": "http://oval.mitre.org/XMLSchema/oval-definitions-5",
                  "Local": "criteria"
                },
                "Operator": "AND",
                "Criterias": null,
                "Criterions": [
                  {
                    "XMLName": {
                      "Space": "http://oval.mitre.org/XMLSchema/oval-definitions-5",
                      "Local": "criterion"
                    },
                    "Negate": false,
                    "TestRef": "oval:com.redhat.rhsa:tst:20204799017",
                    "Comment": "freeradius-postgresql is earlier than 0:3.0.20-3.module+el8.3.0+7597+67902674"
                  },
                  {
                    "XMLName": {
                      "Space": "http://oval.mitre.org/XMLSchema/oval-definitions-5",
                      "Local": "criterion"
                    },
                    "Negate": false,
                    "TestRef": "oval:com.redhat.rhsa:tst:20191142018",
                    "Comment": "freeradius-postgresql is signed with Red Hat redhatrelease2 key"
                  }
                ]
              },
              {
                "XMLName": {
                  "Space": "http://oval.mitre.org/XMLSchema/oval-definitions-5",
                  "Local": "criteria"
                },
                "Operator": "AND",
                "Criterias": null,
                "Criterions": [
                  {
                    "XMLName": {
                      "Space": "http://oval.mitre.org/XMLSchema/oval-definitions-5",
                      "Local": "criterion"
                    },
                    "Negate": false,
                    "TestRef": "oval:com.redhat.rhsa:tst:20204799019",
                    "Comment": "freeradius-rest is earlier than 0:3.0.20-3.module+el8.3.0+7597+67902674"
                  },
                  {
                    "XMLName": {
                      "Space": "http://oval.mitre.org/XMLSchema/oval-definitions-5",
                      "Local": "criterion"
                    },
                    "Negate": false,
                    "TestRef": "oval:com.redhat.rhsa:tst:20191142020",
                    "Comment": "freeradius-rest is signed with Red Hat redhatrelease2 key"
                  }
                ]
              },
              {
                "XMLName": {
                  "Space": "http://oval.mitre.org/XMLSchema/oval-definitions-5",
                  "Local": "criteria"
                },
                "Operator": "AND",
                "Criterias": null,
                "Criterions": [
                  {
                    "XMLName": {
                      "Space": "http://oval.mitre.org/XMLSchema/oval-definitions-5",
                      "Local": "criterion"
                    },
                    "Negate": false,
                    "TestRef": "oval:com.redhat.rhsa:tst:20204799021",
                    "Comment": "freeradius-sqlite is earlier than 0:3.0.20-3.module+el8.3.0+7597+67902674"
                  },
                  {
                    "XMLName": {
                      "Space": "http://oval.mitre.org/XMLSchema/oval-definitions-5",
                      "Local": "criterion"
                    },
                    "Negate": false,
                    "TestRef": "oval:com.redhat.rhsa:tst:20191142022",
                    "Comment": "freeradius-sqlite is signed with Red Hat redhatrelease2 key"
                  }
                ]
              },
              {
                "XMLName": {
                  "Space": "http://oval.mitre.org/XMLSchema/oval-definitions-5",
                  "Local": "criteria"
                },
                "Operator": "AND",
                "Criterias": null,
                "Criterions": [
                  {
                    "XMLName": {
                      "Space": "http://oval.mitre.org/XMLSchema/oval-definitions-5",
                      "Local": "criterion"
                    },
                    "Negate": false,
                    "TestRef": "oval:com.redhat.rhsa:tst:20204799023",
                    "Comment": "freeradius-unixODBC is earlier than 0:3.0.20-3.module+el8.3.0+7597+67902674"
                  },
                  {
                    "XMLName": {
                      "Space": "http://oval.mitre.org/XMLSchema/oval-definitions-5",
                      "Local": "criterion"
                    },
                    "Negate": false,
                    "TestRef": "oval:com.redhat.rhsa:tst:20191142024",
                    "Comment": "freeradius-unixODBC is signed with Red Hat redhatrelease2 key"
                  }
                ]
              },
              {
                "XMLName": {
                  "Space": "http://oval.mitre.org/XMLSchema/oval-definitions-5",
                  "Local": "criteria"
                },
                "Operator": "AND",
                "Criterias": null,
                "Criterions": [
                  {
                    "XMLName": {
                      "Space": "http://oval.mitre.org/XMLSchema/oval-definitions-5",
                      "Local": "criterion"
                    },
                    "Negate": false,
                    "TestRef": "oval:com.redhat.rhsa:tst:20204799025",
                    "Comment": "freeradius-utils is earlier than 0:3.0.20-3.module+el8.3.0+7597+67902674"
                  },
                  {
                    "XMLName": {
                      "Space": "http://oval.mitre.org/XMLSchema/oval-definitions-5",
                      "Local": "criterion"
                    },
                    "Negate": false,
                    "TestRef": "oval:com.redhat.rhsa:tst:20191142026",
                    "Comment": "freeradius-utils is signed with Red Hat redhatrelease2 key"
                  }
                ]
              },
              {
                "XMLName": {
                  "Space": "http://oval.mitre.org/XMLSchema/oval-definitions-5",
                  "Local": "criteria"
                },
                "Operator": "AND",
                "Criterias": null,
                "Criterions": [
                  {
                    "XMLName": {
                      "Space": "http://oval.mitre.org/XMLSchema/oval-definitions-5",
                      "Local": "criterion"
                    },
                    "Negate": false,
                    "TestRef": "oval:com.redhat.rhsa:tst:20204799027",
                    "Comment": "python3-freeradius is earlier than 0:3.0.20-3.module+el8.3.0+7597+67902674"
                  },
                  {
                    "XMLName": {
                      "Space": "http://oval.mitre.org/XMLSchema/oval-definitions-5",
                      "Local": "criterion"
                    },
                    "Negate": false,
                    "TestRef": "oval:com.redhat.rhsa:tst:20204799028",
                    "Comment": "python3-freeradius is signed with Red Hat redhatrelease2 key"
                  }
                ]
              }
            ],
            "Criterions": null
          }
        ],
        "Criterions": [
          {
            "XMLName": {
              "Space": "http://oval.mitre.org/XMLSchema/oval-definitions-5",
              "Local": "criterion"
            },
            "Negate": false,
            "TestRef": "oval:com.redhat.rhba:tst:20193384074",
            "Comment": "Red Hat Enterprise Linux 8 is installed"
          },
          {
            "XMLName": {
              "Space": "http://oval.mitre.org/XMLSchema/oval-definitions-5",
              "Local": "criterion"
            },
            "Negate": false,
            "TestRef": "oval:com.redhat.rhsa:tst:20191142027",
            "Comment": "Module freeradius:3.0 is enabled"
          }
        ]
      }
    ],
    "Criterions": [
      {
        "XMLName": {
          "Space": "http://oval.mitre.org/XMLSchema/oval-definitions-5",
          "Local": "criterion"
        },
        "Negate": false,
        "TestRef": "oval:com.redhat.rhba:tst:20193384075",
        "Comment": "Red Hat Enterprise Linux must be installed"
      }
    ]
  }
}