{
  "XMLName": {
    "Space": "http://oval.mitre.org/XMLSchema/oval-definitions-5",
    "Local": "definition"
  },
  "ID": "oval:com.redhat.rhsa:def:20190229",
  "Class": "patch",
  "Title": "RHSA-2019:0229: ghostscript security and bug fix update (Important)",
  "Affecteds": [
    {
      "XMLName": {
        "Space": "http://oval.mitre.org/XMLSchema/oval-definitions-5",
        "Local": "affected"
      },
      "Family": "unix",
      "Platforms": [
        "Red Hat Enterprise Linux 7"
      ]
    }
  ],
  "References": [
    {
      "XMLName": {
        "Space": "http://oval.mitre.org/XMLSchema/oval-definitions-5",
        "Local": "reference"
      },
      "Source": "RHSA",
      "RefID": "RHSA-2019:0229",
      "RefURL": "https://access.redhat.com/errata/RHSA-2019:0229"
    },
    {
      "XMLName": {
        "Space": "http://oval.mitre.org/XMLSchema/oval-definitions-5",
        "Local": "reference"
      },
      "Source": "CVE",
      "RefID": "CVE-2018-16540",
      "RefURL": "https://access.redhat.com/security/cve/CVE-2018-16540"
    },
    {
      "XMLName": {
        "Space": "http://oval.mitre.org/XMLSchema/oval-definitions-5",
        "Local": "reference"
      },
      "Source": "CVE",
      "RefID": "CVE-2018-19475",
      "RefURL": "https://access.redhat.com/security/cve/CVE-2018-19475"
    },
    {
      "XMLName": {
        "Space": "http://oval.mitre.org/XMLSchema/oval-definitions-5",
        "Local": "reference"
      },
      "Source": "CVE",
      "RefID": "CVE-2018-19476",
      "RefURL": "https://access.redhat.com/security/cve/CVE-2018-19476"
    },
    {
      "XMLName": {
        "Space": "http://oval.mitre.org/XMLSchema/oval-definitions-5",
        "Local": "reference"
      },
      "Source": "CVE",
      "RefID": "CVE-2018-19477",
      "RefURL": "https://access.redhat.com/security/cve/CVE-2018-19477"
    },
    {
      "XMLName": {
        "Space": "http://oval.mitre.org/XMLSchema/oval-definitions-5",
        "Local": "reference"
      },
      "Source": "CVE",
      "RefID": "CVE-2019-6116",
      "RefURL": "https://access.redhat.com/security/cve/CVE-2019-6116"
    }
  ],
  "Description": "The Ghostscript suite contains utilities for rendering PostScript and PDF documents. Ghostscript translates PostScript code to common bitmap formats so that the code can be displayed or printed.\n\nSecurity Fix(es):\n\n* ghostscript: use-after-free in copydevice handling (699661) (CVE-2018-16540)\n\n* ghostscript: access bypass in psi/zdevice2.c (700153) (CVE-2018-19475)\n\n* ghostscript: access bypass in psi/zicc.c (700169) (CVE-2018-19476)\n\n* ghostscript: access bypass in psi/zfjbig2.c (700168) (CVE-2018-19477)\n\n* ghostscript: subroutines within pseudo-operators must themselves be pseudo-operators (700317) (CVE-2019-6116)\n\nFor more details about the security issue(s), including the impact, a CVSS score, and other related information, refer to the CVE page(s) listed in the References section.\n\nRed Hat would like to thank Tavis Ormandy (Google Project Zero) for reporting CVE-2019-6116.\n\nBug Fix(es):\n\n* Previously, ghostscript-9.07-31.el7_6.1 introduced a regression during the standard input reading, causing a \"/invalidfileaccess in --run--\" error. With this update, the regression has been fixed and the described error no longer occurs. (BZ#1665919)",
  "Advisory": {
    "XMLName": {
      "Space": "http://oval.mitre.org/XMLSchema/oval-definitions-5",
      "Local": "advisory"
    },
    "Severity": "Important",
    "Cves": [
      {
        "XMLName": {
          "Space": "http://oval.mitre.org/XMLSchema/oval-definitions-5",
          "Local": "cve"
        },
        "CveID": "CVE-2018-16540",
        "Cvss2": "",
        "Cvss3": "7.3/CVSS:3.0/AV:N/AC:L/PR:N/UI:N/S:U/C:L/I:L/A:L",
        "Cwe": "CWE-416",
        "Impact": "",
        "Href": "https://access.redhat.com/security/cve/CVE-2018-16540",
        "Public": "20180906"
      },
      {
        "XMLName": {
          "Space": "http://oval.mitre.org/XMLSchema/oval-definitions-5",
          "Local": "cve"
        },
        "CveID": "CVE-2018-19475",
        "Cvss2": "",
        "Cvss3": "7.3/CVSS:3.0/AV:N/AC:L/PR:N/UI:N/S:U/C:L/I:L/A:L",
        "Cwe": "CWE-119",
        "Impact": "",
        "Href": "https://access.redhat.com/security/cve/CVE-2018-19475",
        "Public": "20181120"
      },
      {
        "XMLName": {
          "Space": "http://oval.mitre.org/XMLSchema/oval-definitions-5",
          "Local": "cve"
        },
        "CveID": "CVE-2018-19476",
        "Cvss2": "",
        "Cvss3": "7.3/CVSS:3.0/AV:N/AC:L/PR:N/UI:N/S:U/C:L/I:L/A:L",
        "Cwe": "CWE-843",
        "Impact": "",
        "Href": "https://access.redhat.com/security/cve/CVE-2018-19476",
        "Public": "20181120"
      },
      {
        "XMLName": {
          "Space": "http://oval.mitre.org/XMLSchema/oval-definitions-5",
          "Local": "cve"
        },
        "CveID": "CVE-2018-19477",
        "Cvss2": "",
        "Cvss3": "7.3/CVSS:3.0/AV:N/AC:L/PR:N/UI:N/S:U/C:L/I:L/A:L",
        "Cwe": "CWE-843",
        "Impact": "",
        "Href": "https://access.redhat.com/security/cve/CVE-2018-19477",
        "Public": "20181120"
      },
      {
        "XMLName": {
          "Space": "http://oval.mitre.org/XMLSchema/oval-definitions-5",
          "Local": "cve"
        },
        "CveID": "CVE-2019-6116",
        "Cvss2": "",
        "Cvss3": "7.3/CVSS:3.0/AV:N/AC:L/PR:N/UI:N/S:U/C:L/I:L/A:L",
        "Cwe": "",
        "Impact": "",
        "Href": "https://access.redhat.com/security/cve/CVE-2019-6116",
        "Public": "20190123"
      }
    ],
    "Bugzillas": [
      {
        "XMLName": {
          "Space": "http://oval.mitre.org/XMLSchema/oval-definitions-5",
          "Local": "bugzilla"
        },
        "ID": "1625843",
        "URL": "https://bugzilla.redhat.com/1625843",
        "Title": "CVE-2018-16540 ghostscript: use-after-free in copydevice handling (699661)"
      },
      {
        "XMLName": {
          "Space": "http://oval.mitre.org/XMLSchema/oval-definitions-5",
          "Local": "bugzilla"
        },
        "ID": "1654459",
        "URL": "https://bugzilla.redhat.com/1654459",
        "Title": "CVE-2018-19475 ghostscript: access bypass in psi/zdevice2.c (700153)"
      },
      {
        "XMLName": {
          "Space": "http://oval.mitre.org/XMLSchema/oval-definitions-5",
          "Local": "bugzilla"
        },
        "ID": "1654464",
        "URL": "https://bugzilla.redhat.com/1654464",
        "Title": "CVE-2018-19476 ghostscript: access bypass in psi/zicc.c (700169)"
      },
      {
        "XMLName": {
          "Space": "http://oval.mitre.org/XMLSchema/oval-definitions-5",
          "Local": "bugzilla"
        },
        "ID": "1654468",
        "URL": "https://bugzilla.redhat.com/1654468",
        "Title": "CVE-2018-19477 ghostscript: access bypass in psi/zfjbig2.c (700168)"
      },
      {
        "XMLName": {
          "Space": "http://oval.mitre.org/XMLSchema/oval-definitions-5",
          "Local": "bugzilla"
        },
        "ID": "1665919",
        "URL": "https://bugzilla.redhat.com/1665919",
        "Title": "ghostscript: Regression: pdf2ps reports an error when reading from stdin (Error: /invalidfileaccess in --run--) [rhel-7.6.z]"
      },
      {
        "XMLName": {
          "Space": "http://oval.mitre.org/XMLSchema/oval-definitions-5",
          "Local": "bugzilla"
        },
        "ID": "1666636",
        "URL": "https://bugzilla.redhat.com/1666636",
        "Title": "CVE-2019-6116 ghostscript: subroutines within pseudo-operators must themselves be pseudo-operators (700317)"
      }
    ],
    "AffectedCPEList": [
      "cpe:/o:redhat:enterprise_linux:7",
      "cpe:/o:redhat:enterprise_linux:7::client",
      "cpe:/o:redhat:enterprise_linux:7::computenode",
      "cpe:/o:redhat:enterprise_linux:7::server",
      "cpe:/o:redhat:enterprise_linux:7::workstation"
    ],
    "Issued": {
      "Date": "2019-01-31"
    },
    "Updated": {
      "Date": "2019-01-31"
    }
  },
  "Criteria": {
    "XMLName": {
      "Space": "http://oval.mitre.org/XMLSchema/oval-definitions-5",
      "Local": "criteria"
    },
    "Operator": "OR",
    "Criterias": [
      {
        "XMLName": {
          "Space": "http://oval.mitre.org/XMLSchema/oval-definitions-5",
          "Local": "criteria"
        },
        "Operator": "AND",
        "Criterias": [
          {
            "XMLName": {
              "Space": "http://oval.mitre.org/XMLSchema/oval-definitions-5",
              "Local": "criteria"
            },
            "Operator": "OR",
            "Criterias": [
              {
                "XMLName": {
                  "Space": "http://oval.mitre.org/XMLSchema/oval-definitions-5",
                  "Local": "criteria"
                },
                "Operator": "AND",
                "Criterias": null,
                "Criterions": [
                  {
                    "XMLName": {
                      "Space": "http://oval.mitre.org/XMLSchema/oval-definitions-5",
                      "Local": "criterion"
                    },
                    "Negate": false,
                    "TestRef": "oval:com.redhat.rhsa:tst:20190229001",
                    "Comment": "ghostscript is earlier than 0:9.07-31.el7_6.9"
                  },
                  {
                    "XMLName": {
                      "Space": "http://oval.mitre.org/XMLSchema/oval-definitions-5",
                      "Local": "criterion"
                    },
                    "Negate": false,
                    "TestRef": "oval:com.redhat.rhsa:tst:20170013002",
                    "Comment": "ghostscript is signed with Red Hat redhatrelease2 key"
                  }
                ]
              },
              {
                "XMLName": {
                  "Space": "http://oval.mitre.org/XMLSchema/oval-definitions-5",
                  "Local": "criteria"
                },
                "Operator": "AND",
                "Criterias": null,
                "Criterions": [
                  {
                    "XMLName": {
                      "Space": "http://oval.mitre.org/XMLSchema/oval-definitions-5",
                      "Local": "criterion"
                    },
                    "Negate": false,
                    "TestRef": "oval:com.redhat.rhsa:tst:20190229003",
                    "Comment": "ghostscript-cups is earlier than 0:9.07-31.el7_6.9"
                  },
                  {
                    "XMLName": {
                      "Space": "http://oval.mitre.org/XMLSchema/oval-definitions-5",
                      "Local": "criterion"
                    },
                    "Negate": false,
                    "TestRef": "oval:com.redhat.rhsa:tst:20170013004",
                    "Comment": "ghostscript-cups is signed with Red Hat redhatrelease2 key"
                  }
                ]
              },
              {
                "XMLName": {
                  "Space": "http://oval.mitre.org/XMLSchema/oval-definitions-5",
                  "Local": "criteria"
                },
                "Operator": "AND",
                "Criterias": null,
                "Criterions": [
                  {
                    "XMLName": {
                      "Space": "http://oval.mitre.org/XMLSchema/oval-definitions-5",
                      "Local": "criterion"
                    },
                    "Negate": false,
                    "TestRef": "oval:com.redhat.rhsa:tst:20190229005",
                    "Comment": "ghostscript-devel is earlier than 0:9.07-31.el7_6.9"
                  },
                  {
                    "XMLName": {
                      "Space": "http://oval.mitre.org/XMLSchema/oval-definitions-5",
                      "Local": "criterion"
                    },
                    "Negate": false,
                    "TestRef": "oval:com.redhat.rhsa:tst:20170013006",
                    "Comment": "ghostscript-devel is signed with Red Hat redhatrelease2 key"
                  }
                ]
              },
              {
                "XMLName": {
                  "Space": "http://oval.mitre.org/XMLSchema/oval-definitions-5",
                  "Local": "criteria"
                },
                "Operator": "AND",
                "Criterias": null,
                "Criterions": [
                  {
                    "XMLName": {
                      "Space": "http://oval.mitre.org/XMLSchema/oval-definitions-5",
                      "Local": "criterion"
                    },
                    "Negate": false,
                    "TestRef": "oval:com.redhat.rhsa:tst:20190229007",
                    "Comment": "ghostscript-doc is earlier than 0:9.07-31.el7_6.9"
                  },
                  {
                    "XMLName": {
                      "Space": "http://oval.mitre.org/XMLSchema/oval-definitions-5",
                      "Local": "criterion"
                    },
                    "Negate": false,
                    "TestRef": "oval:com.redhat.rhsa:tst:20170013008",
                    "Comment": "ghostscript-doc is signed with Red Hat redhatrelease2 key"
                  }
                ]
              },
              {
                "XMLName": {
                  "Space": "http://oval.mitre.org/XMLSchema/oval-definitions-5",
                  "Local": "criteria"
                },
                "Operator": "AND",
                "Criterias": null,
                "Criterions": [
                  {
                    "XMLName": {
                      "Space": "http://oval.mitre.org/XMLSchema/oval-definitions-5",
                      "Local": "criterion"
                    },
                    "Negate": false,
                    "TestRef": "oval:com.redhat.rhsa:tst:20190229009",
                    "Comment": "ghostscript-gtk is earlier than 0:9.07-31.el7_6.9"
                  },
                  {
                    "XMLName": {
                      "Space": "http://oval.mitre.org/XMLSchema/oval-definitions-5",
                      "Local": "criterion"
                    },
                    "Negate": false,
                    "TestRef": "oval:com.redhat.rhsa:tst:20170013010",
                    "Comment": "ghostscript-gtk is signed with Red Hat redhatrelease2 key"
                  }
                ]
              }
            ],
            "Criterions": null
          }
        ],
        "Criterions": [
          {
            "XMLName": {
              "Space": "http://oval.mitre.org/XMLSchema/oval-definitions-5",
              "Local": "criterion"
            },
            "Negate": false,
            "TestRef": "oval:com.redhat.rhba:tst:20150364027",
            "Comment": "Red Hat Enterprise Linux 7 is installed"
          }
        ]
      }
    ],
    "Criterions": [
      {
        "XMLName": {
          "Space": "http://oval.mitre.org/XMLSchema/oval-definitions-5",
          "Local": "criterion"
        },
        "Negate": false,
        "TestRef": "oval:com.redhat.rhba:tst:20150364028",
        "Comment": "Red Hat Enterprise Linux must be installed"
      }
    ]
  }
}