{
  "XMLName": {
    "Space": "http://oval.mitre.org/XMLSchema/oval-definitions-5",
    "Local": "definition"
  },
  "ID": "oval:com.redhat.rhsa:def:20204974",
  "Class": "patch",
  "Title": "RHSA-2020:4974: chromium-browser security update (Important)",
  "Affecteds": [
    {
      "XMLName": {
        "Space": "http://oval.mitre.org/XMLSchema/oval-definitions-5",
        "Local": "affected"
      },
      "Family": "unix",
      "Platforms": [
        "Red Hat Enterprise Linux 6 Supplementary"
      ]
    }
  ],
  "References": [
    {
      "XMLName": {
        "Space": "http://oval.mitre.org/XMLSchema/oval-definitions-5",
        "Local": "reference"
      },
      "Source": "RHSA",
      "RefID": "RHSA-2020:4974",
      "RefURL": "https://access.redhat.com/errata/RHSA-2020:4974"
    },
    {
      "XMLName": {
        "Space": "http://oval.mitre.org/XMLSchema/oval-definitions-5",
        "Local": "reference"
      },
      "Source": "CVE",
      "RefID": "CVE-2020-16004",
      "RefURL": "https://access.redhat.com/security/cve/CVE-2020-16004"
    },
    {
      "XMLName": {
        "Space": "http://oval.mitre.org/XMLSchema/oval-definitions-5",
        "Local": "reference"
      },
      "Source": "CVE",
      "RefID": "CVE-2020-16005",
      "RefURL": "https://access.redhat.com/security/cve/CVE-2020-16005"
    },
    {
      "XMLName": {
        "Space": "http://oval.mitre.org/XMLSchema/oval-definitions-5",
        "Local": "reference"
      },
      "Source": "CVE",
      "RefID": "CVE-2020-16006",
      "RefURL": "https://access.redhat.com/security/cve/CVE-2020-16006"
    },
    {
      "XMLName": {
        "Space": "http://oval.mitre.org/XMLSchema/oval-definitions-5",
        "Local": "reference"
      },
      "Source": "CVE",
      "RefID": "CVE-2020-16008",
      "RefURL": "https://access.redhat.com/security/cve/CVE-2020-16008"
    },
    {
      "XMLName": {
        "Space": "http://oval.mitre.org/XMLSchema/oval-definitions-5",
        "Local": "reference"
      },
      "Source": "CVE",
      "RefID": "CVE-2020-16009",
      "RefURL": "https://access.redhat.com/security/cve/CVE-2020-16009"
    }
  ],
  "Description": "Chromium is an open-source web browser, powered by WebKit (Blink).\n\nThis update upgrades Chromium to version 86.0.4240.183.\n\nSecurity Fix(es):\n\n* chromium-browser: Use after free in user interface (CVE-2020-16004)\n\n* chromium-browser: Insufficient policy enforcement in ANGLE (CVE-2020-16005)\n\n* chromium-browser: Inappropriate implementation in V8 (CVE-2020-16006)\n\n* chromium-browser: Stack buffer overflow in WebRTC (CVE-2020-16008)\n\n* chromium-browser: Inappropriate implementation in V8 (CVE-2020-16009)\n\nFor more details about the security issue(s), including the impact, a CVSS score, acknowledgments, and other related information, refer to the CVE page(s) listed in the References section.",
  "Advisory": {
    "XMLName": {
      "Space": "http://oval.mitre.org/XMLSchema/oval-definitions-5",
      "Local": "advisory"
    },
    "Severity": "Important",
    "Cves": [
      {
        "XMLName": {
          "Space": "http://oval.mitre.org/XMLSchema/oval-definitions-5",
          "Local": "cve"
        },
        "CveID": "CVE-2020-16004",
        "Cvss2": "",
        "Cvss3": "8.8/CVSS:3.1/AV:N/AC:L/PR:N/UI:R/S:U/C:H/I:H/A:H",
        "Cwe": "",
        "Impact": "",
        "Href": "https://access.redhat.com/security/cve/CVE-2020-16004",
        "Public": "20201102"
      },
      {
        "XMLName": {
          "Space": "http://oval.mitre.org/XMLSchema/oval-definitions-5",
          "Local": "cve"
        },
        "CveID": "CVE-2020-16005",
        "Cvss2": "",
        "Cvss3": "8.8/CVSS:3.1/AV:N/AC:L/PR:N/UI:R/S:U/C:H/I:H/A:H",
        "Cwe": "",
        "Impact": "",
        "Href": "https://access.redhat.com/security/cve/CVE-2020-16005",
        "Public": "20201102"
      },
      {
        "XMLName": {
          "Space": "http://oval.mitre.org/XMLSchema/oval-definitions-5",
          "Local": "cve"
        },
        "CveID": "CVE-2020-16006",
        "Cvss2": "",
        "Cvss3": "8.8/CVSS:3.1/AV:N/AC:L/PR:N/UI:R/S:U/C:H/I:H/A:H",
        "Cwe": "",
        "Impact": "",
        "Href": "https://access.redhat.com/security/cve/CVE-2020-16006",
        "Public": "20201102"
      },
      {
        "XMLName": {
          "Space": "http://oval.mitre.org/XMLSchema/oval-definitions-5",
          "Local": "cve"
        },
        "CveID": "CVE-2020-16008",
        "Cvss2": "",
        "Cvss3": "8.8/CVSS:3.1/AV:N/AC:L/PR:N/UI:R/S:U/C:H/I:H/A:H",
        "Cwe": "",
        "Impact": "",
        "Href": "https://access.redhat.com/security/cve/CVE-2020-16008",
        "Public": "20201102"
      },
      {
        "XMLName": {
          "Space": "http://oval.mitre.org/XMLSchema/oval-definitions-5",
          "Local": "cve"
        },
        "CveID": "CVE-2020-16009",
        "Cvss2": "",
        "Cvss3": "8.8/CVSS:3.1/AV:N/AC:L/PR:N/UI:R/S:U/C:H/I:H/A:H",
        "Cwe": "",
        "Impact": "",
        "Href": "https://access.redhat.com/security/cve/CVE-2020-16009",
        "Public": "20201102"
      }
    ],
    "Bugzillas": [
      {
        "XMLName": {
          "Space": "http://oval.mitre.org/XMLSchema/oval-definitions-5",
          "Local": "bugzilla"
        },
        "ID": "1894197",
        "URL": "https://bugzilla.redhat.com/1894197",
        "Title": "CVE-2020-16004 chromium-browser: Use after free in user interface"
      },
      {
        "XMLName": {
          "Space": "http://oval.mitre.org/XMLSchema/oval-definitions-5",
          "Local": "bugzilla"
        },
        "ID": "1894198",
        "URL": "https://bugzilla.redhat.com/1894198",
        "Title": "CVE-2020-16005 chromium-browser: Insufficient policy enforcement in ANGLE"
      },
      {
        "XMLName": {
          "Space": "http://oval.mitre.org/XMLSchema/oval-definitions-5",
          "Local": "bugzilla"
        },
        "ID": "1894199",
        "URL": "https://bugzilla.redhat.com/1894199",
        "Title": "CVE-2020-16006 chromium-browser: Inappropriate implementation in V8"
      },
      {
        "XMLName": {
          "Space": "http://oval.mitre.org/XMLSchema/oval-definitions-5",
          "Local": "bugzilla"
        },
        "ID": "1894201",
        "URL": "https://bugzilla.redhat.com/1894201",
        "Title": "CVE-2020-16008 chromium-browser: Stack buffer overflow in WebRTC"
      },
      {
        "XMLName": {
          "Space": "http://oval.mitre.org/XMLSchema/oval-definitions-5",
          "Local": "bugzilla"
        },
        "ID": "1894202",
        "URL": "https://bugzilla.redhat.com/1894202",
        "Title": "CVE-2020-16009 chromium-browser: Inappropriate implementation in V8"
      }
    ],
    "AffectedCPEList": [
      "cpe:/a:redhat:rhel_extras:6",
      "cpe:/a:redhat:rhel_extras:6"
    ],
    "Issued": {
      "Date": "2020-11-09"
    },
    "Updated": {
      "Date": "2020-11-09"
    }
  },
  "Criteria": {
    "XMLName": {
      "Space": "http://oval.mitre.org/XMLSchema/oval-definitions-5",
      "Local": "criteria"
    },
    "Operator": "OR",
    "Criterias": [
      {
        "XMLName": {
          "Space": "http://oval.mitre.org/XMLSchema/oval-definitions-5",
          "Local": "criteria"
        },
        "Operator": "AND",
        "Criterias": null,
        "Criterions": [
          {
            "XMLName": {
              "Space": "http://oval.mitre.org/XMLSchema/oval-definitions-5",
              "Local": "criterion"
            },
            "Negate": false,
            "TestRef": "oval:com.redhat.rhba:tst:20111656003",
            "Comment": "Red Hat Enterprise Linux 6 is installed"
          },
          {
            "XMLName": {
              "Space": "http://oval.mitre.org/XMLSchema/oval-definitions-5",
              "Local": "criterion"
            },
            "Negate": false,
            "TestRef": "oval:com.redhat.rhsa:tst:20204974001",
            "Comment": "chromium-browser is earlier than 0:86.0.4240.183-1.el6_10"
          },
          {
            "XMLName": {
              "Space": "http://oval.mitre.org/XMLSchema/oval-definitions-5",
              "Local": "criterion"
            },
            "Negate": false,
            "TestRef": "oval:com.redhat.rhsa:tst:20141626002",
            "Comment": "chromium-browser is signed with Red Hat redhatrelease2 key"
          }
        ]
      }
    ],
    "Criterions": [
      {
        "XMLName": {
          "Space": "http://oval.mitre.org/XMLSchema/oval-definitions-5",
          "Local": "criterion"
        },
        "Negate": false,
        "TestRef": "oval:com.redhat.rhba:tst:20111656004",
        "Comment": "Red Hat Enterprise Linux must be installed"
      }
    ]
  }
}