{
  "XMLName": {
    "Space": "http://oval.mitre.org/XMLSchema/oval-definitions-5",
    "Local": "definition"
  },
  "ID": "oval:com.redhat.rhsa:def:20204158",
  "Class": "patch",
  "Title": "RHSA-2020:4158: thunderbird security update (Important)",
  "Affecteds": [
    {
      "XMLName": {
        "Space": "http://oval.mitre.org/XMLSchema/oval-definitions-5",
        "Local": "affected"
      },
      "Family": "unix",
      "Platforms": [
        "Red Hat Enterprise Linux 6"
      ]
    }
  ],
  "References": [
    {
      "XMLName": {
        "Space": "http://oval.mitre.org/XMLSchema/oval-definitions-5",
        "Local": "reference"
      },
      "Source": "RHSA",
      "RefID": "RHSA-2020:4158",
      "RefURL": "https://access.redhat.com/errata/RHSA-2020:4158"
    },
    {
      "XMLName": {
        "Space": "http://oval.mitre.org/XMLSchema/oval-definitions-5",
        "Local": "reference"
      },
      "Source": "CVE",
      "RefID": "CVE-2020-15673",
      "RefURL": "https://access.redhat.com/security/cve/CVE-2020-15673"
    },
    {
      "XMLName": {
        "Space": "http://oval.mitre.org/XMLSchema/oval-definitions-5",
        "Local": "reference"
      },
      "Source": "CVE",
      "RefID": "CVE-2020-15676",
      "RefURL": "https://access.redhat.com/security/cve/CVE-2020-15676"
    },
    {
      "XMLName": {
        "Space": "http://oval.mitre.org/XMLSchema/oval-definitions-5",
        "Local": "reference"
      },
      "Source": "CVE",
      "RefID": "CVE-2020-15677",
      "RefURL": "https://access.redhat.com/security/cve/CVE-2020-15677"
    },
    {
      "XMLName": {
        "Space": "http://oval.mitre.org/XMLSchema/oval-definitions-5",
        "Local": "reference"
      },
      "Source": "CVE",
      "RefID": "CVE-2020-15678",
      "RefURL": "https://access.redhat.com/security/cve/CVE-2020-15678"
    }
  ],
  "Description": "Mozilla Thunderbird is a standalone mail and newsgroup client.\n\nThis update upgrades Thunderbird to version 78.3.1.\n\nSecurity Fix(es):\n\n* Mozilla: Memory safety bugs fixed in Firefox 81 and Firefox ESR 78.3 (CVE-2020-15673)\n\n* Mozilla: XSS when pasting attacker-controlled data into a contenteditable element (CVE-2020-15676)\n\n* Mozilla: Download origin spoofing via redirect (CVE-2020-15677)\n\n* Mozilla: When recursing through layers while scrolling, an iterator may have become invalid, resulting in a potential use-after-free scenario (CVE-2020-15678)\n\nFor more details about the security issue(s), including the impact, a CVSS score, acknowledgments, and other related information, refer to the CVE page(s) listed in the References section.",
  "Advisory": {
    "XMLName": {
      "Space": "http://oval.mitre.org/XMLSchema/oval-definitions-5",
      "Local": "advisory"
    },
    "Severity": "Important",
    "Cves": [
      {
        "XMLName": {
          "Space": "http://oval.mitre.org/XMLSchema/oval-definitions-5",
          "Local": "cve"
        },
        "CveID": "CVE-2020-15673",
        "Cvss2": "",
        "Cvss3": "8.8/CVSS:3.1/AV:N/AC:L/PR:N/UI:R/S:U/C:H/I:H/A:H",
        "Cwe": "CWE-120",
        "Impact": "",
        "Href": "https://access.redhat.com/security/cve/CVE-2020-15673",
        "Public": "20200922"
      },
      {
        "XMLName": {
          "Space": "http://oval.mitre.org/XMLSchema/oval-definitions-5",
          "Local": "cve"
        },
        "CveID": "CVE-2020-15676",
        "Cvss2": "",
        "Cvss3": "6.1/CVSS:3.0/AV:N/AC:L/PR:N/UI:R/S:C/C:L/I:L/A:N",
        "Cwe": "CWE-79",
        "Impact": "moderate",
        "Href": "https://access.redhat.com/security/cve/CVE-2020-15676",
        "Public": "20200922"
      },
      {
        "XMLName": {
          "Space": "http://oval.mitre.org/XMLSchema/oval-definitions-5",
          "Local": "cve"
        },
        "CveID": "CVE-2020-15677",
        "Cvss2": "",
        "Cvss3": "6.1/CVSS:3.0/AV:N/AC:L/PR:N/UI:R/S:C/C:L/I:L/A:N",
        "Cwe": "CWE-601",
        "Impact": "moderate",
        "Href": "https://access.redhat.com/security/cve/CVE-2020-15677",
        "Public": "20200922"
      },
      {
        "XMLName": {
          "Space": "http://oval.mitre.org/XMLSchema/oval-definitions-5",
          "Local": "cve"
        },
        "CveID": "CVE-2020-15678",
        "Cvss2": "",
        "Cvss3": "8.8/CVSS:3.1/AV:N/AC:L/PR:N/UI:R/S:U/C:H/I:H/A:H",
        "Cwe": "CWE-416",
        "Impact": "moderate",
        "Href": "https://access.redhat.com/security/cve/CVE-2020-15678",
        "Public": "20200922"
      }
    ],
    "Bugzillas": [
      {
        "XMLName": {
          "Space": "http://oval.mitre.org/XMLSchema/oval-definitions-5",
          "Local": "bugzilla"
        },
        "ID": "1881664",
        "URL": "https://bugzilla.redhat.com/1881664",
        "Title": "CVE-2020-15677 Mozilla: Download origin spoofing via redirect"
      },
      {
        "XMLName": {
          "Space": "http://oval.mitre.org/XMLSchema/oval-definitions-5",
          "Local": "bugzilla"
        },
        "ID": "1881665",
        "URL": "https://bugzilla.redhat.com/1881665",
        "Title": "CVE-2020-15676 Mozilla: XSS when pasting attacker-controlled data into a contenteditable element"
      },
      {
        "XMLName": {
          "Space": "http://oval.mitre.org/XMLSchema/oval-definitions-5",
          "Local": "bugzilla"
        },
        "ID": "1881666",
        "URL": "https://bugzilla.redhat.com/1881666",
        "Title": "CVE-2020-15678 Mozilla: When recursing through layers while scrolling, an iterator may have become invalid, resulting in a potential use-after-free scenario"
      },
      {
        "XMLName": {
          "Space": "http://oval.mitre.org/XMLSchema/oval-definitions-5",
          "Local": "bugzilla"
        },
        "ID": "1881667",
        "URL": "https://bugzilla.redhat.com/1881667",
        "Title": "CVE-2020-15673 Mozilla: Memory safety bugs fixed in Firefox 81 and Firefox ESR 78.3"
      }
    ],
    "AffectedCPEList": [
      "cpe:/o:redhat:enterprise_linux:6",
      "cpe:/o:redhat:enterprise_linux:6::client",
      "cpe:/o:redhat:enterprise_linux:6::server",
      "cpe:/o:redhat:enterprise_linux:6::workstation"
    ],
    "Issued": {
      "Date": "2020-10-01"
    },
    "Updated": {
      "Date": "2020-10-01"
    }
  },
  "Criteria": {
    "XMLName": {
      "Space": "http://oval.mitre.org/XMLSchema/oval-definitions-5",
      "Local": "criteria"
    },
    "Operator": "OR",
    "Criterias": [
      {
        "XMLName": {
          "Space": "http://oval.mitre.org/XMLSchema/oval-definitions-5",
          "Local": "criteria"
        },
        "Operator": "AND",
        "Criterias": null,
        "Criterions": [
          {
            "XMLName": {
              "Space": "http://oval.mitre.org/XMLSchema/oval-definitions-5",
              "Local": "criterion"
            },
            "Negate": false,
            "TestRef": "oval:com.redhat.rhba:tst:20111656003",
            "Comment": "Red Hat Enterprise Linux 6 is installed"
          },
          {
            "XMLName": {
              "Space": "http://oval.mitre.org/XMLSchema/oval-definitions-5",
              "Local": "criterion"
            },
            "Negate": false,
            "TestRef": "oval:com.redhat.rhsa:tst:20204158001",
            "Comment": "thunderbird is earlier than 0:78.3.1-1.el6_10"
          },
          {
            "XMLName": {
              "Space": "http://oval.mitre.org/XMLSchema/oval-definitions-5",
              "Local": "criterion"
            },
            "Negate": false,
            "TestRef": "oval:com.redhat.rhsa:tst:20100896002",
            "Comment": "thunderbird is signed with Red Hat redhatrelease2 key"
          }
        ]
      }
    ],
    "Criterions": [
      {
        "XMLName": {
          "Space": "http://oval.mitre.org/XMLSchema/oval-definitions-5",
          "Local": "criterion"
        },
        "Negate": false,
        "TestRef": "oval:com.redhat.rhba:tst:20111656004",
        "Comment": "Red Hat Enterprise Linux must be installed"
      }
    ]
  }
}