{
  "XMLName": {
    "Space": "http://oval.mitre.org/XMLSchema/oval-definitions-5",
    "Local": "definition"
  },
  "ID": "oval:com.redhat.rhsa:def:20205129",
  "Class": "patch",
  "Title": "RHSA-2020:5129: net-snmp security update (Important)",
  "Affecteds": [
    {
      "XMLName": {
        "Space": "http://oval.mitre.org/XMLSchema/oval-definitions-5",
        "Local": "affected"
      },
      "Family": "unix",
      "Platforms": [
        "Red Hat Enterprise Linux 6"
      ]
    }
  ],
  "References": [
    {
      "XMLName": {
        "Space": "http://oval.mitre.org/XMLSchema/oval-definitions-5",
        "Local": "reference"
      },
      "Source": "RHSA",
      "RefID": "RHSA-2020:5129",
      "RefURL": "https://access.redhat.com/errata/RHSA-2020:5129"
    },
    {
      "XMLName": {
        "Space": "http://oval.mitre.org/XMLSchema/oval-definitions-5",
        "Local": "reference"
      },
      "Source": "CVE",
      "RefID": "CVE-2020-15862",
      "RefURL": "https://access.redhat.com/security/cve/CVE-2020-15862"
    }
  ],
  "Description": "The net-snmp packages provide various libraries and tools for the Simple Network Management Protocol (SNMP), including an SNMP library, an extensible agent, tools for requesting or setting information from SNMP agents, tools for generating and handling SNMP traps, a version of the netstat command which uses SNMP, and a Tk/Perl Management Information Base (MIB) browser.\n\nSecurity Fix(es):\n\n* net-snmp: Improper Privilege Management in EXTEND MIB may lead to privileged commands execution (CVE-2020-15862)\n\nFor more details about the security issue(s), including the impact, a CVSS score, acknowledgments, and other related information, refer to the CVE page(s) listed in the References section.",
  "Advisory": {
    "XMLName": {
      "Space": "http://oval.mitre.org/XMLSchema/oval-definitions-5",
      "Local": "advisory"
    },
    "Severity": "Important",
    "Cves": [
      {
        "XMLName": {
          "Space": "http://oval.mitre.org/XMLSchema/oval-definitions-5",
          "Local": "cve"
        },
        "CveID": "CVE-2020-15862",
        "Cvss2": "",
        "Cvss3": "8.8/CVSS:3.1/AV:L/AC:L/PR:L/UI:N/S:C/C:H/I:H/A:H",
        "Cwe": "CWE-250",
        "Impact": "",
        "Href": "https://access.redhat.com/security/cve/CVE-2020-15862",
        "Public": "20200825"
      }
    ],
    "Bugzillas": [
      {
        "XMLName": {
          "Space": "http://oval.mitre.org/XMLSchema/oval-definitions-5",
          "Local": "bugzilla"
        },
        "ID": "1873038",
        "URL": "https://bugzilla.redhat.com/1873038",
        "Title": "CVE-2020-15862 net-snmp: Improper Privilege Management in EXTEND MIB may lead to privileged commands execution"
      }
    ],
    "AffectedCPEList": [
      "cpe:/o:redhat:enterprise_linux:6",
      "cpe:/o:redhat:enterprise_linux:6::client",
      "cpe:/o:redhat:enterprise_linux:6::computenode",
      "cpe:/o:redhat:enterprise_linux:6::server",
      "cpe:/o:redhat:enterprise_linux:6::workstation"
    ],
    "Issued": {
      "Date": "2020-11-17"
    },
    "Updated": {
      "Date": "2020-11-17"
    }
  },
  "Criteria": {
    "XMLName": {
      "Space": "http://oval.mitre.org/XMLSchema/oval-definitions-5",
      "Local": "criteria"
    },
    "Operator": "OR",
    "Criterias": [
      {
        "XMLName": {
          "Space": "http://oval.mitre.org/XMLSchema/oval-definitions-5",
          "Local": "criteria"
        },
        "Operator": "AND",
        "Criterias": [
          {
            "XMLName": {
              "Space": "http://oval.mitre.org/XMLSchema/oval-definitions-5",
              "Local": "criteria"
            },
            "Operator": "OR",
            "Criterias": [
              {
                "XMLName": {
                  "Space": "http://oval.mitre.org/XMLSchema/oval-definitions-5",
                  "Local": "criteria"
                },
                "Operator": "AND",
                "Criterias": null,
                "Criterions": [
                  {
                    "XMLName": {
                      "Space": "http://oval.mitre.org/XMLSchema/oval-definitions-5",
                      "Local": "criterion"
                    },
                    "Negate": false,
                    "TestRef": "oval:com.redhat.rhsa:tst:20205129001",
                    "Comment": "net-snmp is earlier than 1:5.5-60.el6_10.2"
                  },
                  {
                    "XMLName": {
                      "Space": "http://oval.mitre.org/XMLSchema/oval-definitions-5",
                      "Local": "criterion"
                    },
                    "Negate": false,
                    "TestRef": "oval:com.redhat.rhba:tst:20131150002",
                    "Comment": "net-snmp is signed with Red Hat redhatrelease2 key"
                  }
                ]
              },
              {
                "XMLName": {
                  "Space": "http://oval.mitre.org/XMLSchema/oval-definitions-5",
                  "Local": "criteria"
                },
                "Operator": "AND",
                "Criterias": null,
                "Criterions": [
                  {
                    "XMLName": {
                      "Space": "http://oval.mitre.org/XMLSchema/oval-definitions-5",
                      "Local": "criterion"
                    },
                    "Negate": false,
                    "TestRef": "oval:com.redhat.rhsa:tst:20205129003",
                    "Comment": "net-snmp-devel is earlier than 1:5.5-60.el6_10.2"
                  },
                  {
                    "XMLName": {
                      "Space": "http://oval.mitre.org/XMLSchema/oval-definitions-5",
                      "Local": "criterion"
                    },
                    "Negate": false,
                    "TestRef": "oval:com.redhat.rhba:tst:20131150004",
                    "Comment": "net-snmp-devel is signed with Red Hat redhatrelease2 key"
                  }
                ]
              },
              {
                "XMLName": {
                  "Space": "http://oval.mitre.org/XMLSchema/oval-definitions-5",
                  "Local": "criteria"
                },
                "Operator": "AND",
                "Criterias": null,
                "Criterions": [
                  {
                    "XMLName": {
                      "Space": "http://oval.mitre.org/XMLSchema/oval-definitions-5",
                      "Local": "criterion"
                    },
                    "Negate": false,
                    "TestRef": "oval:com.redhat.rhsa:tst:20205129005",
                    "Comment": "net-snmp-libs is earlier than 1:5.5-60.el6_10.2"
                  },
                  {
                    "XMLName": {
                      "Space": "http://oval.mitre.org/XMLSchema/oval-definitions-5",
                      "Local": "criterion"
                    },
                    "Negate": false,
                    "TestRef": "oval:com.redhat.rhba:tst:20131150006",
                    "Comment": "net-snmp-libs is signed with Red Hat redhatrelease2 key"
                  }
                ]
              },
              {
                "XMLName": {
                  "Space": "http://oval.mitre.org/XMLSchema/oval-definitions-5",
                  "Local": "criteria"
                },
                "Operator": "AND",
                "Criterias": null,
                "Criterions": [
                  {
                    "XMLName": {
                      "Space": "http://oval.mitre.org/XMLSchema/oval-definitions-5",
                      "Local": "criterion"
                    },
                    "Negate": false,
                    "TestRef": "oval:com.redhat.rhsa:tst:20205129007",
                    "Comment": "net-snmp-perl is earlier than 1:5.5-60.el6_10.2"
                  },
                  {
                    "XMLName": {
                      "Space": "http://oval.mitre.org/XMLSchema/oval-definitions-5",
                      "Local": "criterion"
                    },
                    "Negate": false,
                    "TestRef": "oval:com.redhat.rhba:tst:20131150008",
                    "Comment": "net-snmp-perl is signed with Red Hat redhatrelease2 key"
                  }
                ]
              },
              {
                "XMLName": {
                  "Space": "http://oval.mitre.org/XMLSchema/oval-definitions-5",
                  "Local": "criteria"
                },
                "Operator": "AND",
                "Criterias": null,
                "Criterions": [
                  {
                    "XMLName": {
                      "Space": "http://oval.mitre.org/XMLSchema/oval-definitions-5",
                      "Local": "criterion"
                    },
                    "Negate": false,
                    "TestRef": "oval:com.redhat.rhsa:tst:20205129009",
                    "Comment": "net-snmp-python is earlier than 1:5.5-60.el6_10.2"
                  },
                  {
                    "XMLName": {
                      "Space": "http://oval.mitre.org/XMLSchema/oval-definitions-5",
                      "Local": "criterion"
                    },
                    "Negate": false,
                    "TestRef": "oval:com.redhat.rhba:tst:20131150010",
                    "Comment": "net-snmp-python is signed with Red Hat redhatrelease2 key"
                  }
                ]
              },
              {
                "XMLName": {
                  "Space": "http://oval.mitre.org/XMLSchema/oval-definitions-5",
                  "Local": "criteria"
                },
                "Operator": "AND",
                "Criterias": null,
                "Criterions": [
                  {
                    "XMLName": {
                      "Space": "http://oval.mitre.org/XMLSchema/oval-definitions-5",
                      "Local": "criterion"
                    },
                    "Negate": false,
                    "TestRef": "oval:com.redhat.rhsa:tst:20205129011",
                    "Comment": "net-snmp-utils is earlier than 1:5.5-60.el6_10.2"
                  },
                  {
                    "XMLName": {
                      "Space": "http://oval.mitre.org/XMLSchema/oval-definitions-5",
                      "Local": "criterion"
                    },
                    "Negate": false,
                    "TestRef": "oval:com.redhat.rhba:tst:20131150012",
                    "Comment": "net-snmp-utils is signed with Red Hat redhatrelease2 key"
                  }
                ]
              }
            ],
            "Criterions": null
          }
        ],
        "Criterions": [
          {
            "XMLName": {
              "Space": "http://oval.mitre.org/XMLSchema/oval-definitions-5",
              "Local": "criterion"
            },
            "Negate": false,
            "TestRef": "oval:com.redhat.rhba:tst:20111656003",
            "Comment": "Red Hat Enterprise Linux 6 is installed"
          }
        ]
      }
    ],
    "Criterions": [
      {
        "XMLName": {
          "Space": "http://oval.mitre.org/XMLSchema/oval-definitions-5",
          "Local": "criterion"
        },
        "Negate": false,
        "TestRef": "oval:com.redhat.rhba:tst:20111656004",
        "Comment": "Red Hat Enterprise Linux must be installed"
      }
    ]
  }
}