{
  "Severity": "LOW",
  "UpdatedAt": "2020-12-10T19:05:26Z",
  "Package": {
    "Ecosystem": "PIP",
    "Name": "tensorflow-gpu"
  },
  "Advisory": {
    "DatabaseId": 3227,
    "Id": "MDE2OlNlY3VyaXR5QWR2aXNvcnlHSFNBLWhodmMtZzVodi00OGM2",
    "GhsaId": "GHSA-hhvc-g5hv-48c6",
    "References": [
      {
        "Url": "https://github.com/tensorflow/tensorflow/security/advisories/GHSA-hhvc-g5hv-48c6"
      },
      {
        "Url": "https://nvd.nist.gov/vuln/detail/CVE-2020-26268"
      },
      {
        "Url": "https://github.com/advisories/GHSA-hhvc-g5hv-48c6"
      }
    ],
    "Identifiers": [
      {
        "Type": "GHSA",
        "Value": "GHSA-hhvc-g5hv-48c6"
      },
      {
        "Type": "CVE",
        "Value": "CVE-2020-26268"
      }
    ],
    "Description": "### Impact\nThe `tf.raw_ops.ImmutableConst` operation returns a constant tensor created from a memory mapped file which is assumed immutable. However, if the type of the tensor is not an integral type, the operation crashes the Python interpreter as it tries to write to the memory area:\n\n```python\n\u003e\u003e\u003e import tensorflow as tf\n\u003e\u003e\u003e with open('/tmp/test.txt','w') as f: f.write('a'*128)\n\u003e\u003e\u003e tf.raw_ops.ImmutableConst(dtype=tf.string,shape=2,\n                              memory_region_name='/tmp/test.txt')\n```\n\nIf the file is too small, TensorFlow properly returns an error as the memory area has fewer bytes than what is needed for the tensor it creates. However, as soon as there are enough bytes, the above snippet causes a segmentation fault.\n\nThis is because the alocator used to return the buffer data is not marked as returning an opaque handle since the [needed virtual method](https://github.com/tensorflow/tensorflow/blob/c1e1fc899ad5f8c725dcbb6470069890b5060bc7/tensorflow/core/framework/typed_allocator.h#L78-L85) is [not overriden](https://github.com/tensorflow/tensorflow/blob/acdf3c04fcfa767ae8d109b9e1f727ef050dba4d/tensorflow/core/kernels/immutable_constant_op.cc).\n\n### Patches\nWe have patched the issue in GitHub commit [c1e1fc899ad5f8c725dcbb6470069890b5060bc7](https://github.com/tensorflow/tensorflow/commit/c1e1fc899ad5f8c725dcbb6470069890b5060bc7) and will release TensorFlow 2.4.0 containing the patch. TensorFlow nightly packages after this commit will also have the issue resolved.\n\nSince this issue also impacts TF versions before 2.4, we will patch all releases between 1.15 and 2.3 inclusive.\n\n### For more information\nPlease consult [our security guide](https://github.com/tensorflow/tensorflow/blob/master/SECURITY.md) for more information regarding the security model and how to contact us with issues and questions.\n\n### Attribution\nThis vulnerability has been reported by members of the Aivul Team from Qihoo 360.",
    "Origin": "UNSPECIFIED",
    "PublishedAt": "2020-12-10T19:07:28Z",
    "Severity": "LOW",
    "Summary": "Write to immutable memory region in TensorFlow",
    "UpdatedAt": "2020-12-14T22:07:35Z",
    "WithdrawnAt": ""
  },
  "Versions": [
    {
      "FirstPatchedVersion": {
        "Identifier": "2.3.2"
      },
      "VulnerableVersionRange": "\u003e= 2.3.0, \u003c 2.3.2"
    },
    {
      "FirstPatchedVersion": {
        "Identifier": "2.2.2"
      },
      "VulnerableVersionRange": "\u003e= 2.2.0, \u003c 2.2.2"
    },
    {
      "FirstPatchedVersion": {
        "Identifier": "2.1.3"
      },
      "VulnerableVersionRange": "\u003e= 2.1.0, \u003c 2.1.3"
    },
    {
      "FirstPatchedVersion": {
        "Identifier": "2.0.4"
      },
      "VulnerableVersionRange": "\u003e= 2.0.0, \u003c 2.0.4"
    },
    {
      "FirstPatchedVersion": {
        "Identifier": "1.15.5"
      },
      "VulnerableVersionRange": "\u003c 1.15.5"
    }
  ]
}