{
  "XMLName": {
    "Space": "http://oval.mitre.org/XMLSchema/oval-definitions-5",
    "Local": "definition"
  },
  "ID": "oval:com.redhat.rhsa:def:20160197",
  "Class": "patch",
  "Title": "RHSA-2016:0197: firefox security update (Critical)",
  "Affecteds": [
    {
      "XMLName": {
        "Space": "http://oval.mitre.org/XMLSchema/oval-definitions-5",
        "Local": "affected"
      },
      "Family": "unix",
      "Platforms": [
        "Red Hat Enterprise Linux 7"
      ]
    }
  ],
  "References": [
    {
      "XMLName": {
        "Space": "http://oval.mitre.org/XMLSchema/oval-definitions-5",
        "Local": "reference"
      },
      "Source": "RHSA",
      "RefID": "RHSA-2016:0197",
      "RefURL": "https://access.redhat.com/errata/RHSA-2016:0197"
    },
    {
      "XMLName": {
        "Space": "http://oval.mitre.org/XMLSchema/oval-definitions-5",
        "Local": "reference"
      },
      "Source": "CVE",
      "RefID": "CVE-2016-1521",
      "RefURL": "https://access.redhat.com/security/cve/CVE-2016-1521"
    },
    {
      "XMLName": {
        "Space": "http://oval.mitre.org/XMLSchema/oval-definitions-5",
        "Local": "reference"
      },
      "Source": "CVE",
      "RefID": "CVE-2016-1522",
      "RefURL": "https://access.redhat.com/security/cve/CVE-2016-1522"
    },
    {
      "XMLName": {
        "Space": "http://oval.mitre.org/XMLSchema/oval-definitions-5",
        "Local": "reference"
      },
      "Source": "CVE",
      "RefID": "CVE-2016-1523",
      "RefURL": "https://access.redhat.com/security/cve/CVE-2016-1523"
    },
    {
      "XMLName": {
        "Space": "http://oval.mitre.org/XMLSchema/oval-definitions-5",
        "Local": "reference"
      },
      "Source": "CVE",
      "RefID": "CVE-2016-1969",
      "RefURL": "https://access.redhat.com/security/cve/CVE-2016-1969"
    }
  ],
  "Description": "Mozilla Firefox is an open source web browser. XULRunner provides the XUL\nRuntime environment for Mozilla Firefox.\n\nMultiple security flaws were found in the graphite2 font library shipped\nwith Firefox. A web page containing malicious content could cause Firefox\nto crash or, potentially, execute arbitrary code with the privileges of the\nuser running Firefox. (CVE-2016-1521, CVE-2016-1522, CVE-2016-1523)\n\nAll Firefox users should upgrade to these updated packages, which contain\nFirefox version 38.6.1 ESR, which corrects these issues. After installing\nthe update, Firefox must be restarted for the changes to take effect.",
  "Advisory": {
    "XMLName": {
      "Space": "http://oval.mitre.org/XMLSchema/oval-definitions-5",
      "Local": "advisory"
    },
    "Severity": "Critical",
    "Cves": [
      {
        "XMLName": {
          "Space": "http://oval.mitre.org/XMLSchema/oval-definitions-5",
          "Local": "cve"
        },
        "CveID": "CVE-2016-1521",
        "Cvss2": "6.8/AV:N/AC:M/Au:N/C:P/I:P/A:P",
        "Cvss3": "",
        "Cwe": "CWE-125",
        "Impact": "important",
        "Href": "https://access.redhat.com/security/cve/CVE-2016-1521",
        "Public": "20160205"
      },
      {
        "XMLName": {
          "Space": "http://oval.mitre.org/XMLSchema/oval-definitions-5",
          "Local": "cve"
        },
        "CveID": "CVE-2016-1522",
        "Cvss2": "6.8/AV:N/AC:M/Au:N/C:P/I:P/A:P",
        "Cvss3": "",
        "Cwe": "CWE-476",
        "Impact": "important",
        "Href": "https://access.redhat.com/security/cve/CVE-2016-1522",
        "Public": "20160205"
      },
      {
        "XMLName": {
          "Space": "http://oval.mitre.org/XMLSchema/oval-definitions-5",
          "Local": "cve"
        },
        "CveID": "CVE-2016-1523",
        "Cvss2": "6.8/AV:N/AC:M/Au:N/C:P/I:P/A:P",
        "Cvss3": "",
        "Cwe": "CWE-122",
        "Impact": "",
        "Href": "https://access.redhat.com/security/cve/CVE-2016-1523",
        "Public": "20160205"
      },
      {
        "XMLName": {
          "Space": "http://oval.mitre.org/XMLSchema/oval-definitions-5",
          "Local": "cve"
        },
        "CveID": "CVE-2016-1969",
        "Cvss2": "4.3/AV:N/AC:M/Au:N/C:N/I:N/A:P",
        "Cvss3": "",
        "Cwe": "CWE-787",
        "Impact": "moderate",
        "Href": "https://access.redhat.com/security/cve/CVE-2016-1969",
        "Public": "20160308"
      }
    ],
    "Bugzillas": [
      {
        "XMLName": {
          "Space": "http://oval.mitre.org/XMLSchema/oval-definitions-5",
          "Local": "bugzilla"
        },
        "ID": "1305805",
        "URL": "https://bugzilla.redhat.com/1305805",
        "Title": "CVE-2016-1521 graphite2: Out-of-bound read vulnerability triggered by crafted fonts"
      },
      {
        "XMLName": {
          "Space": "http://oval.mitre.org/XMLSchema/oval-definitions-5",
          "Local": "bugzilla"
        },
        "ID": "1305810",
        "URL": "https://bugzilla.redhat.com/1305810",
        "Title": "CVE-2016-1522 graphite2: Null pointer dereference and out-of-bounds access vulnerabilities"
      },
      {
        "XMLName": {
          "Space": "http://oval.mitre.org/XMLSchema/oval-definitions-5",
          "Local": "bugzilla"
        },
        "ID": "1305813",
        "URL": "https://bugzilla.redhat.com/1305813",
        "Title": "CVE-2016-1523 graphite2: Heap-based buffer overflow in context item handling functionality"
      },
      {
        "XMLName": {
          "Space": "http://oval.mitre.org/XMLSchema/oval-definitions-5",
          "Local": "bugzilla"
        },
        "ID": "1306496",
        "URL": "https://bugzilla.redhat.com/1306496",
        "Title": "Mozilla: Vulnerabilities in Graphite 2 (MFSA 2016-14)"
      }
    ],
    "AffectedCPEList": [
      "cpe:/o:redhat:enterprise_linux:7",
      "cpe:/o:redhat:enterprise_linux:7::client",
      "cpe:/o:redhat:enterprise_linux:7::server",
      "cpe:/o:redhat:enterprise_linux:7::workstation"
    ],
    "Issued": {
      "Date": "2016-02-16"
    },
    "Updated": {
      "Date": "2016-02-16"
    }
  },
  "Criteria": {
    "XMLName": {
      "Space": "http://oval.mitre.org/XMLSchema/oval-definitions-5",
      "Local": "criteria"
    },
    "Operator": "OR",
    "Criterias": [
      {
        "XMLName": {
          "Space": "http://oval.mitre.org/XMLSchema/oval-definitions-5",
          "Local": "criteria"
        },
        "Operator": "AND",
        "Criterias": null,
        "Criterions": [
          {
            "XMLName": {
              "Space": "http://oval.mitre.org/XMLSchema/oval-definitions-5",
              "Local": "criterion"
            },
            "Negate": false,
            "TestRef": "oval:com.redhat.rhba:tst:20150364027",
            "Comment": "Red Hat Enterprise Linux 7 is installed"
          },
          {
            "XMLName": {
              "Space": "http://oval.mitre.org/XMLSchema/oval-definitions-5",
              "Local": "criterion"
            },
            "Negate": false,
            "TestRef": "oval:com.redhat.rhsa:tst:20160197001",
            "Comment": "firefox is earlier than 0:38.6.1-1.el7_2"
          },
          {
            "XMLName": {
              "Space": "http://oval.mitre.org/XMLSchema/oval-definitions-5",
              "Local": "criterion"
            },
            "Negate": false,
            "TestRef": "oval:com.redhat.rhsa:tst:20140741002",
            "Comment": "firefox is signed with Red Hat redhatrelease2 key"
          }
        ]
      }
    ],
    "Criterions": [
      {
        "XMLName": {
          "Space": "http://oval.mitre.org/XMLSchema/oval-definitions-5",
          "Local": "criterion"
        },
        "Negate": false,
        "TestRef": "oval:com.redhat.rhba:tst:20150364028",
        "Comment": "Red Hat Enterprise Linux must be installed"
      }
    ]
  }
}