{
  "XMLName": {
    "Space": "http://oval.mitre.org/XMLSchema/oval-definitions-5",
    "Local": "definition"
  },
  "ID": "oval:com.redhat.rhsa:def:20162596",
  "Class": "patch",
  "Title": "RHSA-2016:2596: pcs security, bug fix, and enhancement update (Moderate)",
  "Affecteds": [
    {
      "XMLName": {
        "Space": "http://oval.mitre.org/XMLSchema/oval-definitions-5",
        "Local": "affected"
      },
      "Family": "unix",
      "Platforms": [
        "Red Hat Enterprise Linux 7"
      ]
    }
  ],
  "References": [
    {
      "XMLName": {
        "Space": "http://oval.mitre.org/XMLSchema/oval-definitions-5",
        "Local": "reference"
      },
      "Source": "RHSA",
      "RefID": "RHSA-2016:2596",
      "RefURL": "https://access.redhat.com/errata/RHSA-2016:2596"
    },
    {
      "XMLName": {
        "Space": "http://oval.mitre.org/XMLSchema/oval-definitions-5",
        "Local": "reference"
      },
      "Source": "CVE",
      "RefID": "CVE-2016-0720",
      "RefURL": "https://access.redhat.com/security/cve/CVE-2016-0720"
    },
    {
      "XMLName": {
        "Space": "http://oval.mitre.org/XMLSchema/oval-definitions-5",
        "Local": "reference"
      },
      "Source": "CVE",
      "RefID": "CVE-2016-0721",
      "RefURL": "https://access.redhat.com/security/cve/CVE-2016-0721"
    }
  ],
  "Description": "The pcs packages provide a command-line configuration system for the Pacemaker and Corosync utilities.\n\nThe following packages have been upgraded to a newer upstream version: pcs (0.9.152). (BZ#1299847)\n\nSecurity Fix(es):\n\n* A Cross-Site Request Forgery (CSRF) flaw was found in the pcsd web UI. A remote attacker could provide a specially crafted web page that, when visited by a user with a valid pcsd session, would allow the attacker to trigger requests on behalf of the user, for example removing resources or restarting/removing nodes. (CVE-2016-0720)\n\n* It was found that pcsd did not invalidate cookies on the server side when a user logged out. This could potentially allow an attacker to perform session fixation attacks on pcsd. (CVE-2016-0721)\n\nThese issues were discovered by Martin Prpic (Red Hat Product Security).\n\nAdditional Changes:\n\nFor detailed information on changes in this release, see the Red Hat Enterprise Linux 7.3 Release Notes linked from the References section.",
  "Advisory": {
    "XMLName": {
      "Space": "http://oval.mitre.org/XMLSchema/oval-definitions-5",
      "Local": "advisory"
    },
    "Severity": "Moderate",
    "Cves": [
      {
        "XMLName": {
          "Space": "http://oval.mitre.org/XMLSchema/oval-definitions-5",
          "Local": "cve"
        },
        "CveID": "CVE-2016-0720",
        "Cvss2": "4.3/AV:N/AC:M/Au:N/C:N/I:P/A:N",
        "Cvss3": "",
        "Cwe": "CWE-352",
        "Impact": "",
        "Href": "https://access.redhat.com/security/cve/CVE-2016-0720",
        "Public": "20160216"
      },
      {
        "XMLName": {
          "Space": "http://oval.mitre.org/XMLSchema/oval-definitions-5",
          "Local": "cve"
        },
        "CveID": "CVE-2016-0721",
        "Cvss2": "4.3/AV:N/AC:M/Au:N/C:N/I:P/A:N",
        "Cvss3": "",
        "Cwe": "CWE-613 CWE-384",
        "Impact": "",
        "Href": "https://access.redhat.com/security/cve/CVE-2016-0721",
        "Public": "20160216"
      }
    ],
    "Bugzillas": [
      {
        "XMLName": {
          "Space": "http://oval.mitre.org/XMLSchema/oval-definitions-5",
          "Local": "bugzilla"
        },
        "ID": "1158500",
        "URL": "https://bugzilla.redhat.com/1158500",
        "Title": "add support for utilization attributes"
      },
      {
        "XMLName": {
          "Space": "http://oval.mitre.org/XMLSchema/oval-definitions-5",
          "Local": "bugzilla"
        },
        "ID": "1158805",
        "URL": "https://bugzilla.redhat.com/1158805",
        "Title": "Add support for qdevice/qnetd provided by corosync"
      },
      {
        "XMLName": {
          "Space": "http://oval.mitre.org/XMLSchema/oval-definitions-5",
          "Local": "bugzilla"
        },
        "ID": "1164402",
        "URL": "https://bugzilla.redhat.com/1164402",
        "Title": "Support for sbd configuration is needed in pcs"
      },
      {
        "XMLName": {
          "Space": "http://oval.mitre.org/XMLSchema/oval-definitions-5",
          "Local": "bugzilla"
        },
        "ID": "1207405",
        "URL": "https://bugzilla.redhat.com/1207405",
        "Title": "RFE: please adjust timeouts for pcsd check (or allow to disable them)"
      },
      {
        "XMLName": {
          "Space": "http://oval.mitre.org/XMLSchema/oval-definitions-5",
          "Local": "bugzilla"
        },
        "ID": "1219581",
        "URL": "https://bugzilla.redhat.com/1219581",
        "Title": "[CLI] particular help screens inconsistent in indication of default sub^n-commands"
      },
      {
        "XMLName": {
          "Space": "http://oval.mitre.org/XMLSchema/oval-definitions-5",
          "Local": "bugzilla"
        },
        "ID": "1220512",
        "URL": "https://bugzilla.redhat.com/1220512",
        "Title": "pcs resource cleanup improvements"
      },
      {
        "XMLName": {
          "Space": "http://oval.mitre.org/XMLSchema/oval-definitions-5",
          "Local": "bugzilla"
        },
        "ID": "1225423",
        "URL": "https://bugzilla.redhat.com/1225423",
        "Title": "pcs should allow to remove a dead node from a cluster"
      },
      {
        "XMLName": {
          "Space": "http://oval.mitre.org/XMLSchema/oval-definitions-5",
          "Local": "bugzilla"
        },
        "ID": "1225946",
        "URL": "https://bugzilla.redhat.com/1225946",
        "Title": "[CLI] minor cleanups in built-in documentation"
      },
      {
        "XMLName": {
          "Space": "http://oval.mitre.org/XMLSchema/oval-definitions-5",
          "Local": "bugzilla"
        },
        "ID": "1229822",
        "URL": "https://bugzilla.redhat.com/1229822",
        "Title": "[RFE] make \"cluster setup --start\", \"cluster start\" and \"cluster standby\" support --wait as well"
      },
      {
        "XMLName": {
          "Space": "http://oval.mitre.org/XMLSchema/oval-definitions-5",
          "Local": "bugzilla"
        },
        "ID": "1231858",
        "URL": "https://bugzilla.redhat.com/1231858",
        "Title": "resource/fence agent options form needs an overhaul"
      },
      {
        "XMLName": {
          "Space": "http://oval.mitre.org/XMLSchema/oval-definitions-5",
          "Local": "bugzilla"
        },
        "ID": "1248990",
        "URL": "https://bugzilla.redhat.com/1248990",
        "Title": "Specifying a non-existing id in ACL role permission produces an invalid CIB"
      },
      {
        "XMLName": {
          "Space": "http://oval.mitre.org/XMLSchema/oval-definitions-5",
          "Local": "bugzilla"
        },
        "ID": "1249085",
        "URL": "https://bugzilla.redhat.com/1249085",
        "Title": "'pcs resource delete' doesn't delete resource referenced in acl"
      },
      {
        "XMLName": {
          "Space": "http://oval.mitre.org/XMLSchema/oval-definitions-5",
          "Local": "bugzilla"
        },
        "ID": "1252050",
        "URL": "https://bugzilla.redhat.com/1252050",
        "Title": "Rewrite pcsd launch script"
      },
      {
        "XMLName": {
          "Space": "http://oval.mitre.org/XMLSchema/oval-definitions-5",
          "Local": "bugzilla"
        },
        "ID": "1264360",
        "URL": "https://bugzilla.redhat.com/1264360",
        "Title": "pcs Web UI doesn't indicate unmanaged resources"
      },
      {
        "XMLName": {
          "Space": "http://oval.mitre.org/XMLSchema/oval-definitions-5",
          "Local": "bugzilla"
        },
        "ID": "1269242",
        "URL": "https://bugzilla.redhat.com/1269242",
        "Title": "pcs needs to be able to view status and config on nodes that are not part of any cluster, but have a cib.xml file"
      },
      {
        "XMLName": {
          "Space": "http://oval.mitre.org/XMLSchema/oval-definitions-5",
          "Local": "bugzilla"
        },
        "ID": "1281364",
        "URL": "https://bugzilla.redhat.com/1281364",
        "Title": "colocation set constraints missing in web UI"
      },
      {
        "XMLName": {
          "Space": "http://oval.mitre.org/XMLSchema/oval-definitions-5",
          "Local": "bugzilla"
        },
        "ID": "1281371",
        "URL": "https://bugzilla.redhat.com/1281371",
        "Title": "Cluster Properties page in web UI needs an overhaul"
      },
      {
        "XMLName": {
          "Space": "http://oval.mitre.org/XMLSchema/oval-definitions-5",
          "Local": "bugzilla"
        },
        "ID": "1281391",
        "URL": "https://bugzilla.redhat.com/1281391",
        "Title": "web UI lacks ability to move resources within a resource group"
      },
      {
        "XMLName": {
          "Space": "http://oval.mitre.org/XMLSchema/oval-definitions-5",
          "Local": "bugzilla"
        },
        "ID": "1286664",
        "URL": "https://bugzilla.redhat.com/1286664",
        "Title": "pcsd: deleting groups/clones from older cluster returns Internal Server Error"
      },
      {
        "XMLName": {
          "Space": "http://oval.mitre.org/XMLSchema/oval-definitions-5",
          "Local": "bugzilla"
        },
        "ID": "1287320",
        "URL": "https://bugzilla.redhat.com/1287320",
        "Title": "When referencing a stonith/resource agent without a provider and the fence/resource agents fails to get metadata causes pcs to traceback"
      },
      {
        "XMLName": {
          "Space": "http://oval.mitre.org/XMLSchema/oval-definitions-5",
          "Local": "bugzilla"
        },
        "ID": "1290512",
        "URL": "https://bugzilla.redhat.com/1290512",
        "Title": "pcs doesn't support putting Pacemaker Remote nodes into standby"
      },
      {
        "XMLName": {
          "Space": "http://oval.mitre.org/XMLSchema/oval-definitions-5",
          "Local": "bugzilla"
        },
        "ID": "1298585",
        "URL": "https://bugzilla.redhat.com/1298585",
        "Title": "[RFE] pcs status output could be simpler when constraints are in place"
      },
      {
        "XMLName": {
          "Space": "http://oval.mitre.org/XMLSchema/oval-definitions-5",
          "Local": "bugzilla"
        },
        "ID": "1299614",
        "URL": "https://bugzilla.redhat.com/1299614",
        "Title": "CVE-2016-0720 pcs: Cross-Site Request Forgery in web UI"
      },
      {
        "XMLName": {
          "Space": "http://oval.mitre.org/XMLSchema/oval-definitions-5",
          "Local": "bugzilla"
        },
        "ID": "1299615",
        "URL": "https://bugzilla.redhat.com/1299615",
        "Title": "CVE-2016-0721 pcs: cookies are not invalidated upon logout"
      },
      {
        "XMLName": {
          "Space": "http://oval.mitre.org/XMLSchema/oval-definitions-5",
          "Local": "bugzilla"
        },
        "ID": "1299847",
        "URL": "https://bugzilla.redhat.com/1299847",
        "Title": "pcs rebase bug for 7.3"
      },
      {
        "XMLName": {
          "Space": "http://oval.mitre.org/XMLSchema/oval-definitions-5",
          "Local": "bugzilla"
        },
        "ID": "1301993",
        "URL": "https://bugzilla.redhat.com/1301993",
        "Title": "[RFE] pcs property list/show could have a --node filter"
      },
      {
        "XMLName": {
          "Space": "http://oval.mitre.org/XMLSchema/oval-definitions-5",
          "Local": "bugzilla"
        },
        "ID": "1302010",
        "URL": "https://bugzilla.redhat.com/1302010",
        "Title": "pcs property show \u003cproperty\u003e shows all node properties unfiltered"
      },
      {
        "XMLName": {
          "Space": "http://oval.mitre.org/XMLSchema/oval-definitions-5",
          "Local": "bugzilla"
        },
        "ID": "1303136",
        "URL": "https://bugzilla.redhat.com/1303136",
        "Title": "Cannot create a new resource with the same name of a one failed and deleted before, until cleanup"
      },
      {
        "XMLName": {
          "Space": "http://oval.mitre.org/XMLSchema/oval-definitions-5",
          "Local": "bugzilla"
        },
        "ID": "1305786",
        "URL": "https://bugzilla.redhat.com/1305786",
        "Title": "Unsanitized input in username field on login page"
      },
      {
        "XMLName": {
          "Space": "http://oval.mitre.org/XMLSchema/oval-definitions-5",
          "Local": "bugzilla"
        },
        "ID": "1315357",
        "URL": "https://bugzilla.redhat.com/1315357",
        "Title": "[packaging] pcsd.service shipped twice (under different locations)"
      },
      {
        "XMLName": {
          "Space": "http://oval.mitre.org/XMLSchema/oval-definitions-5",
          "Local": "bugzilla"
        },
        "ID": "1315652",
        "URL": "https://bugzilla.redhat.com/1315652",
        "Title": "Option to disable particular TLS version and ciphers with pcsd"
      },
      {
        "XMLName": {
          "Space": "http://oval.mitre.org/XMLSchema/oval-definitions-5",
          "Local": "bugzilla"
        },
        "ID": "1315743",
        "URL": "https://bugzilla.redhat.com/1315743",
        "Title": "[packaging] /etc/sysconfig/pcsd is not marked as a config file"
      },
      {
        "XMLName": {
          "Space": "http://oval.mitre.org/XMLSchema/oval-definitions-5",
          "Local": "bugzilla"
        },
        "ID": "1327739",
        "URL": "https://bugzilla.redhat.com/1327739",
        "Title": "Need a way to set expected votes on a live system"
      },
      {
        "XMLName": {
          "Space": "http://oval.mitre.org/XMLSchema/oval-definitions-5",
          "Local": "bugzilla"
        },
        "ID": "1328066",
        "URL": "https://bugzilla.redhat.com/1328066",
        "Title": "[cli] pcs makes a disservice to CIB-accumulate-and-push use cases by not coping with \"cib --config\" file (recommended!) passed as \"-f \u003cfile\u003e\" to cib-modifying commands"
      },
      {
        "XMLName": {
          "Space": "http://oval.mitre.org/XMLSchema/oval-definitions-5",
          "Local": "bugzilla"
        },
        "ID": "1329472",
        "URL": "https://bugzilla.redhat.com/1329472",
        "Title": "Cannot recreate remote node resource"
      },
      {
        "XMLName": {
          "Space": "http://oval.mitre.org/XMLSchema/oval-definitions-5",
          "Local": "bugzilla"
        },
        "ID": "1341114",
        "URL": "https://bugzilla.redhat.com/1341114",
        "Title": "[packaging] pcs should mark known (existing or not) %config files in the spec (/etc/sysconfig/pcsd, /var/lib/pcsd/tokens, ...)"
      },
      {
        "XMLName": {
          "Space": "http://oval.mitre.org/XMLSchema/oval-definitions-5",
          "Local": "bugzilla"
        },
        "ID": "1346852",
        "URL": "https://bugzilla.redhat.com/1346852",
        "Title": "[GUI] Bad Request when resource removal takes longer than pcs expects"
      },
      {
        "XMLName": {
          "Space": "http://oval.mitre.org/XMLSchema/oval-definitions-5",
          "Local": "bugzilla"
        },
        "ID": "1349465",
        "URL": "https://bugzilla.redhat.com/1349465",
        "Title": "[bash-completion] put it under $(pkg-config --variable=completionsdir bash-completion) to allow for dynamic loading"
      },
      {
        "XMLName": {
          "Space": "http://oval.mitre.org/XMLSchema/oval-definitions-5",
          "Local": "bugzilla"
        },
        "ID": "1354498",
        "URL": "https://bugzilla.redhat.com/1354498",
        "Title": "[cli] pcs should except KeyboardInterrupt at least around raw_input builtin invocation"
      },
      {
        "XMLName": {
          "Space": "http://oval.mitre.org/XMLSchema/oval-definitions-5",
          "Local": "bugzilla"
        },
        "ID": "1357945",
        "URL": "https://bugzilla.redhat.com/1357945",
        "Title": "[clufter integration] clufter is distribution-sensitive wrt. new features so pass the current one on cluster.conf/corosync.conf match and allow user's override"
      },
      {
        "XMLName": {
          "Space": "http://oval.mitre.org/XMLSchema/oval-definitions-5",
          "Local": "bugzilla"
        },
        "ID": "1359154",
        "URL": "https://bugzilla.redhat.com/1359154",
        "Title": "pcs authentication command does not trigger authentication of nodes against each other"
      },
      {
        "XMLName": {
          "Space": "http://oval.mitre.org/XMLSchema/oval-definitions-5",
          "Local": "bugzilla"
        },
        "ID": "1366307",
        "URL": "https://bugzilla.redhat.com/1366307",
        "Title": "[pcsd] Badly designed usage of HTML ID attributes may cause unexpected behavior with certain resource names"
      }
    ],
    "AffectedCPEList": [
      "cpe:/o:redhat:enterprise_linux:7",
      "cpe:/o:redhat:enterprise_linux:7::server"
    ],
    "Issued": {
      "Date": "2016-11-03"
    },
    "Updated": {
      "Date": "2016-11-03"
    }
  },
  "Criteria": {
    "XMLName": {
      "Space": "http://oval.mitre.org/XMLSchema/oval-definitions-5",
      "Local": "criteria"
    },
    "Operator": "OR",
    "Criterias": [
      {
        "XMLName": {
          "Space": "http://oval.mitre.org/XMLSchema/oval-definitions-5",
          "Local": "criteria"
        },
        "Operator": "AND",
        "Criterias": null,
        "Criterions": [
          {
            "XMLName": {
              "Space": "http://oval.mitre.org/XMLSchema/oval-definitions-5",
              "Local": "criterion"
            },
            "Negate": false,
            "TestRef": "oval:com.redhat.rhba:tst:20150364027",
            "Comment": "Red Hat Enterprise Linux 7 is installed"
          },
          {
            "XMLName": {
              "Space": "http://oval.mitre.org/XMLSchema/oval-definitions-5",
              "Local": "criterion"
            },
            "Negate": false,
            "TestRef": "oval:com.redhat.rhsa:tst:20162596001",
            "Comment": "pcs is earlier than 0:0.9.152-10.el7"
          },
          {
            "XMLName": {
              "Space": "http://oval.mitre.org/XMLSchema/oval-definitions-5",
              "Local": "criterion"
            },
            "Negate": false,
            "TestRef": "oval:com.redhat.rhsa:tst:20150980002",
            "Comment": "pcs is signed with Red Hat redhatrelease2 key"
          }
        ]
      }
    ],
    "Criterions": [
      {
        "XMLName": {
          "Space": "http://oval.mitre.org/XMLSchema/oval-definitions-5",
          "Local": "criterion"
        },
        "Negate": false,
        "TestRef": "oval:com.redhat.rhba:tst:20150364028",
        "Comment": "Red Hat Enterprise Linux must be installed"
      }
    ]
  }
}