{
  "Severity": "LOW",
  "UpdatedAt": "2020-11-13T17:11:28Z",
  "Package": {
    "Ecosystem": "PIP",
    "Name": "tensorflow"
  },
  "Advisory": {
    "DatabaseId": 3180,
    "Id": "MDE2OlNlY3VyaXR5QWR2aXNvcnlHSFNBLXJyZnAtajJtcC1ocTlj",
    "GhsaId": "GHSA-rrfp-j2mp-hq9c",
    "References": [
      {
        "Url": "https://github.com/tensorflow/tensorflow/security/advisories/GHSA-rrfp-j2mp-hq9c"
      },
      {
        "Url": "https://nvd.nist.gov/vuln/detail/CVE-2020-15265"
      },
      {
        "Url": "https://github.com/advisories/GHSA-rrfp-j2mp-hq9c"
      }
    ],
    "Identifiers": [
      {
        "Type": "GHSA",
        "Value": "GHSA-rrfp-j2mp-hq9c"
      },
      {
        "Type": "CVE",
        "Value": "CVE-2020-15265"
      }
    ],
    "Description": "### Impact\nAn attacker can pass an invalid `axis` value to `tf.quantization.quantize_and_dequantize`:\n\n```python\ntf.quantization.quantize_and_dequantize(\n    input=[2.5, 2.5], input_min=[0,0], input_max=[1,1], axis=10)\n```\n\nThis results in accessing [a dimension outside the rank of the input tensor](https://github.com/tensorflow/tensorflow/blob/0225022b725993bfc19b87a02a2faaad9a53bc17/tensorflow/core/kernels/quantize_and_dequantize_op.cc#L74) in the C++ kernel implementation:\n```\nconst int depth = (axis_ == -1) ? 1 : input.dim_size(axis_);\n```\n\nHowever, [`dim_size` only does a `DCHECK`](https://github.com/tensorflow/tensorflow/blob/0225022b725993bfc19b87a02a2faaad9a53bc17/tensorflow/core/framework/tensor_shape.cc#L292-L307) to validate the argument and then uses it to access the corresponding element of an array:\n```\nint64 TensorShapeBase\u003cShape\u003e::dim_size(int d) const {\n  DCHECK_GE(d, 0);\n  DCHECK_LT(d, dims());\n  DoStuffWith(dims_[d]);\n}\n```\n\nSince in normal builds, `DCHECK`-like macros are no-ops, this results in segfault and access out of bounds of the array.\n\n### Patches\n\nWe have patched the issue in eccb7ec454e6617738554a255d77f08e60ee0808 and will release TensorFlow 2.4.0 containing the patch. TensorFlow nightly packages after this commit will also have the issue resolved.\n\n### For more information\nPlease consult [our security guide](https://github.com/tensorflow/tensorflow/blob/master/SECURITY.md) for more information regarding the security model and how to contact us with issues and questions.\n\n### Attribution\nThis vulnerability has been reported in #42105",
    "Origin": "UNSPECIFIED",
    "PublishedAt": "2020-11-13T17:13:04Z",
    "Severity": "LOW",
    "Summary": "Segfault in `tf.quantization.quantize_and_dequantize`",
    "UpdatedAt": "2020-11-13T17:13:04Z",
    "WithdrawnAt": ""
  },
  "Versions": [
    {
      "FirstPatchedVersion": {
        "Identifier": "2.4.0"
      },
      "VulnerableVersionRange": "\u003c 2.4.0"
    }
  ]
}