{
  "Severity": "LOW",
  "UpdatedAt": "2020-12-10T19:06:51Z",
  "Package": {
    "Ecosystem": "PIP",
    "Name": "tensorflow"
  },
  "Advisory": {
    "DatabaseId": 3229,
    "Id": "MDE2OlNlY3VyaXR5QWR2aXNvcnlHSFNBLXEyNjMtZnZ4bS1tNW13",
    "GhsaId": "GHSA-q263-fvxm-m5mw",
    "References": [
      {
        "Url": "https://github.com/tensorflow/tensorflow/security/advisories/GHSA-q263-fvxm-m5mw"
      },
      {
        "Url": "https://nvd.nist.gov/vuln/detail/CVE-2020-26271"
      },
      {
        "Url": "https://github.com/advisories/GHSA-q263-fvxm-m5mw"
      }
    ],
    "Identifiers": [
      {
        "Type": "GHSA",
        "Value": "GHSA-q263-fvxm-m5mw"
      },
      {
        "Type": "CVE",
        "Value": "CVE-2020-26271"
      }
    ],
    "Description": "### Impact\nUnder certain cases, loading a saved model can result in accessing uninitialized memory while building the computation graph. The [`MakeEdge` function](https://github.com/tensorflow/tensorflow/blob/3616708cb866365301d8e67b43b32b46d94b08a0/tensorflow/core/common_runtime/graph_constructor.cc#L1426-L1438) creates an edge between one output tensor of the `src` node (given by `output_index`) and the input slot of the `dst` node (given by `input_index`). This is only possible if the types of the tensors on both sides coincide, so the function begins by obtaining the corresponding `DataType` values and comparing these for equality:\n\n```cc\n  DataType src_out = src-\u003eoutput_type(output_index);\n  DataType dst_in = dst-\u003einput_type(input_index);\n  //...\n```\n\nHowever, there is no check that the indices point to inside of the arrays they index into. Thus, this can result in accessing data out of bounds of the corresponding heap allocated arrays.\n\nIn most scenarios, this can manifest as unitialized data access, but if the index points far away from the boundaries of the arrays this can be used to leak addresses from the library.\n\n### Patches\nWe have patched the issue in GitHub commit [0cc38aaa4064fd9e79101994ce9872c6d91f816b](https://github.com/tensorflow/tensorflow/commit/0cc38aaa4064fd9e79101994ce9872c6d91f816b) and will release TensorFlow 2.4.0 containing the patch. TensorFlow nightly packages after this commit will also have the issue resolved.\n\nSince this issue also impacts TF versions before 2.4, we will patch all releases between 1.15 and 2.3 inclusive.\n\n### For more information\nPlease consult [our security guide](https://github.com/tensorflow/tensorflow/blob/master/SECURITY.md) for more information regarding the security model and how to contact us with issues and questions.",
    "Origin": "UNSPECIFIED",
    "PublishedAt": "2020-12-10T19:07:34Z",
    "Severity": "LOW",
    "Summary": "Heap out of bounds access in MakeEdge in TensorFlow",
    "UpdatedAt": "2020-12-10T19:07:34Z",
    "WithdrawnAt": ""
  },
  "Versions": [
    {
      "FirstPatchedVersion": {
        "Identifier": "2.3.2"
      },
      "VulnerableVersionRange": "\u003e= 2.3.0, \u003c 2.3.2"
    },
    {
      "FirstPatchedVersion": {
        "Identifier": "2.2.2"
      },
      "VulnerableVersionRange": "\u003e= 2.2.0, \u003c 2.2.2"
    },
    {
      "FirstPatchedVersion": {
        "Identifier": "2.1.3"
      },
      "VulnerableVersionRange": "\u003e= 2.1.0, \u003c 2.1.3"
    },
    {
      "FirstPatchedVersion": {
        "Identifier": "2.0.4"
      },
      "VulnerableVersionRange": "\u003e= 2.0.0, \u003c 2.0.4"
    },
    {
      "FirstPatchedVersion": {
        "Identifier": "1.15.5"
      },
      "VulnerableVersionRange": "\u003c 1.15.5"
    }
  ]
}