{
  "Severity": "MODERATE",
  "UpdatedAt": "2020-09-25T16:14:44Z",
  "Package": {
    "Ecosystem": "PIP",
    "Name": "tensorflow-cpu"
  },
  "Advisory": {
    "DatabaseId": 3089,
    "Id": "MDE2OlNlY3VyaXR5QWR2aXNvcnlHSFNBLTRnOWYtNjNyeC01Y3c0",
    "GhsaId": "GHSA-4g9f-63rx-5cw4",
    "References": [
      {
        "Url": "https://github.com/tensorflow/tensorflow/security/advisories/GHSA-4g9f-63rx-5cw4"
      },
      {
        "Url": "https://nvd.nist.gov/vuln/detail/CVE-2020-15190"
      },
      {
        "Url": "https://github.com/advisories/GHSA-4g9f-63rx-5cw4"
      }
    ],
    "Identifiers": [
      {
        "Type": "GHSA",
        "Value": "GHSA-4g9f-63rx-5cw4"
      },
      {
        "Type": "CVE",
        "Value": "CVE-2020-15190"
      }
    ],
    "Description": "### Impact\nThe [`tf.raw_ops.Switch`](https://www.tensorflow.org/api_docs/python/tf/raw_ops/Switch) operation takes as input a tensor and a boolean and outputs two tensors. Depending on the boolean value, one of the tensors is exactly the input tensor whereas the other one should be an empty tensor.\n\nHowever, the eager runtime traverses all tensors in the output:\nhttps://github.com/tensorflow/tensorflow/blob/0e68f4d3295eb0281a517c3662f6698992b7b2cf/tensorflow/core/common_runtime/eager/kernel_and_device.cc#L308-L313\n\nSince only one of the tensors is defined, the other one is `nullptr`, hence we are binding a reference to `nullptr`. This is undefined behavior and reported as an error if compiling with `-fsanitize=null`. In this case, this results in a segmentation fault\n\n### Patches\nWe have patched the issue in da8558533d925694483d2c136a9220d6d49d843c and will release a patch release for all affected versions.\n\nWe recommend users to upgrade to TensorFlow 1.15.4, 2.0.3, 2.1.2, 2.2.1, or 2.3.1.\n\n### For more information\nPlease consult [our security guide](https://github.com/tensorflow/tensorflow/blob/master/SECURITY.md) for more information regarding the security model and how to contact us with issues and questions.\n\n### Attribution\nThis vulnerability has been reported by members of the Aivul Team from Qihoo 360.",
    "Origin": "UNSPECIFIED",
    "PublishedAt": "2020-09-25T18:28:14Z",
    "Severity": "MODERATE",
    "Summary": "Segfault in Tensorflow",
    "UpdatedAt": "2020-09-25T18:28:14Z",
    "WithdrawnAt": ""
  },
  "Versions": [
    {
      "FirstPatchedVersion": {
        "Identifier": "2.3.1"
      },
      "VulnerableVersionRange": "= 2.3.0"
    },
    {
      "FirstPatchedVersion": {
        "Identifier": "2.2.1"
      },
      "VulnerableVersionRange": "= 2.2.0"
    },
    {
      "FirstPatchedVersion": {
        "Identifier": "2.1.2"
      },
      "VulnerableVersionRange": "\u003e= 2.1.0, \u003c 2.1.2"
    },
    {
      "FirstPatchedVersion": {
        "Identifier": "2.0.3"
      },
      "VulnerableVersionRange": "\u003e= 2.0.0, \u003c 2.0.3"
    },
    {
      "FirstPatchedVersion": {
        "Identifier": "1.15.4"
      },
      "VulnerableVersionRange": "\u003c 1.15.4"
    }
  ]
}