{
  "Severity": "LOW",
  "UpdatedAt": "2020-12-10T19:04:50Z",
  "Package": {
    "Ecosystem": "PIP",
    "Name": "tensorflow-cpu"
  },
  "Advisory": {
    "DatabaseId": 3225,
    "Id": "MDE2OlNlY3VyaXR5QWR2aXNvcnlHSFNBLXFoeHgtajczci1xcG0y",
    "GhsaId": "GHSA-qhxx-j73r-qpm2",
    "References": [
      {
        "Url": "https://github.com/tensorflow/tensorflow/security/advisories/GHSA-qhxx-j73r-qpm2"
      },
      {
        "Url": "https://nvd.nist.gov/vuln/detail/CVE-2020-26266"
      },
      {
        "Url": "https://github.com/advisories/GHSA-qhxx-j73r-qpm2"
      }
    ],
    "Identifiers": [
      {
        "Type": "GHSA",
        "Value": "GHSA-qhxx-j73r-qpm2"
      },
      {
        "Type": "CVE",
        "Value": "CVE-2020-26266"
      }
    ],
    "Description": "### Impact\nUnder certain cases, a saved model can trigger use of uninitialized values during code execution. This is caused by having tensor buffers be filled with the default value of the type but forgetting to [default initialize the quantized floating point types in Eigen](https://github.com/tensorflow/tensorflow/blob/f70160322a579144950dff1537dcbe3c7c09d6f5/third_party/eigen3/unsupported/Eigen/CXX11/src/FixedPoint/FixedPointTypes.h#L61-L104):\n\n```cc\nstruct QUInt8 {\n  QUInt8() {}\n  // ...\n  uint8_t value;\n};\n\nstruct QInt16 {\n  QInt16() {}\n  // ...\n  int16_t value;\n};\n\nstruct QUInt16 {\n  QUInt16() {}\n  // ...\n  uint16_t value;\n};\n\nstruct QInt32 {\n  QInt32() {}\n  // ...\n  int32_t value;\n};\n```\n\n### Patches\nWe have patched the issue in GitHub commit [ace0c15a22f7f054abcc1f53eabbcb0a1239a9e2](https://github.com/tensorflow/tensorflow/commit/ace0c15a22f7f054abcc1f53eabbcb0a1239a9e2) and will release TensorFlow 2.4.0 containing the patch. TensorFlow nightly packages after this commit will also have the issue resolved.\n\nSince this issue also impacts TF versions before 2.4, we will patch all releases between 1.15 and 2.3 inclusive.\n\n### For more information\nPlease consult [our security guide](https://github.com/tensorflow/tensorflow/blob/master/SECURITY.md) for more information regarding the security model and how to contact us with issues and questions.",
    "Origin": "UNSPECIFIED",
    "PublishedAt": "2020-12-10T19:07:24Z",
    "Severity": "LOW",
    "Summary": "Uninitialized memory access in TensorFlow",
    "UpdatedAt": "2020-12-14T22:07:12Z",
    "WithdrawnAt": ""
  },
  "Versions": [
    {
      "FirstPatchedVersion": {
        "Identifier": "2.3.2"
      },
      "VulnerableVersionRange": "\u003e= 2.3.0, \u003c 2.3.2"
    },
    {
      "FirstPatchedVersion": {
        "Identifier": "2.2.2"
      },
      "VulnerableVersionRange": "\u003e= 2.2.0, \u003c 2.2.2"
    },
    {
      "FirstPatchedVersion": {
        "Identifier": "2.1.3"
      },
      "VulnerableVersionRange": "\u003e= 2.1.0, \u003c 2.1.3"
    },
    {
      "FirstPatchedVersion": {
        "Identifier": "2.0.4"
      },
      "VulnerableVersionRange": "\u003e= 2.0.0, \u003c 2.0.4"
    },
    {
      "FirstPatchedVersion": {
        "Identifier": "1.15.5"
      },
      "VulnerableVersionRange": "\u003c 1.15.5"
    }
  ]
}